{
	"credit": "Made with Blockbench",
	"texture_size": [32, 32],
	"textures": {
		"0": "ava:item/gun_textures/lens",
		"1": "ava:item/gun_textures/palette_xplorer",
		"particle": "ava:item/gun_textures/lens"
	},
	"elements": [
		{
			"name": "lens",
			"from": [7.3875, 10.7, 13.51094],
			"to": [8.6125, 11.68594, 13.69844],
			"rotation": {"angle": 0, "axis": "y", "origin": [15.00781, 19, 22]},
			"faces": {
				"north": {"uv": [0, 1, 16, 15], "texture": "#0"},
				"south": {"uv": [0, 1, 16, 15], "texture": "#0"}
			}
		},
		{
			"name": "hexadecagon",
			"from": [7.7582, 9.13589, -0.194],
			"to": [8.2418, 9.45989, 1.184],
			"rotation": {"angle": 0, "axis": "y", "origin": [8.1215, 8.76869, -0.482]},
			"faces": {
				"east": {"uv": [0.5625, 0.84375, 0.5625, 0.84375], "texture": "#1"},
				"west": {"uv": [0.5625, 0.84375, 0.5625, 0.84375], "texture": "#1"},
				"up": {"uv": [0.5625, 0.84375, 0.5625, 0.84375], "texture": "#1"},
				"down": {"uv": [0.5625, 0.84375, 0.5625, 0.84375], "texture": "#1"}
			}
		},
		{
			"name": "hexadecagon",
			"from": [7.8122, 9.45989, -0.194],
			"to": [8.1878, 9.53189, 1.184],
			"rotation": {"angle": 0, "axis": "y", "origin": [8.1755, 8.76869, -0.482]},
			"faces": {
				"east": {"uv": [0.5625, 0.84375, 0.5625, 0.84375], "texture": "#1"},
				"west": {"uv": [0.5625, 0.84375, 0.5625, 0.84375], "texture": "#1"},
				"up": {"uv": [0.5625, 0.84375, 0.5625, 0.84375], "texture": "#1"}
			}
		},
		{
			"name": "hexadecagon",
			"from": [7.6637, 9.09989, -0.32],
			"to": [8.3363, 10.67189, -0.194],
			"rotation": {"angle": 0, "axis": "y", "origin": [8.027, 8.76869, -0.482]},
			"faces": {
				"north": {"uv": [0.5625, 0.84375, 0.5625, 0.84375], "texture": "#1"},
				"east": {"uv": [0.5625, 0.84375, 0.5625, 0.84375], "texture": "#1"},
				"south": {"uv": [0.5625, 0.84375, 0.5625, 0.84375], "texture": "#1"},
				"west": {"uv": [0.5625, 0.84375, 0.5625, 0.84375], "texture": "#1"},
				"down": {"uv": [0.5625, 0.84375, 0.5625, 0.84375], "texture": "#1"}
			}
		},
		{
			"name": "hexadecagon",
			"from": [7.6637, 9.04589, 1.184],
			"to": [8.3363, 9.91589, 1.31],
			"rotation": {"angle": 0, "axis": "y", "origin": [8.027, 8.71469, 1.372]},
			"faces": {
				"north": {"uv": [0.5625, 0.84375, 0.5625, 0.84375], "texture": "#1"},
				"east": {"uv": [0.5625, 0.84375, 0.5625, 0.84375], "texture": "#1"},
				"south": {"uv": [0.5625, 0.84375, 0.5625, 0.84375], "texture": "#1"},
				"west": {"uv": [0.5625, 0.84375, 0.5625, 0.84375], "texture": "#1"},
				"up": {"uv": [0.5625, 0.84375, 0.5625, 0.84375], "texture": "#1"}
			}
		},
		{
			"name": "hexadecagon",
			"from": [7.8122, 9.47789, -0.176],
			"to": [8.1878, 9.80189, -0.05],
			"rotation": {"angle": -22.5, "axis": "x", "origin": [8, 9.63989, -0.131]},
			"faces": {
				"east": {"uv": [0.5625, 0.84375, 0.5625, 0.84375], "texture": "#1"},
				"south": {"uv": [0.5625, 0.84375, 0.5625, 0.84375], "texture": "#1"},
				"west": {"uv": [0.5625, 0.84375, 0.5625, 0.84375], "texture": "#1"},
				"up": {"uv": [0.5625, 0.84375, 0.5625, 0.84375], "texture": "#1"}
			}
		},
		{
			"name": "hexadecagon",
			"from": [7.8122, 9.53189, -0.194],
			"to": [8.1878, 10.19589, -0.122],
			"rotation": {"angle": 0, "axis": "y", "origin": [8.1755, 8.84069, -0.482]},
			"faces": {
				"east": {"uv": [0.5625, 0.84375, 0.5625, 0.84375], "texture": "#1"},
				"south": {"uv": [0.5625, 0.84375, 0.5625, 0.84375], "texture": "#1"},
				"west": {"uv": [0.5625, 0.84375, 0.5625, 0.84375], "texture": "#1"}
			}
		},
		{
			"name": "hexadecagon",
			"from": [7.6637, 10.64589, -0.32],
			"to": [8.3363, 10.95189, 0.256],
			"rotation": {"angle": 0, "axis": "y", "origin": [8, 10.98789, -0.257]},
			"faces": {
				"north": {"uv": [0.5625, 0.84375, 0.5625, 0.84375], "texture": "#1"},
				"east": {"uv": [0.5625, 0.84375, 0.5625, 0.84375], "texture": "#1"},
				"south": {"uv": [0.5625, 0.84375, 0.5625, 0.84375], "texture": "#1"},
				"west": {"uv": [0.5625, 0.84375, 0.5625, 0.84375], "texture": "#1"},
				"down": {"uv": [0.5625, 0.84375, 0.5625, 0.84375], "texture": "#1"}
			}
		},
		{
			"name": "hexadecagon",
			"from": [7.6637, 10.64589, 0.256],
			"to": [8.3363, 10.77189, 0.4],
			"rotation": {"angle": 0, "axis": "y", "origin": [8, 10.98789, 0.319]},
			"faces": {
				"east": {"uv": [0.5625, 0.84375, 0.5625, 0.84375], "texture": "#1"},
				"west": {"uv": [0.5625, 0.84375, 0.5625, 0.84375], "texture": "#1"},
				"up": {"uv": [0.5625, 0.84375, 0.5625, 0.84375], "texture": "#1"},
				"down": {"uv": [0.5625, 0.84375, 0.5625, 0.84375], "texture": "#1"}
			}
		},
		{
			"name": "hexadecagon",
			"from": [7.6637, 10.95189, -0.32],
			"to": [8.3363, 11.02389, 0.202],
			"rotation": {"angle": 0, "axis": "y", "origin": [8, 11.16789, -0.257]},
			"faces": {
				"north": {"uv": [0.5625, 0.84375, 0.5625, 0.84375], "texture": "#1"},
				"east": {"uv": [0.5625, 0.84375, 0.5625, 0.84375], "texture": "#1"},
				"south": {"uv": [0.5625, 0.84375, 0.5625, 0.84375], "texture": "#1"},
				"west": {"uv": [0.5625, 0.84375, 0.5625, 0.84375], "texture": "#1"},
				"up": {"uv": [0.5625, 0.84375, 0.5625, 0.84375], "texture": "#1"}
			}
		},
		{
			"name": "hexadecagon",
			"from": [7.6637, 9.90389, 1.264],
			"to": [8.3363, 11.45589, 1.39],
			"rotation": {"angle": -45, "axis": "x", "origin": [8, 9.79989, 1.327]},
			"faces": {
				"north": {"uv": [0.5625, 0.84375, 0.5625, 0.84375], "texture": "#1"},
				"east": {"uv": [0.5625, 0.84375, 0.5625, 0.84375], "texture": "#1"},
				"south": {"uv": [0.5625, 0.84375, 0.5625, 0.84375], "texture": "#1"},
				"west": {"uv": [0.5625, 0.84375, 0.5625, 0.84375], "texture": "#1"},
				"down": {"uv": [0.5625, 0.84375, 0.5625, 0.84375], "texture": "#1"}
			}
		},
		{
			"name": "octagon",
			"from": [8.2484, 10.83126, -0.2984],
			"to": [8.3456, 11.05813, -0.07261],
			"rotation": {"angle": 45, "axis": "x", "origin": [8, 10.96269, -0.068]},
			"faces": {
				"north": {"uv": [0.5625, 0.84375, 0.5625, 0.84375], "texture": "#1"},
				"east": {"uv": [0.5625, 0.84375, 0.5625, 0.84375], "texture": "#1"},
				"south": {"uv": [0.5625, 0.84375, 0.5625, 0.84375], "texture": "#1"},
				"west": {"uv": [0.5625, 0.84375, 0.5625, 0.84375], "texture": "#1"},
				"down": {"uv": [0.5625, 0.84375, 0.5625, 0.84375], "texture": "#1"}
			}
		},
		{
			"name": "octagon",
			"from": [8.2484, 10.9673, -0.16344],
			"to": [8.3456, 11.19309, 0.08144],
			"rotation": {"angle": 45, "axis": "x", "origin": [8, 10.96269, -0.068]},
			"faces": {
				"east": {"uv": [0.5625, 0.84375, 0.5625, 0.84375], "texture": "#1"},
				"south": {"uv": [0.5625, 0.84375, 0.5625, 0.84375], "texture": "#1"},
				"west": {"uv": [0.5625, 0.84375, 0.5625, 0.84375], "texture": "#1"},
				"up": {"uv": [0.5625, 0.84375, 0.5625, 0.84375], "texture": "#1"},
				"down": {"uv": [0.5625, 0.84375, 0.5625, 0.84375], "texture": "#1"}
			}
		},
		{
			"name": "octagon",
			"from": [8.2484, 10.9673, -0.16344],
			"to": [8.3456, 11.19309, 0.02744],
			"rotation": {"angle": 0, "axis": "y", "origin": [8, 10.96269, -0.068]},
			"faces": {
				"east": {"uv": [0.5625, 0.84375, 0.5625, 0.84375], "texture": "#1"},
				"west": {"uv": [0.5625, 0.84375, 0.5625, 0.84375], "texture": "#1"},
				"up": {"uv": [0.5625, 0.84375, 0.5625, 0.84375], "texture": "#1"},
				"down": {"uv": [0.5625, 0.84375, 0.5625, 0.84375], "texture": "#1"}
			}
		},
		{
			"name": "octagon",
			"from": [7.9784, 10.9673, -0.00144],
			"to": [8.0216, 11.19309, 0.08144],
			"rotation": {"angle": 0, "axis": "y", "origin": [7.73, 10.96269, -0.014]},
			"faces": {
				"north": {"uv": [0.5625, 0.84375, 0.5625, 0.84375], "texture": "#1"},
				"east": {"uv": [0.5625, 0.84375, 0.5625, 0.84375], "texture": "#1"},
				"south": {"uv": [0.5625, 0.84375, 0.5625, 0.84375], "texture": "#1"},
				"west": {"uv": [0.5625, 0.84375, 0.5625, 0.84375], "texture": "#1"},
				"up": {"uv": [0.5625, 0.84375, 0.5625, 0.84375], "texture": "#1"}
			}
		},
		{
			"name": "octagon",
			"from": [7.6544, 10.83126, -0.3164],
			"to": [7.7516, 11.05813, -0.07261],
			"rotation": {"angle": 45, "axis": "x", "origin": [7.406, 10.96269, -0.086]},
			"faces": {
				"north": {"uv": [0.5625, 0.84375, 0.5625, 0.84375], "texture": "#1"},
				"east": {"uv": [0.5625, 0.84375, 0.5625, 0.84375], "texture": "#1"},
				"south": {"uv": [0.5625, 0.84375, 0.5625, 0.84375], "texture": "#1"},
				"west": {"uv": [0.5625, 0.84375, 0.5625, 0.84375], "texture": "#1"},
				"down": {"uv": [0.5625, 0.84375, 0.5625, 0.84375], "texture": "#1"}
			}
		},
		{
			"name": "octagon",
			"from": [7.6544, 10.9673, -0.18144],
			"to": [7.7516, 11.19309, 0.02744],
			"rotation": {"angle": 0, "axis": "y", "origin": [7.406, 10.96269, -0.086]},
			"faces": {
				"east": {"uv": [0.5625, 0.84375, 0.5625, 0.84375], "texture": "#1"},
				"west": {"uv": [0.5625, 0.84375, 0.5625, 0.84375], "texture": "#1"},
				"up": {"uv": [0.5625, 0.84375, 0.5625, 0.84375], "texture": "#1"}
			}
		},
		{
			"name": "octagon",
			"from": [7.6544, 10.9673, -0.16344],
			"to": [7.7516, 11.19309, 0.08144],
			"rotation": {"angle": 45, "axis": "x", "origin": [7.406, 10.96269, -0.068]},
			"faces": {
				"east": {"uv": [0.5625, 0.84375, 0.5625, 0.84375], "texture": "#1"},
				"south": {"uv": [0.5625, 0.84375, 0.5625, 0.84375], "texture": "#1"},
				"west": {"uv": [0.5625, 0.84375, 0.5625, 0.84375], "texture": "#1"},
				"up": {"uv": [0.5625, 0.84375, 0.5625, 0.84375], "texture": "#1"},
				"down": {"uv": [0.5625, 0.84375, 0.5625, 0.84375], "texture": "#1"}
			}
		},
		{
			"name": "hexadecagon",
			"from": [7.7312, 10.26789, -0.194],
			"to": [8.2688, 10.64589, 0.076],
			"rotation": {"angle": 0, "axis": "y", "origin": [8.0945, 9.43269, -0.482]},
			"faces": {
				"east": {"uv": [0.5625, 0.84375, 0.5625, 0.84375], "texture": "#1"},
				"south": {"uv": [0.5625, 0.84375, 0.5625, 0.84375], "texture": "#1"},
				"west": {"uv": [0.5625, 0.84375, 0.5625, 0.84375], "texture": "#1"}
			}
		},
		{
			"name": "hexadecagon",
			"from": [7.7312, 10.19589, -0.194],
			"to": [8.2688, 10.26789, 0.004],
			"rotation": {"angle": 0, "axis": "y", "origin": [8.0945, 9.34269, -0.482]},
			"faces": {
				"east": {"uv": [0.5625, 0.84375, 0.5625, 0.84375], "texture": "#1"},
				"west": {"uv": [0.5625, 0.84375, 0.5625, 0.84375], "texture": "#1"},
				"down": {"uv": [0.5625, 0.84375, 0.5625, 0.84375], "texture": "#1"}
			}
		},
		{
			"name": "hexadecagon",
			"from": [7.7312, 10.19949, -0.032],
			"to": [8.2688, 10.30749, 0.04],
			"rotation": {"angle": 45, "axis": "x", "origin": [8, 10.24269, 0.013]},
			"faces": {
				"east": {"uv": [0.5625, 0.84375, 0.5625, 0.84375], "texture": "#1"},
				"south": {"uv": [0.5625, 0.84375, 0.5625, 0.84375], "texture": "#1"},
				"west": {"uv": [0.5625, 0.84375, 0.5625, 0.84375], "texture": "#1"},
				"up": {"uv": [0.5625, 0.84375, 0.5625, 0.84375], "texture": "#1"},
				"down": {"uv": [0.5625, 0.84375, 0.5625, 0.84375], "texture": "#1"}
			}
		}
	],
	"groups": [
		0,
		{
			"name": "sight front",
			"origin": [8, 8, -1.925],
			"color": 0,
			"children": [
				1,
				2,
				3,
				4,
				5,
				6,
				{
					"name": "group",
					"origin": [8, 8.7161, 4.1565],
					"color": 0,
					"children": [7, 8, 9, 10, 11, 12, 13, 14, 15, 16, 17, 18, 19, 20]
				}
			]
		}
	]
}