{
	"credit": "Made with Blockbench",
	"textures": {
		"0": "ava:item/gun_textures/palette_black",
		"particle": "ava:item/gun_textures/palette_black"
	},
	"elements": [
		{
			"name": "hexadecagon",
			"from": [7.91157, 7.63657, 4.66445],
			"to": [8.2771, 8.01241, 7.92016],
			"rotation": {"angle": 0, "axis": "z", "origin": [8.22461, 8.02734, 4.33594]},
			"faces": {
				"north": {"uv": [6.40625, 0.625, 6.40625, 0.625], "texture": "#0"},
				"east": {"uv": [6.40625, 0.625, 6.40625, 0.625], "texture": "#0"},
				"south": {"uv": [6.40625, 0.625, 6.40625, 0.625], "texture": "#0"},
				"west": {"uv": [6.40625, 0.625, 6.40625, 0.625], "texture": "#0"},
				"up": {"uv": [6.40625, 0.625, 6.40625, 0.625], "texture": "#0"},
				"down": {"uv": [6.40625, 0.625, 6.40625, 0.625], "texture": "#0"}
			}
		},
		{
			"name": "hexadecagon",
			"from": [7.91157, 7.42177, 6.75685],
			"to": [8.2771, 7.72537, 7.92113],
			"rotation": {"angle": 0, "axis": "x", "origin": [7.99351, 7.52599, 6.92211]},
			"faces": {
				"north": {"uv": [6.40625, 0.625, 6.40625, 0.625], "texture": "#0"},
				"east": {"uv": [6.40625, 0.625, 6.40625, 0.625], "texture": "#0"},
				"south": {"uv": [6.40625, 0.625, 6.40625, 0.625], "texture": "#0"},
				"west": {"uv": [6.40625, 0.625, 6.40625, 0.625], "texture": "#0"},
				"up": {"uv": [6.40625, 0.625, 6.40625, 0.625], "texture": "#0"},
				"down": {"uv": [6.40625, 0.625, 6.40625, 0.625], "texture": "#0"}
			}
		},
		{
			"name": "hexadecagon",
			"from": [7.81075, 7.42177, 7.92138],
			"to": [8.37792, 8.00631, 10.83246],
			"rotation": {"angle": 0, "axis": "x", "origin": [7.98785, 7.52599, 8.08664]},
			"faces": {
				"north": {"uv": [6.40625, 0.625, 6.40625, 0.625], "texture": "#0"},
				"east": {"uv": [6.40625, 0.625, 6.40625, 0.625], "texture": "#0"},
				"south": {"uv": [6.40625, 0.625, 6.40625, 0.625], "texture": "#0"},
				"west": {"uv": [6.40625, 0.625, 6.40625, 0.625], "texture": "#0"},
				"up": {"uv": [6.40625, 0.625, 6.40625, 0.625], "texture": "#0"},
				"down": {"uv": [6.40625, 0.625, 6.40625, 0.625], "texture": "#0"}
			}
		},
		{
			"name": "hexadecagon",
			"from": [7.81075, 6.92913, 10.20614],
			"to": [8.37792, 7.55419, 10.82919],
			"rotation": {"angle": 22.5, "axis": "x", "origin": [8.09434, 7.48295, 10.4984]},
			"faces": {
				"east": {"uv": [6.40625, 0.625, 6.40625, 0.625], "texture": "#0"},
				"south": {"uv": [6.40625, 0.625, 6.40625, 0.625], "texture": "#0"},
				"west": {"uv": [6.40625, 0.625, 6.40625, 0.625], "texture": "#0"}
			}
		},
		{
			"name": "hexadecagon",
			"from": [7.9195, 7.25639, 8.42208],
			"to": [8.26917, 7.50334, 8.69371],
			"rotation": {"angle": 22.5, "axis": "x", "origin": [8.09434, 7.37986, 8.83996]},
			"faces": {
				"east": {"uv": [6.40625, 0.625, 6.40625, 0.625], "texture": "#0"},
				"south": {"uv": [6.40625, 0.625, 6.40625, 0.625], "texture": "#0"},
				"west": {"uv": [6.40625, 0.625, 6.40625, 0.625], "texture": "#0"},
				"down": {"uv": [6.40625, 0.625, 6.40625, 0.625], "texture": "#0"}
			}
		},
		{
			"name": "hexadecagon",
			"from": [7.9195, 7.21119, 8.66125],
			"to": [8.26917, 7.45815, 8.83545],
			"rotation": {"angle": 45, "axis": "x", "origin": [8.09434, 7.33467, 8.82425]},
			"faces": {
				"east": {"uv": [6.40625, 0.625, 6.40625, 0.625], "texture": "#0"},
				"west": {"uv": [6.40625, 0.625, 6.40625, 0.625], "texture": "#0"},
				"down": {"uv": [6.40625, 0.625, 6.40625, 0.625], "texture": "#0"}
			}
		},
		{
			"name": "hexadecagon",
			"from": [7.9195, 6.92061, 8.76718],
			"to": [8.26917, 7.39841, 9.01413],
			"rotation": {"angle": -22.5, "axis": "x", "origin": [8.09434, 7.20709, 8.89066]},
			"faces": {
				"north": {"uv": [6.40625, 0.625, 6.40625, 0.625], "texture": "#0"},
				"east": {"uv": [6.40625, 0.625, 6.40625, 0.625], "texture": "#0"},
				"south": {"uv": [6.40625, 0.625, 6.40625, 0.625], "texture": "#0"},
				"west": {"uv": [6.40625, 0.625, 6.40625, 0.625], "texture": "#0"}
			}
		},
		{
			"name": "hexadecagon",
			"from": [7.9195, 6.1192, 8.86611],
			"to": [8.26917, 7.42169, 9.11306],
			"rotation": {"angle": 0, "axis": "x", "origin": [8.09434, 6.92451, 8.98958]},
			"faces": {
				"north": {"uv": [6.40625, 0.625, 6.40625, 0.625], "texture": "#0"},
				"east": {"uv": [6.40625, 0.625, 6.40625, 0.625], "texture": "#0"},
				"west": {"uv": [6.40625, 0.625, 6.40625, 0.625], "texture": "#0"},
				"up": {"uv": [6.40625, 0.625, 6.40625, 0.625], "texture": "#0"},
				"down": {"uv": [6.40625, 0.625, 6.40625, 0.625], "texture": "#0"}
			}
		},
		{
			"name": "hexadecagon",
			"from": [7.9195, 6.34583, 6.98295],
			"to": [8.26917, 7.42854, 7.14834],
			"rotation": {"angle": 0, "axis": "x", "origin": [8.09434, 7.01293, 7.07244]},
			"faces": {
				"north": {"uv": [6.40625, 0.71875, 6.40625, 0.71875], "texture": "#0"},
				"east": {"uv": [6.40625, 0.71875, 6.40625, 0.71875], "texture": "#0"},
				"south": {"uv": [6.40625, 0.71875, 6.40625, 0.71875], "texture": "#0"},
				"west": {"uv": [6.40625, 0.71875, 6.40625, 0.71875], "texture": "#0"},
				"up": {"uv": [6.40625, 0.71875, 6.40625, 0.71875], "texture": "#0"},
				"down": {"uv": [6.40625, 0.71875, 6.40625, 0.71875], "texture": "#0"}
			}
		},
		{
			"name": "hexadecagon",
			"from": [7.9195, 6.26257, 6.98647],
			"to": [8.26917, 6.34866, 8.86668],
			"rotation": {"angle": 0, "axis": "x", "origin": [8.09434, 6.33394, 8.77618]},
			"faces": {
				"north": {"uv": [6.40625, 0.71875, 6.40625, 0.71875], "texture": "#0"},
				"east": {"uv": [6.40625, 0.71875, 6.40625, 0.71875], "texture": "#0"},
				"west": {"uv": [6.40625, 0.71875, 6.40625, 0.71875], "texture": "#0"},
				"up": {"uv": [6.40625, 0.71875, 6.40625, 0.71875], "texture": "#0"}
			}
		},
		{
			"name": "hexadecagon",
			"from": [8.02825, 6.84755, 7.98701],
			"to": [8.16042, 7.42302, 8.17481],
			"rotation": {"angle": 0, "axis": "x", "origin": [8.00824, 7.50685, 8.329]},
			"faces": {
				"north": {"uv": [6.40625, 0.59375, 6.40625, 0.59375], "texture": "#0"},
				"east": {"uv": [6.40625, 0.59375, 6.40625, 0.59375], "texture": "#0"},
				"south": {"uv": [6.40625, 0.59375, 6.40625, 0.59375], "texture": "#0"},
				"west": {"uv": [6.40625, 0.59375, 6.40625, 0.59375], "texture": "#0"},
				"down": {"uv": [6.40625, 0.59375, 6.40625, 0.59375], "texture": "#0"}
			}
		},
		{
			"name": "hexadecagon",
			"from": [8.02825, 6.44062, 7.75359],
			"to": [8.16042, 6.95718, 7.89154],
			"rotation": {"angle": 45, "axis": "x", "origin": [8.09434, 6.56183, 7.90186]},
			"faces": {
				"north": {"uv": [6.40625, 0.59375, 6.40625, 0.59375], "texture": "#0"},
				"east": {"uv": [6.40625, 0.59375, 6.40625, 0.59375], "texture": "#0"},
				"south": {"uv": [6.40625, 0.59375, 6.40625, 0.59375], "texture": "#0"},
				"west": {"uv": [6.40625, 0.59375, 6.40625, 0.59375], "texture": "#0"},
				"down": {"uv": [6.40625, 0.59375, 6.40625, 0.59375], "texture": "#0"}
			}
		},
		{
			"name": "hexadecagon",
			"from": [7.83567, 7.42177, 7.82849],
			"to": [7.98949, 8.00857, 7.9823],
			"rotation": {"angle": 45, "axis": "y", "origin": [7.93348, 7.71517, 7.90539]},
			"faces": {
				"north": {"uv": [6.40625, 0.625, 6.40625, 0.625], "texture": "#0"},
				"east": {"uv": [6.40625, 0.625, 6.40625, 0.625], "texture": "#0"},
				"south": {"uv": [6.40625, 0.625, 6.40625, 0.625], "texture": "#0"},
				"west": {"uv": [6.40625, 0.625, 6.40625, 0.625], "texture": "#0"},
				"up": {"uv": [6.40625, 0.625, 6.40625, 0.625], "texture": "#0"},
				"down": {"uv": [6.40625, 0.625, 6.40625, 0.625], "texture": "#0"}
			}
		},
		{
			"name": "hexadecagon",
			"from": [8.19918, 7.42177, 7.82849],
			"to": [8.353, 8.00857, 7.9823],
			"rotation": {"angle": -45, "axis": "y", "origin": [8.25519, 7.71517, 7.90539]},
			"faces": {
				"north": {"uv": [6.40625, 0.625, 6.40625, 0.625], "texture": "#0"},
				"east": {"uv": [6.40625, 0.625, 6.40625, 0.625], "texture": "#0"},
				"south": {"uv": [6.40625, 0.625, 6.40625, 0.625], "texture": "#0"},
				"west": {"uv": [6.40625, 0.625, 6.40625, 0.625], "texture": "#0"},
				"up": {"uv": [6.40625, 0.625, 6.40625, 0.625], "texture": "#0"},
				"down": {"uv": [6.40625, 0.625, 6.40625, 0.625], "texture": "#0"}
			}
		},
		{
			"name": "hexadecagon",
			"from": [7.92341, 8.0552, 4.15469],
			"to": [8.26526, 8.10581, 4.60555],
			"rotation": {"angle": 0, "axis": "z", "origin": [8.23594, 8.0805, 4.42883]},
			"faces": {
				"north": {"uv": [6.4375, 0.6875, 6.4375, 0.6875], "rotation": 270, "texture": "#0"},
				"east": {"uv": [6.4375, 0.6875, 6.4375, 0.6875], "rotation": 270, "texture": "#0"},
				"west": {"uv": [6.4375, 0.6875, 6.4375, 0.6875], "rotation": 270, "texture": "#0"},
				"up": {"uv": [6.4375, 0.6875, 6.4375, 0.6875], "rotation": 270, "texture": "#0"},
				"down": {"uv": [6.4375, 0.6875, 6.4375, 0.6875], "rotation": 270, "texture": "#0"}
			}
		},
		{
			"name": "hexadecagon",
			"from": [7.937, 7.74027, 4.15469],
			"to": [8.25167, 8.05596, 4.70297],
			"rotation": {"angle": 0, "axis": "z", "origin": [8.33336, 8.03066, 4.42883]},
			"faces": {
				"north": {"uv": [6.40625, 0.65625, 6.40625, 0.65625], "texture": "#0"},
				"east": {"uv": [6.40625, 0.65625, 6.40625, 0.65625], "texture": "#0"},
				"west": {"uv": [6.40625, 0.65625, 6.40625, 0.65625], "texture": "#0"},
				"down": {"uv": [6.40625, 0.65625, 6.40625, 0.65625], "texture": "#0"}
			}
		},
		{
			"name": "hexadecagon",
			"from": [7.98994, 7.79607, 4.08445],
			"to": [8.19874, 8.00487, 4.15469],
			"rotation": {"angle": 0, "axis": "z", "origin": [8.0107, 7.90047, 4.14109]},
			"faces": {
				"north": {"uv": [6.40625, 0.5625, 6.40625, 0.5625], "texture": "#0"},
				"east": {"uv": [6.40625, 0.5625, 6.40625, 0.5625], "texture": "#0"},
				"south": {"uv": [6.40625, 0.5625, 6.40625, 0.5625], "texture": "#0"},
				"west": {"uv": [6.40625, 0.5625, 6.40625, 0.5625], "texture": "#0"},
				"up": {"uv": [6.40625, 0.5625, 6.40625, 0.5625], "texture": "#0"},
				"down": {"uv": [6.40625, 0.5625, 6.40625, 0.5625], "texture": "#0"}
			}
		},
		{
			"name": "92fs_1",
			"from": [7.76261, 6.01203, 9.05374],
			"to": [8.42606, 7.41976, 10.48987],
			"rotation": {"angle": 0, "axis": "x", "origin": [8.09434, 5.84476, 9.7718]},
			"faces": {
				"north": {"uv": [6.4375, 0.71875, 6.4375, 0.71875], "texture": "#0"},
				"east": {"uv": [6.4375, 0.71875, 6.4375, 0.71875], "texture": "#0"},
				"south": {"uv": [6.4375, 0.71875, 6.4375, 0.71875], "texture": "#0"},
				"west": {"uv": [6.4375, 0.71875, 6.4375, 0.71875], "texture": "#0"},
				"up": {"uv": [6.4375, 0.71875, 6.4375, 0.71875], "texture": "#0"},
				"down": {"uv": [6.4375, 0.71875, 6.4375, 0.71875], "texture": "#0"}
			}
		},
		{
			"name": "92fs_2",
			"from": [7.76261, 4.71156, 9.12851],
			"to": [8.42606, 6.45233, 10.67112],
			"rotation": {"angle": -22.5, "axis": "x", "origin": [8.09434, 6.10644, 9.7718]},
			"faces": {
				"north": {"uv": [6.4375, 0.71875, 6.4375, 0.71875], "texture": "#0"},
				"east": {"uv": [6.4375, 0.71875, 6.4375, 0.71875], "texture": "#0"},
				"south": {"uv": [6.4375, 0.71875, 6.4375, 0.71875], "texture": "#0"},
				"west": {"uv": [6.4375, 0.71875, 6.4375, 0.71875], "texture": "#0"},
				"up": {"uv": [6.4375, 0.71875, 6.4375, 0.71875], "texture": "#0"},
				"down": {"uv": [6.4375, 0.71875, 6.4375, 0.71875], "texture": "#0"}
			}
		},
		{
			"name": "92fs_0",
			"from": [7.83963, 6.56708, 10.14479],
			"to": [8.34904, 7.44321, 10.80933],
			"rotation": {"angle": 22.5, "axis": "x", "origin": [8.09432, 6.92018, 10.59373]},
			"faces": {
				"east": {"uv": [6.4375, 0.6875, 6.4375, 0.6875], "texture": "#0"},
				"south": {"uv": [6.4375, 0.6875, 6.4375, 0.6875], "texture": "#0"},
				"west": {"uv": [6.4375, 0.6875, 6.4375, 0.6875], "texture": "#0"}
			}
		},
		{
			"name": "92fs_1",
			"from": [7.83963, 7.14619, 10.1859],
			"to": [8.34904, 7.54654, 11.21067],
			"rotation": {"angle": 45, "axis": "x", "origin": [8.09432, 7.59445, 10.99508]},
			"faces": {
				"north": {"uv": [6.4375, 0.6875, 6.4375, 0.6875], "texture": "#0"},
				"east": {"uv": [6.4375, 0.6875, 6.4375, 0.6875], "texture": "#0"},
				"south": {"uv": [6.4375, 0.6875, 6.4375, 0.6875], "texture": "#0"},
				"west": {"uv": [6.4375, 0.6875, 6.4375, 0.6875], "texture": "#0"}
			}
		},
		{
			"name": "92fs_2",
			"from": [7.83963, 7.4876, 10.61252],
			"to": [8.34904, 8.58035, 11.07405],
			"rotation": {"angle": -22.5, "axis": "x", "origin": [8.09432, 7.7032, 11.26922]},
			"faces": {
				"east": {"uv": [6.4375, 0.6875, 6.4375, 0.6875], "rotation": 270, "texture": "#0"},
				"south": {"uv": [6.4375, 0.6875, 6.4375, 0.6875], "rotation": 270, "texture": "#0"},
				"west": {"uv": [6.4375, 0.6875, 6.4375, 0.6875], "rotation": 270, "texture": "#0"},
				"up": {"uv": [6.4375, 0.6875, 6.4375, 0.6875], "rotation": 270, "texture": "#0"},
				"down": {"uv": [6.4375, 0.6875, 6.4375, 0.6875], "rotation": 270, "texture": "#0"}
			}
		},
		{
			"name": "93fs_3",
			"from": [8.03221, 7.87913, 10.67642],
			"to": [8.15647, 8.4772, 11.03016],
			"rotation": {"angle": 22.5, "axis": "x", "origin": [8.09434, 8.15143, 10.89874]},
			"faces": {
				"north": {"uv": [6.4375, 0.6875, 6.4375, 0.6875], "texture": "#0"},
				"east": {"uv": [6.4375, 0.6875, 6.4375, 0.6875], "texture": "#0"},
				"south": {"uv": [6.4375, 0.6875, 6.4375, 0.6875], "texture": "#0"},
				"west": {"uv": [6.4375, 0.6875, 6.4375, 0.6875], "texture": "#0"},
				"up": {"uv": [6.4375, 0.6875, 6.4375, 0.6875], "texture": "#0"}
			}
		},
		{
			"name": "93fs_3",
			"from": [7.89174, 8.32135, 10.17979],
			"to": [8.29694, 8.79332, 10.6028],
			"rotation": {"angle": -22.5, "axis": "x", "origin": [8.08979, 8.53695, 10.83649]},
			"faces": {
				"east": {"uv": [6.4375, 0.6875, 6.4375, 0.6875], "rotation": 270, "texture": "#0"},
				"south": {"uv": [6.4375, 0.6875, 6.4375, 0.6875], "rotation": 270, "texture": "#0"},
				"west": {"uv": [6.4375, 0.6875, 6.4375, 0.6875], "rotation": 270, "texture": "#0"},
				"up": {"uv": [6.4375, 0.6875, 6.4375, 0.6875], "rotation": 270, "texture": "#0"}
			}
		},
		{
			"name": "94fs_4",
			"from": [7.92233, 8.52779, 10.17189],
			"to": [8.26635, 8.70523, 10.5949],
			"rotation": {"angle": -45, "axis": "x", "origin": [8.09774, 8.48963, 10.38339]},
			"faces": {
				"east": {"uv": [6.4375, 0.6875, 6.4375, 0.6875], "rotation": 270, "texture": "#0"},
				"south": {"uv": [6.4375, 0.6875, 6.4375, 0.6875], "rotation": 270, "texture": "#0"},
				"west": {"uv": [6.4375, 0.6875, 6.4375, 0.6875], "rotation": 270, "texture": "#0"},
				"up": {"uv": [6.4375, 0.6875, 6.4375, 0.6875], "rotation": 270, "texture": "#0"}
			}
		},
		{
			"name": "93fs_3",
			"from": [7.83963, 7.42922, 11.00375],
			"to": [8.34904, 7.5704, 11.56269],
			"rotation": {"angle": 0, "axis": "x", "origin": [8.09432, 7.62782, 11.13029]},
			"faces": {
				"east": {"uv": [6.4375, 0.6875, 6.4375, 0.6875], "rotation": 270, "texture": "#0"},
				"south": {"uv": [6.4375, 0.6875, 6.4375, 0.6875], "rotation": 270, "texture": "#0"},
				"west": {"uv": [6.4375, 0.6875, 6.4375, 0.6875], "rotation": 270, "texture": "#0"},
				"up": {"uv": [6.4375, 0.6875, 6.4375, 0.6875], "rotation": 270, "texture": "#0"},
				"down": {"uv": [6.4375, 0.6875, 6.4375, 0.6875], "rotation": 270, "texture": "#0"}
			}
		},
		{
			"name": "92fs_2",
			"from": [7.73883, 5.96629, 9.24565],
			"to": [8.44985, 7.09429, 10.39456],
			"rotation": {"angle": 0, "axis": "x", "origin": [8.44347, 5.44806, 10.4211]},
			"faces": {
				"north": {"uv": [6.4375, 0.78125, 6.4375, 0.78125], "texture": "#0"},
				"east": {"uv": [6.4375, 0.78125, 6.4375, 0.78125], "texture": "#0"},
				"south": {"uv": [6.4375, 0.78125, 6.4375, 0.78125], "texture": "#0"},
				"west": {"uv": [6.4375, 0.78125, 6.4375, 0.78125], "texture": "#0"},
				"up": {"uv": [6.4375, 0.78125, 6.4375, 0.78125], "texture": "#0"},
				"down": {"uv": [6.4375, 0.78125, 6.4375, 0.78125], "texture": "#0"}
			}
		},
		{
			"name": "93fs_3",
			"from": [7.73883, 4.65979, 10.39456],
			"to": [8.44985, 6.9059, 10.40216],
			"rotation": {"angle": 0, "axis": "x", "origin": [8.44347, 5.44806, 10.4211]},
			"faces": {
				"east": {"uv": [6.4375, 0.78125, 6.4375, 0.78125], "texture": "#0"},
				"south": {"uv": [6.4375, 0.78125, 6.4375, 0.78125], "texture": "#0"},
				"west": {"uv": [6.4375, 0.78125, 6.4375, 0.78125], "texture": "#0"},
				"up": {"uv": [6.4375, 0.78125, 6.4375, 0.78125], "texture": "#0"},
				"down": {"uv": [6.4375, 0.78125, 6.4375, 0.78125], "texture": "#0"}
			}
		},
		{
			"name": "94fs_4",
			"from": [7.73883, 4.65979, 10.40216],
			"to": [8.44985, 6.87906, 10.40977],
			"rotation": {"angle": 0, "axis": "x", "origin": [8.44347, 5.44806, 10.4211]},
			"faces": {
				"east": {"uv": [6.4375, 0.78125, 6.4375, 0.78125], "texture": "#0"},
				"south": {"uv": [6.4375, 0.78125, 6.4375, 0.78125], "texture": "#0"},
				"west": {"uv": [6.4375, 0.78125, 6.4375, 0.78125], "texture": "#0"},
				"up": {"uv": [6.4375, 0.78125, 6.4375, 0.78125], "texture": "#0"},
				"down": {"uv": [6.4375, 0.78125, 6.4375, 0.78125], "texture": "#0"}
			}
		},
		{
			"name": "92fs_5",
			"from": [7.73883, 4.65979, 10.40977],
			"to": [8.44985, 6.85221, 10.41738],
			"rotation": {"angle": 0, "axis": "x", "origin": [8.44347, 5.44806, 10.4211]},
			"faces": {
				"east": {"uv": [6.4375, 0.78125, 6.4375, 0.78125], "texture": "#0"},
				"south": {"uv": [6.4375, 0.78125, 6.4375, 0.78125], "texture": "#0"},
				"west": {"uv": [6.4375, 0.78125, 6.4375, 0.78125], "texture": "#0"},
				"up": {"uv": [6.4375, 0.78125, 6.4375, 0.78125], "texture": "#0"},
				"down": {"uv": [6.4375, 0.78125, 6.4375, 0.78125], "texture": "#0"}
			}
		},
		{
			"name": "92fs_6",
			"from": [7.73883, 4.65979, 10.41738],
			"to": [8.44985, 6.83431, 10.42499],
			"rotation": {"angle": 0, "axis": "x", "origin": [8.44347, 5.44806, 10.4211]},
			"faces": {
				"east": {"uv": [6.4375, 0.78125, 6.4375, 0.78125], "texture": "#0"},
				"south": {"uv": [6.4375, 0.78125, 6.4375, 0.78125], "texture": "#0"},
				"west": {"uv": [6.4375, 0.78125, 6.4375, 0.78125], "texture": "#0"},
				"up": {"uv": [6.4375, 0.78125, 6.4375, 0.78125], "texture": "#0"},
				"down": {"uv": [6.4375, 0.78125, 6.4375, 0.78125], "texture": "#0"}
			}
		},
		{
			"name": "92fs_7",
			"from": [7.73883, 4.65979, 10.42499],
			"to": [8.44985, 6.80747, 10.4326],
			"rotation": {"angle": 0, "axis": "x", "origin": [8.44347, 5.44806, 10.4211]},
			"faces": {
				"east": {"uv": [6.4375, 0.78125, 6.4375, 0.78125], "texture": "#0"},
				"south": {"uv": [6.4375, 0.78125, 6.4375, 0.78125], "texture": "#0"},
				"west": {"uv": [6.4375, 0.78125, 6.4375, 0.78125], "texture": "#0"},
				"up": {"uv": [6.4375, 0.78125, 6.4375, 0.78125], "texture": "#0"},
				"down": {"uv": [6.4375, 0.78125, 6.4375, 0.78125], "texture": "#0"}
			}
		},
		{
			"name": "92fs_8",
			"from": [7.73883, 4.65979, 10.4326],
			"to": [8.44985, 6.78062, 10.44021],
			"rotation": {"angle": 0, "axis": "x", "origin": [8.44347, 5.44806, 10.4211]},
			"faces": {
				"east": {"uv": [6.4375, 0.78125, 6.4375, 0.78125], "texture": "#0"},
				"south": {"uv": [6.4375, 0.78125, 6.4375, 0.78125], "texture": "#0"},
				"west": {"uv": [6.4375, 0.78125, 6.4375, 0.78125], "texture": "#0"},
				"up": {"uv": [6.4375, 0.78125, 6.4375, 0.78125], "texture": "#0"},
				"down": {"uv": [6.4375, 0.78125, 6.4375, 0.78125], "texture": "#0"}
			}
		},
		{
			"name": "92fs_9",
			"from": [7.73883, 4.65979, 10.44021],
			"to": [8.44985, 6.75378, 10.44781],
			"rotation": {"angle": 0, "axis": "x", "origin": [8.44347, 5.44806, 10.4211]},
			"faces": {
				"east": {"uv": [6.4375, 0.78125, 6.4375, 0.78125], "texture": "#0"},
				"south": {"uv": [6.4375, 0.78125, 6.4375, 0.78125], "texture": "#0"},
				"west": {"uv": [6.4375, 0.78125, 6.4375, 0.78125], "texture": "#0"},
				"up": {"uv": [6.4375, 0.78125, 6.4375, 0.78125], "texture": "#0"},
				"down": {"uv": [6.4375, 0.78125, 6.4375, 0.78125], "texture": "#0"}
			}
		},
		{
			"name": "102fs_10",
			"from": [7.73883, 4.65979, 10.44781],
			"to": [8.44985, 6.72693, 10.45542],
			"rotation": {"angle": 0, "axis": "x", "origin": [8.44347, 5.44806, 10.4211]},
			"faces": {
				"east": {"uv": [6.4375, 0.78125, 6.4375, 0.78125], "texture": "#0"},
				"south": {"uv": [6.4375, 0.78125, 6.4375, 0.78125], "texture": "#0"},
				"west": {"uv": [6.4375, 0.78125, 6.4375, 0.78125], "texture": "#0"},
				"up": {"uv": [6.4375, 0.78125, 6.4375, 0.78125], "texture": "#0"},
				"down": {"uv": [6.4375, 0.78125, 6.4375, 0.78125], "texture": "#0"}
			}
		},
		{
			"name": "112fs_11",
			"from": [7.73883, 4.65979, 10.45542],
			"to": [8.44985, 6.70009, 10.46303],
			"rotation": {"angle": 0, "axis": "x", "origin": [8.44347, 5.44806, 10.4211]},
			"faces": {
				"east": {"uv": [6.4375, 0.78125, 6.4375, 0.78125], "texture": "#0"},
				"south": {"uv": [6.4375, 0.78125, 6.4375, 0.78125], "texture": "#0"},
				"west": {"uv": [6.4375, 0.78125, 6.4375, 0.78125], "texture": "#0"},
				"up": {"uv": [6.4375, 0.78125, 6.4375, 0.78125], "texture": "#0"},
				"down": {"uv": [6.4375, 0.78125, 6.4375, 0.78125], "texture": "#0"}
			}
		},
		{
			"name": "92fs_12",
			"from": [7.73883, 4.65979, 10.46303],
			"to": [8.44985, 6.67324, 10.47064],
			"rotation": {"angle": 0, "axis": "x", "origin": [8.44347, 5.44806, 10.4211]},
			"faces": {
				"east": {"uv": [6.4375, 0.78125, 6.4375, 0.78125], "texture": "#0"},
				"south": {"uv": [6.4375, 0.78125, 6.4375, 0.78125], "texture": "#0"},
				"west": {"uv": [6.4375, 0.78125, 6.4375, 0.78125], "texture": "#0"},
				"up": {"uv": [6.4375, 0.78125, 6.4375, 0.78125], "texture": "#0"},
				"down": {"uv": [6.4375, 0.78125, 6.4375, 0.78125], "texture": "#0"}
			}
		},
		{
			"name": "92fs_13",
			"from": [7.73883, 4.65979, 10.47064],
			"to": [8.44985, 6.65534, 10.47825],
			"rotation": {"angle": 0, "axis": "x", "origin": [8.44347, 5.44806, 10.4211]},
			"faces": {
				"east": {"uv": [6.4375, 0.78125, 6.4375, 0.78125], "texture": "#0"},
				"south": {"uv": [6.4375, 0.78125, 6.4375, 0.78125], "texture": "#0"},
				"west": {"uv": [6.4375, 0.78125, 6.4375, 0.78125], "texture": "#0"},
				"up": {"uv": [6.4375, 0.78125, 6.4375, 0.78125], "texture": "#0"},
				"down": {"uv": [6.4375, 0.78125, 6.4375, 0.78125], "texture": "#0"}
			}
		},
		{
			"name": "92fs_14",
			"from": [7.73883, 4.65979, 10.47825],
			"to": [8.44985, 6.6285, 10.48586],
			"rotation": {"angle": 0, "axis": "x", "origin": [8.44347, 5.44806, 10.4211]},
			"faces": {
				"east": {"uv": [6.4375, 0.78125, 6.4375, 0.78125], "texture": "#0"},
				"south": {"uv": [6.4375, 0.78125, 6.4375, 0.78125], "texture": "#0"},
				"west": {"uv": [6.4375, 0.78125, 6.4375, 0.78125], "texture": "#0"},
				"up": {"uv": [6.4375, 0.78125, 6.4375, 0.78125], "texture": "#0"},
				"down": {"uv": [6.4375, 0.78125, 6.4375, 0.78125], "texture": "#0"}
			}
		},
		{
			"name": "92fs_15",
			"from": [7.73883, 4.65979, 10.48586],
			"to": [8.44985, 6.60165, 10.49347],
			"rotation": {"angle": 0, "axis": "x", "origin": [8.44347, 5.44806, 10.4211]},
			"faces": {
				"east": {"uv": [6.4375, 0.78125, 6.4375, 0.78125], "texture": "#0"},
				"south": {"uv": [6.4375, 0.78125, 6.4375, 0.78125], "texture": "#0"},
				"west": {"uv": [6.4375, 0.78125, 6.4375, 0.78125], "texture": "#0"},
				"up": {"uv": [6.4375, 0.78125, 6.4375, 0.78125], "texture": "#0"},
				"down": {"uv": [6.4375, 0.78125, 6.4375, 0.78125], "texture": "#0"}
			}
		},
		{
			"name": "92fs_17",
			"from": [7.73883, 4.65979, 10.49347],
			"to": [8.44985, 6.57481, 10.50107],
			"rotation": {"angle": 0, "axis": "x", "origin": [8.44347, 5.44806, 10.4211]},
			"faces": {
				"east": {"uv": [6.4375, 0.78125, 6.4375, 0.78125], "texture": "#0"},
				"south": {"uv": [6.4375, 0.78125, 6.4375, 0.78125], "texture": "#0"},
				"west": {"uv": [6.4375, 0.78125, 6.4375, 0.78125], "texture": "#0"},
				"up": {"uv": [6.4375, 0.78125, 6.4375, 0.78125], "texture": "#0"},
				"down": {"uv": [6.4375, 0.78125, 6.4375, 0.78125], "texture": "#0"}
			}
		},
		{
			"name": "92fs_18",
			"from": [7.73883, 4.65979, 10.50107],
			"to": [8.44985, 6.54796, 10.50868],
			"rotation": {"angle": 0, "axis": "x", "origin": [8.44347, 5.44806, 10.4211]},
			"faces": {
				"east": {"uv": [6.4375, 0.78125, 6.4375, 0.78125], "texture": "#0"},
				"south": {"uv": [6.4375, 0.78125, 6.4375, 0.78125], "texture": "#0"},
				"west": {"uv": [6.4375, 0.78125, 6.4375, 0.78125], "texture": "#0"},
				"up": {"uv": [6.4375, 0.78125, 6.4375, 0.78125], "texture": "#0"},
				"down": {"uv": [6.4375, 0.78125, 6.4375, 0.78125], "texture": "#0"}
			}
		},
		{
			"name": "92fs_19",
			"from": [7.73883, 4.65979, 10.50868],
			"to": [8.44985, 6.52111, 10.51629],
			"rotation": {"angle": 0, "axis": "x", "origin": [8.44347, 5.44806, 10.4211]},
			"faces": {
				"east": {"uv": [6.4375, 0.78125, 6.4375, 0.78125], "texture": "#0"},
				"south": {"uv": [6.4375, 0.78125, 6.4375, 0.78125], "texture": "#0"},
				"west": {"uv": [6.4375, 0.78125, 6.4375, 0.78125], "texture": "#0"},
				"up": {"uv": [6.4375, 0.78125, 6.4375, 0.78125], "texture": "#0"},
				"down": {"uv": [6.4375, 0.78125, 6.4375, 0.78125], "texture": "#0"}
			}
		},
		{
			"name": "92fs_20",
			"from": [7.73883, 4.65979, 10.51629],
			"to": [8.44985, 6.49427, 10.5239],
			"rotation": {"angle": 0, "axis": "x", "origin": [8.44347, 5.44806, 10.4211]},
			"faces": {
				"east": {"uv": [6.4375, 0.78125, 6.4375, 0.78125], "texture": "#0"},
				"south": {"uv": [6.4375, 0.78125, 6.4375, 0.78125], "texture": "#0"},
				"west": {"uv": [6.4375, 0.78125, 6.4375, 0.78125], "texture": "#0"},
				"up": {"uv": [6.4375, 0.78125, 6.4375, 0.78125], "texture": "#0"},
				"down": {"uv": [6.4375, 0.78125, 6.4375, 0.78125], "texture": "#0"}
			}
		},
		{
			"name": "92fs_21",
			"from": [7.73883, 4.65979, 10.5239],
			"to": [8.44985, 6.47637, 10.53151],
			"rotation": {"angle": 0, "axis": "x", "origin": [8.44347, 5.44806, 10.4211]},
			"faces": {
				"east": {"uv": [6.4375, 0.78125, 6.4375, 0.78125], "texture": "#0"},
				"south": {"uv": [6.4375, 0.78125, 6.4375, 0.78125], "texture": "#0"},
				"west": {"uv": [6.4375, 0.78125, 6.4375, 0.78125], "texture": "#0"},
				"up": {"uv": [6.4375, 0.78125, 6.4375, 0.78125], "texture": "#0"},
				"down": {"uv": [6.4375, 0.78125, 6.4375, 0.78125], "texture": "#0"}
			}
		},
		{
			"name": "92fs_22",
			"from": [7.73883, 4.65979, 10.53151],
			"to": [8.44985, 6.44952, 10.53912],
			"rotation": {"angle": 0, "axis": "x", "origin": [8.44347, 5.44806, 10.4211]},
			"faces": {
				"east": {"uv": [6.4375, 0.78125, 6.4375, 0.78125], "texture": "#0"},
				"south": {"uv": [6.4375, 0.78125, 6.4375, 0.78125], "texture": "#0"},
				"west": {"uv": [6.4375, 0.78125, 6.4375, 0.78125], "texture": "#0"},
				"up": {"uv": [6.4375, 0.78125, 6.4375, 0.78125], "texture": "#0"},
				"down": {"uv": [6.4375, 0.78125, 6.4375, 0.78125], "texture": "#0"}
			}
		},
		{
			"name": "92fs_23",
			"from": [7.73883, 4.65979, 10.53912],
			"to": [8.44985, 6.42268, 10.54672],
			"rotation": {"angle": 0, "axis": "x", "origin": [8.44347, 5.44806, 10.4211]},
			"faces": {
				"east": {"uv": [6.4375, 0.78125, 6.4375, 0.78125], "texture": "#0"},
				"south": {"uv": [6.4375, 0.78125, 6.4375, 0.78125], "texture": "#0"},
				"west": {"uv": [6.4375, 0.78125, 6.4375, 0.78125], "texture": "#0"},
				"up": {"uv": [6.4375, 0.78125, 6.4375, 0.78125], "texture": "#0"},
				"down": {"uv": [6.4375, 0.78125, 6.4375, 0.78125], "texture": "#0"}
			}
		},
		{
			"name": "92fs_24",
			"from": [7.73883, 4.65979, 10.54672],
			"to": [8.44985, 6.39583, 10.55433],
			"rotation": {"angle": 0, "axis": "x", "origin": [8.44347, 5.44806, 10.4211]},
			"faces": {
				"east": {"uv": [6.4375, 0.78125, 6.4375, 0.78125], "texture": "#0"},
				"south": {"uv": [6.4375, 0.78125, 6.4375, 0.78125], "texture": "#0"},
				"west": {"uv": [6.4375, 0.78125, 6.4375, 0.78125], "texture": "#0"},
				"up": {"uv": [6.4375, 0.78125, 6.4375, 0.78125], "texture": "#0"},
				"down": {"uv": [6.4375, 0.78125, 6.4375, 0.78125], "texture": "#0"}
			}
		},
		{
			"name": "92fs_25",
			"from": [7.73883, 4.65979, 10.55433],
			"to": [8.44985, 6.36899, 10.56194],
			"rotation": {"angle": 0, "axis": "x", "origin": [8.44347, 5.44806, 10.4211]},
			"faces": {
				"east": {"uv": [6.4375, 0.78125, 6.4375, 0.78125], "texture": "#0"},
				"south": {"uv": [6.4375, 0.78125, 6.4375, 0.78125], "texture": "#0"},
				"west": {"uv": [6.4375, 0.78125, 6.4375, 0.78125], "texture": "#0"},
				"up": {"uv": [6.4375, 0.78125, 6.4375, 0.78125], "texture": "#0"},
				"down": {"uv": [6.4375, 0.78125, 6.4375, 0.78125], "texture": "#0"}
			}
		},
		{
			"name": "92fs_26",
			"from": [7.73883, 4.65979, 10.56194],
			"to": [8.44985, 6.34214, 10.56955],
			"rotation": {"angle": 0, "axis": "x", "origin": [8.44347, 5.44806, 10.4211]},
			"faces": {
				"east": {"uv": [6.4375, 0.78125, 6.4375, 0.78125], "texture": "#0"},
				"south": {"uv": [6.4375, 0.78125, 6.4375, 0.78125], "texture": "#0"},
				"west": {"uv": [6.4375, 0.78125, 6.4375, 0.78125], "texture": "#0"},
				"up": {"uv": [6.4375, 0.78125, 6.4375, 0.78125], "texture": "#0"},
				"down": {"uv": [6.4375, 0.78125, 6.4375, 0.78125], "texture": "#0"}
			}
		},
		{
			"name": "92fs_27",
			"from": [7.73883, 4.65979, 10.56955],
			"to": [8.44985, 6.31529, 10.57716],
			"rotation": {"angle": 0, "axis": "x", "origin": [8.44347, 5.44806, 10.4211]},
			"faces": {
				"east": {"uv": [6.4375, 0.78125, 6.4375, 0.78125], "texture": "#0"},
				"south": {"uv": [6.4375, 0.78125, 6.4375, 0.78125], "texture": "#0"},
				"west": {"uv": [6.4375, 0.78125, 6.4375, 0.78125], "texture": "#0"},
				"up": {"uv": [6.4375, 0.78125, 6.4375, 0.78125], "texture": "#0"},
				"down": {"uv": [6.4375, 0.78125, 6.4375, 0.78125], "texture": "#0"}
			}
		},
		{
			"name": "92fs_28",
			"from": [7.73883, 4.65979, 10.57716],
			"to": [8.44985, 6.2974, 10.58477],
			"rotation": {"angle": 0, "axis": "x", "origin": [8.44347, 5.44806, 10.4211]},
			"faces": {
				"east": {"uv": [6.4375, 0.78125, 6.4375, 0.78125], "texture": "#0"},
				"south": {"uv": [6.4375, 0.78125, 6.4375, 0.78125], "texture": "#0"},
				"west": {"uv": [6.4375, 0.78125, 6.4375, 0.78125], "texture": "#0"},
				"up": {"uv": [6.4375, 0.78125, 6.4375, 0.78125], "texture": "#0"},
				"down": {"uv": [6.4375, 0.78125, 6.4375, 0.78125], "texture": "#0"}
			}
		},
		{
			"name": "92fs_29",
			"from": [7.73883, 4.65979, 10.58477],
			"to": [8.44985, 6.27055, 10.59238],
			"rotation": {"angle": 0, "axis": "x", "origin": [8.44347, 5.44806, 10.4211]},
			"faces": {
				"east": {"uv": [6.4375, 0.78125, 6.4375, 0.78125], "texture": "#0"},
				"south": {"uv": [6.4375, 0.78125, 6.4375, 0.78125], "texture": "#0"},
				"west": {"uv": [6.4375, 0.78125, 6.4375, 0.78125], "texture": "#0"},
				"up": {"uv": [6.4375, 0.78125, 6.4375, 0.78125], "texture": "#0"},
				"down": {"uv": [6.4375, 0.78125, 6.4375, 0.78125], "texture": "#0"}
			}
		},
		{
			"name": "92fs_30",
			"from": [7.73883, 4.65979, 10.59238],
			"to": [8.44985, 6.2437, 10.59999],
			"rotation": {"angle": 0, "axis": "x", "origin": [8.44347, 5.44806, 10.4211]},
			"faces": {
				"east": {"uv": [6.4375, 0.78125, 6.4375, 0.78125], "texture": "#0"},
				"south": {"uv": [6.4375, 0.78125, 6.4375, 0.78125], "texture": "#0"},
				"west": {"uv": [6.4375, 0.78125, 6.4375, 0.78125], "texture": "#0"},
				"up": {"uv": [6.4375, 0.78125, 6.4375, 0.78125], "texture": "#0"},
				"down": {"uv": [6.4375, 0.78125, 6.4375, 0.78125], "texture": "#0"}
			}
		},
		{
			"name": "92fs_31",
			"from": [7.73883, 4.65979, 10.59999],
			"to": [8.44985, 6.21686, 10.6076],
			"rotation": {"angle": 0, "axis": "x", "origin": [8.44347, 5.44806, 10.4211]},
			"faces": {
				"east": {"uv": [6.4375, 0.78125, 6.4375, 0.78125], "texture": "#0"},
				"south": {"uv": [6.4375, 0.78125, 6.4375, 0.78125], "texture": "#0"},
				"west": {"uv": [6.4375, 0.78125, 6.4375, 0.78125], "texture": "#0"},
				"up": {"uv": [6.4375, 0.78125, 6.4375, 0.78125], "texture": "#0"},
				"down": {"uv": [6.4375, 0.78125, 6.4375, 0.78125], "texture": "#0"}
			}
		},
		{
			"name": "92fs_32",
			"from": [7.73883, 4.65979, 10.6076],
			"to": [8.44985, 6.19001, 10.61521],
			"rotation": {"angle": 0, "axis": "x", "origin": [8.44347, 5.44806, 10.4211]},
			"faces": {
				"east": {"uv": [6.4375, 0.78125, 6.4375, 0.78125], "texture": "#0"},
				"south": {"uv": [6.4375, 0.78125, 6.4375, 0.78125], "texture": "#0"},
				"west": {"uv": [6.4375, 0.78125, 6.4375, 0.78125], "texture": "#0"},
				"up": {"uv": [6.4375, 0.78125, 6.4375, 0.78125], "texture": "#0"},
				"down": {"uv": [6.4375, 0.78125, 6.4375, 0.78125], "texture": "#0"}
			}
		},
		{
			"name": "92fs_33",
			"from": [7.73883, 4.65979, 10.61521],
			"to": [8.44985, 6.16317, 10.62282],
			"rotation": {"angle": 0, "axis": "x", "origin": [8.44347, 5.44806, 10.4211]},
			"faces": {
				"east": {"uv": [6.4375, 0.78125, 6.4375, 0.78125], "texture": "#0"},
				"south": {"uv": [6.4375, 0.78125, 6.4375, 0.78125], "texture": "#0"},
				"west": {"uv": [6.4375, 0.78125, 6.4375, 0.78125], "texture": "#0"},
				"up": {"uv": [6.4375, 0.78125, 6.4375, 0.78125], "texture": "#0"},
				"down": {"uv": [6.4375, 0.78125, 6.4375, 0.78125], "texture": "#0"}
			}
		},
		{
			"name": "92fs_34",
			"from": [7.73883, 4.65979, 10.62282],
			"to": [8.44985, 6.13632, 10.63042],
			"rotation": {"angle": 0, "axis": "x", "origin": [8.44347, 5.44806, 10.4211]},
			"faces": {
				"east": {"uv": [6.4375, 0.78125, 6.4375, 0.78125], "texture": "#0"},
				"south": {"uv": [6.4375, 0.78125, 6.4375, 0.78125], "texture": "#0"},
				"west": {"uv": [6.4375, 0.78125, 6.4375, 0.78125], "texture": "#0"},
				"up": {"uv": [6.4375, 0.78125, 6.4375, 0.78125], "texture": "#0"},
				"down": {"uv": [6.4375, 0.78125, 6.4375, 0.78125], "texture": "#0"}
			}
		},
		{
			"name": "92fs_35",
			"from": [7.73883, 4.65979, 10.63042],
			"to": [8.44985, 6.11842, 10.63803],
			"rotation": {"angle": 0, "axis": "x", "origin": [8.44347, 5.44806, 10.4211]},
			"faces": {
				"east": {"uv": [6.4375, 0.78125, 6.4375, 0.78125], "texture": "#0"},
				"south": {"uv": [6.4375, 0.78125, 6.4375, 0.78125], "texture": "#0"},
				"west": {"uv": [6.4375, 0.78125, 6.4375, 0.78125], "texture": "#0"},
				"up": {"uv": [6.4375, 0.78125, 6.4375, 0.78125], "texture": "#0"},
				"down": {"uv": [6.4375, 0.78125, 6.4375, 0.78125], "texture": "#0"}
			}
		},
		{
			"name": "92fs_36",
			"from": [7.73883, 4.65979, 10.63803],
			"to": [8.44985, 6.09158, 10.64564],
			"rotation": {"angle": 0, "axis": "x", "origin": [8.44347, 5.44806, 10.4211]},
			"faces": {
				"east": {"uv": [6.4375, 0.78125, 6.4375, 0.78125], "texture": "#0"},
				"south": {"uv": [6.4375, 0.78125, 6.4375, 0.78125], "texture": "#0"},
				"west": {"uv": [6.4375, 0.78125, 6.4375, 0.78125], "texture": "#0"},
				"up": {"uv": [6.4375, 0.78125, 6.4375, 0.78125], "texture": "#0"},
				"down": {"uv": [6.4375, 0.78125, 6.4375, 0.78125], "texture": "#0"}
			}
		},
		{
			"name": "92fs_37",
			"from": [7.73883, 4.65979, 10.64564],
			"to": [8.44985, 6.06473, 10.65325],
			"rotation": {"angle": 0, "axis": "x", "origin": [8.44347, 5.44806, 10.4211]},
			"faces": {
				"east": {"uv": [6.4375, 0.78125, 6.4375, 0.78125], "texture": "#0"},
				"south": {"uv": [6.4375, 0.78125, 6.4375, 0.78125], "texture": "#0"},
				"west": {"uv": [6.4375, 0.78125, 6.4375, 0.78125], "texture": "#0"},
				"up": {"uv": [6.4375, 0.78125, 6.4375, 0.78125], "texture": "#0"},
				"down": {"uv": [6.4375, 0.78125, 6.4375, 0.78125], "texture": "#0"}
			}
		},
		{
			"name": "92fs_38",
			"from": [7.73883, 4.65979, 10.65325],
			"to": [8.44985, 6.03788, 10.66086],
			"rotation": {"angle": 0, "axis": "x", "origin": [8.44347, 5.44806, 10.4211]},
			"faces": {
				"east": {"uv": [6.4375, 0.78125, 6.4375, 0.78125], "texture": "#0"},
				"south": {"uv": [6.4375, 0.78125, 6.4375, 0.78125], "texture": "#0"},
				"west": {"uv": [6.4375, 0.78125, 6.4375, 0.78125], "texture": "#0"},
				"up": {"uv": [6.4375, 0.78125, 6.4375, 0.78125], "texture": "#0"},
				"down": {"uv": [6.4375, 0.78125, 6.4375, 0.78125], "texture": "#0"}
			}
		},
		{
			"name": "92fs_39",
			"from": [7.73883, 4.65979, 10.66086],
			"to": [8.44985, 6.01104, 10.66847],
			"rotation": {"angle": 0, "axis": "x", "origin": [8.44347, 5.44806, 10.4211]},
			"faces": {
				"east": {"uv": [6.4375, 0.78125, 6.4375, 0.78125], "texture": "#0"},
				"south": {"uv": [6.4375, 0.78125, 6.4375, 0.78125], "texture": "#0"},
				"west": {"uv": [6.4375, 0.78125, 6.4375, 0.78125], "texture": "#0"},
				"up": {"uv": [6.4375, 0.78125, 6.4375, 0.78125], "texture": "#0"},
				"down": {"uv": [6.4375, 0.78125, 6.4375, 0.78125], "texture": "#0"}
			}
		},
		{
			"name": "92fs_40",
			"from": [7.73883, 4.65979, 10.66847],
			"to": [8.44985, 5.98419, 10.67608],
			"rotation": {"angle": 0, "axis": "x", "origin": [8.44347, 5.44806, 10.4211]},
			"faces": {
				"east": {"uv": [6.4375, 0.78125, 6.4375, 0.78125], "texture": "#0"},
				"south": {"uv": [6.4375, 0.78125, 6.4375, 0.78125], "texture": "#0"},
				"west": {"uv": [6.4375, 0.78125, 6.4375, 0.78125], "texture": "#0"},
				"up": {"uv": [6.4375, 0.78125, 6.4375, 0.78125], "texture": "#0"},
				"down": {"uv": [6.4375, 0.78125, 6.4375, 0.78125], "texture": "#0"}
			}
		},
		{
			"name": "92fs_41",
			"from": [7.73883, 5.9484, 9.25326],
			"to": [8.44985, 5.96629, 10.39456],
			"rotation": {"angle": 0, "axis": "x", "origin": [8.44347, 5.44806, 10.4211]},
			"faces": {
				"north": {"uv": [6.4375, 0.78125, 6.4375, 0.78125], "texture": "#0"},
				"east": {"uv": [6.4375, 0.78125, 6.4375, 0.78125], "texture": "#0"},
				"west": {"uv": [6.4375, 0.78125, 6.4375, 0.78125], "texture": "#0"},
				"down": {"uv": [6.4375, 0.78125, 6.4375, 0.78125], "texture": "#0"}
			}
		},
		{
			"name": "92fs_42",
			"from": [7.73883, 4.65979, 10.67608],
			"to": [8.44985, 5.96629, 10.68368],
			"rotation": {"angle": 0, "axis": "x", "origin": [8.44347, 5.44806, 10.4211]},
			"faces": {
				"east": {"uv": [6.4375, 0.78125, 6.4375, 0.78125], "texture": "#0"},
				"south": {"uv": [6.4375, 0.78125, 6.4375, 0.78125], "texture": "#0"},
				"west": {"uv": [6.4375, 0.78125, 6.4375, 0.78125], "texture": "#0"},
				"up": {"uv": [6.4375, 0.78125, 6.4375, 0.78125], "texture": "#0"},
				"down": {"uv": [6.4375, 0.78125, 6.4375, 0.78125], "texture": "#0"}
			}
		},
		{
			"name": "92fs_43",
			"from": [7.73883, 5.9305, 9.26086],
			"to": [8.44985, 5.9484, 10.39456],
			"rotation": {"angle": 0, "axis": "x", "origin": [8.44347, 5.44806, 10.4211]},
			"faces": {
				"north": {"uv": [6.4375, 0.78125, 6.4375, 0.78125], "texture": "#0"},
				"east": {"uv": [6.4375, 0.78125, 6.4375, 0.78125], "texture": "#0"},
				"west": {"uv": [6.4375, 0.78125, 6.4375, 0.78125], "texture": "#0"},
				"down": {"uv": [6.4375, 0.78125, 6.4375, 0.78125], "texture": "#0"}
			}
		},
		{
			"name": "92fs_44",
			"from": [7.73883, 4.65979, 10.68368],
			"to": [8.44985, 5.93945, 10.69129],
			"rotation": {"angle": 0, "axis": "x", "origin": [8.44347, 5.44806, 10.4211]},
			"faces": {
				"east": {"uv": [6.4375, 0.78125, 6.4375, 0.78125], "texture": "#0"},
				"south": {"uv": [6.4375, 0.78125, 6.4375, 0.78125], "texture": "#0"},
				"west": {"uv": [6.4375, 0.78125, 6.4375, 0.78125], "texture": "#0"},
				"up": {"uv": [6.4375, 0.78125, 6.4375, 0.78125], "texture": "#0"},
				"down": {"uv": [6.4375, 0.78125, 6.4375, 0.78125], "texture": "#0"}
			}
		},
		{
			"name": "92fs_45",
			"from": [7.73883, 5.9126, 9.26847],
			"to": [8.44985, 5.9305, 10.39456],
			"rotation": {"angle": 0, "axis": "x", "origin": [8.44347, 5.44806, 10.4211]},
			"faces": {
				"north": {"uv": [6.4375, 0.78125, 6.4375, 0.78125], "texture": "#0"},
				"east": {"uv": [6.4375, 0.78125, 6.4375, 0.78125], "texture": "#0"},
				"west": {"uv": [6.4375, 0.78125, 6.4375, 0.78125], "texture": "#0"},
				"down": {"uv": [6.4375, 0.78125, 6.4375, 0.78125], "texture": "#0"}
			}
		},
		{
			"name": "92fs_46",
			"from": [7.73883, 5.88575, 9.27608],
			"to": [8.44985, 5.9126, 10.39456],
			"rotation": {"angle": 0, "axis": "x", "origin": [8.44347, 5.44806, 10.4211]},
			"faces": {
				"north": {"uv": [6.4375, 0.78125, 6.4375, 0.78125], "texture": "#0"},
				"east": {"uv": [6.4375, 0.78125, 6.4375, 0.78125], "texture": "#0"},
				"west": {"uv": [6.4375, 0.78125, 6.4375, 0.78125], "texture": "#0"},
				"down": {"uv": [6.4375, 0.78125, 6.4375, 0.78125], "texture": "#0"}
			}
		},
		{
			"name": "92fs_47",
			"from": [7.73883, 4.65979, 10.69129],
			"to": [8.44985, 5.9126, 10.6989],
			"rotation": {"angle": 0, "axis": "x", "origin": [8.44347, 5.44806, 10.4211]},
			"faces": {
				"east": {"uv": [6.4375, 0.78125, 6.4375, 0.78125], "texture": "#0"},
				"south": {"uv": [6.4375, 0.78125, 6.4375, 0.78125], "texture": "#0"},
				"west": {"uv": [6.4375, 0.78125, 6.4375, 0.78125], "texture": "#0"},
				"up": {"uv": [6.4375, 0.78125, 6.4375, 0.78125], "texture": "#0"},
				"down": {"uv": [6.4375, 0.78125, 6.4375, 0.78125], "texture": "#0"}
			}
		},
		{
			"name": "92fs_48",
			"from": [7.73883, 5.86786, 9.28369],
			"to": [8.44985, 5.88575, 10.39456],
			"rotation": {"angle": 0, "axis": "x", "origin": [8.44347, 5.44806, 10.4211]},
			"faces": {
				"north": {"uv": [6.4375, 0.78125, 6.4375, 0.78125], "texture": "#0"},
				"east": {"uv": [6.4375, 0.78125, 6.4375, 0.78125], "texture": "#0"},
				"west": {"uv": [6.4375, 0.78125, 6.4375, 0.78125], "texture": "#0"},
				"down": {"uv": [6.4375, 0.78125, 6.4375, 0.78125], "texture": "#0"}
			}
		},
		{
			"name": "92fs_49",
			"from": [7.73883, 4.65979, 10.6989],
			"to": [8.44985, 5.88575, 10.70651],
			"rotation": {"angle": 0, "axis": "x", "origin": [8.44347, 5.44806, 10.4211]},
			"faces": {
				"east": {"uv": [6.4375, 0.78125, 6.4375, 0.78125], "texture": "#0"},
				"south": {"uv": [6.4375, 0.78125, 6.4375, 0.78125], "texture": "#0"},
				"west": {"uv": [6.4375, 0.78125, 6.4375, 0.78125], "texture": "#0"},
				"up": {"uv": [6.4375, 0.78125, 6.4375, 0.78125], "texture": "#0"},
				"down": {"uv": [6.4375, 0.78125, 6.4375, 0.78125], "texture": "#0"}
			}
		},
		{
			"name": "92fs_50",
			"from": [7.73883, 5.84996, 9.2913],
			"to": [8.44985, 5.86786, 10.39456],
			"rotation": {"angle": 0, "axis": "x", "origin": [8.44347, 5.44806, 10.4211]},
			"faces": {
				"north": {"uv": [6.4375, 0.78125, 6.4375, 0.78125], "texture": "#0"},
				"east": {"uv": [6.4375, 0.78125, 6.4375, 0.78125], "texture": "#0"},
				"west": {"uv": [6.4375, 0.78125, 6.4375, 0.78125], "texture": "#0"},
				"down": {"uv": [6.4375, 0.78125, 6.4375, 0.78125], "texture": "#0"}
			}
		},
		{
			"name": "92fs_51",
			"from": [7.73883, 4.65979, 10.70651],
			"to": [8.44985, 5.85891, 10.71412],
			"rotation": {"angle": 0, "axis": "x", "origin": [8.44347, 5.44806, 10.4211]},
			"faces": {
				"east": {"uv": [6.4375, 0.78125, 6.4375, 0.78125], "texture": "#0"},
				"south": {"uv": [6.4375, 0.78125, 6.4375, 0.78125], "texture": "#0"},
				"west": {"uv": [6.4375, 0.78125, 6.4375, 0.78125], "texture": "#0"},
				"up": {"uv": [6.4375, 0.78125, 6.4375, 0.78125], "texture": "#0"},
				"down": {"uv": [6.4375, 0.78125, 6.4375, 0.78125], "texture": "#0"}
			}
		},
		{
			"name": "92fs_52",
			"from": [7.73883, 5.84101, 9.29891],
			"to": [8.44985, 5.84996, 10.39456],
			"rotation": {"angle": 0, "axis": "x", "origin": [8.44347, 5.44806, 10.4211]},
			"faces": {
				"north": {"uv": [6.4375, 0.78125, 6.4375, 0.78125], "texture": "#0"},
				"east": {"uv": [6.4375, 0.78125, 6.4375, 0.78125], "texture": "#0"},
				"west": {"uv": [6.4375, 0.78125, 6.4375, 0.78125], "texture": "#0"},
				"down": {"uv": [6.4375, 0.78125, 6.4375, 0.78125], "texture": "#0"}
			}
		},
		{
			"name": "92fs_53",
			"from": [7.73883, 5.81416, 9.30652],
			"to": [8.44985, 5.84101, 10.39456],
			"rotation": {"angle": 0, "axis": "x", "origin": [8.44347, 5.44806, 10.4211]},
			"faces": {
				"north": {"uv": [6.4375, 0.78125, 6.4375, 0.78125], "texture": "#0"},
				"east": {"uv": [6.4375, 0.78125, 6.4375, 0.78125], "texture": "#0"},
				"west": {"uv": [6.4375, 0.78125, 6.4375, 0.78125], "texture": "#0"},
				"down": {"uv": [6.4375, 0.78125, 6.4375, 0.78125], "texture": "#0"}
			}
		},
		{
			"name": "92fs_54",
			"from": [7.73883, 4.65979, 10.71412],
			"to": [8.44985, 5.83206, 10.72173],
			"rotation": {"angle": 0, "axis": "x", "origin": [8.44347, 5.44806, 10.4211]},
			"faces": {
				"east": {"uv": [6.4375, 0.78125, 6.4375, 0.78125], "texture": "#0"},
				"south": {"uv": [6.4375, 0.78125, 6.4375, 0.78125], "texture": "#0"},
				"west": {"uv": [6.4375, 0.78125, 6.4375, 0.78125], "texture": "#0"},
				"up": {"uv": [6.4375, 0.78125, 6.4375, 0.78125], "texture": "#0"},
				"down": {"uv": [6.4375, 0.78125, 6.4375, 0.78125], "texture": "#0"}
			}
		},
		{
			"name": "92fs_55",
			"from": [7.73883, 5.77837, 9.31413],
			"to": [8.44985, 5.81416, 10.39456],
			"rotation": {"angle": 0, "axis": "x", "origin": [8.44347, 5.44806, 10.4211]},
			"faces": {
				"north": {"uv": [6.4375, 0.78125, 6.4375, 0.78125], "texture": "#0"},
				"east": {"uv": [6.4375, 0.78125, 6.4375, 0.78125], "texture": "#0"},
				"west": {"uv": [6.4375, 0.78125, 6.4375, 0.78125], "texture": "#0"},
				"down": {"uv": [6.4375, 0.78125, 6.4375, 0.78125], "texture": "#0"}
			}
		},
		{
			"name": "92fs_56",
			"from": [7.73883, 4.65979, 10.72173],
			"to": [8.44985, 5.80522, 10.72933],
			"rotation": {"angle": 0, "axis": "x", "origin": [8.44347, 5.44806, 10.4211]},
			"faces": {
				"east": {"uv": [6.4375, 0.78125, 6.4375, 0.78125], "texture": "#0"},
				"south": {"uv": [6.4375, 0.78125, 6.4375, 0.78125], "texture": "#0"},
				"west": {"uv": [6.4375, 0.78125, 6.4375, 0.78125], "texture": "#0"},
				"up": {"uv": [6.4375, 0.78125, 6.4375, 0.78125], "texture": "#0"},
				"down": {"uv": [6.4375, 0.78125, 6.4375, 0.78125], "texture": "#0"}
			}
		},
		{
			"name": "92fs_57",
			"from": [7.73883, 4.65979, 10.72933],
			"to": [8.44985, 5.78732, 10.73694],
			"rotation": {"angle": 0, "axis": "x", "origin": [8.44347, 5.44806, 10.4211]},
			"faces": {
				"east": {"uv": [6.4375, 0.78125, 6.4375, 0.78125], "texture": "#0"},
				"south": {"uv": [6.4375, 0.78125, 6.4375, 0.78125], "texture": "#0"},
				"west": {"uv": [6.4375, 0.78125, 6.4375, 0.78125], "texture": "#0"},
				"up": {"uv": [6.4375, 0.78125, 6.4375, 0.78125], "texture": "#0"},
				"down": {"uv": [6.4375, 0.78125, 6.4375, 0.78125], "texture": "#0"}
			}
		},
		{
			"name": "92fs_58",
			"from": [7.73883, 5.76047, 9.32174],
			"to": [8.44985, 5.77837, 10.39456],
			"rotation": {"angle": 0, "axis": "x", "origin": [8.44347, 5.44806, 10.4211]},
			"faces": {
				"north": {"uv": [6.4375, 0.78125, 6.4375, 0.78125], "texture": "#0"},
				"east": {"uv": [6.4375, 0.78125, 6.4375, 0.78125], "texture": "#0"},
				"west": {"uv": [6.4375, 0.78125, 6.4375, 0.78125], "texture": "#0"},
				"down": {"uv": [6.4375, 0.78125, 6.4375, 0.78125], "texture": "#0"}
			}
		},
		{
			"name": "92fs_59",
			"from": [7.73883, 5.72468, 9.32935],
			"to": [8.44985, 5.76047, 10.39456],
			"rotation": {"angle": 0, "axis": "x", "origin": [8.44347, 5.44806, 10.4211]},
			"faces": {
				"north": {"uv": [6.4375, 0.78125, 6.4375, 0.78125], "texture": "#0"},
				"east": {"uv": [6.4375, 0.78125, 6.4375, 0.78125], "texture": "#0"},
				"west": {"uv": [6.4375, 0.78125, 6.4375, 0.78125], "texture": "#0"},
				"down": {"uv": [6.4375, 0.78125, 6.4375, 0.78125], "texture": "#0"}
			}
		},
		{
			"name": "92fs_60",
			"from": [7.73883, 4.65979, 10.73694],
			"to": [8.44985, 5.76047, 10.74455],
			"rotation": {"angle": 0, "axis": "x", "origin": [8.44347, 5.44806, 10.4211]},
			"faces": {
				"east": {"uv": [6.4375, 0.78125, 6.4375, 0.78125], "texture": "#0"},
				"south": {"uv": [6.4375, 0.78125, 6.4375, 0.78125], "texture": "#0"},
				"west": {"uv": [6.4375, 0.78125, 6.4375, 0.78125], "texture": "#0"},
				"up": {"uv": [6.4375, 0.78125, 6.4375, 0.78125], "texture": "#0"},
				"down": {"uv": [6.4375, 0.78125, 6.4375, 0.78125], "texture": "#0"}
			}
		},
		{
			"name": "92fs_61",
			"from": [7.73883, 4.65979, 10.74455],
			"to": [8.44985, 5.73363, 10.75216],
			"rotation": {"angle": 0, "axis": "x", "origin": [8.44347, 5.44806, 10.4211]},
			"faces": {
				"east": {"uv": [6.4375, 0.78125, 6.4375, 0.78125], "texture": "#0"},
				"south": {"uv": [6.4375, 0.78125, 6.4375, 0.78125], "texture": "#0"},
				"west": {"uv": [6.4375, 0.78125, 6.4375, 0.78125], "texture": "#0"},
				"up": {"uv": [6.4375, 0.78125, 6.4375, 0.78125], "texture": "#0"},
				"down": {"uv": [6.4375, 0.78125, 6.4375, 0.78125], "texture": "#0"}
			}
		},
		{
			"name": "92fs_62",
			"from": [7.73883, 5.69783, 9.33696],
			"to": [8.44985, 5.72468, 10.39456],
			"rotation": {"angle": 0, "axis": "x", "origin": [8.44347, 5.44806, 10.4211]},
			"faces": {
				"north": {"uv": [6.4375, 0.78125, 6.4375, 0.78125], "texture": "#0"},
				"east": {"uv": [6.4375, 0.78125, 6.4375, 0.78125], "texture": "#0"},
				"west": {"uv": [6.4375, 0.78125, 6.4375, 0.78125], "texture": "#0"},
				"down": {"uv": [6.4375, 0.78125, 6.4375, 0.78125], "texture": "#0"}
			}
		},
		{
			"name": "92fs_63",
			"from": [7.73883, 4.65979, 10.75216],
			"to": [8.44985, 5.70678, 10.75977],
			"rotation": {"angle": 0, "axis": "x", "origin": [8.44347, 5.44806, 10.4211]},
			"faces": {
				"east": {"uv": [6.4375, 0.78125, 6.4375, 0.78125], "texture": "#0"},
				"south": {"uv": [6.4375, 0.78125, 6.4375, 0.78125], "texture": "#0"},
				"west": {"uv": [6.4375, 0.78125, 6.4375, 0.78125], "texture": "#0"},
				"up": {"uv": [6.4375, 0.78125, 6.4375, 0.78125], "texture": "#0"},
				"down": {"uv": [6.4375, 0.78125, 6.4375, 0.78125], "texture": "#0"}
			}
		},
		{
			"name": "92fs_64",
			"from": [7.73883, 5.67994, 9.34456],
			"to": [8.44985, 5.69783, 10.39456],
			"rotation": {"angle": 0, "axis": "x", "origin": [8.44347, 5.44806, 10.4211]},
			"faces": {
				"north": {"uv": [6.4375, 0.78125, 6.4375, 0.78125], "texture": "#0"},
				"east": {"uv": [6.4375, 0.78125, 6.4375, 0.78125], "texture": "#0"},
				"west": {"uv": [6.4375, 0.78125, 6.4375, 0.78125], "texture": "#0"},
				"down": {"uv": [6.4375, 0.78125, 6.4375, 0.78125], "texture": "#0"}
			}
		},
		{
			"name": "92fs_65",
			"from": [7.73883, 5.65309, 9.35217],
			"to": [8.44985, 5.67994, 10.39456],
			"rotation": {"angle": 0, "axis": "x", "origin": [8.44347, 5.44806, 10.4211]},
			"faces": {
				"north": {"uv": [6.4375, 0.78125, 6.4375, 0.78125], "texture": "#0"},
				"east": {"uv": [6.4375, 0.78125, 6.4375, 0.78125], "texture": "#0"},
				"west": {"uv": [6.4375, 0.78125, 6.4375, 0.78125], "texture": "#0"},
				"down": {"uv": [6.4375, 0.78125, 6.4375, 0.78125], "texture": "#0"}
			}
		},
		{
			"name": "92fs_66",
			"from": [7.73883, 4.65979, 10.75977],
			"to": [8.44985, 5.67994, 10.76738],
			"rotation": {"angle": 0, "axis": "x", "origin": [8.44347, 5.44806, 10.4211]},
			"faces": {
				"east": {"uv": [6.4375, 0.78125, 6.4375, 0.78125], "texture": "#0"},
				"south": {"uv": [6.4375, 0.78125, 6.4375, 0.78125], "texture": "#0"},
				"west": {"uv": [6.4375, 0.78125, 6.4375, 0.78125], "texture": "#0"},
				"up": {"uv": [6.4375, 0.78125, 6.4375, 0.78125], "texture": "#0"},
				"down": {"uv": [6.4375, 0.78125, 6.4375, 0.78125], "texture": "#0"}
			}
		},
		{
			"name": "92fs_67",
			"from": [7.73883, 5.62624, 9.35978],
			"to": [8.44985, 5.65309, 10.39456],
			"rotation": {"angle": 0, "axis": "x", "origin": [8.44347, 5.44806, 10.4211]},
			"faces": {
				"north": {"uv": [6.4375, 0.78125, 6.4375, 0.78125], "texture": "#0"},
				"east": {"uv": [6.4375, 0.78125, 6.4375, 0.78125], "texture": "#0"},
				"west": {"uv": [6.4375, 0.78125, 6.4375, 0.78125], "texture": "#0"},
				"down": {"uv": [6.4375, 0.78125, 6.4375, 0.78125], "texture": "#0"}
			}
		},
		{
			"name": "92fs_68",
			"from": [7.73883, 4.65979, 10.76738],
			"to": [8.44985, 5.65309, 10.77498],
			"rotation": {"angle": 0, "axis": "x", "origin": [8.44347, 5.44806, 10.4211]},
			"faces": {
				"east": {"uv": [6.4375, 0.78125, 6.4375, 0.78125], "texture": "#0"},
				"south": {"uv": [6.4375, 0.78125, 6.4375, 0.78125], "texture": "#0"},
				"west": {"uv": [6.4375, 0.78125, 6.4375, 0.78125], "texture": "#0"},
				"up": {"uv": [6.4375, 0.78125, 6.4375, 0.78125], "texture": "#0"},
				"down": {"uv": [6.4375, 0.78125, 6.4375, 0.78125], "texture": "#0"}
			}
		},
		{
			"name": "92fs_69",
			"from": [7.73883, 5.5994, 9.36739],
			"to": [8.44985, 5.62624, 10.39456],
			"rotation": {"angle": 0, "axis": "x", "origin": [8.44347, 5.44806, 10.4211]},
			"faces": {
				"north": {"uv": [6.4375, 0.78125, 6.4375, 0.78125], "texture": "#0"},
				"east": {"uv": [6.4375, 0.78125, 6.4375, 0.78125], "texture": "#0"},
				"west": {"uv": [6.4375, 0.78125, 6.4375, 0.78125], "texture": "#0"},
				"down": {"uv": [6.4375, 0.78125, 6.4375, 0.78125], "texture": "#0"}
			}
		},
		{
			"name": "92fs_70",
			"from": [7.73883, 4.65979, 10.77498],
			"to": [8.44985, 5.62624, 10.78259],
			"rotation": {"angle": 0, "axis": "x", "origin": [8.44347, 5.44806, 10.4211]},
			"faces": {
				"east": {"uv": [6.4375, 0.78125, 6.4375, 0.78125], "texture": "#0"},
				"south": {"uv": [6.4375, 0.78125, 6.4375, 0.78125], "texture": "#0"},
				"west": {"uv": [6.4375, 0.78125, 6.4375, 0.78125], "texture": "#0"},
				"up": {"uv": [6.4375, 0.78125, 6.4375, 0.78125], "texture": "#0"},
				"down": {"uv": [6.4375, 0.78125, 6.4375, 0.78125], "texture": "#0"}
			}
		},
		{
			"name": "92fs_71",
			"from": [7.73883, 4.65979, 10.78259],
			"to": [8.44985, 5.60835, 10.7902],
			"rotation": {"angle": 0, "axis": "x", "origin": [8.44347, 5.44806, 10.4211]},
			"faces": {
				"east": {"uv": [6.4375, 0.78125, 6.4375, 0.78125], "texture": "#0"},
				"south": {"uv": [6.4375, 0.78125, 6.4375, 0.78125], "texture": "#0"},
				"west": {"uv": [6.4375, 0.78125, 6.4375, 0.78125], "texture": "#0"},
				"up": {"uv": [6.4375, 0.78125, 6.4375, 0.78125], "texture": "#0"},
				"down": {"uv": [6.4375, 0.78125, 6.4375, 0.78125], "texture": "#0"}
			}
		},
		{
			"name": "92fs_72",
			"from": [7.73883, 5.54571, 9.375],
			"to": [8.44985, 5.5994, 10.39456],
			"rotation": {"angle": 0, "axis": "x", "origin": [8.44347, 5.44806, 10.4211]},
			"faces": {
				"north": {"uv": [6.4375, 0.78125, 6.4375, 0.78125], "texture": "#0"},
				"east": {"uv": [6.4375, 0.78125, 6.4375, 0.78125], "texture": "#0"},
				"west": {"uv": [6.4375, 0.78125, 6.4375, 0.78125], "texture": "#0"},
				"down": {"uv": [6.4375, 0.78125, 6.4375, 0.78125], "texture": "#0"}
			}
		},
		{
			"name": "92fs_73",
			"from": [7.73883, 4.65979, 10.7902],
			"to": [8.44985, 5.5815, 10.79781],
			"rotation": {"angle": 0, "axis": "x", "origin": [8.44347, 5.44806, 10.4211]},
			"faces": {
				"east": {"uv": [6.4375, 0.78125, 6.4375, 0.78125], "texture": "#0"},
				"south": {"uv": [6.4375, 0.78125, 6.4375, 0.78125], "texture": "#0"},
				"west": {"uv": [6.4375, 0.78125, 6.4375, 0.78125], "texture": "#0"},
				"up": {"uv": [6.4375, 0.78125, 6.4375, 0.78125], "texture": "#0"},
				"down": {"uv": [6.4375, 0.78125, 6.4375, 0.78125], "texture": "#0"}
			}
		},
		{
			"name": "92fs_74",
			"from": [7.73883, 4.65979, 10.79781],
			"to": [8.44985, 5.55466, 10.80542],
			"rotation": {"angle": 0, "axis": "x", "origin": [8.44347, 5.44806, 10.4211]},
			"faces": {
				"east": {"uv": [6.4375, 0.78125, 6.4375, 0.78125], "texture": "#0"},
				"south": {"uv": [6.4375, 0.78125, 6.4375, 0.78125], "texture": "#0"},
				"west": {"uv": [6.4375, 0.78125, 6.4375, 0.78125], "texture": "#0"},
				"up": {"uv": [6.4375, 0.78125, 6.4375, 0.78125], "texture": "#0"},
				"down": {"uv": [6.4375, 0.78125, 6.4375, 0.78125], "texture": "#0"}
			}
		},
		{
			"name": "92fs_75",
			"from": [7.73883, 5.50991, 9.38261],
			"to": [8.44985, 5.54571, 10.39456],
			"rotation": {"angle": 0, "axis": "x", "origin": [8.44347, 5.44806, 10.4211]},
			"faces": {
				"north": {"uv": [6.4375, 0.78125, 6.4375, 0.78125], "texture": "#0"},
				"east": {"uv": [6.4375, 0.78125, 6.4375, 0.78125], "texture": "#0"},
				"west": {"uv": [6.4375, 0.78125, 6.4375, 0.78125], "texture": "#0"},
				"down": {"uv": [6.4375, 0.78125, 6.4375, 0.78125], "texture": "#0"}
			}
		},
		{
			"name": "92fs_76",
			"from": [7.73883, 4.65979, 10.80542],
			"to": [8.44985, 5.52781, 10.81303],
			"rotation": {"angle": 0, "axis": "x", "origin": [8.44347, 5.44806, 10.4211]},
			"faces": {
				"east": {"uv": [6.4375, 0.78125, 6.4375, 0.78125], "texture": "#0"},
				"south": {"uv": [6.4375, 0.78125, 6.4375, 0.78125], "texture": "#0"},
				"west": {"uv": [6.4375, 0.78125, 6.4375, 0.78125], "texture": "#0"},
				"up": {"uv": [6.4375, 0.78125, 6.4375, 0.78125], "texture": "#0"},
				"down": {"uv": [6.4375, 0.78125, 6.4375, 0.78125], "texture": "#0"}
			}
		},
		{
			"name": "92fs_77",
			"from": [7.73883, 5.48307, 9.39022],
			"to": [8.44985, 5.50991, 10.39456],
			"rotation": {"angle": 0, "axis": "x", "origin": [8.44347, 5.44806, 10.4211]},
			"faces": {
				"north": {"uv": [6.4375, 0.78125, 6.4375, 0.78125], "texture": "#0"},
				"east": {"uv": [6.4375, 0.78125, 6.4375, 0.78125], "texture": "#0"},
				"west": {"uv": [6.4375, 0.78125, 6.4375, 0.78125], "texture": "#0"},
				"down": {"uv": [6.4375, 0.78125, 6.4375, 0.78125], "texture": "#0"}
			}
		},
		{
			"name": "92fs_78",
			"from": [7.73883, 4.65979, 10.81303],
			"to": [8.44985, 5.50096, 10.82064],
			"rotation": {"angle": 0, "axis": "x", "origin": [8.44347, 5.44806, 10.4211]},
			"faces": {
				"east": {"uv": [6.4375, 0.78125, 6.4375, 0.78125], "texture": "#0"},
				"south": {"uv": [6.4375, 0.78125, 6.4375, 0.78125], "texture": "#0"},
				"west": {"uv": [6.4375, 0.78125, 6.4375, 0.78125], "texture": "#0"},
				"up": {"uv": [6.4375, 0.78125, 6.4375, 0.78125], "texture": "#0"},
				"down": {"uv": [6.4375, 0.78125, 6.4375, 0.78125], "texture": "#0"}
			}
		},
		{
			"name": "92fs_79",
			"from": [7.73883, 5.45622, 9.39782],
			"to": [8.44985, 5.48307, 10.39456],
			"rotation": {"angle": 0, "axis": "x", "origin": [8.44347, 5.44806, 10.4211]},
			"faces": {
				"north": {"uv": [6.4375, 0.78125, 6.4375, 0.78125], "texture": "#0"},
				"east": {"uv": [6.4375, 0.78125, 6.4375, 0.78125], "texture": "#0"},
				"west": {"uv": [6.4375, 0.78125, 6.4375, 0.78125], "texture": "#0"},
				"down": {"uv": [6.4375, 0.78125, 6.4375, 0.78125], "texture": "#0"}
			}
		},
		{
			"name": "92fs_80",
			"from": [7.73883, 4.65979, 10.82064],
			"to": [8.44985, 5.47412, 10.82825],
			"rotation": {"angle": 0, "axis": "x", "origin": [8.44347, 5.44806, 10.4211]},
			"faces": {
				"east": {"uv": [6.4375, 0.78125, 6.4375, 0.78125], "texture": "#0"},
				"south": {"uv": [6.4375, 0.78125, 6.4375, 0.78125], "texture": "#0"},
				"west": {"uv": [6.4375, 0.78125, 6.4375, 0.78125], "texture": "#0"},
				"up": {"uv": [6.4375, 0.78125, 6.4375, 0.78125], "texture": "#0"},
				"down": {"uv": [6.4375, 0.78125, 6.4375, 0.78125], "texture": "#0"}
			}
		},
		{
			"name": "92fs_81",
			"from": [7.73883, 5.42043, 9.40543],
			"to": [8.44985, 5.45622, 10.39456],
			"rotation": {"angle": 0, "axis": "x", "origin": [8.44347, 5.44806, 10.4211]},
			"faces": {
				"north": {"uv": [6.4375, 0.78125, 6.4375, 0.78125], "texture": "#0"},
				"east": {"uv": [6.4375, 0.78125, 6.4375, 0.78125], "texture": "#0"},
				"west": {"uv": [6.4375, 0.78125, 6.4375, 0.78125], "texture": "#0"},
				"down": {"uv": [6.4375, 0.78125, 6.4375, 0.78125], "texture": "#0"}
			}
		},
		{
			"name": "92fs_82",
			"from": [7.73883, 4.65979, 10.82825],
			"to": [8.44985, 5.44727, 10.83585],
			"rotation": {"angle": 0, "axis": "x", "origin": [8.44347, 5.44806, 10.4211]},
			"faces": {
				"east": {"uv": [6.4375, 0.78125, 6.4375, 0.78125], "texture": "#0"},
				"south": {"uv": [6.4375, 0.78125, 6.4375, 0.78125], "texture": "#0"},
				"west": {"uv": [6.4375, 0.78125, 6.4375, 0.78125], "texture": "#0"},
				"up": {"uv": [6.4375, 0.78125, 6.4375, 0.78125], "texture": "#0"},
				"down": {"uv": [6.4375, 0.78125, 6.4375, 0.78125], "texture": "#0"}
			}
		},
		{
			"name": "92fs_83",
			"from": [7.73883, 5.32199, 9.41304],
			"to": [8.44985, 5.42043, 10.39456],
			"rotation": {"angle": 0, "axis": "x", "origin": [8.44347, 5.44806, 10.4211]},
			"faces": {
				"north": {"uv": [6.4375, 0.78125, 6.4375, 0.78125], "texture": "#0"},
				"east": {"uv": [6.4375, 0.78125, 6.4375, 0.78125], "texture": "#0"},
				"west": {"uv": [6.4375, 0.78125, 6.4375, 0.78125], "texture": "#0"},
				"down": {"uv": [6.4375, 0.78125, 6.4375, 0.78125], "texture": "#0"}
			}
		},
		{
			"name": "92fs_84",
			"from": [7.73883, 4.65979, 10.83585],
			"to": [8.44985, 5.40253, 10.84346],
			"rotation": {"angle": 0, "axis": "x", "origin": [8.44347, 5.44806, 10.4211]},
			"faces": {
				"east": {"uv": [6.4375, 0.78125, 6.4375, 0.78125], "texture": "#0"},
				"south": {"uv": [6.4375, 0.78125, 6.4375, 0.78125], "texture": "#0"},
				"west": {"uv": [6.4375, 0.78125, 6.4375, 0.78125], "texture": "#0"},
				"up": {"uv": [6.4375, 0.78125, 6.4375, 0.78125], "texture": "#0"},
				"down": {"uv": [6.4375, 0.78125, 6.4375, 0.78125], "texture": "#0"}
			}
		},
		{
			"name": "92fs_85",
			"from": [7.73883, 4.65979, 10.84346],
			"to": [8.44985, 5.37568, 10.85107],
			"rotation": {"angle": 0, "axis": "x", "origin": [8.44347, 5.44806, 10.4211]},
			"faces": {
				"east": {"uv": [6.4375, 0.78125, 6.4375, 0.78125], "texture": "#0"},
				"south": {"uv": [6.4375, 0.78125, 6.4375, 0.78125], "texture": "#0"},
				"west": {"uv": [6.4375, 0.78125, 6.4375, 0.78125], "texture": "#0"},
				"up": {"uv": [6.4375, 0.78125, 6.4375, 0.78125], "texture": "#0"},
				"down": {"uv": [6.4375, 0.78125, 6.4375, 0.78125], "texture": "#0"}
			}
		},
		{
			"name": "92fs_86",
			"from": [7.73883, 4.65979, 10.85107],
			"to": [8.44985, 5.34884, 10.85868],
			"rotation": {"angle": 0, "axis": "x", "origin": [8.44347, 5.44806, 10.4211]},
			"faces": {
				"east": {"uv": [6.4375, 0.78125, 6.4375, 0.78125], "texture": "#0"},
				"south": {"uv": [6.4375, 0.78125, 6.4375, 0.78125], "texture": "#0"},
				"west": {"uv": [6.4375, 0.78125, 6.4375, 0.78125], "texture": "#0"},
				"up": {"uv": [6.4375, 0.78125, 6.4375, 0.78125], "texture": "#0"},
				"down": {"uv": [6.4375, 0.78125, 6.4375, 0.78125], "texture": "#0"}
			}
		},
		{
			"name": "92fs_87",
			"from": [7.73883, 5.27725, 9.42065],
			"to": [8.44985, 5.32199, 10.39456],
			"rotation": {"angle": 0, "axis": "x", "origin": [8.44347, 5.44806, 10.4211]},
			"faces": {
				"north": {"uv": [6.4375, 0.78125, 6.4375, 0.78125], "texture": "#0"},
				"east": {"uv": [6.4375, 0.78125, 6.4375, 0.78125], "texture": "#0"},
				"west": {"uv": [6.4375, 0.78125, 6.4375, 0.78125], "texture": "#0"},
				"down": {"uv": [6.4375, 0.78125, 6.4375, 0.78125], "texture": "#0"}
			}
		},
		{
			"name": "92fs_88",
			"from": [7.73883, 4.65979, 10.85868],
			"to": [8.44985, 5.31304, 10.86629],
			"rotation": {"angle": 0, "axis": "x", "origin": [8.44347, 5.44806, 10.4211]},
			"faces": {
				"east": {"uv": [6.4375, 0.78125, 6.4375, 0.78125], "texture": "#0"},
				"south": {"uv": [6.4375, 0.78125, 6.4375, 0.78125], "texture": "#0"},
				"west": {"uv": [6.4375, 0.78125, 6.4375, 0.78125], "texture": "#0"},
				"up": {"uv": [6.4375, 0.78125, 6.4375, 0.78125], "texture": "#0"},
				"down": {"uv": [6.4375, 0.78125, 6.4375, 0.78125], "texture": "#0"}
			}
		},
		{
			"name": "92fs_89",
			"from": [7.73883, 4.65979, 10.86629],
			"to": [8.44985, 5.2862, 10.8739],
			"rotation": {"angle": 0, "axis": "x", "origin": [8.44347, 5.44806, 10.4211]},
			"faces": {
				"east": {"uv": [6.4375, 0.78125, 6.4375, 0.78125], "texture": "#0"},
				"south": {"uv": [6.4375, 0.78125, 6.4375, 0.78125], "texture": "#0"},
				"west": {"uv": [6.4375, 0.78125, 6.4375, 0.78125], "texture": "#0"},
				"up": {"uv": [6.4375, 0.78125, 6.4375, 0.78125], "texture": "#0"},
				"down": {"uv": [6.4375, 0.78125, 6.4375, 0.78125], "texture": "#0"}
			}
		},
		{
			"name": "92fs_90",
			"from": [7.73883, 5.22356, 9.42826],
			"to": [8.44985, 5.27725, 10.39456],
			"rotation": {"angle": 0, "axis": "x", "origin": [8.44347, 5.44806, 10.4211]},
			"faces": {
				"north": {"uv": [6.4375, 0.78125, 6.4375, 0.78125], "texture": "#0"},
				"east": {"uv": [6.4375, 0.78125, 6.4375, 0.78125], "texture": "#0"},
				"west": {"uv": [6.4375, 0.78125, 6.4375, 0.78125], "texture": "#0"},
				"down": {"uv": [6.4375, 0.78125, 6.4375, 0.78125], "texture": "#0"}
			}
		},
		{
			"name": "92fs_91",
			"from": [7.73883, 4.65979, 10.8739],
			"to": [8.44985, 5.2504, 10.88151],
			"rotation": {"angle": 0, "axis": "x", "origin": [8.44347, 5.44806, 10.4211]},
			"faces": {
				"east": {"uv": [6.4375, 0.78125, 6.4375, 0.78125], "texture": "#0"},
				"south": {"uv": [6.4375, 0.78125, 6.4375, 0.78125], "texture": "#0"},
				"west": {"uv": [6.4375, 0.78125, 6.4375, 0.78125], "texture": "#0"},
				"up": {"uv": [6.4375, 0.78125, 6.4375, 0.78125], "texture": "#0"},
				"down": {"uv": [6.4375, 0.78125, 6.4375, 0.78125], "texture": "#0"}
			}
		},
		{
			"name": "92fs_92",
			"from": [7.73883, 4.97299, 9.43587],
			"to": [8.44985, 5.22356, 10.39456],
			"rotation": {"angle": 0, "axis": "x", "origin": [8.44347, 5.44806, 10.4211]},
			"faces": {
				"north": {"uv": [6.4375, 0.78125, 6.4375, 0.78125], "texture": "#0"},
				"east": {"uv": [6.4375, 0.78125, 6.4375, 0.78125], "texture": "#0"},
				"west": {"uv": [6.4375, 0.78125, 6.4375, 0.78125], "texture": "#0"},
				"down": {"uv": [6.4375, 0.78125, 6.4375, 0.78125], "texture": "#0"}
			}
		},
		{
			"name": "93fs_93",
			"from": [7.73883, 4.68663, 10.88151],
			"to": [8.44985, 5.22356, 10.88912],
			"rotation": {"angle": 0, "axis": "x", "origin": [8.44347, 5.44806, 10.4211]},
			"faces": {
				"east": {"uv": [6.4375, 0.78125, 6.4375, 0.78125], "texture": "#0"},
				"south": {"uv": [6.4375, 0.78125, 6.4375, 0.78125], "texture": "#0"},
				"west": {"uv": [6.4375, 0.78125, 6.4375, 0.78125], "texture": "#0"},
				"up": {"uv": [6.4375, 0.78125, 6.4375, 0.78125], "texture": "#0"},
				"down": {"uv": [6.4375, 0.78125, 6.4375, 0.78125], "texture": "#0"}
			}
		},
		{
			"name": "94fs_94",
			"from": [7.73883, 4.74033, 10.88912],
			"to": [8.44985, 5.18776, 10.89673],
			"rotation": {"angle": 0, "axis": "x", "origin": [8.44347, 5.44806, 10.4211]},
			"faces": {
				"east": {"uv": [6.4375, 0.78125, 6.4375, 0.78125], "texture": "#0"},
				"south": {"uv": [6.4375, 0.78125, 6.4375, 0.78125], "texture": "#0"},
				"west": {"uv": [6.4375, 0.78125, 6.4375, 0.78125], "texture": "#0"},
				"up": {"uv": [6.4375, 0.78125, 6.4375, 0.78125], "texture": "#0"},
				"down": {"uv": [6.4375, 0.78125, 6.4375, 0.78125], "texture": "#0"}
			}
		},
		{
			"name": "92fs_95",
			"from": [7.73883, 4.80297, 10.89673],
			"to": [8.44985, 5.13407, 10.90434],
			"rotation": {"angle": 0, "axis": "x", "origin": [8.44347, 5.44806, 10.4211]},
			"faces": {
				"east": {"uv": [6.4375, 0.78125, 6.4375, 0.78125], "texture": "#0"},
				"south": {"uv": [6.4375, 0.78125, 6.4375, 0.78125], "texture": "#0"},
				"west": {"uv": [6.4375, 0.78125, 6.4375, 0.78125], "texture": "#0"},
				"up": {"uv": [6.4375, 0.78125, 6.4375, 0.78125], "texture": "#0"},
				"down": {"uv": [6.4375, 0.78125, 6.4375, 0.78125], "texture": "#0"}
			}
		},
		{
			"name": "92fs_96",
			"from": [7.73883, 4.72243, 9.44347],
			"to": [8.44985, 4.97299, 10.39456],
			"rotation": {"angle": 0, "axis": "x", "origin": [8.44347, 5.44806, 10.4211]},
			"faces": {
				"north": {"uv": [6.4375, 0.78125, 6.4375, 0.78125], "texture": "#0"},
				"east": {"uv": [6.4375, 0.78125, 6.4375, 0.78125], "texture": "#0"},
				"west": {"uv": [6.4375, 0.78125, 6.4375, 0.78125], "texture": "#0"},
				"down": {"uv": [6.4375, 0.78125, 6.4375, 0.78125], "texture": "#0"}
			}
		},
		{
			"name": "92fs_97",
			"from": [7.73883, 4.65979, 9.45108],
			"to": [8.44985, 4.72243, 10.39456],
			"rotation": {"angle": 0, "axis": "x", "origin": [8.44347, 5.44806, 10.4211]},
			"faces": {
				"north": {"uv": [6.4375, 0.78125, 6.4375, 0.78125], "texture": "#0"},
				"east": {"uv": [6.4375, 0.78125, 6.4375, 0.78125], "texture": "#0"},
				"west": {"uv": [6.4375, 0.78125, 6.4375, 0.78125], "texture": "#0"},
				"down": {"uv": [6.4375, 0.78125, 6.4375, 0.78125], "texture": "#0"}
			}
		},
		{
			"name": "94fs_4",
			"from": [7.75241, 7.70445, 8.14296],
			"to": [8.43626, 7.96124, 9.21432],
			"rotation": {"angle": 0, "axis": "x", "origin": [8.42988, 7.01134, 9.51712]},
			"faces": {
				"north": {"uv": [6.4375, 0.71875, 6.4375, 0.71875], "texture": "#0"},
				"east": {"uv": [6.4375, 0.71875, 6.4375, 0.71875], "texture": "#0"},
				"south": {"uv": [6.4375, 0.71875, 6.4375, 0.71875], "texture": "#0"},
				"west": {"uv": [6.4375, 0.71875, 6.4375, 0.71875], "texture": "#0"},
				"up": {"uv": [6.4375, 0.71875, 6.4375, 0.71875], "texture": "#0"},
				"down": {"uv": [6.4375, 0.71875, 6.4375, 0.71875], "texture": "#0"}
			}
		},
		{
			"name": "95fs_5",
			"from": [7.84078, 7.53453, 6.9014],
			"to": [8.34789, 7.96124, 7.7394],
			"rotation": {"angle": 0, "axis": "x", "origin": [8.34151, 7.01134, 8.0422]},
			"faces": {
				"north": {"uv": [6.4375, 0.71875, 6.4375, 0.71875], "texture": "#0"},
				"east": {"uv": [6.4375, 0.71875, 6.4375, 0.71875], "texture": "#0"},
				"south": {"uv": [6.4375, 0.71875, 6.4375, 0.71875], "texture": "#0"},
				"west": {"uv": [6.4375, 0.71875, 6.4375, 0.71875], "texture": "#0"},
				"up": {"uv": [6.4375, 0.71875, 6.4375, 0.71875], "texture": "#0"},
				"down": {"uv": [6.4375, 0.71875, 6.4375, 0.71875], "texture": "#0"}
			}
		},
		{
			"name": "hexadecagon",
			"from": [7.70918, 5.7522, 9.45932],
			"to": [8.47949, 6.5642, 10.27132],
			"rotation": {"angle": 0, "axis": "x", "origin": [8.18949, 6.1582, 9.75079]},
			"faces": {
				"north": {"uv": [6.4375, 0.625, 6.4375, 0.625], "texture": "#0"},
				"east": {"uv": [6.4375, 0.625, 6.4375, 0.625], "texture": "#0"},
				"south": {"uv": [6.4375, 0.625, 6.4375, 0.625], "texture": "#0"},
				"west": {"uv": [6.4375, 0.625, 6.4375, 0.625], "texture": "#0"},
				"up": {"uv": [6.4375, 0.625, 6.4375, 0.625], "texture": "#0"},
				"down": {"uv": [6.4375, 0.625, 6.4375, 0.625], "texture": "#0"}
			}
		},
		{
			"name": "hexadecagon",
			"from": [7.68653, 4.77463, 9.89973],
			"to": [8.50215, 5.09943, 10.22453],
			"rotation": {"angle": 0, "axis": "x", "origin": [8.21215, 4.88266, 10.00227]},
			"faces": {
				"north": {"uv": [6.4375, 0.625, 6.4375, 0.625], "texture": "#0"},
				"east": {"uv": [6.4375, 0.625, 6.4375, 0.625], "texture": "#0"},
				"south": {"uv": [6.4375, 0.625, 6.4375, 0.625], "texture": "#0"},
				"west": {"uv": [6.4375, 0.625, 6.4375, 0.625], "texture": "#0"},
				"up": {"uv": [6.4375, 0.625, 6.4375, 0.625], "texture": "#0"},
				"down": {"uv": [6.4375, 0.625, 6.4375, 0.625], "texture": "#0"}
			}
		},
		{
			"name": "hexadecagon",
			"from": [7.68653, 6.9519, 9.44887],
			"to": [8.50215, 7.2767, 9.77367],
			"rotation": {"angle": 0, "axis": "x", "origin": [8.21215, 7.1143, 9.57406]},
			"faces": {
				"north": {"uv": [6.4375, 0.625, 6.4375, 0.625], "texture": "#0"},
				"east": {"uv": [6.4375, 0.625, 6.4375, 0.625], "texture": "#0"},
				"south": {"uv": [6.4375, 0.625, 6.4375, 0.625], "texture": "#0"},
				"west": {"uv": [6.4375, 0.625, 6.4375, 0.625], "texture": "#0"},
				"up": {"uv": [6.4375, 0.625, 6.4375, 0.625], "texture": "#0"},
				"down": {"uv": [6.4375, 0.625, 6.4375, 0.625], "texture": "#0"}
			}
		},
		{
			"name": "hexadecagon",
			"from": [7.89183, 8.38848, 3.89187],
			"to": [8.29684, 8.79349, 10.05211],
			"rotation": {"angle": 0, "axis": "z", "origin": [7.93221, 8.59148, 4.14109]},
			"faces": {
				"north": {"uv": [6.4375, 0.25, 6.4375, 0.25], "texture": "#0"},
				"east": {"uv": [6.4375, 0.25, 6.4375, 0.25], "texture": "#0"},
				"south": {"uv": [6.4375, 0.25, 6.4375, 0.25], "texture": "#0"},
				"west": {"uv": [6.4375, 0.25, 6.4375, 0.25], "texture": "#0"},
				"up": {"uv": [6.4375, 0.25, 6.4375, 0.25], "texture": "#0"},
				"down": {"uv": [6.4375, 0.25, 6.4375, 0.25], "texture": "#0"}
			}
		}
	],
	"groups": [
		{
			"name": "group",
			"origin": [8.39844, 8.92578, 4.41797],
			"color": 0,
			"children": [0, 1, 2, 3, 4, 5, 6, 7, 8, 9, 10, 11, 12, 13]
		},
		{
			"name": "group",
			"origin": [8.39844, 8.02734, 4.33594],
			"color": 0,
			"children": [14, 15]
		},
		{
			"name": "hexadecagon",
			"origin": [8, 8, 8],
			"color": 0,
			"children": []
		},
		{
			"name": "hexadecagon",
			"origin": [8, 8, 8],
			"color": 0,
			"children": [16]
		},
		{
			"name": "92fs",
			"origin": [8, 8, 8],
			"color": 0,
			"children": [17, 18]
		},
		{
			"name": "group",
			"origin": [8.59805, 3.43187, 15.00339],
			"color": 0,
			"children": [19, 20, 21, 22, 23, 24, 25]
		},
		{
			"name": "92fs",
			"origin": [8, 8, 8],
			"color": 0,
			"children": [26, 27, 28, 29, 30, 31, 32, 33, 34, 35, 36, 37, 38, 39, 40, 41, 42, 43, 44, 45, 46, 47, 48, 49, 50, 51, 52, 53, 54, 55, 56, 57, 58, 59, 60, 61, 62, 63, 64, 65, 66, 67, 68, 69, 70, 71, 72, 73, 74, 75, 76, 77, 78, 79, 80, 81, 82, 83, 84, 85, 86, 87, 88, 89, 90, 91, 92, 93, 94, 95, 96, 97, 98, 99, 100, 101, 102, 103, 104, 105, 106, 107, 108, 109, 110, 111, 112, 113, 114, 115, 116, 117, 118, 119, 120]
		},
		{
			"name": "group",
			"origin": [8.50039, 6.27562, 13.26901],
			"color": 0,
			"children": [121, 122]
		},
		{
			"name": "hexadecagon",
			"origin": [8, 8, 8],
			"color": 0,
			"children": [123]
		},
		{
			"name": "hexadecagon",
			"origin": [8, 8, 8],
			"color": 0,
			"children": [124]
		},
		{
			"name": "hexadecagon",
			"origin": [8, 8, 8],
			"color": 0,
			"children": [125]
		},
		{
			"name": "hexadecagon",
			"origin": [8, 8, 8],
			"color": 0,
			"children": [126]
		}
	]
}