{
  "type": "ava:outpost_snow",
  "config": {
    "start_pool": "ava:outpost_snow/start_pool",
    "size": 2
  },

  "biomes": "#ava:has_structure/outpost_snow",
  "adapt_noise": true,
  "spawn_overrides": {

  }
}