{
	"credit": "Made with Blockbench",
	"textures": {
		"1": "ava:item/gun_textures/palette_desert",
		"particle": "ava:item/gun_textures/palette_black"
	},
	"elements": [
		{
			"name": "k1a1_1",
			"from": [7.55937, 6.17531, 8.904],
			"to": [8.44063, 6.20381, 9.189],
			"rotation": {"angle": 0, "axis": "y", "origin": [7.9625, 4.33894, 9.05937]},
			"faces": {
				"north": {"uv": [0.3125, 1.28125, 0.3125, 1.28125], "texture": "#1"},
				"east": {"uv": [0.3125, 1.28125, 0.3125, 1.28125], "texture": "#1"},
				"west": {"uv": [0.3125, 1.28125, 0.3125, 1.28125], "texture": "#1"},
				"up": {"uv": [0.3125, 1.28125, 0.3125, 1.28125], "texture": "#1"},
				"down": {"uv": [0.3125, 1.28125, 0.3125, 1.28125], "texture": "#1"}
			}
		},
		{
			"name": "k1a1_2",
			"from": [7.55937, 1.47281, 8.9325],
			"to": [8.44063, 6.17531, 9.246],
			"rotation": {"angle": 0, "axis": "y", "origin": [7.9625, 4.33894, 9.05937]},
			"faces": {
				"east": {"uv": [0.3125, 1.28125, 0.3125, 1.28125], "texture": "#1"},
				"west": {"uv": [0.3125, 1.28125, 0.3125, 1.28125], "texture": "#1"},
				"down": {"uv": [0.3125, 1.28125, 0.3125, 1.28125], "texture": "#1"}
			}
		},
		{
			"name": "k1a1_3",
			"from": [7.55937, 1.41581, 9.246],
			"to": [8.44063, 6.14681, 9.36],
			"rotation": {"angle": 0, "axis": "y", "origin": [7.9625, 4.33894, 9.05937]},
			"faces": {
				"east": {"uv": [0.3125, 1.28125, 0.3125, 1.28125], "texture": "#1"},
				"west": {"uv": [0.3125, 1.28125, 0.3125, 1.28125], "texture": "#1"},
				"down": {"uv": [0.3125, 1.28125, 0.3125, 1.28125], "texture": "#1"}
			}
		},
		{
			"name": "k1a1_4",
			"from": [7.55937, 1.38731, 9.36],
			"to": [8.44063, 6.11831, 9.5595],
			"rotation": {"angle": 0, "axis": "y", "origin": [7.9625, 4.33894, 9.05937]},
			"faces": {
				"east": {"uv": [0.3125, 1.28125, 0.3125, 1.28125], "texture": "#1"},
				"west": {"uv": [0.3125, 1.28125, 0.3125, 1.28125], "texture": "#1"},
				"down": {"uv": [0.3125, 1.28125, 0.3125, 1.28125], "texture": "#1"}
			}
		},
		{
			"name": "k1a1_5",
			"from": [7.55937, 1.33031, 9.5595],
			"to": [8.44063, 6.08981, 9.6735],
			"rotation": {"angle": 0, "axis": "y", "origin": [7.9625, 4.33894, 9.05937]},
			"faces": {
				"north": {"uv": [0.3125, 1.28125, 0.3125, 1.28125], "texture": "#1"},
				"east": {"uv": [0.3125, 1.28125, 0.3125, 1.28125], "texture": "#1"},
				"west": {"uv": [0.3125, 1.28125, 0.3125, 1.28125], "texture": "#1"},
				"down": {"uv": [0.3125, 1.28125, 0.3125, 1.28125], "texture": "#1"}
			}
		},
		{
			"name": "k1a1_6",
			"from": [7.55937, 1.30181, 9.6735],
			"to": [8.44063, 6.06131, 9.816],
			"rotation": {"angle": 0, "axis": "y", "origin": [7.9625, 4.33894, 9.05937]},
			"faces": {
				"north": {"uv": [0.3125, 1.28125, 0.3125, 1.28125], "texture": "#1"},
				"east": {"uv": [0.3125, 1.28125, 0.3125, 1.28125], "texture": "#1"},
				"west": {"uv": [0.3125, 1.28125, 0.3125, 1.28125], "texture": "#1"},
				"down": {"uv": [0.3125, 1.28125, 0.3125, 1.28125], "texture": "#1"}
			}
		},
		{
			"name": "k1a1_7",
			"from": [7.55937, 1.47281, 8.904],
			"to": [8.44063, 6.03281, 8.9325],
			"rotation": {"angle": 0, "axis": "y", "origin": [7.9625, 4.33894, 9.05937]},
			"faces": {
				"north": {"uv": [0.3125, 1.28125, 0.3125, 1.28125], "texture": "#1"},
				"east": {"uv": [0.3125, 1.28125, 0.3125, 1.28125], "texture": "#1"},
				"west": {"uv": [0.3125, 1.28125, 0.3125, 1.28125], "texture": "#1"},
				"up": {"uv": [0.3125, 1.28125, 0.3125, 1.28125], "texture": "#1"},
				"down": {"uv": [0.3125, 1.28125, 0.3125, 1.28125], "texture": "#1"}
			}
		},
		{
			"name": "k1a1_8",
			"from": [7.55937, 1.27331, 9.816],
			"to": [8.44063, 6.03281, 9.9585],
			"rotation": {"angle": 0, "axis": "y", "origin": [7.9625, 4.33894, 9.05937]},
			"faces": {
				"east": {"uv": [0.3125, 1.28125, 0.3125, 1.28125], "texture": "#1"},
				"west": {"uv": [0.3125, 1.28125, 0.3125, 1.28125], "texture": "#1"},
				"down": {"uv": [0.3125, 1.28125, 0.3125, 1.28125], "texture": "#1"}
			}
		},
		{
			"name": "k1a1_9",
			"from": [7.55937, 1.24481, 9.9585],
			"to": [8.44063, 6.00431, 10.0725],
			"rotation": {"angle": 0, "axis": "y", "origin": [7.9625, 4.33894, 9.05937]},
			"faces": {
				"east": {"uv": [0.3125, 1.28125, 0.3125, 1.28125], "texture": "#1"},
				"west": {"uv": [0.3125, 1.28125, 0.3125, 1.28125], "texture": "#1"},
				"down": {"uv": [0.3125, 1.28125, 0.3125, 1.28125], "texture": "#1"}
			}
		},
		{
			"name": "k1a1_10",
			"from": [7.55937, 1.24481, 10.0725],
			"to": [8.44063, 5.97581, 10.272],
			"rotation": {"angle": 0, "axis": "y", "origin": [7.9625, 4.33894, 9.05937]},
			"faces": {
				"east": {"uv": [0.3125, 1.28125, 0.3125, 1.28125], "texture": "#1"},
				"west": {"uv": [0.3125, 1.28125, 0.3125, 1.28125], "texture": "#1"},
				"down": {"uv": [0.3125, 1.28125, 0.3125, 1.28125], "texture": "#1"}
			}
		},
		{
			"name": "k1a1_11",
			"from": [7.55937, 1.18781, 10.272],
			"to": [8.44063, 5.94731, 10.3575],
			"rotation": {"angle": 0, "axis": "y", "origin": [7.9625, 4.33894, 9.05937]},
			"faces": {
				"east": {"uv": [0.3125, 1.28125, 0.3125, 1.28125], "texture": "#1"},
				"west": {"uv": [0.3125, 1.28125, 0.3125, 1.28125], "texture": "#1"},
				"down": {"uv": [0.3125, 1.28125, 0.3125, 1.28125], "texture": "#1"}
			}
		},
		{
			"name": "k1a1_12",
			"from": [7.55937, 1.38731, 10.3575],
			"to": [8.44063, 5.91881, 10.4715],
			"rotation": {"angle": 0, "axis": "y", "origin": [7.9625, 4.33894, 9.05937]},
			"faces": {
				"east": {"uv": [0.3125, 1.28125, 0.3125, 1.28125], "texture": "#1"},
				"south": {"uv": [0.3125, 1.28125, 0.3125, 1.28125], "texture": "#1"},
				"west": {"uv": [0.3125, 1.28125, 0.3125, 1.28125], "texture": "#1"},
				"down": {"uv": [0.3125, 1.28125, 0.3125, 1.28125], "texture": "#1"}
			}
		},
		{
			"name": "k1a1_13",
			"from": [7.55937, 1.84331, 10.4715],
			"to": [8.44063, 5.89031, 10.614],
			"rotation": {"angle": 0, "axis": "y", "origin": [7.9625, 4.33894, 9.05937]},
			"faces": {
				"east": {"uv": [0.3125, 1.28125, 0.3125, 1.28125], "texture": "#1"},
				"south": {"uv": [0.3125, 1.28125, 0.3125, 1.28125], "texture": "#1"},
				"west": {"uv": [0.3125, 1.28125, 0.3125, 1.28125], "texture": "#1"},
				"down": {"uv": [0.3125, 1.28125, 0.3125, 1.28125], "texture": "#1"}
			}
		},
		{
			"name": "k1a1_14",
			"from": [7.55937, 2.44181, 10.614],
			"to": [8.44063, 5.86181, 10.8135],
			"rotation": {"angle": 0, "axis": "y", "origin": [7.9625, 4.33894, 9.05937]},
			"faces": {
				"east": {"uv": [0.3125, 1.28125, 0.3125, 1.28125], "texture": "#1"},
				"south": {"uv": [0.3125, 1.28125, 0.3125, 1.28125], "texture": "#1"},
				"west": {"uv": [0.3125, 1.28125, 0.3125, 1.28125], "texture": "#1"},
				"down": {"uv": [0.3125, 1.28125, 0.3125, 1.28125], "texture": "#1"}
			}
		},
		{
			"name": "k1a1_15",
			"from": [7.55937, 2.84081, 10.8135],
			"to": [8.44063, 5.83331, 10.9275],
			"rotation": {"angle": 0, "axis": "y", "origin": [7.9625, 4.33894, 9.05937]},
			"faces": {
				"east": {"uv": [0.3125, 1.28125, 0.3125, 1.28125], "texture": "#1"},
				"south": {"uv": [0.3125, 1.28125, 0.3125, 1.28125], "texture": "#1"},
				"west": {"uv": [0.3125, 1.28125, 0.3125, 1.28125], "texture": "#1"},
				"down": {"uv": [0.3125, 1.28125, 0.3125, 1.28125], "texture": "#1"}
			}
		},
		{
			"name": "k1a1_16",
			"from": [7.55937, 3.23981, 10.9275],
			"to": [8.44063, 5.80481, 11.0415],
			"rotation": {"angle": 0, "axis": "y", "origin": [7.9625, 4.33894, 9.05937]},
			"faces": {
				"east": {"uv": [0.3125, 1.28125, 0.3125, 1.28125], "texture": "#1"},
				"south": {"uv": [0.3125, 1.28125, 0.3125, 1.28125], "texture": "#1"},
				"west": {"uv": [0.3125, 1.28125, 0.3125, 1.28125], "texture": "#1"},
				"down": {"uv": [0.3125, 1.28125, 0.3125, 1.28125], "texture": "#1"}
			}
		},
		{
			"name": "k1a1_17",
			"from": [7.55937, 3.75281, 11.0415],
			"to": [8.44063, 5.77631, 11.1555],
			"rotation": {"angle": 0, "axis": "y", "origin": [7.9625, 4.33894, 9.05937]},
			"faces": {
				"east": {"uv": [0.3125, 1.28125, 0.3125, 1.28125], "texture": "#1"},
				"south": {"uv": [0.3125, 1.28125, 0.3125, 1.28125], "texture": "#1"},
				"west": {"uv": [0.3125, 1.28125, 0.3125, 1.28125], "texture": "#1"},
				"down": {"uv": [0.3125, 1.28125, 0.3125, 1.28125], "texture": "#1"}
			}
		},
		{
			"name": "k1a1_18",
			"from": [7.55937, 4.72181, 11.1555],
			"to": [8.44063, 5.74781, 11.3265],
			"rotation": {"angle": 0, "axis": "y", "origin": [7.9625, 4.33894, 9.05937]},
			"faces": {
				"east": {"uv": [0.3125, 1.28125, 0.3125, 1.28125], "texture": "#1"},
				"south": {"uv": [0.3125, 1.28125, 0.3125, 1.28125], "texture": "#1"},
				"west": {"uv": [0.3125, 1.28125, 0.3125, 1.28125], "texture": "#1"},
				"up": {"uv": [0.3125, 1.28125, 0.3125, 1.28125], "texture": "#1"},
				"down": {"uv": [0.3125, 1.28125, 0.3125, 1.28125], "texture": "#1"}
			}
		},
		{
			"name": "k1a1_19",
			"from": [7.55937, 5.75494, 8.91112],
			"to": [8.44063, 7.84969, 11.3265],
			"rotation": {"angle": 0, "axis": "y", "origin": [7.9625, 5.37206, 9.05937]},
			"faces": {
				"north": {"uv": [0.3125, 1.28125, 0.3125, 1.28125], "texture": "#1"},
				"east": {"uv": [0.3125, 1.28125, 0.3125, 1.28125], "texture": "#1"},
				"south": {"uv": [0.3125, 1.28125, 0.3125, 1.28125], "texture": "#1"},
				"west": {"uv": [0.3125, 1.28125, 0.3125, 1.28125], "texture": "#1"},
				"up": {"uv": [0.3125, 1.28125, 0.3125, 1.28125], "texture": "#1"},
				"down": {"uv": [0.3125, 1.28125, 0.3125, 1.28125], "texture": "#1"}
			}
		},
		{
			"name": "k1a1_19",
			"from": [7.55937, 1.47281, 8.8755],
			"to": [8.44063, 5.57681, 8.904],
			"rotation": {"angle": 0, "axis": "y", "origin": [7.9625, 4.33894, 9.05937]},
			"faces": {
				"north": {"uv": [0.3125, 1.28125, 0.3125, 1.28125], "texture": "#1"},
				"east": {"uv": [0.3125, 1.28125, 0.3125, 1.28125], "texture": "#1"},
				"west": {"uv": [0.3125, 1.28125, 0.3125, 1.28125], "texture": "#1"},
				"up": {"uv": [0.3125, 1.28125, 0.3125, 1.28125], "texture": "#1"},
				"down": {"uv": [0.3125, 1.28125, 0.3125, 1.28125], "texture": "#1"}
			}
		},
		{
			"name": "k1a1_20",
			"from": [7.55937, 1.50131, 8.847],
			"to": [8.44063, 5.29181, 8.8755],
			"rotation": {"angle": 0, "axis": "y", "origin": [7.9625, 4.33894, 9.05937]},
			"faces": {
				"north": {"uv": [0.3125, 1.28125, 0.3125, 1.28125], "texture": "#1"},
				"east": {"uv": [0.3125, 1.28125, 0.3125, 1.28125], "texture": "#1"},
				"west": {"uv": [0.3125, 1.28125, 0.3125, 1.28125], "texture": "#1"},
				"up": {"uv": [0.3125, 1.28125, 0.3125, 1.28125], "texture": "#1"},
				"down": {"uv": [0.3125, 1.28125, 0.3125, 1.28125], "texture": "#1"}
			}
		},
		{
			"name": "k1a1_21",
			"from": [7.55937, 1.50131, 8.8185],
			"to": [8.44063, 5.12081, 8.847],
			"rotation": {"angle": 0, "axis": "y", "origin": [7.9625, 4.33894, 9.05937]},
			"faces": {
				"north": {"uv": [0.3125, 1.28125, 0.3125, 1.28125], "texture": "#1"},
				"east": {"uv": [0.3125, 1.28125, 0.3125, 1.28125], "texture": "#1"},
				"west": {"uv": [0.3125, 1.28125, 0.3125, 1.28125], "texture": "#1"},
				"up": {"uv": [0.3125, 1.28125, 0.3125, 1.28125], "texture": "#1"},
				"down": {"uv": [0.3125, 1.28125, 0.3125, 1.28125], "texture": "#1"}
			}
		},
		{
			"name": "k1a1_22",
			"from": [7.55937, 1.50131, 8.79],
			"to": [8.44063, 4.94981, 8.8185],
			"rotation": {"angle": 0, "axis": "y", "origin": [7.9625, 4.33894, 9.05937]},
			"faces": {
				"north": {"uv": [0.3125, 1.28125, 0.3125, 1.28125], "texture": "#1"},
				"east": {"uv": [0.3125, 1.28125, 0.3125, 1.28125], "texture": "#1"},
				"west": {"uv": [0.3125, 1.28125, 0.3125, 1.28125], "texture": "#1"},
				"up": {"uv": [0.3125, 1.28125, 0.3125, 1.28125], "texture": "#1"},
				"down": {"uv": [0.3125, 1.28125, 0.3125, 1.28125], "texture": "#1"}
			}
		},
		{
			"name": "k1a1_23",
			"from": [7.55937, 1.52981, 8.7615],
			"to": [8.44063, 4.80731, 8.79],
			"rotation": {"angle": 0, "axis": "y", "origin": [7.9625, 4.33894, 9.05937]},
			"faces": {
				"north": {"uv": [0.3125, 1.28125, 0.3125, 1.28125], "texture": "#1"},
				"east": {"uv": [0.3125, 1.28125, 0.3125, 1.28125], "texture": "#1"},
				"west": {"uv": [0.3125, 1.28125, 0.3125, 1.28125], "texture": "#1"},
				"up": {"uv": [0.3125, 1.28125, 0.3125, 1.28125], "texture": "#1"},
				"down": {"uv": [0.3125, 1.28125, 0.3125, 1.28125], "texture": "#1"}
			}
		},
		{
			"name": "k1a1_24",
			"from": [7.55937, 4.55081, 11.1555],
			"to": [8.44063, 4.72181, 11.298],
			"rotation": {"angle": 0, "axis": "y", "origin": [7.9625, 4.33894, 9.05937]},
			"faces": {
				"east": {"uv": [0.3125, 1.28125, 0.3125, 1.28125], "texture": "#1"},
				"south": {"uv": [0.3125, 1.28125, 0.3125, 1.28125], "texture": "#1"},
				"west": {"uv": [0.3125, 1.28125, 0.3125, 1.28125], "texture": "#1"},
				"down": {"uv": [0.3125, 1.28125, 0.3125, 1.28125], "texture": "#1"}
			}
		},
		{
			"name": "k1a1_25",
			"from": [7.55937, 1.52981, 8.733],
			"to": [8.44063, 4.60781, 8.7615],
			"rotation": {"angle": 0, "axis": "y", "origin": [7.9625, 4.33894, 9.05937]},
			"faces": {
				"north": {"uv": [0.3125, 1.28125, 0.3125, 1.28125], "texture": "#1"},
				"east": {"uv": [0.3125, 1.28125, 0.3125, 1.28125], "texture": "#1"},
				"west": {"uv": [0.3125, 1.28125, 0.3125, 1.28125], "texture": "#1"},
				"up": {"uv": [0.3125, 1.28125, 0.3125, 1.28125], "texture": "#1"},
				"down": {"uv": [0.3125, 1.28125, 0.3125, 1.28125], "texture": "#1"}
			}
		},
		{
			"name": "k1a1_26",
			"from": [7.55937, 4.37981, 11.1555],
			"to": [8.44063, 4.55081, 11.2695],
			"rotation": {"angle": 0, "axis": "y", "origin": [7.9625, 4.33894, 9.05937]},
			"faces": {
				"east": {"uv": [0.3125, 1.28125, 0.3125, 1.28125], "texture": "#1"},
				"south": {"uv": [0.3125, 1.28125, 0.3125, 1.28125], "texture": "#1"},
				"west": {"uv": [0.3125, 1.28125, 0.3125, 1.28125], "texture": "#1"},
				"down": {"uv": [0.3125, 1.28125, 0.3125, 1.28125], "texture": "#1"}
			}
		},
		{
			"name": "k1a1_27",
			"from": [7.55937, 1.52981, 8.7045],
			"to": [8.44063, 4.43681, 8.733],
			"rotation": {"angle": 0, "axis": "y", "origin": [7.9625, 4.33894, 9.05937]},
			"faces": {
				"north": {"uv": [0.3125, 1.28125, 0.3125, 1.28125], "texture": "#1"},
				"east": {"uv": [0.3125, 1.28125, 0.3125, 1.28125], "texture": "#1"},
				"west": {"uv": [0.3125, 1.28125, 0.3125, 1.28125], "texture": "#1"},
				"up": {"uv": [0.3125, 1.28125, 0.3125, 1.28125], "texture": "#1"},
				"down": {"uv": [0.3125, 1.28125, 0.3125, 1.28125], "texture": "#1"}
			}
		},
		{
			"name": "k1a1_28",
			"from": [7.55937, 4.20881, 11.1555],
			"to": [8.44063, 4.37981, 11.241],
			"rotation": {"angle": 0, "axis": "y", "origin": [7.9625, 4.33894, 9.05937]},
			"faces": {
				"east": {"uv": [0.3125, 1.28125, 0.3125, 1.28125], "texture": "#1"},
				"south": {"uv": [0.3125, 1.28125, 0.3125, 1.28125], "texture": "#1"},
				"west": {"uv": [0.3125, 1.28125, 0.3125, 1.28125], "texture": "#1"},
				"down": {"uv": [0.3125, 1.28125, 0.3125, 1.28125], "texture": "#1"}
			}
		},
		{
			"name": "k1a1_29",
			"from": [7.55937, 1.52981, 8.676],
			"to": [8.44063, 4.32281, 8.7045],
			"rotation": {"angle": 0, "axis": "y", "origin": [7.9625, 4.33894, 9.05937]},
			"faces": {
				"north": {"uv": [0.3125, 1.28125, 0.3125, 1.28125], "texture": "#1"},
				"east": {"uv": [0.3125, 1.28125, 0.3125, 1.28125], "texture": "#1"},
				"west": {"uv": [0.3125, 1.28125, 0.3125, 1.28125], "texture": "#1"},
				"up": {"uv": [0.3125, 1.28125, 0.3125, 1.28125], "texture": "#1"},
				"down": {"uv": [0.3125, 1.28125, 0.3125, 1.28125], "texture": "#1"}
			}
		},
		{
			"name": "k1a1_30",
			"from": [7.55937, 4.09481, 11.1555],
			"to": [8.44063, 4.20881, 11.2125],
			"rotation": {"angle": 0, "axis": "y", "origin": [7.9625, 4.33894, 9.05937]},
			"faces": {
				"east": {"uv": [0.3125, 1.28125, 0.3125, 1.28125], "texture": "#1"},
				"south": {"uv": [0.3125, 1.28125, 0.3125, 1.28125], "texture": "#1"},
				"west": {"uv": [0.3125, 1.28125, 0.3125, 1.28125], "texture": "#1"},
				"down": {"uv": [0.3125, 1.28125, 0.3125, 1.28125], "texture": "#1"}
			}
		},
		{
			"name": "k1a1_31",
			"from": [7.55937, 1.52981, 8.6475],
			"to": [8.44063, 4.15181, 8.676],
			"rotation": {"angle": 0, "axis": "y", "origin": [7.9625, 4.33894, 9.05937]},
			"faces": {
				"north": {"uv": [0.3125, 1.28125, 0.3125, 1.28125], "texture": "#1"},
				"east": {"uv": [0.3125, 1.28125, 0.3125, 1.28125], "texture": "#1"},
				"west": {"uv": [0.3125, 1.28125, 0.3125, 1.28125], "texture": "#1"},
				"up": {"uv": [0.3125, 1.28125, 0.3125, 1.28125], "texture": "#1"},
				"down": {"uv": [0.3125, 1.28125, 0.3125, 1.28125], "texture": "#1"}
			}
		},
		{
			"name": "k1a1_32",
			"from": [7.55937, 3.86681, 11.1555],
			"to": [8.44063, 4.09481, 11.184],
			"rotation": {"angle": 0, "axis": "y", "origin": [7.9625, 4.33894, 9.05937]},
			"faces": {
				"east": {"uv": [0.3125, 1.28125, 0.3125, 1.28125], "texture": "#1"},
				"south": {"uv": [0.3125, 1.28125, 0.3125, 1.28125], "texture": "#1"},
				"west": {"uv": [0.3125, 1.28125, 0.3125, 1.28125], "texture": "#1"},
				"down": {"uv": [0.3125, 1.28125, 0.3125, 1.28125], "texture": "#1"}
			}
		},
		{
			"name": "k1a1_33",
			"from": [7.55937, 1.52981, 8.619],
			"to": [8.44063, 4.03781, 8.6475],
			"rotation": {"angle": 0, "axis": "y", "origin": [7.9625, 4.33894, 9.05937]},
			"faces": {
				"north": {"uv": [0.3125, 1.28125, 0.3125, 1.28125], "texture": "#1"},
				"east": {"uv": [0.3125, 1.28125, 0.3125, 1.28125], "texture": "#1"},
				"west": {"uv": [0.3125, 1.28125, 0.3125, 1.28125], "texture": "#1"},
				"up": {"uv": [0.3125, 1.28125, 0.3125, 1.28125], "texture": "#1"},
				"down": {"uv": [0.3125, 1.28125, 0.3125, 1.28125], "texture": "#1"}
			}
		},
		{
			"name": "k1a1_34",
			"from": [7.55937, 1.52981, 8.5905],
			"to": [8.44063, 3.95231, 8.619],
			"rotation": {"angle": 0, "axis": "y", "origin": [7.9625, 4.33894, 9.05937]},
			"faces": {
				"north": {"uv": [0.3125, 1.28125, 0.3125, 1.28125], "texture": "#1"},
				"east": {"uv": [0.3125, 1.28125, 0.3125, 1.28125], "texture": "#1"},
				"west": {"uv": [0.3125, 1.28125, 0.3125, 1.28125], "texture": "#1"},
				"up": {"uv": [0.3125, 1.28125, 0.3125, 1.28125], "texture": "#1"},
				"down": {"uv": [0.3125, 1.28125, 0.3125, 1.28125], "texture": "#1"}
			}
		},
		{
			"name": "k1a1_35",
			"from": [7.55937, 1.52981, 8.562],
			"to": [8.44063, 3.86681, 8.5905],
			"rotation": {"angle": 0, "axis": "y", "origin": [7.9625, 4.33894, 9.05937]},
			"faces": {
				"north": {"uv": [0.3125, 1.28125, 0.3125, 1.28125], "texture": "#1"},
				"east": {"uv": [0.3125, 1.28125, 0.3125, 1.28125], "texture": "#1"},
				"west": {"uv": [0.3125, 1.28125, 0.3125, 1.28125], "texture": "#1"},
				"up": {"uv": [0.3125, 1.28125, 0.3125, 1.28125], "texture": "#1"},
				"down": {"uv": [0.3125, 1.28125, 0.3125, 1.28125], "texture": "#1"}
			}
		},
		{
			"name": "k1a1_36",
			"from": [7.55937, 3.61031, 11.0415],
			"to": [8.44063, 3.75281, 11.127],
			"rotation": {"angle": 0, "axis": "y", "origin": [7.9625, 4.33894, 9.05937]},
			"faces": {
				"east": {"uv": [0.3125, 1.28125, 0.3125, 1.28125], "texture": "#1"},
				"south": {"uv": [0.3125, 1.28125, 0.3125, 1.28125], "texture": "#1"},
				"west": {"uv": [0.3125, 1.28125, 0.3125, 1.28125], "texture": "#1"},
				"down": {"uv": [0.3125, 1.28125, 0.3125, 1.28125], "texture": "#1"}
			}
		},
		{
			"name": "k1a1_37",
			"from": [7.55937, 1.52981, 8.5335],
			"to": [8.44063, 3.72431, 8.562],
			"rotation": {"angle": 0, "axis": "y", "origin": [7.9625, 4.33894, 9.05937]},
			"faces": {
				"north": {"uv": [0.3125, 1.28125, 0.3125, 1.28125], "texture": "#1"},
				"east": {"uv": [0.3125, 1.28125, 0.3125, 1.28125], "texture": "#1"},
				"west": {"uv": [0.3125, 1.28125, 0.3125, 1.28125], "texture": "#1"},
				"up": {"uv": [0.3125, 1.28125, 0.3125, 1.28125], "texture": "#1"},
				"down": {"uv": [0.3125, 1.28125, 0.3125, 1.28125], "texture": "#1"}
			}
		},
		{
			"name": "k1a1_38",
			"from": [7.55937, 1.55831, 8.505],
			"to": [8.44063, 3.61031, 8.5335],
			"rotation": {"angle": 0, "axis": "y", "origin": [7.9625, 4.33894, 9.05937]},
			"faces": {
				"north": {"uv": [0.3125, 1.28125, 0.3125, 1.28125], "texture": "#1"},
				"east": {"uv": [0.3125, 1.28125, 0.3125, 1.28125], "texture": "#1"},
				"west": {"uv": [0.3125, 1.28125, 0.3125, 1.28125], "texture": "#1"},
				"up": {"uv": [0.3125, 1.28125, 0.3125, 1.28125], "texture": "#1"},
				"down": {"uv": [0.3125, 1.28125, 0.3125, 1.28125], "texture": "#1"}
			}
		},
		{
			"name": "k1a1_39",
			"from": [7.55937, 3.46781, 11.0415],
			"to": [8.44063, 3.61031, 11.0985],
			"rotation": {"angle": 0, "axis": "y", "origin": [7.9625, 4.33894, 9.05937]},
			"faces": {
				"east": {"uv": [0.3125, 1.28125, 0.3125, 1.28125], "texture": "#1"},
				"south": {"uv": [0.3125, 1.28125, 0.3125, 1.28125], "texture": "#1"},
				"west": {"uv": [0.3125, 1.28125, 0.3125, 1.28125], "texture": "#1"},
				"down": {"uv": [0.3125, 1.28125, 0.3125, 1.28125], "texture": "#1"}
			}
		},
		{
			"name": "k1a1_40",
			"from": [7.55937, 1.55831, 8.4765],
			"to": [8.44063, 3.52481, 8.505],
			"rotation": {"angle": 0, "axis": "y", "origin": [7.9625, 4.33894, 9.05937]},
			"faces": {
				"north": {"uv": [0.3125, 1.28125, 0.3125, 1.28125], "texture": "#1"},
				"east": {"uv": [0.3125, 1.28125, 0.3125, 1.28125], "texture": "#1"},
				"west": {"uv": [0.3125, 1.28125, 0.3125, 1.28125], "texture": "#1"},
				"up": {"uv": [0.3125, 1.28125, 0.3125, 1.28125], "texture": "#1"},
				"down": {"uv": [0.3125, 1.28125, 0.3125, 1.28125], "texture": "#1"}
			}
		},
		{
			"name": "k1a1_41",
			"from": [7.55937, 3.35381, 11.0415],
			"to": [8.44063, 3.46781, 11.07],
			"rotation": {"angle": 0, "axis": "y", "origin": [7.9625, 4.33894, 9.05937]},
			"faces": {
				"east": {"uv": [0.3125, 1.28125, 0.3125, 1.28125], "texture": "#1"},
				"south": {"uv": [0.3125, 1.28125, 0.3125, 1.28125], "texture": "#1"},
				"west": {"uv": [0.3125, 1.28125, 0.3125, 1.28125], "texture": "#1"},
				"down": {"uv": [0.3125, 1.28125, 0.3125, 1.28125], "texture": "#1"}
			}
		},
		{
			"name": "k1a1_42",
			"from": [7.55937, 1.55831, 8.448],
			"to": [8.44063, 3.41081, 8.4765],
			"rotation": {"angle": 0, "axis": "y", "origin": [7.9625, 4.33894, 9.05937]},
			"faces": {
				"north": {"uv": [0.3125, 1.28125, 0.3125, 1.28125], "texture": "#1"},
				"east": {"uv": [0.3125, 1.28125, 0.3125, 1.28125], "texture": "#1"},
				"west": {"uv": [0.3125, 1.28125, 0.3125, 1.28125], "texture": "#1"},
				"up": {"uv": [0.3125, 1.28125, 0.3125, 1.28125], "texture": "#1"},
				"down": {"uv": [0.3125, 1.28125, 0.3125, 1.28125], "texture": "#1"}
			}
		},
		{
			"name": "k1a1_43",
			"from": [7.55937, 1.58681, 8.4195],
			"to": [8.44063, 3.29681, 8.448],
			"rotation": {"angle": 0, "axis": "y", "origin": [7.9625, 4.33894, 9.05937]},
			"faces": {
				"north": {"uv": [0.3125, 1.28125, 0.3125, 1.28125], "texture": "#1"},
				"east": {"uv": [0.3125, 1.28125, 0.3125, 1.28125], "texture": "#1"},
				"west": {"uv": [0.3125, 1.28125, 0.3125, 1.28125], "texture": "#1"},
				"up": {"uv": [0.3125, 1.28125, 0.3125, 1.28125], "texture": "#1"},
				"down": {"uv": [0.3125, 1.28125, 0.3125, 1.28125], "texture": "#1"}
			}
		},
		{
			"name": "k1a1_44",
			"from": [7.55937, 3.12581, 10.9275],
			"to": [8.44063, 3.23981, 11.013],
			"rotation": {"angle": 0, "axis": "y", "origin": [7.9625, 4.33894, 9.05937]},
			"faces": {
				"east": {"uv": [0.3125, 1.28125, 0.3125, 1.28125], "texture": "#1"},
				"south": {"uv": [0.3125, 1.28125, 0.3125, 1.28125], "texture": "#1"},
				"west": {"uv": [0.3125, 1.28125, 0.3125, 1.28125], "texture": "#1"},
				"down": {"uv": [0.3125, 1.28125, 0.3125, 1.28125], "texture": "#1"}
			}
		},
		{
			"name": "k1a1_45",
			"from": [7.55937, 1.58681, 8.391],
			"to": [8.44063, 3.18281, 8.4195],
			"rotation": {"angle": 0, "axis": "y", "origin": [7.9625, 4.33894, 9.05937]},
			"faces": {
				"north": {"uv": [0.3125, 1.28125, 0.3125, 1.28125], "texture": "#1"},
				"east": {"uv": [0.3125, 1.28125, 0.3125, 1.28125], "texture": "#1"},
				"west": {"uv": [0.3125, 1.28125, 0.3125, 1.28125], "texture": "#1"},
				"up": {"uv": [0.3125, 1.28125, 0.3125, 1.28125], "texture": "#1"},
				"down": {"uv": [0.3125, 1.28125, 0.3125, 1.28125], "texture": "#1"}
			}
		},
		{
			"name": "k1a1_46",
			"from": [7.55937, 3.01181, 10.9275],
			"to": [8.44063, 3.12581, 10.9845],
			"rotation": {"angle": 0, "axis": "y", "origin": [7.9625, 4.33894, 9.05937]},
			"faces": {
				"east": {"uv": [0.3125, 1.28125, 0.3125, 1.28125], "texture": "#1"},
				"south": {"uv": [0.3125, 1.28125, 0.3125, 1.28125], "texture": "#1"},
				"west": {"uv": [0.3125, 1.28125, 0.3125, 1.28125], "texture": "#1"},
				"down": {"uv": [0.3125, 1.28125, 0.3125, 1.28125], "texture": "#1"}
			}
		},
		{
			"name": "k1a1_47",
			"from": [7.55937, 1.58681, 8.3625],
			"to": [8.44063, 3.09731, 8.391],
			"rotation": {"angle": 0, "axis": "y", "origin": [7.9625, 4.33894, 9.05937]},
			"faces": {
				"north": {"uv": [0.3125, 1.28125, 0.3125, 1.28125], "texture": "#1"},
				"east": {"uv": [0.3125, 1.28125, 0.3125, 1.28125], "texture": "#1"},
				"west": {"uv": [0.3125, 1.28125, 0.3125, 1.28125], "texture": "#1"},
				"up": {"uv": [0.3125, 1.28125, 0.3125, 1.28125], "texture": "#1"},
				"down": {"uv": [0.3125, 1.28125, 0.3125, 1.28125], "texture": "#1"}
			}
		},
		{
			"name": "k1a1_48",
			"from": [7.55937, 1.58681, 8.334],
			"to": [8.44063, 3.01181, 8.3625],
			"rotation": {"angle": 0, "axis": "y", "origin": [7.9625, 4.33894, 9.05937]},
			"faces": {
				"north": {"uv": [0.3125, 1.28125, 0.3125, 1.28125], "texture": "#1"},
				"east": {"uv": [0.3125, 1.28125, 0.3125, 1.28125], "texture": "#1"},
				"west": {"uv": [0.3125, 1.28125, 0.3125, 1.28125], "texture": "#1"},
				"up": {"uv": [0.3125, 1.28125, 0.3125, 1.28125], "texture": "#1"},
				"down": {"uv": [0.3125, 1.28125, 0.3125, 1.28125], "texture": "#1"}
			}
		},
		{
			"name": "k1a1_49",
			"from": [7.55937, 2.89781, 10.9275],
			"to": [8.44063, 3.01181, 10.956],
			"rotation": {"angle": 0, "axis": "y", "origin": [7.9625, 4.33894, 9.05937]},
			"faces": {
				"east": {"uv": [0.3125, 1.28125, 0.3125, 1.28125], "texture": "#1"},
				"south": {"uv": [0.3125, 1.28125, 0.3125, 1.28125], "texture": "#1"},
				"west": {"uv": [0.3125, 1.28125, 0.3125, 1.28125], "texture": "#1"},
				"down": {"uv": [0.3125, 1.28125, 0.3125, 1.28125], "texture": "#1"}
			}
		},
		{
			"name": "k1a1_50",
			"from": [7.55937, 1.61531, 8.3055],
			"to": [8.44063, 2.92631, 8.334],
			"rotation": {"angle": 0, "axis": "y", "origin": [7.9625, 4.33894, 9.05937]},
			"faces": {
				"north": {"uv": [0.3125, 1.28125, 0.3125, 1.28125], "texture": "#1"},
				"east": {"uv": [0.3125, 1.28125, 0.3125, 1.28125], "texture": "#1"},
				"west": {"uv": [0.3125, 1.28125, 0.3125, 1.28125], "texture": "#1"},
				"up": {"uv": [0.3125, 1.28125, 0.3125, 1.28125], "texture": "#1"},
				"down": {"uv": [0.3125, 1.28125, 0.3125, 1.28125], "texture": "#1"}
			}
		},
		{
			"name": "k1a1_51",
			"from": [7.55937, 1.61531, 8.277],
			"to": [8.44063, 2.86931, 8.3055],
			"rotation": {"angle": 0, "axis": "y", "origin": [7.9625, 4.33894, 9.05937]},
			"faces": {
				"north": {"uv": [0.3125, 1.28125, 0.3125, 1.28125], "texture": "#1"},
				"east": {"uv": [0.3125, 1.28125, 0.3125, 1.28125], "texture": "#1"},
				"west": {"uv": [0.3125, 1.28125, 0.3125, 1.28125], "texture": "#1"},
				"up": {"uv": [0.3125, 1.28125, 0.3125, 1.28125], "texture": "#1"},
				"down": {"uv": [0.3125, 1.28125, 0.3125, 1.28125], "texture": "#1"}
			}
		},
		{
			"name": "k1a1_52",
			"from": [7.55937, 2.72681, 10.8135],
			"to": [8.44063, 2.84081, 10.899],
			"rotation": {"angle": 0, "axis": "y", "origin": [7.9625, 4.33894, 9.05937]},
			"faces": {
				"east": {"uv": [0.3125, 1.28125, 0.3125, 1.28125], "texture": "#1"},
				"south": {"uv": [0.3125, 1.28125, 0.3125, 1.28125], "texture": "#1"},
				"west": {"uv": [0.3125, 1.28125, 0.3125, 1.28125], "texture": "#1"},
				"down": {"uv": [0.3125, 1.28125, 0.3125, 1.28125], "texture": "#1"}
			}
		},
		{
			"name": "k1a1_53",
			"from": [7.55937, 1.61531, 8.2485],
			"to": [8.44063, 2.78381, 8.277],
			"rotation": {"angle": 0, "axis": "y", "origin": [7.9625, 4.33894, 9.05937]},
			"faces": {
				"north": {"uv": [0.3125, 1.28125, 0.3125, 1.28125], "texture": "#1"},
				"east": {"uv": [0.3125, 1.28125, 0.3125, 1.28125], "texture": "#1"},
				"west": {"uv": [0.3125, 1.28125, 0.3125, 1.28125], "texture": "#1"},
				"up": {"uv": [0.3125, 1.28125, 0.3125, 1.28125], "texture": "#1"},
				"down": {"uv": [0.3125, 1.28125, 0.3125, 1.28125], "texture": "#1"}
			}
		},
		{
			"name": "k1a1_54",
			"from": [7.55937, 1.61531, 8.22],
			"to": [8.44063, 2.75531, 8.2485],
			"rotation": {"angle": 0, "axis": "y", "origin": [7.9625, 4.33894, 9.05937]},
			"faces": {
				"north": {"uv": [0.3125, 1.28125, 0.3125, 1.28125], "texture": "#1"},
				"east": {"uv": [0.3125, 1.28125, 0.3125, 1.28125], "texture": "#1"},
				"west": {"uv": [0.3125, 1.28125, 0.3125, 1.28125], "texture": "#1"},
				"up": {"uv": [0.3125, 1.28125, 0.3125, 1.28125], "texture": "#1"},
				"down": {"uv": [0.3125, 1.28125, 0.3125, 1.28125], "texture": "#1"}
			}
		},
		{
			"name": "k1a1_55",
			"from": [7.55937, 2.61281, 10.8135],
			"to": [8.44063, 2.72681, 10.8705],
			"rotation": {"angle": 0, "axis": "y", "origin": [7.9625, 4.33894, 9.05937]},
			"faces": {
				"east": {"uv": [0.3125, 1.28125, 0.3125, 1.28125], "texture": "#1"},
				"south": {"uv": [0.3125, 1.28125, 0.3125, 1.28125], "texture": "#1"},
				"west": {"uv": [0.3125, 1.28125, 0.3125, 1.28125], "texture": "#1"},
				"down": {"uv": [0.3125, 1.28125, 0.3125, 1.28125], "texture": "#1"}
			}
		},
		{
			"name": "k1a1_56",
			"from": [7.55937, 2.47031, 10.8135],
			"to": [8.44063, 2.61281, 10.842],
			"rotation": {"angle": 0, "axis": "y", "origin": [7.9625, 4.33894, 9.05937]},
			"faces": {
				"east": {"uv": [0.3125, 1.28125, 0.3125, 1.28125], "texture": "#1"},
				"south": {"uv": [0.3125, 1.28125, 0.3125, 1.28125], "texture": "#1"},
				"west": {"uv": [0.3125, 1.28125, 0.3125, 1.28125], "texture": "#1"},
				"down": {"uv": [0.3125, 1.28125, 0.3125, 1.28125], "texture": "#1"}
			}
		},
		{
			"name": "k1a1_57",
			"from": [7.55937, 1.61531, 8.1915],
			"to": [8.44063, 2.58431, 8.22],
			"rotation": {"angle": 0, "axis": "y", "origin": [7.9625, 4.33894, 9.05937]},
			"faces": {
				"north": {"uv": [0.3125, 1.28125, 0.3125, 1.28125], "texture": "#1"},
				"east": {"uv": [0.3125, 1.28125, 0.3125, 1.28125], "texture": "#1"},
				"west": {"uv": [0.3125, 1.28125, 0.3125, 1.28125], "texture": "#1"},
				"up": {"uv": [0.3125, 1.28125, 0.3125, 1.28125], "texture": "#1"},
				"down": {"uv": [0.3125, 1.28125, 0.3125, 1.28125], "texture": "#1"}
			}
		},
		{
			"name": "k1a1_58",
			"from": [7.55937, 1.64381, 8.163],
			"to": [8.44063, 2.49881, 8.1915],
			"rotation": {"angle": 0, "axis": "y", "origin": [7.9625, 4.33894, 9.05937]},
			"faces": {
				"north": {"uv": [0.3125, 1.28125, 0.3125, 1.28125], "texture": "#1"},
				"east": {"uv": [0.3125, 1.28125, 0.3125, 1.28125], "texture": "#1"},
				"west": {"uv": [0.3125, 1.28125, 0.3125, 1.28125], "texture": "#1"},
				"up": {"uv": [0.3125, 1.28125, 0.3125, 1.28125], "texture": "#1"},
				"down": {"uv": [0.3125, 1.28125, 0.3125, 1.28125], "texture": "#1"}
			}
		},
		{
			"name": "k1a1_59",
			"from": [7.55937, 2.29931, 10.614],
			"to": [8.44063, 2.44181, 10.785],
			"rotation": {"angle": 0, "axis": "y", "origin": [7.9625, 4.33894, 9.05937]},
			"faces": {
				"east": {"uv": [0.3125, 1.28125, 0.3125, 1.28125], "texture": "#1"},
				"south": {"uv": [0.3125, 1.28125, 0.3125, 1.28125], "texture": "#1"},
				"west": {"uv": [0.3125, 1.28125, 0.3125, 1.28125], "texture": "#1"},
				"down": {"uv": [0.3125, 1.28125, 0.3125, 1.28125], "texture": "#1"}
			}
		},
		{
			"name": "k1a1_60",
			"from": [7.55937, 1.64381, 8.1345],
			"to": [8.44063, 2.41331, 8.163],
			"rotation": {"angle": 0, "axis": "y", "origin": [7.9625, 4.33894, 9.05937]},
			"faces": {
				"north": {"uv": [0.3125, 1.28125, 0.3125, 1.28125], "texture": "#1"},
				"east": {"uv": [0.3125, 1.28125, 0.3125, 1.28125], "texture": "#1"},
				"west": {"uv": [0.3125, 1.28125, 0.3125, 1.28125], "texture": "#1"},
				"up": {"uv": [0.3125, 1.28125, 0.3125, 1.28125], "texture": "#1"},
				"down": {"uv": [0.3125, 1.28125, 0.3125, 1.28125], "texture": "#1"}
			}
		},
		{
			"name": "k1a1_61",
			"from": [7.55937, 1.64381, 8.106],
			"to": [8.44063, 2.32781, 8.1345],
			"rotation": {"angle": 0, "axis": "y", "origin": [7.9625, 4.33894, 9.05937]},
			"faces": {
				"north": {"uv": [0.3125, 1.28125, 0.3125, 1.28125], "texture": "#1"},
				"east": {"uv": [0.3125, 1.28125, 0.3125, 1.28125], "texture": "#1"},
				"west": {"uv": [0.3125, 1.28125, 0.3125, 1.28125], "texture": "#1"},
				"up": {"uv": [0.3125, 1.28125, 0.3125, 1.28125], "texture": "#1"},
				"down": {"uv": [0.3125, 1.28125, 0.3125, 1.28125], "texture": "#1"}
			}
		},
		{
			"name": "k1a1_62",
			"from": [7.55937, 2.15681, 10.614],
			"to": [8.44063, 2.29931, 10.728],
			"rotation": {"angle": 0, "axis": "y", "origin": [7.9625, 4.33894, 9.05937]},
			"faces": {
				"east": {"uv": [0.3125, 1.28125, 0.3125, 1.28125], "texture": "#1"},
				"south": {"uv": [0.3125, 1.28125, 0.3125, 1.28125], "texture": "#1"},
				"west": {"uv": [0.3125, 1.28125, 0.3125, 1.28125], "texture": "#1"},
				"down": {"uv": [0.3125, 1.28125, 0.3125, 1.28125], "texture": "#1"}
			}
		},
		{
			"name": "k1a1_63",
			"from": [7.55937, 2.27081, 10.728],
			"to": [8.44063, 2.29931, 10.7565],
			"rotation": {"angle": 0, "axis": "y", "origin": [7.9625, 4.33894, 9.05937]},
			"faces": {
				"east": {"uv": [0.3125, 1.28125, 0.3125, 1.28125], "texture": "#1"},
				"south": {"uv": [0.3125, 1.28125, 0.3125, 1.28125], "texture": "#1"},
				"west": {"uv": [0.3125, 1.28125, 0.3125, 1.28125], "texture": "#1"},
				"down": {"uv": [0.3125, 1.28125, 0.3125, 1.28125], "texture": "#1"}
			}
		},
		{
			"name": "k1a1_64",
			"from": [7.55937, 1.64381, 8.0775],
			"to": [8.44063, 2.24231, 8.106],
			"rotation": {"angle": 0, "axis": "y", "origin": [7.9625, 4.33894, 9.05937]},
			"faces": {
				"north": {"uv": [0.3125, 1.28125, 0.3125, 1.28125], "texture": "#1"},
				"east": {"uv": [0.3125, 1.28125, 0.3125, 1.28125], "texture": "#1"},
				"west": {"uv": [0.3125, 1.28125, 0.3125, 1.28125], "texture": "#1"},
				"up": {"uv": [0.3125, 1.28125, 0.3125, 1.28125], "texture": "#1"},
				"down": {"uv": [0.3125, 1.28125, 0.3125, 1.28125], "texture": "#1"}
			}
		},
		{
			"name": "k1a1_65",
			"from": [7.55937, 1.67231, 8.049],
			"to": [8.44063, 2.15681, 8.0775],
			"rotation": {"angle": 0, "axis": "y", "origin": [7.9625, 4.33894, 9.05937]},
			"faces": {
				"north": {"uv": [0.3125, 1.28125, 0.3125, 1.28125], "texture": "#1"},
				"east": {"uv": [0.3125, 1.28125, 0.3125, 1.28125], "texture": "#1"},
				"west": {"uv": [0.3125, 1.28125, 0.3125, 1.28125], "texture": "#1"},
				"up": {"uv": [0.3125, 1.28125, 0.3125, 1.28125], "texture": "#1"},
				"down": {"uv": [0.3125, 1.28125, 0.3125, 1.28125], "texture": "#1"}
			}
		},
		{
			"name": "k1a1_66",
			"from": [7.55937, 2.07131, 10.614],
			"to": [8.44063, 2.15681, 10.6995],
			"rotation": {"angle": 0, "axis": "y", "origin": [7.9625, 4.33894, 9.05937]},
			"faces": {
				"east": {"uv": [0.3125, 1.28125, 0.3125, 1.28125], "texture": "#1"},
				"south": {"uv": [0.3125, 1.28125, 0.3125, 1.28125], "texture": "#1"},
				"west": {"uv": [0.3125, 1.28125, 0.3125, 1.28125], "texture": "#1"},
				"down": {"uv": [0.3125, 1.28125, 0.3125, 1.28125], "texture": "#1"}
			}
		},
		{
			"name": "k1a1_67",
			"from": [7.55937, 1.67231, 8.0205],
			"to": [8.44063, 2.07131, 8.049],
			"rotation": {"angle": 0, "axis": "y", "origin": [7.9625, 4.33894, 9.05937]},
			"faces": {
				"north": {"uv": [0.3125, 1.28125, 0.3125, 1.28125], "texture": "#1"},
				"east": {"uv": [0.3125, 1.28125, 0.3125, 1.28125], "texture": "#1"},
				"west": {"uv": [0.3125, 1.28125, 0.3125, 1.28125], "texture": "#1"},
				"up": {"uv": [0.3125, 1.28125, 0.3125, 1.28125], "texture": "#1"},
				"down": {"uv": [0.3125, 1.28125, 0.3125, 1.28125], "texture": "#1"}
			}
		},
		{
			"name": "k1a1_68",
			"from": [7.55937, 1.98581, 10.614],
			"to": [8.44063, 2.07131, 10.671],
			"rotation": {"angle": 0, "axis": "y", "origin": [7.9625, 4.33894, 9.05937]},
			"faces": {
				"east": {"uv": [0.3125, 1.28125, 0.3125, 1.28125], "texture": "#1"},
				"south": {"uv": [0.3125, 1.28125, 0.3125, 1.28125], "texture": "#1"},
				"west": {"uv": [0.3125, 1.28125, 0.3125, 1.28125], "texture": "#1"},
				"down": {"uv": [0.3125, 1.28125, 0.3125, 1.28125], "texture": "#1"}
			}
		},
		{
			"name": "k1a1_69",
			"from": [7.55937, 1.67231, 7.992],
			"to": [8.44063, 1.98581, 8.0205],
			"rotation": {"angle": 0, "axis": "y", "origin": [7.9625, 4.33894, 9.05937]},
			"faces": {
				"north": {"uv": [0.3125, 1.28125, 0.3125, 1.28125], "texture": "#1"},
				"east": {"uv": [0.3125, 1.28125, 0.3125, 1.28125], "texture": "#1"},
				"west": {"uv": [0.3125, 1.28125, 0.3125, 1.28125], "texture": "#1"},
				"up": {"uv": [0.3125, 1.28125, 0.3125, 1.28125], "texture": "#1"},
				"down": {"uv": [0.3125, 1.28125, 0.3125, 1.28125], "texture": "#1"}
			}
		},
		{
			"name": "k1a1_70",
			"from": [7.55937, 1.90031, 10.614],
			"to": [8.44063, 1.98581, 10.6425],
			"rotation": {"angle": 0, "axis": "y", "origin": [7.9625, 4.33894, 9.05937]},
			"faces": {
				"east": {"uv": [0.3125, 1.28125, 0.3125, 1.28125], "texture": "#1"},
				"south": {"uv": [0.3125, 1.28125, 0.3125, 1.28125], "texture": "#1"},
				"west": {"uv": [0.3125, 1.28125, 0.3125, 1.28125], "texture": "#1"},
				"down": {"uv": [0.3125, 1.28125, 0.3125, 1.28125], "texture": "#1"}
			}
		},
		{
			"name": "k1a1_71",
			"from": [7.55937, 1.67231, 7.9635],
			"to": [8.44063, 1.90031, 7.992],
			"rotation": {"angle": 0, "axis": "y", "origin": [7.9625, 4.33894, 9.05937]},
			"faces": {
				"north": {"uv": [0.3125, 1.28125, 0.3125, 1.28125], "texture": "#1"},
				"east": {"uv": [0.3125, 1.28125, 0.3125, 1.28125], "texture": "#1"},
				"west": {"uv": [0.3125, 1.28125, 0.3125, 1.28125], "texture": "#1"},
				"up": {"uv": [0.3125, 1.28125, 0.3125, 1.28125], "texture": "#1"},
				"down": {"uv": [0.3125, 1.28125, 0.3125, 1.28125], "texture": "#1"}
			}
		},
		{
			"name": "k1a1_72",
			"from": [7.55937, 1.75781, 10.4715],
			"to": [8.44063, 1.84331, 10.5855],
			"rotation": {"angle": 0, "axis": "y", "origin": [7.9625, 4.33894, 9.05937]},
			"faces": {
				"east": {"uv": [0.3125, 1.28125, 0.3125, 1.28125], "texture": "#1"},
				"south": {"uv": [0.3125, 1.28125, 0.3125, 1.28125], "texture": "#1"},
				"west": {"uv": [0.3125, 1.28125, 0.3125, 1.28125], "texture": "#1"},
				"down": {"uv": [0.3125, 1.28125, 0.3125, 1.28125], "texture": "#1"}
			}
		},
		{
			"name": "k1a1_73",
			"from": [7.55937, 1.67231, 10.4715],
			"to": [8.44063, 1.75781, 10.557],
			"rotation": {"angle": 0, "axis": "y", "origin": [7.9625, 4.33894, 9.05937]},
			"faces": {
				"east": {"uv": [0.3125, 1.28125, 0.3125, 1.28125], "texture": "#1"},
				"south": {"uv": [0.3125, 1.28125, 0.3125, 1.28125], "texture": "#1"},
				"west": {"uv": [0.3125, 1.28125, 0.3125, 1.28125], "texture": "#1"},
				"down": {"uv": [0.3125, 1.28125, 0.3125, 1.28125], "texture": "#1"}
			}
		},
		{
			"name": "k1a1_74",
			"from": [7.55937, 1.58681, 10.4715],
			"to": [8.44063, 1.67231, 10.5285],
			"rotation": {"angle": 0, "axis": "y", "origin": [7.9625, 4.33894, 9.05937]},
			"faces": {
				"east": {"uv": [0.3125, 1.28125, 0.3125, 1.28125], "texture": "#1"},
				"south": {"uv": [0.3125, 1.28125, 0.3125, 1.28125], "texture": "#1"},
				"west": {"uv": [0.3125, 1.28125, 0.3125, 1.28125], "texture": "#1"},
				"down": {"uv": [0.3125, 1.28125, 0.3125, 1.28125], "texture": "#1"}
			}
		},
		{
			"name": "k1a1_75",
			"from": [7.55937, 1.50131, 10.4715],
			"to": [8.44063, 1.58681, 10.5],
			"rotation": {"angle": 0, "axis": "y", "origin": [7.9625, 4.33894, 9.05937]},
			"faces": {
				"east": {"uv": [0.3125, 1.28125, 0.3125, 1.28125], "texture": "#1"},
				"south": {"uv": [0.3125, 1.28125, 0.3125, 1.28125], "texture": "#1"},
				"west": {"uv": [0.3125, 1.28125, 0.3125, 1.28125], "texture": "#1"},
				"down": {"uv": [0.3125, 1.28125, 0.3125, 1.28125], "texture": "#1"}
			}
		},
		{
			"name": "k1a1_76",
			"from": [7.55937, 1.44431, 8.9895],
			"to": [8.44063, 1.47281, 9.246],
			"rotation": {"angle": 0, "axis": "y", "origin": [7.9625, 4.33894, 9.05937]},
			"faces": {
				"north": {"uv": [0.3125, 1.28125, 0.3125, 1.28125], "texture": "#1"},
				"east": {"uv": [0.3125, 1.28125, 0.3125, 1.28125], "texture": "#1"},
				"west": {"uv": [0.3125, 1.28125, 0.3125, 1.28125], "texture": "#1"},
				"down": {"uv": [0.3125, 1.28125, 0.3125, 1.28125], "texture": "#1"}
			}
		},
		{
			"name": "k1a1_77",
			"from": [7.55937, 1.41581, 9.1605],
			"to": [8.44063, 1.44431, 9.246],
			"rotation": {"angle": 0, "axis": "y", "origin": [7.9625, 4.33894, 9.05937]},
			"faces": {
				"north": {"uv": [0.3125, 1.28125, 0.3125, 1.28125], "texture": "#1"},
				"east": {"uv": [0.3125, 1.28125, 0.3125, 1.28125], "texture": "#1"},
				"west": {"uv": [0.3125, 1.28125, 0.3125, 1.28125], "texture": "#1"},
				"down": {"uv": [0.3125, 1.28125, 0.3125, 1.28125], "texture": "#1"}
			}
		},
		{
			"name": "k1a1_78",
			"from": [7.55937, 1.38731, 9.303],
			"to": [8.44063, 1.41581, 9.36],
			"rotation": {"angle": 0, "axis": "y", "origin": [7.9625, 4.33894, 9.05937]},
			"faces": {
				"north": {"uv": [0.3125, 1.28125, 0.3125, 1.28125], "texture": "#1"},
				"east": {"uv": [0.3125, 1.28125, 0.3125, 1.28125], "texture": "#1"},
				"west": {"uv": [0.3125, 1.28125, 0.3125, 1.28125], "texture": "#1"},
				"down": {"uv": [0.3125, 1.28125, 0.3125, 1.28125], "texture": "#1"}
			}
		},
		{
			"name": "k1a1_79",
			"from": [7.55937, 1.35881, 9.4455],
			"to": [8.44063, 1.38731, 9.5595],
			"rotation": {"angle": 0, "axis": "y", "origin": [7.9625, 4.33894, 9.05937]},
			"faces": {
				"north": {"uv": [0.3125, 1.28125, 0.3125, 1.28125], "texture": "#1"},
				"east": {"uv": [0.3125, 1.28125, 0.3125, 1.28125], "texture": "#1"},
				"west": {"uv": [0.3125, 1.28125, 0.3125, 1.28125], "texture": "#1"},
				"down": {"uv": [0.3125, 1.28125, 0.3125, 1.28125], "texture": "#1"}
			}
		},
		{
			"name": "k1a1_80",
			"from": [7.55937, 1.30181, 10.3575],
			"to": [8.44063, 1.38731, 10.443],
			"rotation": {"angle": 0, "axis": "y", "origin": [7.9625, 4.33894, 9.05937]},
			"faces": {
				"east": {"uv": [0.3125, 1.28125, 0.3125, 1.28125], "texture": "#1"},
				"south": {"uv": [0.3125, 1.28125, 0.3125, 1.28125], "texture": "#1"},
				"west": {"uv": [0.3125, 1.28125, 0.3125, 1.28125], "texture": "#1"},
				"down": {"uv": [0.3125, 1.28125, 0.3125, 1.28125], "texture": "#1"}
			}
		},
		{
			"name": "k1a1_81",
			"from": [7.55937, 1.27331, 9.7875],
			"to": [8.44063, 1.30181, 9.816],
			"rotation": {"angle": 0, "axis": "y", "origin": [7.9625, 4.33894, 9.05937]},
			"faces": {
				"north": {"uv": [0.3125, 1.28125, 0.3125, 1.28125], "texture": "#1"},
				"east": {"uv": [0.3125, 1.28125, 0.3125, 1.28125], "texture": "#1"},
				"west": {"uv": [0.3125, 1.28125, 0.3125, 1.28125], "texture": "#1"},
				"down": {"uv": [0.3125, 1.28125, 0.3125, 1.28125], "texture": "#1"}
			}
		},
		{
			"name": "k1a1_82",
			"from": [7.55937, 1.15931, 10.3575],
			"to": [8.44063, 1.30181, 10.4145],
			"rotation": {"angle": 0, "axis": "y", "origin": [7.9625, 4.33894, 9.05937]},
			"faces": {
				"north": {"uv": [0.3125, 1.28125, 0.3125, 1.28125], "texture": "#1"},
				"east": {"uv": [0.3125, 1.28125, 0.3125, 1.28125], "texture": "#1"},
				"south": {"uv": [0.3125, 1.28125, 0.3125, 1.28125], "texture": "#1"},
				"west": {"uv": [0.3125, 1.28125, 0.3125, 1.28125], "texture": "#1"},
				"down": {"uv": [0.3125, 1.28125, 0.3125, 1.28125], "texture": "#1"}
			}
		},
		{
			"name": "k1a1_83",
			"from": [7.55937, 1.24481, 9.873],
			"to": [8.44063, 1.27331, 9.9585],
			"rotation": {"angle": 0, "axis": "y", "origin": [7.9625, 4.33894, 9.05937]},
			"faces": {
				"north": {"uv": [0.3125, 1.28125, 0.3125, 1.28125], "texture": "#1"},
				"east": {"uv": [0.3125, 1.28125, 0.3125, 1.28125], "texture": "#1"},
				"west": {"uv": [0.3125, 1.28125, 0.3125, 1.28125], "texture": "#1"},
				"down": {"uv": [0.3125, 1.28125, 0.3125, 1.28125], "texture": "#1"}
			}
		},
		{
			"name": "k1a1_84",
			"from": [7.55937, 1.21631, 10.1295],
			"to": [8.44063, 1.24481, 10.272],
			"rotation": {"angle": 0, "axis": "y", "origin": [7.9625, 4.33894, 9.05937]},
			"faces": {
				"north": {"uv": [0.3125, 1.28125, 0.3125, 1.28125], "texture": "#1"},
				"east": {"uv": [0.3125, 1.28125, 0.3125, 1.28125], "texture": "#1"},
				"west": {"uv": [0.3125, 1.28125, 0.3125, 1.28125], "texture": "#1"},
				"down": {"uv": [0.3125, 1.28125, 0.3125, 1.28125], "texture": "#1"}
			}
		},
		{
			"name": "k1a1_85",
			"from": [7.55937, 1.18781, 10.2435],
			"to": [8.44063, 1.21631, 10.272],
			"rotation": {"angle": 0, "axis": "y", "origin": [7.9625, 4.33894, 9.05937]},
			"faces": {
				"north": {"uv": [0.3125, 1.28125, 0.3125, 1.28125], "texture": "#1"},
				"east": {"uv": [0.3125, 1.28125, 0.3125, 1.28125], "texture": "#1"},
				"west": {"uv": [0.3125, 1.28125, 0.3125, 1.28125], "texture": "#1"},
				"down": {"uv": [0.3125, 1.28125, 0.3125, 1.28125], "texture": "#1"}
			}
		}
	],
	"display": {
		"firstperson_righthand": {
			"rotation": [-3, 0, 0],
			"translation": [-4, 2.75, 2.25],
			"scale": [1, 1, 0.5]
		}
	},
	"groups": [
		{
			"name": "separate: magazine",
			"origin": [7.95, 8, 8],
			"color": 0,
			"children": [
				0,
				1,
				2,
				3,
				4,
				5,
				6,
				7,
				8,
				9,
				10,
				11,
				12,
				13,
				14,
				15,
				16,
				17,
				18,
				19,
				20,
				21,
				22,
				23,
				24,
				25,
				26,
				27,
				28,
				29,
				30,
				31,
				32,
				33,
				34,
				35,
				36,
				37,
				38,
				39,
				40,
				41,
				42,
				43,
				44,
				45,
				46,
				47,
				48,
				49,
				50,
				51,
				52,
				53,
				54,
				55,
				56,
				57,
				58,
				59,
				60,
				61,
				62,
				63,
				64,
				65,
				66,
				67,
				68,
				69,
				70,
				71,
				72,
				73,
				74,
				75,
				76,
				77,
				78,
				79,
				80,
				81,
				82,
				83,
				84,
				85
			]
		}
	]
}