{
	"credit": "Made with Blockbench",
	"textures": {
		"5": "ava:item/misc/c4_screen_text_ok"
	},
	"elements": [
		{
			"name": "screen",
			"from": [6.195, 10.4925, 5.64784],
			"to": [11.345, 10.5175, 8.3085],
			"rotation": {"angle": 0, "axis": "y", "origin": [-0.305, 5.6925, -0.316]},
			"faces": {
				"up": {"uv": [0, 4, 16, 12], "texture": "#5"}
			}
		}
	],
	"display": {
		"thirdperson_righthand": {
			"rotation": [90, 0, 0],
			"scale": [0.75, 0.75, 0.75]
		},
		"thirdperson_lefthand": {
			"rotation": [90, 0, 0],
			"scale": [0.75, 0.75, 0.75]
		},
		"firstperson_righthand": {
			"rotation": [75, 0, 0],
			"translation": [-10, 4.75, 4.25],
			"scale": [0.75, 0.75, 0.75]
		},
		"firstperson_lefthand": {
			"rotation": [57, 0, 0],
			"translation": [-10, 3.75, 4],
			"scale": [0.75, 0.75, 0.75]
		},
		"ground": {
			"translation": [0, -1.25, 0],
			"scale": [0.75, 0.75, 0.75]
		},
		"gui": {
			"rotation": [63, 0, 0],
			"scale": [0.75, 0.75, 0.75]
		},
		"fixed": {
			"rotation": [-90, -180, 0],
			"translation": [0, -1, -2.5]
		}
	},
	"groups": [
		{
			"name": "screen",
			"origin": [-0.305, 5.1675, 0.809],
			"color": 0,
			"children": [0]
		}
	]
}