{
  "parent": "ava:block/wall_lights/plaster_yellow_wall_light",
  "display": {
    "firstperson_lefthand": {
      "translation": [
        0,
        8,
        0
      ]
    },
    "firstperson_righthand": {
      "translation": [
        0,
        8,
        0
      ]
    },
    "fixed": {
      "rotation": [
        -90,
        0,
        0
      ],
      "translation": [
        0,
        0,
        -8
      ]
    },
    "ground": {
      "translation": [
        0,
        4,
        0
      ]
    },
    "gui": {
      "rotation": [
        90,
        0,
        0
      ]
    },
    "thirdperson_lefthand": {
      "translation": [
        0,
        8,
        0
      ]
    },
    "thirdperson_righthand": {
      "translation": [
        0,
        8,
        0
      ]
    }
  },
  "gui_light": "front"
}