{
	"credit": "Made with Blockbench",
	"textures": {
		"0": "ava:item/gun_textures/palette_forest",
		"particle": "ava:item/gun_textures/palette_forest"
	},
	"elements": [
		{
			"name": "hexadecagon",
			"from": [7.84783, 9.035, 13.4],
			"to": [8.15217, 10.565, 15.9],
			"rotation": {"angle": -45, "axis": "z", "origin": [8, 9.8, 14.65]},
			"faces": {
				"north": {"uv": [0, 0, 0, 0], "texture": "#0"},
				"south": {"uv": [0, 0, 0, 0], "texture": "#0"},
				"up": {"uv": [0, 0, 0, 0], "texture": "#0"},
				"down": {"uv": [0, 0, 0, 0], "texture": "#0"}
			}
		},
		{
			"name": "hexadecagon",
			"from": [7.84783, 9.035, 13.4],
			"to": [8.15217, 10.565, 15.9],
			"rotation": {"angle": -22.5, "axis": "z", "origin": [8, 9.8, 14.65]},
			"faces": {
				"north": {"uv": [0, 0, 0, 0], "texture": "#0"},
				"south": {"uv": [0, 0, 0, 0], "texture": "#0"},
				"up": {"uv": [0, 0, 0, 0], "texture": "#0"},
				"down": {"uv": [0, 0, 0, 0], "texture": "#0"}
			}
		},
		{
			"name": "hexadecagon",
			"from": [7.84783, 9.035, 13.4],
			"to": [8.15217, 10.565, 15.9],
			"rotation": {"angle": 0, "axis": "y", "origin": [8, 9.8, 14.65]},
			"faces": {
				"north": {"uv": [0, 0, 0, 0], "texture": "#0"},
				"south": {"uv": [0, 0, 0, 0], "texture": "#0"},
				"up": {"uv": [0, 0, 0, 0], "texture": "#0"},
				"down": {"uv": [0, 0, 0, 0], "texture": "#0"}
			}
		},
		{
			"name": "hexadecagon",
			"from": [7.84783, 9.035, 13.4],
			"to": [8.15217, 10.565, 15.9],
			"rotation": {"angle": 22.5, "axis": "z", "origin": [8, 9.8, 14.65]},
			"faces": {
				"north": {"uv": [0, 0, 0, 0], "texture": "#0"},
				"south": {"uv": [0, 0, 0, 0], "texture": "#0"},
				"up": {"uv": [0, 0, 0, 0], "texture": "#0"},
				"down": {"uv": [0, 0, 0, 0], "texture": "#0"}
			}
		},
		{
			"name": "hexadecagon",
			"from": [7.84783, 9.035, 13.4],
			"to": [8.15217, 10.565, 15.9],
			"rotation": {"angle": 45, "axis": "z", "origin": [8, 9.8, 14.65]},
			"faces": {
				"north": {"uv": [0, 0, 0, 0], "texture": "#0"},
				"south": {"uv": [0, 0, 0, 0], "texture": "#0"},
				"up": {"uv": [0, 0, 0, 0], "texture": "#0"},
				"down": {"uv": [0, 0, 0, 0], "texture": "#0"}
			}
		},
		{
			"name": "hexadecagon",
			"from": [7.235, 9.64783, 13.4],
			"to": [8.765, 9.95217, 15.9],
			"rotation": {"angle": -22.5, "axis": "z", "origin": [8, 9.8, 14.65]},
			"faces": {
				"north": {"uv": [0, 0, 0, 0], "texture": "#0"},
				"east": {"uv": [0, 0, 0, 0], "texture": "#0"},
				"south": {"uv": [0, 0, 0, 0], "texture": "#0"},
				"west": {"uv": [0, 0, 0, 0], "texture": "#0"}
			}
		},
		{
			"name": "hexadecagon",
			"from": [7.235, 9.64783, 13.4],
			"to": [8.765, 9.95217, 15.9],
			"rotation": {"angle": 0, "axis": "y", "origin": [8, 9.8, 14.65]},
			"faces": {
				"north": {"uv": [0, 0, 0, 0], "texture": "#0"},
				"east": {"uv": [0, 0, 0, 0], "texture": "#0"},
				"south": {"uv": [0, 0, 0, 0], "texture": "#0"},
				"west": {"uv": [0, 0, 0, 0], "texture": "#0"}
			}
		},
		{
			"name": "hexadecagon",
			"from": [7.235, 9.64783, 13.4],
			"to": [8.765, 9.95217, 15.9],
			"rotation": {"angle": 22.5, "axis": "z", "origin": [8, 9.8, 14.65]},
			"faces": {
				"north": {"uv": [0, 0, 0, 0], "texture": "#0"},
				"east": {"uv": [0, 0, 0, 0], "texture": "#0"},
				"south": {"uv": [0, 0, 0, 0], "texture": "#0"},
				"west": {"uv": [0, 0, 0, 0], "texture": "#0"}
			}
		}
	],
	"display": {
		"thirdperson_righthand": {
			"rotation": [70, 0, 0],
			"translation": [-1.75, 12.75, 2.25]
		},
		"firstperson_righthand": {
			"rotation": [0, -3, 0],
			"translation": [-3.75, 2.5, 2],
			"scale": [1, 1, 0.5]
		},
		"ground": {
			"rotation": [0, 0, -90],
			"translation": [0, 0, -7],
			"scale": [0.8, 0.8, 0.8]
		},
		"gui": {
			"rotation": [-79, 46, 57],
			"translation": [-2.25, -2.5, 0],
			"scale": [0.5, 0.5, 0.5]
		},
		"fixed": {
			"rotation": [0, -90, 0],
			"translation": [6.25, 0, -1],
			"scale": [0.8, 0.8, 0.8]
		}
	},
	"groups": [
		{
			"name": "grenade",
			"origin": [8, 8, 8],
			"color": 0,
			"children": [0, 1, 2, 3, 4, 5, 6, 7]
		}
	]
}