{
	"credit": "Made with Blockbench",
	"textures": {
		"0": "ava:item/gun_textures/palette_black",
		"particle": "ava:item/gun_textures/palette_black"
	},
	"elements": [
		{
			"name": "hexadecagon",
			"from": [7.025, 10.625, 9.225],
			"to": [8.975, 10.975, 16.8],
			"rotation": {"angle": 0, "axis": "x", "origin": [8, 10.8, 9.2625]},
			"faces": {
				"north": {"uv": [4.71875, 0.1875, 4.71875, 0.1875], "texture": "#0"},
				"east": {"uv": [4.71875, 0.1875, 4.71875, 0.1875], "texture": "#0"},
				"south": {"uv": [4.71875, 0.1875, 4.71875, 0.1875], "texture": "#0"},
				"west": {"uv": [4.71875, 0.1875, 4.71875, 0.1875], "texture": "#0"},
				"up": {"uv": [4.71875, 0.1875, 4.71875, 0.1875], "texture": "#0"},
				"down": {"uv": [4.71875, 0.1875, 4.71875, 0.1875], "texture": "#0"}
			}
		},
		{
			"name": "hexadecagon",
			"from": [8.075, 12.99225, 11.4074],
			"to": [8.325, 13.09225, 11.6574],
			"rotation": {"angle": -22.5, "axis": "x", "origin": [7.975, 10.8, 9.2625]},
			"faces": {
				"north": {"uv": [4.71875, 0.1875, 4.71875, 0.1875], "texture": "#0"},
				"east": {"uv": [4.71875, 0.1875, 4.71875, 0.1875], "texture": "#0"},
				"south": {"uv": [4.71875, 0.1875, 4.71875, 0.1875], "texture": "#0"},
				"west": {"uv": [4.71875, 0.1875, 4.71875, 0.1875], "texture": "#0"},
				"up": {"uv": [4.71875, 0.1875, 4.71875, 0.1875], "texture": "#0"},
				"down": {"uv": [4.71875, 0.1875, 4.71875, 0.1875], "texture": "#0"}
			}
		},
		{
			"name": "hexadecagon",
			"from": [7.15, 11, 11.075],
			"to": [8.85, 11.5, 12.4],
			"rotation": {"angle": 0, "axis": "x", "origin": [7.975, 10.8, 9.2625]},
			"faces": {
				"north": {"uv": [4.71875, 0.1875, 4.71875, 0.1875], "texture": "#0"},
				"east": {"uv": [4.71875, 0.1875, 4.71875, 0.1875], "texture": "#0"},
				"south": {"uv": [4.71875, 0.1875, 4.71875, 0.1875], "texture": "#0"},
				"west": {"uv": [4.71875, 0.1875, 4.71875, 0.1875], "texture": "#0"},
				"up": {"uv": [4.71875, 0.1875, 4.71875, 0.1875], "texture": "#0"},
				"down": {"uv": [4.71875, 0.1875, 4.71875, 0.1875], "texture": "#0"}
			}
		},
		{
			"name": "hexadecagon",
			"from": [7.9, 11, 15.725],
			"to": [8, 11.1, 15.825],
			"rotation": {"angle": 0, "axis": "x", "origin": [7.975, 10.8, 9.2625]},
			"faces": {
				"north": {"uv": [4.71875, 0.1875, 4.71875, 0.1875], "texture": "#0"},
				"east": {"uv": [4.71875, 0.1875, 4.71875, 0.1875], "texture": "#0"},
				"south": {"uv": [4.71875, 0.1875, 4.71875, 0.1875], "texture": "#0"},
				"west": {"uv": [4.71875, 0.1875, 4.71875, 0.1875], "texture": "#0"},
				"up": {"uv": [4.71875, 0.1875, 4.71875, 0.1875], "texture": "#0"},
				"down": {"uv": [4.71875, 0.1875, 4.71875, 0.1875], "texture": "#0"}
			}
		},
		{
			"name": "hexadecagon",
			"from": [7.25, 11.5, 11.225],
			"to": [7.55, 12, 12.225],
			"rotation": {"angle": 0, "axis": "x", "origin": [7.975, 10.8, 9.2625]},
			"faces": {
				"north": {"uv": [4.71875, 0.1875, 4.71875, 0.1875], "texture": "#0"},
				"east": {"uv": [4.71875, 0.1875, 4.71875, 0.1875], "texture": "#0"},
				"south": {"uv": [4.71875, 0.1875, 4.71875, 0.1875], "texture": "#0"},
				"west": {"uv": [4.71875, 0.1875, 4.71875, 0.1875], "texture": "#0"},
				"up": {"uv": [4.71875, 0.1875, 4.71875, 0.1875], "texture": "#0"}
			}
		},
		{
			"name": "hexadecagon",
			"from": [8.45, 11.5, 11.225],
			"to": [8.75, 12, 12.225],
			"rotation": {"angle": 0, "axis": "x", "origin": [7.975, 10.8, 9.2625]},
			"faces": {
				"north": {"uv": [4.71875, 0.1875, 4.71875, 0.1875], "texture": "#0"},
				"east": {"uv": [4.71875, 0.1875, 4.71875, 0.1875], "texture": "#0"},
				"south": {"uv": [4.71875, 0.1875, 4.71875, 0.1875], "texture": "#0"},
				"west": {"uv": [4.71875, 0.1875, 4.71875, 0.1875], "texture": "#0"},
				"up": {"uv": [4.71875, 0.1875, 4.71875, 0.1875], "texture": "#0"}
			}
		},
		{
			"name": "hexadecagon",
			"from": [7.55, 11.5, 11.225],
			"to": [8.45, 11.8, 12.225],
			"rotation": {"angle": 0, "axis": "x", "origin": [7.975, 10.8, 9.2625]},
			"faces": {
				"north": {"uv": [4.71875, 0.1875, 4.71875, 0.1875], "texture": "#0"},
				"south": {"uv": [4.71875, 0.1875, 4.71875, 0.1875], "texture": "#0"},
				"up": {"uv": [4.71875, 0.1875, 4.71875, 0.1875], "texture": "#0"}
			}
		},
		{
			"name": "hexadecagon",
			"from": [7.425, 10.55954, 11.40095],
			"to": [7.675, 13.05954, 11.65095],
			"rotation": {"angle": -22.5, "axis": "x", "origin": [7.975, 10.8, 9.2625]},
			"faces": {
				"north": {"uv": [4.71875, 0.1875, 4.71875, 0.1875], "texture": "#0"},
				"east": {"uv": [4.71875, 0.1875, 4.71875, 0.1875], "texture": "#0"},
				"south": {"uv": [4.71875, 0.1875, 4.71875, 0.1875], "texture": "#0"},
				"west": {"uv": [4.71875, 0.1875, 4.71875, 0.1875], "texture": "#0"},
				"up": {"uv": [4.71875, 0.1875, 4.71875, 0.1875], "texture": "#0"}
			}
		},
		{
			"name": "hexadecagon",
			"from": [8.325, 10.55954, 11.40095],
			"to": [8.575, 13.05954, 11.65095],
			"rotation": {"angle": -22.5, "axis": "x", "origin": [7.975, 10.8, 9.2625]},
			"faces": {
				"north": {"uv": [4.71875, 0.1875, 4.71875, 0.1875], "texture": "#0"},
				"east": {"uv": [4.71875, 0.1875, 4.71875, 0.1875], "texture": "#0"},
				"south": {"uv": [4.71875, 0.1875, 4.71875, 0.1875], "texture": "#0"},
				"west": {"uv": [4.71875, 0.1875, 4.71875, 0.1875], "texture": "#0"},
				"up": {"uv": [4.71875, 0.1875, 4.71875, 0.1875], "texture": "#0"}
			}
		},
		{
			"name": "hexadecagon",
			"from": [7.675, 10.55954, 11.40095],
			"to": [8.325, 11.05954, 11.65095],
			"rotation": {"angle": -22.5, "axis": "x", "origin": [7.975, 10.8, 9.2625]},
			"faces": {
				"north": {"uv": [4.71875, 0.1875, 4.71875, 0.1875], "texture": "#0"},
				"south": {"uv": [4.71875, 0.1875, 4.71875, 0.1875], "texture": "#0"},
				"up": {"uv": [4.71875, 0.1875, 4.71875, 0.1875], "texture": "#0"}
			}
		},
		{
			"name": "hexadecagon",
			"from": [7.675, 11.2653, 11.39562],
			"to": [8.325, 11.4153, 11.64562],
			"rotation": {"angle": -22.5, "axis": "x", "origin": [7.975, 10.8, 9.2625]},
			"faces": {
				"north": {"uv": [4.71875, 0.1875, 4.71875, 0.1875], "texture": "#0"},
				"east": {"uv": [4.71875, 0.1875, 4.71875, 0.1875], "texture": "#0"},
				"south": {"uv": [4.71875, 0.1875, 4.71875, 0.1875], "texture": "#0"},
				"west": {"uv": [4.71875, 0.1875, 4.71875, 0.1875], "texture": "#0"},
				"up": {"uv": [4.71875, 0.1875, 4.71875, 0.1875], "texture": "#0"},
				"down": {"uv": [4.71875, 0.1875, 4.71875, 0.1875], "texture": "#0"}
			}
		},
		{
			"name": "hexadecagon",
			"from": [7.675, 11.9153, 11.39426],
			"to": [8.325, 12.0653, 11.64426],
			"rotation": {"angle": -22.5, "axis": "x", "origin": [7.975, 10.8, 9.2625]},
			"faces": {
				"north": {"uv": [4.71875, 0.1875, 4.71875, 0.1875], "texture": "#0"},
				"east": {"uv": [4.71875, 0.1875, 4.71875, 0.1875], "texture": "#0"},
				"south": {"uv": [4.71875, 0.1875, 4.71875, 0.1875], "texture": "#0"},
				"west": {"uv": [4.71875, 0.1875, 4.71875, 0.1875], "texture": "#0"},
				"up": {"uv": [4.71875, 0.1875, 4.71875, 0.1875], "texture": "#0"},
				"down": {"uv": [4.71875, 0.1875, 4.71875, 0.1875], "texture": "#0"}
			}
		},
		{
			"name": "hexadecagon",
			"from": [7.675, 12.5653, 11.3929],
			"to": [8.325, 12.7153, 11.6429],
			"rotation": {"angle": -22.5, "axis": "x", "origin": [7.975, 10.8, 9.2625]},
			"faces": {
				"north": {"uv": [4.71875, 0.1875, 4.71875, 0.1875], "texture": "#0"},
				"east": {"uv": [4.71875, 0.1875, 4.71875, 0.1875], "texture": "#0"},
				"south": {"uv": [4.71875, 0.1875, 4.71875, 0.1875], "texture": "#0"},
				"west": {"uv": [4.71875, 0.1875, 4.71875, 0.1875], "texture": "#0"},
				"up": {"uv": [4.71875, 0.1875, 4.71875, 0.1875], "texture": "#0"},
				"down": {"uv": [4.71875, 0.1875, 4.71875, 0.1875], "texture": "#0"}
			}
		},
		{
			"name": "hexadecagon",
			"from": [7.675, 11.5903, 11.39494],
			"to": [8.325, 11.7403, 11.64494],
			"rotation": {"angle": -22.5, "axis": "x", "origin": [7.975, 10.8, 9.2625]},
			"faces": {
				"north": {"uv": [4.71875, 0.1875, 4.71875, 0.1875], "texture": "#0"},
				"east": {"uv": [4.71875, 0.1875, 4.71875, 0.1875], "texture": "#0"},
				"south": {"uv": [4.71875, 0.1875, 4.71875, 0.1875], "texture": "#0"},
				"west": {"uv": [4.71875, 0.1875, 4.71875, 0.1875], "texture": "#0"},
				"up": {"uv": [4.71875, 0.1875, 4.71875, 0.1875], "texture": "#0"},
				"down": {"uv": [4.71875, 0.1875, 4.71875, 0.1875], "texture": "#0"}
			}
		},
		{
			"name": "hexadecagon",
			"from": [7.675, 12.2403, 11.39358],
			"to": [8.325, 12.3903, 11.64358],
			"rotation": {"angle": -22.5, "axis": "x", "origin": [7.975, 10.8, 9.2625]},
			"faces": {
				"north": {"uv": [4.71875, 0.1875, 4.71875, 0.1875], "texture": "#0"},
				"east": {"uv": [4.71875, 0.1875, 4.71875, 0.1875], "texture": "#0"},
				"south": {"uv": [4.71875, 0.1875, 4.71875, 0.1875], "texture": "#0"},
				"west": {"uv": [4.71875, 0.1875, 4.71875, 0.1875], "texture": "#0"},
				"up": {"uv": [4.71875, 0.1875, 4.71875, 0.1875], "texture": "#0"},
				"down": {"uv": [4.71875, 0.1875, 4.71875, 0.1875], "texture": "#0"}
			}
		},
		{
			"name": "hexadecagon",
			"from": [7.675, 12.8903, 11.39222],
			"to": [8.325, 12.9903, 11.64222],
			"rotation": {"angle": -22.5, "axis": "x", "origin": [7.975, 10.8, 9.2625]},
			"faces": {
				"north": {"uv": [4.71875, 0.1875, 4.71875, 0.1875], "texture": "#0"},
				"east": {"uv": [4.71875, 0.1875, 4.71875, 0.1875], "texture": "#0"},
				"south": {"uv": [4.71875, 0.1875, 4.71875, 0.1875], "texture": "#0"},
				"west": {"uv": [4.71875, 0.1875, 4.71875, 0.1875], "texture": "#0"},
				"up": {"uv": [4.71875, 0.1875, 4.71875, 0.1875], "texture": "#0"},
				"down": {"uv": [4.71875, 0.1875, 4.71875, 0.1875], "texture": "#0"}
			}
		},
		{
			"name": "hexadecagon",
			"from": [7.675, 12.99225, 11.4074],
			"to": [7.925, 13.09225, 11.6574],
			"rotation": {"angle": -22.5, "axis": "x", "origin": [7.975, 10.8, 9.2625]},
			"faces": {
				"north": {"uv": [4.71875, 0.1875, 4.71875, 0.1875], "texture": "#0"},
				"east": {"uv": [4.71875, 0.1875, 4.71875, 0.1875], "texture": "#0"},
				"south": {"uv": [4.71875, 0.1875, 4.71875, 0.1875], "texture": "#0"},
				"west": {"uv": [4.71875, 0.1875, 4.71875, 0.1875], "texture": "#0"},
				"up": {"uv": [4.71875, 0.1875, 4.71875, 0.1875], "texture": "#0"},
				"down": {"uv": [4.71875, 0.1875, 4.71875, 0.1875], "texture": "#0"}
			}
		}
	],
	"display": {
		"thirdperson_righthand": {
			"rotation": [70, 0, 0],
			"translation": [-1.75, 12.75, 2.25]
		},
		"firstperson_righthand": {
			"rotation": [0, -3, 0],
			"translation": [-3.75, 2.5, 2],
			"scale": [1, 1, 0.5]
		},
		"ground": {
			"rotation": [0, 0, -90],
			"translation": [0, 0, -7],
			"scale": [0.8, 0.8, 0.8]
		},
		"gui": {
			"rotation": [-79, 46, 57],
			"translation": [-2.25, -2.5, 0],
			"scale": [0.5, 0.5, 0.5]
		},
		"fixed": {
			"rotation": [0, -90, 0],
			"translation": [6.25, 0, -1],
			"scale": [0.8, 0.8, 0.8]
		}
	},
	"groups": [
		{
			"name": "lid",
			"origin": [7.975, 10.8, 9.2625],
			"color": 0,
			"children": [0, 1, 2, 3, 4, 5, 6, 7, 8, 9, 10, 11, 12, 13, 14, 15, 16]
		}
	]
}