{
	"credit": "Made with Blockbench",
	"textures": {
		"1": "ava:item/gun_effects/fire",
		"2": "ava:item/gun_effects/fire2",
		"particle": "ava:item/gun_effects/fire2"
	},
	"elements": [
		{
			"name": "hexadecagon",
			"from": [7.1081, 7.08391, -1.75781],
			"to": [8.8919, 8.86771, -1.75781],
			"rotation": {"angle": 0, "axis": "y", "origin": [8.2, 7.94531, -2.25781]},
			"faces": {
				"north": {"uv": [0, 0, 16, 16], "texture": "#1"},
				"south": {"uv": [0, 0, 16, 16], "texture": "#1"}
			}
		},
		{
			"name": "hexadecagon",
			"from": [7.6081, 7.58391, -3.75781],
			"to": [8.3919, 8.36771, -1.75781],
			"rotation": {"angle": 0, "axis": "y", "origin": [8, 7.97581, -2.25781]},
			"faces": {
				"north": {"uv": [0, 0, 16, 16], "texture": "#2"},
				"east": {"uv": [0, 0, 16, 16], "texture": "#2"},
				"west": {"uv": [0, 0, 16, 16], "texture": "#2"},
				"up": {"uv": [0, 0, 16, 16], "texture": "#2"},
				"down": {"uv": [0, 0, 16, 16], "texture": "#2"}
			}
		}
	]
}