{
	"credit": "Made with Blockbench",
	"textures": {
		"1": "ava:item/gun_effects/fire",
		"6": "ava:item/gun_effects/fire2",
		"particle": "ava:item/gun_effects/fire"
	},
	"elements": [
		{
			"name": "cube13",
			"from": [7.5, 8.15, 1.99],
			"to": [8.5, 9.15, 3.99],
			"rotation": {"angle": 0, "axis": "y", "origin": [16, 17, 10]},
			"faces": {
				"north": {"uv": [0, 0, 16, 16], "texture": "#6"},
				"east": {"uv": [0, 0, 16, 16], "texture": "#6"},
				"south": {"uv": [0, 0, 16, 16], "texture": "#6"},
				"west": {"uv": [0, 0, 16, 16], "texture": "#6"},
				"up": {"uv": [0, 0, 16, 16], "texture": "#6"},
				"down": {"uv": [0, 0, 16, 16], "texture": "#6"}
			}
		},
		{
			"name": "cube14",
			"from": [7.25, 7.8, 3.99],
			"to": [8.75, 9.5, 4],
			"rotation": {"angle": 0, "axis": "y", "origin": [16, 17, 11]},
			"faces": {
				"north": {"uv": [0, 0, 16, 16], "texture": "#1"},
				"east": {"uv": [0, 0, 16, 16], "texture": "#1"},
				"south": {"uv": [0, 0, 16, 16], "texture": "#1"},
				"west": {"uv": [0, 0, 16, 16], "texture": "#1"},
				"up": {"uv": [0, 0, 16, 16], "texture": "#1"},
				"down": {"uv": [0, 0, 16, 16], "texture": "#1"}
			}
		}
	]
}