{
	"credit": "Made with Blockbench",
	"textures": {
		"2": "ava:item/gun_effects/snowfall/snowfall",
		"3": "ava:item/gun_textures/palette_snowfall",
		"particle": "ava:item/gun_textures/palette_black"
	},
	"elements": [
		{
			"name": "hexadecagon",
			"from": [7.93409, 8.79485, 7.62914],
			"to": [8.09716, 9.08179, 8.67555],
			"rotation": {"angle": -45, "axis": "z", "origin": [8.01563, 8.67188, 7]},
			"faces": {
				"north": {"uv": [2.53125, 1.375, 2.53125, 1.375], "rotation": 180, "texture": "#3"},
				"east": {"uv": [2.53125, 1.375, 2.53125, 1.375], "rotation": 180, "texture": "#3"},
				"south": {"uv": [2.53125, 1.375, 2.53125, 1.375], "rotation": 180, "texture": "#3"},
				"up": {"uv": [3, 0.78125, 3.03125, 0.875], "rotation": 180, "texture": "#3"}
			}
		},
		{
			"name": "hexadecagon",
			"from": [7.97315, 8.79485, 7.62914],
			"to": [8.09716, 9.08179, 8.67555],
			"rotation": {"angle": -22.5, "axis": "z", "origin": [8.01563, 8.67188, 7]},
			"faces": {
				"north": {"uv": [3, 0.78125, 3.03125, 0.875], "rotation": 180, "texture": "#3"},
				"south": {"uv": [3, 0.78125, 3.03125, 0.875], "rotation": 180, "texture": "#3"},
				"west": {"uv": [3, 0.78125, 3.03125, 0.875], "rotation": 180, "texture": "#3"},
				"up": {"uv": [3, 0.78125, 3.03125, 0.875], "rotation": 180, "texture": "#3"}
			}
		},
		{
			"name": "hexadecagon",
			"from": [7.97315, 8.79485, 4.62914],
			"to": [8.09716, 9.08179, 6.67555],
			"rotation": {"angle": -22.5, "axis": "z", "origin": [8.01563, 8.67188, 4]},
			"faces": {
				"north": {"uv": [2.59375, 1.1875, 2.59375, 1.1875], "rotation": 180, "texture": "#3"},
				"south": {"uv": [3, 0.78125, 3.03125, 0.875], "rotation": 180, "texture": "#3"},
				"west": {"uv": [3, 0.78125, 3.03125, 0.875], "rotation": 180, "texture": "#3"},
				"up": {"uv": [3, 0.78125, 3.03125, 0.875], "rotation": 180, "texture": "#3"}
			}
		},
		{
			"name": "hexadecagon",
			"from": [7.93409, 8.79485, 4.62914],
			"to": [8.09716, 9.08179, 6.67555],
			"rotation": {"angle": -45, "axis": "z", "origin": [8.01563, 8.67188, 4]},
			"faces": {
				"north": {"uv": [2.59375, 1.1875, 2.59375, 1.1875], "rotation": 180, "texture": "#3"},
				"east": {"uv": [3, 0.78125, 3.03125, 0.875], "rotation": 180, "texture": "#3"},
				"south": {"uv": [3, 0.78125, 3.03125, 0.875], "rotation": 180, "texture": "#3"},
				"up": {"uv": [3, 0.78125, 3.03125, 0.875], "rotation": 180, "texture": "#3"}
			}
		},
		{
			"name": "hexadecagon",
			"from": [7.90284, 8.79485, 4.62914],
			"to": [8.02294, 9.08179, 8.67555],
			"rotation": {"angle": 22.5, "axis": "z", "origin": [7.98438, 8.67188, 7]},
			"faces": {
				"north": {"uv": [2.59375, 1.1875, 2.59375, 1.1875], "rotation": 180, "texture": "#3"},
				"south": {"uv": [2.53125, 1.375, 2.53125, 1.375], "rotation": 180, "texture": "#3"},
				"up": {"uv": [2.9375, 0.40625, 3.25, 1.28125], "rotation": 180, "texture": "#3"}
			}
		},
		{
			"name": "hexadecagon",
			"from": [7.90284, 8.79485, 4.62914],
			"to": [8.06591, 9.08179, 8.67555],
			"rotation": {"angle": 45, "axis": "z", "origin": [7.98438, 8.67188, 7]},
			"faces": {
				"north": {"uv": [2.59375, 1.1875, 2.59375, 1.1875], "rotation": 180, "texture": "#3"},
				"south": {"uv": [2.53125, 1.375, 2.53125, 1.375], "rotation": 180, "texture": "#3"},
				"west": {"uv": [2.53125, 1.375, 2.53125, 1.375], "rotation": 180, "texture": "#3"},
				"up": {"uv": [3.21875, 0.40625, 3.53125, 1.28125], "rotation": 180, "texture": "#3"}
			}
		},
		{
			"from": [7.63438, 8.32065, 4.62891],
			"to": [8.36563, 8.90346, 8.67578],
			"rotation": {"angle": 0, "axis": "y", "origin": [7.9662, 8.13421, 5.87973]},
			"faces": {
				"north": {"uv": [2.59375, 1.1875, 2.59375, 1.1875], "rotation": 180, "texture": "#3"},
				"east": {"uv": [2.84375, 0.5625, 3.125, 0.9375], "rotation": 180, "texture": "#3"},
				"south": {"uv": [2.59375, 1.1875, 2.59375, 1.1875], "rotation": 180, "texture": "#3"},
				"west": {"uv": [3.21875, 0.15625, 4.34375, 0.46875], "rotation": 90, "texture": "#3"},
				"up": {"uv": [3, 0.78125, 3.03125, 0.875], "rotation": 180, "texture": "#3"},
				"down": {"uv": [2.59375, 1.1875, 2.59375, 1.1875], "rotation": 180, "texture": "#3"}
			}
		},
		{
			"from": [7.86289, 8.90268, 4.62891],
			"to": [8.1332, 9.06752, 8.67578],
			"rotation": {"angle": 0, "axis": "y", "origin": [7.94862, 8.71624, 5.87973]},
			"faces": {
				"north": {"uv": [2.59375, 1.1875, 2.59375, 1.1875], "rotation": 180, "texture": "#3"},
				"east": {"uv": [3, 0.78125, 3.03125, 0.875], "rotation": 180, "texture": "#3"},
				"west": {"uv": [2.53125, 1.375, 2.53125, 1.375], "rotation": 180, "texture": "#3"},
				"up": {"uv": [2.65625, 0.40625, 2.96875, 1.28125], "rotation": 180, "texture": "#3"}
			}
		},
		{
			"from": [7.93711, 9.06283, 4.87891],
			"to": [8.06289, 9.33705, 5.06641],
			"rotation": {"angle": 0, "axis": "y", "origin": [8.04627, 8.8764, 5.87973]},
			"faces": {
				"north": {"uv": [2.59375, 1.1875, 2.59375, 1.1875], "rotation": 180, "texture": "#3"},
				"east": {"uv": [2.59375, 1.1875, 2.59375, 1.1875], "rotation": 180, "texture": "#3"},
				"south": {"uv": [2.59375, 1.1875, 2.59375, 1.1875], "rotation": 180, "texture": "#3"},
				"west": {"uv": [2.59375, 1.1875, 2.59375, 1.1875], "rotation": 180, "texture": "#3"},
				"up": {"uv": [2.59375, 1.1875, 2.59375, 1.1875], "rotation": 180, "texture": "#3"}
			}
		},
		{
			"from": [7.93711, 9.01205, 4.95313],
			"to": [8.06289, 9.31752, 5.10938],
			"rotation": {"angle": -22.5, "axis": "x", "origin": [8.01172, 9.21947, 5.04688]},
			"faces": {
				"east": {"uv": [2.59375, 1.1875, 2.59375, 1.1875], "rotation": 180, "texture": "#3"},
				"south": {"uv": [2.59375, 1.1875, 2.59375, 1.1875], "rotation": 180, "texture": "#3"},
				"west": {"uv": [2.59375, 1.1875, 2.59375, 1.1875], "rotation": 180, "texture": "#3"},
				"up": {"uv": [2.59375, 1.1875, 2.59375, 1.1875], "rotation": 180, "texture": "#3"}
			}
		},
		{
			"from": [7.78672, 8.17221, 4.87891],
			"to": [8.21328, 8.65346, 8.67578],
			"rotation": {"angle": 0, "axis": "y", "origin": [7.98963, 7.88421, 5.87973]},
			"faces": {
				"north": {"uv": [2.59375, 1.1875, 2.59375, 1.1875], "rotation": 180, "texture": "#3"},
				"east": {"uv": [2.59375, 1.1875, 2.59375, 1.1875], "rotation": 180, "texture": "#3"},
				"south": {"uv": [2.59375, 1.1875, 2.59375, 1.1875], "rotation": 180, "texture": "#3"},
				"west": {"uv": [2.59375, 1.1875, 2.59375, 1.1875], "rotation": 180, "texture": "#3"},
				"down": {"uv": [2.59375, 1.1875, 2.59375, 1.1875], "rotation": 180, "texture": "#3"}
			}
		},
		{
			"from": [8.05625, 8.1019, 4.87891],
			"to": [8.18595, 8.23158, 8.67578],
			"rotation": {"angle": 45, "axis": "z", "origin": [8.1211, 8.16674, 6.77734]},
			"faces": {
				"north": {"uv": [2.59375, 1.1875, 2.59375, 1.1875], "rotation": 180, "texture": "#3"},
				"east": {"uv": [2.59375, 1.1875, 2.59375, 1.1875], "rotation": 180, "texture": "#3"},
				"south": {"uv": [2.59375, 1.1875, 2.59375, 1.1875], "rotation": 180, "texture": "#3"},
				"west": {"uv": [2.59375, 1.1875, 2.59375, 1.1875], "rotation": 180, "texture": "#3"},
				"up": {"uv": [2.59375, 1.1875, 2.59375, 1.1875], "rotation": 180, "texture": "#3"},
				"down": {"uv": [2.59375, 1.1875, 2.59375, 1.1875], "rotation": 180, "texture": "#3"}
			}
		},
		{
			"from": [7.81406, 8.1019, 4.87891],
			"to": [7.94376, 8.23158, 8.67578],
			"rotation": {"angle": 45, "axis": "z", "origin": [7.87891, 8.16674, 6.77734]},
			"faces": {
				"north": {"uv": [2.59375, 1.1875, 2.59375, 1.1875], "rotation": 180, "texture": "#3"},
				"east": {"uv": [2.59375, 1.1875, 2.59375, 1.1875], "rotation": 180, "texture": "#3"},
				"south": {"uv": [2.59375, 1.1875, 2.59375, 1.1875], "rotation": 180, "texture": "#3"},
				"west": {"uv": [2.59375, 1.1875, 2.59375, 1.1875], "rotation": 180, "texture": "#3"},
				"up": {"uv": [2.59375, 1.1875, 2.59375, 1.1875], "rotation": 180, "texture": "#3"},
				"down": {"uv": [2.59375, 1.1875, 2.59375, 1.1875], "rotation": 180, "texture": "#3"}
			}
		},
		{
			"name": "hexadecagon",
			"from": [7.98487, 8.83001, 8.67602],
			"to": [8.14794, 9.11695, 10.43726],
			"rotation": {"angle": -45, "axis": "z", "origin": [8.06641, 8.70703, 11.04688]},
			"faces": {
				"north": {"uv": [2.59375, 1.1875, 2.59375, 1.1875], "rotation": 180, "texture": "#3"},
				"south": {"uv": [2.59375, 1.1875, 2.59375, 1.1875], "rotation": 180, "texture": "#3"},
				"west": {"uv": [2.59375, 1.1875, 2.59375, 1.1875], "rotation": 180, "texture": "#3"},
				"up": {"uv": [2.59375, 1.1875, 2.59375, 1.1875], "rotation": 180, "texture": "#3"}
			}
		},
		{
			"name": "hexadecagon",
			"from": [8.02393, 8.83001, 8.67602],
			"to": [8.14794, 9.11695, 10.37086],
			"rotation": {"angle": -22.5, "axis": "z", "origin": [8.06641, 8.70703, 11.04688]},
			"faces": {
				"north": {"uv": [2.59375, 1.1875, 2.59375, 1.1875], "rotation": 180, "texture": "#3"},
				"east": {"uv": [2.59375, 1.1875, 2.59375, 1.1875], "rotation": 180, "texture": "#3"},
				"south": {"uv": [2.59375, 1.1875, 2.59375, 1.1875], "rotation": 180, "texture": "#3"},
				"west": {"uv": [2.59375, 1.1875, 2.59375, 1.1875], "rotation": 180, "texture": "#3"},
				"up": {"uv": [2.59375, 1.1875, 2.59375, 1.1875], "rotation": 180, "texture": "#3"}
			}
		},
		{
			"name": "hexadecagon",
			"from": [7.85206, 8.83001, 8.67602],
			"to": [7.97216, 9.11695, 10.37086],
			"rotation": {"angle": 22.5, "axis": "z", "origin": [7.93359, 8.70703, 11.04688]},
			"faces": {
				"north": {"uv": [2.59375, 1.1875, 2.59375, 1.1875], "rotation": 180, "texture": "#3"},
				"south": {"uv": [2.59375, 1.1875, 2.59375, 1.1875], "rotation": 180, "texture": "#3"},
				"west": {"uv": [2.59375, 1.1875, 2.59375, 1.1875], "rotation": 180, "texture": "#3"},
				"up": {"uv": [2.59375, 1.1875, 2.59375, 1.1875], "rotation": 180, "texture": "#3"}
			}
		},
		{
			"name": "hexadecagon",
			"from": [7.85206, 8.83001, 8.67602],
			"to": [8.01513, 9.11695, 10.43726],
			"rotation": {"angle": 45, "axis": "z", "origin": [7.93359, 8.70703, 11.04688]},
			"faces": {
				"north": {"uv": [2.59375, 1.1875, 2.59375, 1.1875], "rotation": 180, "texture": "#3"},
				"east": {"uv": [2.59375, 1.1875, 2.59375, 1.1875], "rotation": 180, "texture": "#3"},
				"south": {"uv": [2.59375, 1.1875, 2.59375, 1.1875], "rotation": 180, "texture": "#3"},
				"west": {"uv": [2.59375, 1.1875, 2.59375, 1.1875], "rotation": 180, "texture": "#3"},
				"up": {"uv": [2.59375, 1.1875, 2.59375, 1.1875], "rotation": 180, "texture": "#3"}
			}
		},
		{
			"from": [7.58945, 8.4769, 10.07422],
			"to": [8.41445, 8.94252, 10.4375],
			"rotation": {"angle": 0, "axis": "y", "origin": [7.89784, 8.13421, 9.92661]},
			"faces": {
				"north": {"uv": [2.59375, 1.1875, 2.59375, 1.1875], "rotation": 180, "texture": "#3"},
				"east": {"uv": [2.59375, 1.1875, 2.59375, 1.1875], "rotation": 180, "texture": "#3"},
				"south": {"uv": [2.59375, 1.1875, 2.59375, 1.1875], "rotation": 180, "texture": "#3"},
				"west": {"uv": [2.59375, 1.1875, 2.59375, 1.1875], "rotation": 180, "texture": "#3"},
				"up": {"uv": [2.59375, 1.1875, 2.59375, 1.1875], "rotation": 180, "texture": "#3"},
				"down": {"uv": [2.59375, 1.1875, 2.59375, 1.1875], "rotation": 180, "texture": "#3"}
			}
		},
		{
			"from": [7.58945, 8.88705, 8.90234],
			"to": [8.41445, 8.94252, 10.07422],
			"rotation": {"angle": 0, "axis": "y", "origin": [7.89784, 8.13421, 9.56332]},
			"faces": {
				"east": {"uv": [2.59375, 1.1875, 2.59375, 1.1875], "rotation": 180, "texture": "#3"},
				"west": {"uv": [2.59375, 1.1875, 2.59375, 1.1875], "rotation": 180, "texture": "#3"},
				"up": {"uv": [2.59375, 1.1875, 2.59375, 1.1875], "rotation": 180, "texture": "#3"},
				"down": {"uv": [2.59375, 1.1875, 2.59375, 1.1875], "rotation": 180, "texture": "#3"}
			}
		},
		{
			"from": [7.58945, 8.4769, 8.67578],
			"to": [8.41445, 8.94252, 8.90234],
			"rotation": {"angle": 0, "axis": "y", "origin": [7.89784, 8.13421, 8.52817]},
			"faces": {
				"north": {"uv": [2.59375, 1.1875, 2.59375, 1.1875], "rotation": 180, "texture": "#3"},
				"east": {"uv": [2.59375, 1.1875, 2.59375, 1.1875], "rotation": 180, "texture": "#3"},
				"south": {"uv": [2.59375, 1.1875, 2.59375, 1.1875], "rotation": 180, "texture": "#3"},
				"west": {"uv": [2.59375, 1.1875, 2.59375, 1.1875], "rotation": 180, "texture": "#3"},
				"up": {"uv": [2.59375, 1.1875, 2.59375, 1.1875], "rotation": 180, "texture": "#3"}
			}
		},
		{
			"from": [7.58945, 8.46806, 8.89755],
			"to": [8.41055, 8.68759, 8.9288],
			"rotation": {"angle": -22.5, "axis": "x", "origin": [7.99805, 8.61884, 8.93857]},
			"faces": {
				"north": {"uv": [2.59375, 1.1875, 2.59375, 1.1875], "rotation": 180, "texture": "#3"},
				"east": {"uv": [2.59375, 1.1875, 2.59375, 1.1875], "rotation": 180, "texture": "#3"},
				"south": {"uv": [2.59375, 1.1875, 2.59375, 1.1875], "rotation": 180, "texture": "#3"},
				"west": {"uv": [2.59375, 1.1875, 2.59375, 1.1875], "rotation": 180, "texture": "#3"},
				"up": {"uv": [2.59375, 1.1875, 2.59375, 1.1875], "rotation": 180, "texture": "#3"},
				"down": {"uv": [2.59375, 1.1875, 2.59375, 1.1875], "rotation": 180, "texture": "#3"}
			}
		},
		{
			"from": [7.58945, 8.46806, 8.99912],
			"to": [8.41055, 8.83994, 9.03037],
			"rotation": {"angle": -22.5, "axis": "x", "origin": [7.99805, 8.61884, 9.04013]},
			"faces": {
				"north": {"uv": [2.59375, 1.1875, 2.59375, 1.1875], "rotation": 180, "texture": "#3"},
				"east": {"uv": [2.59375, 1.1875, 2.59375, 1.1875], "rotation": 180, "texture": "#3"},
				"south": {"uv": [2.59375, 1.1875, 2.59375, 1.1875], "rotation": 180, "texture": "#3"},
				"west": {"uv": [2.59375, 1.1875, 2.59375, 1.1875], "rotation": 180, "texture": "#3"},
				"up": {"uv": [2.59375, 1.1875, 2.59375, 1.1875], "rotation": 180, "texture": "#3"},
				"down": {"uv": [2.59375, 1.1875, 2.59375, 1.1875], "rotation": 180, "texture": "#3"}
			}
		},
		{
			"from": [7.58945, 8.46806, 9.10068],
			"to": [8.41055, 8.91415, 9.13193],
			"rotation": {"angle": -22.5, "axis": "x", "origin": [7.99805, 8.61884, 9.14169]},
			"faces": {
				"north": {"uv": [2.59375, 1.1875, 2.59375, 1.1875], "rotation": 180, "texture": "#3"},
				"east": {"uv": [2.59375, 1.1875, 2.59375, 1.1875], "rotation": 180, "texture": "#3"},
				"south": {"uv": [2.59375, 1.1875, 2.59375, 1.1875], "rotation": 180, "texture": "#3"},
				"west": {"uv": [2.59375, 1.1875, 2.59375, 1.1875], "rotation": 180, "texture": "#3"},
				"up": {"uv": [2.59375, 1.1875, 2.59375, 1.1875], "rotation": 180, "texture": "#3"},
				"down": {"uv": [2.59375, 1.1875, 2.59375, 1.1875], "rotation": 180, "texture": "#3"}
			}
		},
		{
			"from": [7.58945, 8.46806, 9.2999],
			"to": [8.41055, 8.92978, 9.33115],
			"rotation": {"angle": -22.5, "axis": "x", "origin": [7.99805, 8.61884, 9.34091]},
			"faces": {
				"north": {"uv": [2.59375, 1.1875, 2.59375, 1.1875], "rotation": 180, "texture": "#3"},
				"east": {"uv": [2.59375, 1.1875, 2.59375, 1.1875], "rotation": 180, "texture": "#3"},
				"south": {"uv": [2.59375, 1.1875, 2.59375, 1.1875], "rotation": 180, "texture": "#3"},
				"west": {"uv": [2.59375, 1.1875, 2.59375, 1.1875], "rotation": 180, "texture": "#3"},
				"down": {"uv": [2.59375, 1.1875, 2.59375, 1.1875], "rotation": 180, "texture": "#3"}
			}
		},
		{
			"from": [7.58945, 8.46806, 9.20224],
			"to": [8.41055, 8.92978, 9.23349],
			"rotation": {"angle": -22.5, "axis": "x", "origin": [7.99805, 8.61884, 9.24326]},
			"faces": {
				"north": {"uv": [2.59375, 1.1875, 2.59375, 1.1875], "rotation": 180, "texture": "#3"},
				"east": {"uv": [2.59375, 1.1875, 2.59375, 1.1875], "rotation": 180, "texture": "#3"},
				"south": {"uv": [2.59375, 1.1875, 2.59375, 1.1875], "rotation": 180, "texture": "#3"},
				"west": {"uv": [2.59375, 1.1875, 2.59375, 1.1875], "rotation": 180, "texture": "#3"},
				"down": {"uv": [2.59375, 1.1875, 2.59375, 1.1875], "rotation": 180, "texture": "#3"}
			}
		},
		{
			"from": [7.58945, 8.46806, 9.39365],
			"to": [8.41055, 8.92978, 9.4249],
			"rotation": {"angle": -22.5, "axis": "x", "origin": [7.99805, 8.61884, 9.43466]},
			"faces": {
				"north": {"uv": [2.59375, 1.1875, 2.59375, 1.1875], "rotation": 180, "texture": "#3"},
				"east": {"uv": [2.59375, 1.1875, 2.59375, 1.1875], "rotation": 180, "texture": "#3"},
				"south": {"uv": [2.59375, 1.1875, 2.59375, 1.1875], "rotation": 180, "texture": "#3"},
				"west": {"uv": [2.59375, 1.1875, 2.59375, 1.1875], "rotation": 180, "texture": "#3"},
				"down": {"uv": [2.59375, 1.1875, 2.59375, 1.1875], "rotation": 180, "texture": "#3"}
			}
		},
		{
			"from": [7.58945, 8.46806, 9.4913],
			"to": [8.41055, 8.92978, 9.52255],
			"rotation": {"angle": -22.5, "axis": "x", "origin": [7.99805, 8.61884, 9.53232]},
			"faces": {
				"north": {"uv": [2.59375, 1.1875, 2.59375, 1.1875], "rotation": 180, "texture": "#3"},
				"east": {"uv": [2.59375, 1.1875, 2.59375, 1.1875], "rotation": 180, "texture": "#3"},
				"south": {"uv": [2.59375, 1.1875, 2.59375, 1.1875], "rotation": 180, "texture": "#3"},
				"west": {"uv": [2.59375, 1.1875, 2.59375, 1.1875], "rotation": 180, "texture": "#3"},
				"down": {"uv": [2.59375, 1.1875, 2.59375, 1.1875], "rotation": 180, "texture": "#3"}
			}
		},
		{
			"from": [7.58945, 8.46806, 9.58896],
			"to": [8.41055, 8.92978, 9.62021],
			"rotation": {"angle": -22.5, "axis": "x", "origin": [7.99805, 8.61884, 9.62998]},
			"faces": {
				"north": {"uv": [2.59375, 1.1875, 2.59375, 1.1875], "rotation": 180, "texture": "#3"},
				"east": {"uv": [2.59375, 1.1875, 2.59375, 1.1875], "rotation": 180, "texture": "#3"},
				"south": {"uv": [2.59375, 1.1875, 2.59375, 1.1875], "rotation": 180, "texture": "#3"},
				"west": {"uv": [2.59375, 1.1875, 2.59375, 1.1875], "rotation": 180, "texture": "#3"},
				"down": {"uv": [2.59375, 1.1875, 2.59375, 1.1875], "rotation": 180, "texture": "#3"}
			}
		},
		{
			"from": [7.58945, 8.46806, 9.68662],
			"to": [8.41055, 8.92978, 9.71787],
			"rotation": {"angle": -22.5, "axis": "x", "origin": [7.99805, 8.61884, 9.72763]},
			"faces": {
				"north": {"uv": [2.59375, 1.1875, 2.59375, 1.1875], "rotation": 180, "texture": "#3"},
				"east": {"uv": [2.59375, 1.1875, 2.59375, 1.1875], "rotation": 180, "texture": "#3"},
				"south": {"uv": [2.59375, 1.1875, 2.59375, 1.1875], "rotation": 180, "texture": "#3"},
				"west": {"uv": [2.59375, 1.1875, 2.59375, 1.1875], "rotation": 180, "texture": "#3"},
				"down": {"uv": [2.59375, 1.1875, 2.59375, 1.1875], "rotation": 180, "texture": "#3"}
			}
		},
		{
			"from": [7.58945, 8.46806, 9.78037],
			"to": [8.41055, 8.92978, 9.81162],
			"rotation": {"angle": -22.5, "axis": "x", "origin": [7.99805, 8.61884, 9.82138]},
			"faces": {
				"north": {"uv": [2.59375, 1.1875, 2.59375, 1.1875], "rotation": 180, "texture": "#3"},
				"east": {"uv": [2.59375, 1.1875, 2.59375, 1.1875], "rotation": 180, "texture": "#3"},
				"south": {"uv": [2.59375, 1.1875, 2.59375, 1.1875], "rotation": 180, "texture": "#3"},
				"west": {"uv": [2.59375, 1.1875, 2.59375, 1.1875], "rotation": 180, "texture": "#3"},
				"down": {"uv": [2.59375, 1.1875, 2.59375, 1.1875], "rotation": 180, "texture": "#3"}
			}
		},
		{
			"from": [7.58945, 8.46806, 9.87802],
			"to": [8.41055, 8.92978, 9.90927],
			"rotation": {"angle": -22.5, "axis": "x", "origin": [7.99805, 8.61884, 9.91904]},
			"faces": {
				"north": {"uv": [2.59375, 1.1875, 2.59375, 1.1875], "rotation": 180, "texture": "#3"},
				"east": {"uv": [2.59375, 1.1875, 2.59375, 1.1875], "rotation": 180, "texture": "#3"},
				"south": {"uv": [2.59375, 1.1875, 2.59375, 1.1875], "rotation": 180, "texture": "#3"},
				"west": {"uv": [2.59375, 1.1875, 2.59375, 1.1875], "rotation": 180, "texture": "#3"},
				"down": {"uv": [2.59375, 1.1875, 2.59375, 1.1875], "rotation": 180, "texture": "#3"}
			}
		},
		{
			"from": [7.58945, 8.63212, 10.07724],
			"to": [8.41055, 8.92978, 10.10849],
			"rotation": {"angle": -22.5, "axis": "x", "origin": [7.99805, 8.61884, 10.11826]},
			"faces": {
				"north": {"uv": [2.59375, 1.1875, 2.59375, 1.1875], "rotation": 180, "texture": "#3"},
				"east": {"uv": [2.59375, 1.1875, 2.59375, 1.1875], "rotation": 180, "texture": "#3"},
				"south": {"uv": [2.59375, 1.1875, 2.59375, 1.1875], "rotation": 180, "texture": "#3"},
				"west": {"uv": [2.59375, 1.1875, 2.59375, 1.1875], "rotation": 180, "texture": "#3"}
			}
		},
		{
			"from": [7.58945, 8.46806, 9.97959],
			"to": [8.41055, 8.92978, 10.01084],
			"rotation": {"angle": -22.5, "axis": "x", "origin": [7.99805, 8.61884, 10.0206]},
			"faces": {
				"north": {"uv": [2.59375, 1.1875, 2.59375, 1.1875], "rotation": 180, "texture": "#3"},
				"east": {"uv": [2.59375, 1.1875, 2.59375, 1.1875], "rotation": 180, "texture": "#3"},
				"south": {"uv": [2.59375, 1.1875, 2.59375, 1.1875], "rotation": 180, "texture": "#3"},
				"west": {"uv": [2.59375, 1.1875, 2.59375, 1.1875], "rotation": 180, "texture": "#3"},
				"down": {"uv": [2.59375, 1.1875, 2.59375, 1.1875], "rotation": 180, "texture": "#3"}
			}
		},
		{
			"from": [7.88047, 8.07455, 4.87891],
			"to": [8.11953, 8.16908, 8.67578],
			"rotation": {"angle": 0, "axis": "y", "origin": [8.19276, 7.72405, 5.87973]},
			"faces": {
				"north": {"uv": [2.59375, 1.1875, 2.59375, 1.1875], "rotation": 180, "texture": "#3"},
				"east": {"uv": [2.59375, 1.1875, 2.59375, 1.1875], "rotation": 180, "texture": "#3"},
				"south": {"uv": [2.59375, 1.1875, 2.59375, 1.1875], "rotation": 180, "texture": "#3"},
				"west": {"uv": [2.59375, 1.1875, 2.59375, 1.1875], "rotation": 180, "texture": "#3"},
				"up": {"uv": [2.59375, 1.1875, 2.59375, 1.1875], "rotation": 180, "texture": "#3"},
				"down": {"uv": [2.59375, 1.1875, 2.59375, 1.1875], "rotation": 180, "texture": "#3"}
			}
		},
		{
			"from": [7.59141, 8.69955, 8.76563],
			"to": [8.40859, 9.00111, 8.84766],
			"rotation": {"angle": 45, "axis": "x", "origin": [8.00391, 8.73705, 8.79688]},
			"faces": {
				"north": {"uv": [2.59375, 1.1875, 2.59375, 1.1875], "rotation": 180, "texture": "#3"},
				"east": {"uv": [2.59375, 1.1875, 2.59375, 1.1875], "rotation": 180, "texture": "#3"},
				"south": {"uv": [2.59375, 1.1875, 2.59375, 1.1875], "rotation": 180, "texture": "#3"},
				"west": {"uv": [2.59375, 1.1875, 2.59375, 1.1875], "rotation": 180, "texture": "#3"},
				"up": {"uv": [2.59375, 1.1875, 2.59375, 1.1875], "rotation": 180, "texture": "#3"}
			}
		},
		{
			"from": [7.62461, 8.4769, 8.67578],
			"to": [8.37539, 8.94252, 10.1875],
			"rotation": {"angle": 0, "axis": "y", "origin": [7.89784, 8.13421, 9.92661]},
			"faces": {
				"east": {"uv": [2.59375, 1.1875, 2.59375, 1.1875], "rotation": 180, "texture": "#3"},
				"west": {"uv": [2.59375, 1.1875, 2.59375, 1.1875], "rotation": 180, "texture": "#3"},
				"down": {"uv": [2.59375, 1.1875, 2.59375, 1.1875], "rotation": 180, "texture": "#3"}
			}
		},
		{
			"from": [7.5875, 8.31283, 8.67578],
			"to": [7.74839, 8.47768, 10.4375],
			"rotation": {"angle": 0, "axis": "y", "origin": [7.93885, 7.97015, 9.92661]},
			"faces": {
				"north": {"uv": [2.59375, 1.1875, 2.59375, 1.1875], "rotation": 180, "texture": "#3"},
				"east": {"uv": [2.59375, 1.1875, 2.59375, 1.1875], "rotation": 180, "texture": "#3"},
				"south": {"uv": [2.59375, 1.1875, 2.59375, 1.1875], "rotation": 180, "texture": "#3"},
				"west": {"uv": [2.59375, 1.1875, 2.59375, 1.1875], "rotation": 180, "texture": "#3"},
				"up": {"uv": [2.59375, 1.1875, 2.59375, 1.1875], "rotation": 180, "texture": "#3"},
				"down": {"uv": [2.59375, 1.1875, 2.59375, 1.1875], "rotation": 180, "texture": "#3"}
			}
		},
		{
			"from": [7.74766, 8.41049, 8.67578],
			"to": [7.91246, 8.47768, 10.4375],
			"rotation": {"angle": 0, "axis": "y", "origin": [8.10291, 7.97015, 9.92661]},
			"faces": {
				"east": {"uv": [2.59375, 1.1875, 2.59375, 1.1875], "rotation": 180, "texture": "#3"},
				"south": {"uv": [2.59375, 1.1875, 2.59375, 1.1875], "rotation": 180, "texture": "#3"},
				"down": {"uv": [2.59375, 1.1875, 2.59375, 1.1875], "rotation": 180, "texture": "#3"}
			}
		},
		{
			"from": [8.0875, 8.41049, 8.67578],
			"to": [8.2523, 8.47768, 10.4375],
			"rotation": {"angle": 0, "axis": "y", "origin": [8.44276, 7.97015, 9.92661]},
			"faces": {
				"south": {"uv": [2.59375, 1.1875, 2.59375, 1.1875], "rotation": 180, "texture": "#3"},
				"west": {"uv": [2.59375, 1.1875, 2.59375, 1.1875], "rotation": 180, "texture": "#3"},
				"down": {"uv": [2.59375, 1.1875, 2.59375, 1.1875], "rotation": 180, "texture": "#3"}
			}
		},
		{
			"from": [8.25156, 8.31283, 8.67578],
			"to": [8.41636, 8.47768, 10.4375],
			"rotation": {"angle": 0, "axis": "y", "origin": [8.60682, 7.97015, 9.92661]},
			"faces": {
				"north": {"uv": [2.59375, 1.1875, 2.59375, 1.1875], "rotation": 180, "texture": "#3"},
				"east": {"uv": [2.59375, 1.1875, 2.59375, 1.1875], "rotation": 180, "texture": "#3"},
				"south": {"uv": [2.59375, 1.1875, 2.59375, 1.1875], "rotation": 180, "texture": "#3"},
				"west": {"uv": [2.59375, 1.1875, 2.59375, 1.1875], "rotation": 180, "texture": "#3"},
				"up": {"uv": [2.59375, 1.1875, 2.59375, 1.1875], "rotation": 180, "texture": "#3"},
				"down": {"uv": [2.59375, 1.1875, 2.59375, 1.1875], "rotation": 180, "texture": "#3"}
			}
		},
		{
			"from": [7.81211, 9.1019, 10.19141],
			"to": [8.18398, 9.22377, 10.28125],
			"rotation": {"angle": 0, "axis": "y", "origin": [7.94862, 8.91546, 9.83676]},
			"faces": {
				"north": {"uv": [2.625, 1.25, 2.625, 1.25], "rotation": 180, "texture": "#3"},
				"east": {"uv": [2.625, 1.25, 2.625, 1.25], "rotation": 180, "texture": "#3"},
				"south": {"uv": [2.625, 1.25, 2.625, 1.25], "rotation": 180, "texture": "#3"},
				"west": {"uv": [2.625, 1.25, 2.625, 1.25], "rotation": 180, "texture": "#3"},
				"up": {"uv": [2.625, 1.25, 2.625, 1.25], "rotation": 180, "texture": "#3"}
			}
		},
		{
			"from": [7.81211, 9.22299, 10.19141],
			"to": [7.97305, 9.26674, 10.28125],
			"rotation": {"angle": 0, "axis": "y", "origin": [7.94862, 9.03655, 9.83676]},
			"faces": {
				"north": {"uv": [2.625, 1.25, 2.625, 1.25], "rotation": 180, "texture": "#3"},
				"east": {"uv": [2.625, 1.25, 2.625, 1.25], "rotation": 180, "texture": "#3"},
				"south": {"uv": [2.625, 1.25, 2.625, 1.25], "rotation": 180, "texture": "#3"},
				"west": {"uv": [2.625, 1.25, 2.625, 1.25], "rotation": 180, "texture": "#3"},
				"up": {"uv": [2.625, 1.25, 2.625, 1.25], "rotation": 180, "texture": "#3"}
			}
		},
		{
			"from": [8.02305, 9.22299, 10.19141],
			"to": [8.18398, 9.26674, 10.28125],
			"rotation": {"angle": 0, "axis": "y", "origin": [8.15955, 9.03655, 9.83676]},
			"faces": {
				"north": {"uv": [2.625, 1.25, 2.625, 1.25], "rotation": 180, "texture": "#3"},
				"east": {"uv": [2.625, 1.25, 2.625, 1.25], "rotation": 180, "texture": "#3"},
				"south": {"uv": [2.625, 1.25, 2.625, 1.25], "rotation": 180, "texture": "#3"},
				"west": {"uv": [2.625, 1.25, 2.625, 1.25], "rotation": 180, "texture": "#3"},
				"up": {"uv": [2.625, 1.25, 2.625, 1.25], "rotation": 180, "texture": "#3"}
			}
		},
		{
			"from": [7.88242, 9.1019, 9.82422],
			"to": [8.11758, 9.19252, 10.19141],
			"rotation": {"angle": 0, "axis": "y", "origin": [7.99159, 8.91546, 9.74692]},
			"faces": {
				"north": {"uv": [2.59375, 1.1875, 2.59375, 1.1875], "rotation": 180, "texture": "#3"},
				"east": {"uv": [2.59375, 1.1875, 2.59375, 1.1875], "rotation": 180, "texture": "#3"},
				"west": {"uv": [2.59375, 1.1875, 2.59375, 1.1875], "rotation": 180, "texture": "#3"},
				"up": {"uv": [2.59375, 1.1875, 2.59375, 1.1875], "rotation": 180, "texture": "#3"}
			}
		},
		{
			"from": [7.81211, 8.93783, 8.67578],
			"to": [8.18398, 9.10268, 10.37109],
			"rotation": {"angle": 0, "axis": "y", "origin": [7.94862, 8.7514, 9.92661]},
			"faces": {
				"north": {"uv": [2.59375, 1.1875, 2.59375, 1.1875], "rotation": 180, "texture": "#3"},
				"east": {"uv": [2.59375, 1.1875, 2.59375, 1.1875], "rotation": 180, "texture": "#3"},
				"south": {"uv": [2.59375, 1.1875, 2.59375, 1.1875], "rotation": 180, "texture": "#3"},
				"west": {"uv": [2.59375, 1.1875, 2.59375, 1.1875], "rotation": 180, "texture": "#3"},
				"up": {"uv": [2.59375, 1.1875, 2.59375, 1.1875], "rotation": 180, "texture": "#3"}
			}
		},
		{
			"from": [7.67539, 8.89096, 10.31641],
			"to": [8.32461, 9.00502, 10.41016],
			"rotation": {"angle": -45, "axis": "x", "origin": [7.99414, 8.94799, 10.36328]},
			"faces": {
				"north": {"uv": [2.59375, 1.1875, 2.59375, 1.1875], "rotation": 180, "texture": "#3"},
				"east": {"uv": [2.59375, 1.1875, 2.59375, 1.1875], "rotation": 180, "texture": "#3"},
				"south": {"uv": [2.59375, 1.1875, 2.59375, 1.1875], "rotation": 180, "texture": "#3"},
				"west": {"uv": [2.59375, 1.1875, 2.59375, 1.1875], "rotation": 180, "texture": "#3"},
				"up": {"uv": [2.59375, 1.1875, 2.59375, 1.1875], "rotation": 180, "texture": "#3"}
			}
		},
		{
			"from": [7.63047, 8.78784, 4.80079],
			"to": [8.36953, 8.86596, 4.96016],
			"rotation": {"angle": -22.5, "axis": "x", "origin": [8, 8.81909, 4.88438]},
			"faces": {
				"east": {"uv": [0, 0, 16, 16], "rotation": 180, "texture": "#2"},
				"west": {"uv": [0, 0, 16, 16], "rotation": 90, "texture": "#2"}
			}
		},
		{
			"from": [7.63047, 8.74878, 5.59766],
			"to": [8.36953, 8.8269, 5.71797],
			"rotation": {"angle": -22.5, "axis": "x", "origin": [8, 8.78002, 5.68125]},
			"faces": {
				"east": {"uv": [0, 0, 16, 16], "rotation": 180, "texture": "#2"},
				"west": {"uv": [0, 0, 16, 16], "rotation": 90, "texture": "#2"}
			}
		},
		{
			"from": [7.62656, 8.77827, 5.64333],
			"to": [8.37344, 8.90327, 5.81832],
			"rotation": {"angle": -22.5, "axis": "x", "origin": [8.00391, 8.84077, 5.75817]},
			"faces": {
				"east": {"uv": [0, 0, 16, 16], "rotation": 180, "texture": "#2"},
				"west": {"uv": [0, 0, 16, 16], "rotation": 90, "texture": "#2"}
			}
		},
		{
			"from": [7.63047, 8.49096, 5.25391],
			"to": [8.36953, 8.56909, 5.41328],
			"rotation": {"angle": -22.5, "axis": "x", "origin": [8, 8.52221, 5.3375]},
			"faces": {
				"east": {"uv": [0, 0, 16, 16], "rotation": 180, "texture": "#2"},
				"west": {"uv": [0, 0, 16, 16], "rotation": 90, "texture": "#2"}
			}
		},
		{
			"from": [7.63047, 8.41856, 6.18872],
			"to": [8.36953, 8.52793, 6.37153],
			"rotation": {"angle": -45, "axis": "x", "origin": [8, 8.45762, 6.29184]},
			"faces": {
				"east": {"uv": [0, 0, 16, 16], "rotation": 180, "texture": "#2"},
				"west": {"uv": [0, 0, 16, 16], "rotation": 90, "texture": "#2"}
			}
		},
		{
			"from": [7.63047, 8.70257, 6.66548],
			"to": [8.36953, 8.8432, 6.84828],
			"rotation": {"angle": -22.5, "axis": "x", "origin": [8, 8.75726, 6.75688]},
			"faces": {
				"east": {"uv": [0, 0, 16, 16], "rotation": 180, "texture": "#2"},
				"west": {"uv": [0, 0, 16, 16], "rotation": 90, "texture": "#2"}
			}
		},
		{
			"from": [7.63047, 8.53851, 7.1436],
			"to": [8.36953, 8.61663, 7.27172],
			"rotation": {"angle": -22.5, "axis": "x", "origin": [8, 8.56976, 7.18032]},
			"faces": {
				"east": {"uv": [0, 0, 16, 16], "rotation": 180, "texture": "#2"},
				"west": {"uv": [0, 0, 16, 16], "rotation": 90, "texture": "#2"}
			}
		},
		{
			"from": [7.63047, 8.74847, 7.36453],
			"to": [8.36953, 8.81096, 7.45359],
			"rotation": {"angle": -22.5, "axis": "x", "origin": [8, 8.77971, 7.41297]},
			"faces": {
				"east": {"uv": [0, 0, 16, 16], "rotation": 180, "texture": "#2"},
				"west": {"uv": [0, 0, 16, 16], "rotation": 90, "texture": "#2"}
			}
		},
		{
			"from": [7.63047, 8.72353, 7.91952],
			"to": [8.36953, 8.77041, 7.96951],
			"rotation": {"angle": -22.5, "axis": "x", "origin": [8, 8.75478, 7.90936]},
			"faces": {
				"east": {"uv": [0, 0, 16, 16], "rotation": 180, "texture": "#2"},
				"west": {"uv": [0, 0, 16, 16], "rotation": 90, "texture": "#2"}
			}
		},
		{
			"from": [7.63047, 8.76644, 8.35314],
			"to": [8.36953, 8.86019, 8.43439],
			"rotation": {"angle": 22.5, "axis": "x", "origin": [8, 8.8016, 8.4133]},
			"faces": {
				"east": {"uv": [0, 0, 16, 16], "rotation": 180, "texture": "#2"},
				"west": {"uv": [0, 0, 16, 16], "rotation": 90, "texture": "#2"}
			}
		},
		{
			"from": [7.63047, 8.84301, 8.02658],
			"to": [8.36953, 8.90082, 8.15158],
			"rotation": {"angle": 0, "axis": "x", "origin": [8, 8.87191, 8.06173]},
			"faces": {
				"east": {"uv": [0, 0, 16, 16], "rotation": 90, "texture": "#2"},
				"west": {"uv": [0, 0, 16, 16], "rotation": 180, "texture": "#2"}
			}
		},
		{
			"from": [7.63047, 8.71025, 7.50311],
			"to": [8.36953, 8.80712, 7.57342],
			"rotation": {"angle": 22.5, "axis": "x", "origin": [8, 8.75478, 7.53436]},
			"faces": {
				"east": {"uv": [0, 0, 16, 16], "rotation": 90, "texture": "#2"},
				"west": {"uv": [0, 0, 16, 16], "rotation": 180, "texture": "#2"}
			}
		},
		{
			"from": [7.62656, 8.69049, 7.53009],
			"to": [8.37344, 8.77643, 7.65821],
			"rotation": {"angle": -22.5, "axis": "x", "origin": [8.00391, 8.73346, 7.57852]},
			"faces": {
				"east": {"uv": [0, 0, 16, 16], "texture": "#2"},
				"west": {"uv": [0, 0, 16, 16], "rotation": 270, "texture": "#2"}
			}
		},
		{
			"from": [7.63047, 8.51231, 6.18872],
			"to": [8.36953, 8.567, 6.26215],
			"rotation": {"angle": -45, "axis": "x", "origin": [8, 8.52012, 6.22934]},
			"faces": {
				"east": {"uv": [0, 0, 16, 16], "rotation": 180, "texture": "#2"},
				"west": {"uv": [0, 0, 16, 16], "rotation": 90, "texture": "#2"}
			}
		},
		{
			"from": [7.63047, 8.8269, 5.02735],
			"to": [8.36953, 8.8894, 5.12422],
			"rotation": {"angle": -22.5, "axis": "x", "origin": [8, 8.84252, 5.04844]},
			"faces": {
				"east": {"uv": [0, 0, 16, 16], "rotation": 180, "texture": "#2"},
				"west": {"uv": [0, 0, 16, 16], "rotation": 90, "texture": "#2"}
			}
		}
	],
	"display": {
		"thirdperson_righthand": {
			"rotation": [70, 0, 0],
			"translation": [-0.75, 1.25, 3.25]
		},
		"thirdperson_lefthand": {
			"rotation": [70, 0, 0],
			"translation": [-0.75, 1.25, 3.25]
		},
		"firstperson_righthand": {
			"rotation": [-3, -2, 0],
			"translation": [-5.25, 4.75, 4.25],
			"scale": [1.5, 1.4, 0.9]
		},
		"firstperson_lefthand": {
			"rotation": [-3, -2, 0],
			"translation": [-5.25, 4.75, 4.25],
			"scale": [1.5, 1.4, 0.9]
		},
		"ground": {
			"rotation": [0, 0, -90]
		},
		"gui": {
			"rotation": [0, -90, 0],
			"translation": [-0.5, 1.25, 0],
			"scale": [1.5, 1.5, 1.5]
		},
		"fixed": {
			"rotation": [0, -90, 0],
			"translation": [-0.25, 1.25, -0.5],
			"scale": [1.5, 1.5, 1.5]
		}
	},
	"groups": [
		{
			"name": "slide",
			"origin": [8, 8, 8],
			"color": 0,
			"children": [
				0,
				1,
				2,
				3,
				4,
				5,
				6,
				7,
				8,
				9,
				{
					"name": "group",
					"origin": [7.99414, 8.94799, 10.36328],
					"color": 0,
					"children": [
						{
							"name": "group",
							"origin": [7.87891, 8.16674, 6.77734],
							"color": 0,
							"children": [10, 11, 12]
						},
						13,
						14,
						15,
						16,
						17,
						18,
						19,
						{
							"name": "group",
							"origin": [7.99805, 8.61884, 10.0206],
							"color": 0,
							"children": [20, 21, 22, 23, 24, 25, 26, 27, 28, 29, 30, 31, 32, 33]
						},
						34,
						35,
						36,
						37,
						38,
						39,
						40,
						41,
						42,
						43,
						44,
						45
					]
				}
			]
		},
		{
			"name": "group",
			"origin": [8, 8.84252, 5.04844],
			"color": 0,
			"children": [46, 47, 48, 49, 50, 51, 52, 53, 54, 55, 56, 57, 58, 59, 60]
		}
	]
}