{
	"credit": "Made with Blockbench",
	"textures": {
		"0": "ava:item/gun_textures/palette_black",
		"particle": "ava:item/gun_textures/palette_black"
	},
	"elements": [
		{
			"name": "hexadecagon",
			"from": [8.71745, 9.96966, 4.36013],
			"to": [9.38255, 10.43678, 4.76876],
			"rotation": {"angle": 0, "axis": "z", "origin": [8.11168, 9.02167, 1.18982]},
			"faces": {
				"north": {"uv": [0.96875, 3.53125, 0.96875, 3.53125], "texture": "#0"},
				"east": {"uv": [0.96875, 3.53125, 0.96875, 3.53125], "texture": "#0"},
				"south": {"uv": [0.96875, 3.53125, 0.96875, 3.53125], "texture": "#0"},
				"west": {"uv": [0.96875, 3.53125, 0.96875, 3.53125], "texture": "#0"},
				"up": {"uv": [0.96875, 3.53125, 0.96875, 3.53125], "texture": "#0"},
				"down": {"uv": [0.96875, 3.53125, 0.96875, 3.53125], "texture": "#0"}
			}
		},
		{
			"name": "hexadecagon",
			"from": [9.36745, 10.16966, 4.61013],
			"to": [9.60755, 10.43678, 4.76876],
			"rotation": {"angle": 0, "axis": "z", "origin": [9.575, 10.20322, 4.68945]},
			"faces": {
				"north": {"uv": [0.96875, 3.53125, 0.96875, 3.53125], "texture": "#0"},
				"east": {"uv": [0.96875, 3.53125, 0.96875, 3.53125], "texture": "#0"},
				"south": {"uv": [0.96875, 3.53125, 0.96875, 3.53125], "texture": "#0"},
				"west": {"uv": [0.96875, 3.53125, 0.96875, 3.53125], "texture": "#0"},
				"up": {"uv": [0.96875, 3.53125, 0.96875, 3.53125], "texture": "#0"},
				"down": {"uv": [0.96875, 3.53125, 0.96875, 3.53125], "texture": "#0"}
			}
		},
		{
			"name": "hexadecagon",
			"from": [9.54245, 10.16966, 4.53513],
			"to": [9.85755, 10.43678, 4.69376],
			"rotation": {"angle": 22.5, "axis": "y", "origin": [9.75, 10.20322, 4.61445]},
			"faces": {
				"north": {"uv": [0.96875, 3.53125, 0.96875, 3.53125], "texture": "#0"},
				"east": {"uv": [0.96875, 3.53125, 0.96875, 3.53125], "texture": "#0"},
				"south": {"uv": [0.96875, 3.53125, 0.96875, 3.53125], "texture": "#0"},
				"west": {"uv": [0.96875, 3.53125, 0.96875, 3.53125], "texture": "#0"},
				"up": {"uv": [0.96875, 3.53125, 0.96875, 3.53125], "texture": "#0"},
				"down": {"uv": [0.96875, 3.53125, 0.96875, 3.53125], "texture": "#0"}
			}
		}
	],
	"display": {
		"firstperson_righthand": {
			"rotation": [2, 0, 0],
			"translation": [-2.5, 2.25, 0.5],
			"scale": [1, 1.1, 0.5]
		}
	},
	"groups": [
		{
			"name": "slide",
			"origin": [10.05, 10.60322, 3.61445],
			"color": 0,
			"children": [0, 1, 2]
		}
	]
}