{
	"credit": "Made with Blockbench",
	"textures": {
		"1": "ava:item/gun_textures/palette_desert",
		"2": "ava:item/gun_textures/palette_black",
		"3": "ava:item/gun_textures/lens_mk20",
		"particle": "ava:item/gun_textures/palette_black"
	},
	"elements": [
		{
			"name": "hexadecagon",
			"from": [7.4917, 8.16215, -12],
			"to": [8.5083, 9.17872, -4],
			"rotation": {"angle": 0, "axis": "z", "origin": [7.59276, 8.67022, -11.475]},
			"faces": {
				"north": {"uv": [4, 0, 6, 2], "texture": "#2"},
				"east": {"uv": [4, 0, 6, 2], "texture": "#2"},
				"south": {"uv": [4, 0, 6, 2], "texture": "#2"},
				"west": {"uv": [4, 0, 6, 2], "texture": "#2"},
				"up": {"uv": [4, 0, 6, 2], "texture": "#2"},
				"down": {"uv": [4, 0, 6, 2], "texture": "#2"}
			}
		},
		{
			"name": "octagon",
			"from": [7.47025, 8.14183, -9],
			"to": [8.52975, 9.20136, -8],
			"rotation": {"angle": 0, "axis": "z", "origin": [7.68912, 8.67022, -8.375]},
			"faces": {
				"north": {"uv": [2, 0, 4, 2], "texture": "#2"},
				"east": {"uv": [2, 0, 4, 2], "texture": "#2"},
				"south": {"uv": [2, 0, 4, 2], "texture": "#2"},
				"west": {"uv": [2, 0, 4, 2], "texture": "#2"},
				"up": {"uv": [2, 0, 4, 2], "texture": "#2"},
				"down": {"uv": [2, 0, 4, 2], "texture": "#2"}
			}
		},
		{
			"from": [7.1, 8.12568, -3.975],
			"to": [8.9, 9.22568, 17.025],
			"rotation": {"angle": 0, "axis": "z", "origin": [7.8, 8.25, -1.975]},
			"faces": {
				"north": {"uv": [2, 0, 4, 2], "texture": "#1"},
				"east": {"uv": [2, 0, 4, 2], "texture": "#1"},
				"south": {"uv": [2, 0, 4, 2], "texture": "#1"},
				"west": {"uv": [2, 0, 4, 2], "texture": "#1"},
				"up": {"uv": [2, 0, 4, 2], "texture": "#1"},
				"down": {"uv": [2, 0, 4, 2], "texture": "#1"}
			}
		},
		{
			"from": [7.3, 7.87568, -3.975],
			"to": [8.7, 8.12568, 7.775],
			"rotation": {"angle": 0, "axis": "z", "origin": [8, 8, -1.975]},
			"faces": {
				"north": {"uv": [2, 0, 4, 2], "texture": "#2"},
				"east": {"uv": [2, 0, 4, 2], "texture": "#2"},
				"south": {"uv": [2, 0, 4, 2], "texture": "#2"},
				"west": {"uv": [2, 0, 4, 2], "texture": "#2"},
				"down": {"uv": [2, 0, 4, 2], "texture": "#2"}
			}
		},
		{
			"from": [7.3, 7.47568, -3.975],
			"to": [8.7, 7.72568, 7.775],
			"rotation": {"angle": 0, "axis": "z", "origin": [8, 7.6, -1.975]},
			"faces": {
				"north": {"uv": [2, 0, 4, 2], "texture": "#2"},
				"east": {"uv": [2, 0, 4, 2], "texture": "#2"},
				"south": {"uv": [2, 0, 4, 2], "texture": "#2"},
				"west": {"uv": [2, 0, 4, 2], "texture": "#2"},
				"up": {"uv": [2, 0, 4, 2], "texture": "#2"},
				"down": {"uv": [2, 0, 4, 2], "texture": "#2"}
			}
		},
		{
			"from": [7.4, 7.72568, -3.975],
			"to": [8.6, 7.87568, 7.775],
			"rotation": {"angle": 0, "axis": "z", "origin": [8, 7.85, -1.975]},
			"faces": {
				"north": {"uv": [0, 0, 2, 2], "texture": "#2"},
				"east": {"uv": [0, 0, 2, 2], "texture": "#2"},
				"south": {"uv": [0, 0, 2, 2], "texture": "#2"},
				"west": {"uv": [0, 0, 2, 2], "texture": "#2"}
			}
		},
		{
			"from": [6.85, 9.25068, -3.975],
			"to": [9.15, 9.50068, 17.025],
			"rotation": {"angle": 0, "axis": "z", "origin": [7.8, 9.375, -1.975]},
			"faces": {
				"north": {"uv": [2, 0, 4, 2], "texture": "#1"},
				"east": {"uv": [2, 0, 4, 2], "texture": "#1"},
				"west": {"uv": [2, 0, 4, 2], "texture": "#1"},
				"up": {"uv": [2, 0, 4, 2], "texture": "#1"},
				"down": {"uv": [2, 0, 4, 2], "texture": "#1"}
			}
		},
		{
			"from": [6.875, 9.35068, 1.025],
			"to": [7.375, 9.60068, 17.025],
			"rotation": {"angle": 22.5, "axis": "z", "origin": [7.125, 9.47568, 12.025]},
			"faces": {
				"north": {"uv": [2, 0, 4, 2], "texture": "#1"},
				"south": {"uv": [2, 0, 4, 2], "texture": "#1"},
				"west": {"uv": [2, 0, 4, 2], "texture": "#1"},
				"up": {"uv": [2, 0, 4, 2], "texture": "#1"}
			}
		},
		{
			"from": [6.875, 9.35068, -3.95],
			"to": [7.375, 9.60068, -1.975],
			"rotation": {"angle": 22.5, "axis": "z", "origin": [7.125, 9.47568, 7.025]},
			"faces": {
				"north": {"uv": [2, 0, 4, 2], "texture": "#1"},
				"south": {"uv": [2, 0, 4, 2], "texture": "#1"},
				"west": {"uv": [2, 0, 4, 2], "texture": "#1"},
				"up": {"uv": [2, 0, 4, 2], "texture": "#1"}
			}
		},
		{
			"from": [7.3, 9.47568, -3.975],
			"to": [8.7, 10.07568, -1.975],
			"rotation": {"angle": 0, "axis": "z", "origin": [7.55, 9.60068, 7.025]},
			"faces": {
				"north": {"uv": [2, 0, 4, 2], "texture": "#1"},
				"east": {"uv": [2, 0, 4, 2], "texture": "#1"},
				"south": {"uv": [2, 0, 4, 2], "texture": "#1"},
				"west": {"uv": [2, 0, 4, 2], "texture": "#1"}
			}
		},
		{
			"from": [7.3, 10.07568, -3.975],
			"to": [8.7, 10.17568, 17.025],
			"rotation": {"angle": 0, "axis": "z", "origin": [7.55, 10.20068, 7.025]},
			"faces": {
				"north": {"uv": [2, 0, 4, 2], "texture": "#1"},
				"east": {"uv": [2, 0, 4, 2], "texture": "#1"},
				"west": {"uv": [2, 0, 4, 2], "texture": "#1"},
				"up": {"uv": [2, 0, 4, 2], "texture": "#1"},
				"down": {"uv": [2, 0, 4, 2], "texture": "#1"}
			}
		},
		{
			"from": [8, 9.47568, 1.025],
			"to": [8.7, 10.07568, 12.475],
			"rotation": {"angle": 0, "axis": "z", "origin": [8.25, 9.60068, 9.025]},
			"faces": {
				"north": {"uv": [2, 0, 4, 2], "texture": "#1"},
				"east": {"uv": [2, 0, 4, 2], "texture": "#1"},
				"west": {"uv": [2, 0, 4, 2], "texture": "#1"}
			}
		},
		{
			"from": [7.3, 9.50068, 1.025],
			"to": [8.7, 9.71068, 17.025],
			"rotation": {"angle": 0, "axis": "z", "origin": [7.55, 9.62568, 9.025]},
			"faces": {
				"west": {"uv": [2, 0, 4, 2], "texture": "#1"},
				"up": {"uv": [2, 0, 4, 2], "texture": "#1"}
			}
		},
		{
			"from": [7.3, 9.47568, 1.025],
			"to": [8, 10.07568, 7.025],
			"rotation": {"angle": 0, "axis": "z", "origin": [7.55, 9.60068, 12.025]},
			"faces": {
				"north": {"uv": [2, 0, 4, 2], "texture": "#1"},
				"south": {"uv": [2, 0, 4, 2], "texture": "#1"},
				"west": {"uv": [2, 0, 4, 2], "texture": "#1"}
			}
		},
		{
			"from": [7.3, 9.47568, 12.475],
			"to": [8.7, 10.07568, 17.125],
			"rotation": {"angle": 0, "axis": "z", "origin": [7.55, 9.60068, 23.475]},
			"faces": {
				"north": {"uv": [2, 0, 4, 2], "texture": "#1"},
				"east": {"uv": [2, 0, 4, 2], "texture": "#1"},
				"west": {"uv": [2, 0, 4, 2], "texture": "#1"}
			}
		},
		{
			"from": [8.625, 9.35068, -3.95],
			"to": [9.125, 9.60068, -1.975],
			"rotation": {"angle": -22.5, "axis": "z", "origin": [8.875, 9.47568, 7.025]},
			"faces": {
				"north": {"uv": [2, 0, 4, 2], "texture": "#1"},
				"east": {"uv": [2, 0, 4, 2], "texture": "#1"},
				"south": {"uv": [2, 0, 4, 2], "texture": "#1"},
				"up": {"uv": [2, 0, 4, 2], "texture": "#1"}
			}
		},
		{
			"from": [8.625, 9.35068, 1.025],
			"to": [9.125, 9.60068, 17.025],
			"rotation": {"angle": -22.5, "axis": "z", "origin": [8.875, 9.47568, 7.025]},
			"faces": {
				"north": {"uv": [2, 0, 4, 2], "texture": "#1"},
				"east": {"uv": [2, 0, 4, 2], "texture": "#1"},
				"south": {"uv": [2, 0, 4, 2], "texture": "#1"},
				"up": {"uv": [2, 0, 4, 2], "texture": "#1"}
			}
		},
		{
			"from": [6.8, 8.22568, -2.95],
			"to": [9.2, 9.12568, 3.75],
			"rotation": {"angle": 0, "axis": "z", "origin": [7.5, 8.35, -0.95]},
			"faces": {
				"north": {"uv": [4, 0, 6, 2], "texture": "#2"},
				"east": {"uv": [4, 0, 6, 2], "texture": "#2"},
				"south": {"uv": [4, 0, 6, 2], "texture": "#2"},
				"west": {"uv": [4, 0, 6, 2], "texture": "#2"},
				"up": {"uv": [4, 0, 6, 2], "texture": "#2"},
				"down": {"uv": [4, 0, 6, 2], "texture": "#2"}
			}
		},
		{
			"from": [6.85, 8.25068, 3.95],
			"to": [9.15, 9.25068, 5.45],
			"rotation": {"angle": 0, "axis": "z", "origin": [7.5, 8.375, 5.95]},
			"faces": {
				"north": {"uv": [3.1875, 0.15625, 3.84375, 1.78125], "texture": "#1"},
				"east": {"uv": [3.1875, 0.15625, 3.84375, 1.78125], "texture": "#1"},
				"south": {"uv": [3.1875, 0.15625, 3.84375, 1.78125], "texture": "#1"},
				"west": {"uv": [3.1875, 0.15625, 3.84375, 1.78125], "texture": "#1"},
				"down": {"uv": [3.1875, 0.15625, 3.84375, 1.78125], "texture": "#1"}
			}
		},
		{
			"from": [6.85, 8.95068, 5.45],
			"to": [9.15, 9.25068, 8.65],
			"rotation": {"angle": 0, "axis": "z", "origin": [7.5, 9.075, 7.45]},
			"faces": {
				"east": {"uv": [3.1875, 0.15625, 3.84375, 1.78125], "texture": "#1"},
				"west": {"uv": [3.1875, 0.15625, 3.84375, 1.78125], "texture": "#1"},
				"down": {"uv": [3.1875, 0.15625, 3.84375, 1.78125], "texture": "#1"}
			}
		},
		{
			"from": [6.85, 8.95068, 11.65],
			"to": [9.15, 9.25068, 12.9],
			"rotation": {"angle": 0, "axis": "z", "origin": [7.5, 9.075, 13.65]},
			"faces": {
				"east": {"uv": [3.1875, 0.15625, 3.84375, 1.78125], "texture": "#1"},
				"west": {"uv": [3.1875, 0.15625, 3.84375, 1.78125], "texture": "#1"},
				"down": {"uv": [3.1875, 0.15625, 3.84375, 1.78125], "texture": "#1"}
			}
		},
		{
			"from": [6.85, 8.62568, 11.575],
			"to": [9.15, 9.12568, 11.875],
			"rotation": {"angle": 45, "axis": "x", "origin": [8, 8.87568, 11.725]},
			"faces": {
				"east": {"uv": [3.1875, 0.15625, 3.84375, 1.78125], "rotation": 270, "texture": "#1"},
				"south": {"uv": [3.1875, 0.15625, 3.84375, 1.78125], "rotation": 270, "texture": "#1"},
				"west": {"uv": [3.1875, 0.15625, 3.84375, 1.78125], "rotation": 270, "texture": "#1"},
				"up": {"uv": [3.1875, 0.15625, 3.84375, 1.78125], "rotation": 270, "texture": "#1"},
				"down": {"uv": [3.1875, 0.15625, 3.84375, 1.78125], "rotation": 270, "texture": "#1"}
			}
		},
		{
			"from": [6.85, 8.65068, 12.675],
			"to": [9.15, 9.15068, 12.975],
			"rotation": {"angle": -45, "axis": "x", "origin": [8, 8.90068, 12.825]},
			"faces": {
				"north": {"uv": [3.1875, 0.15625, 3.84375, 1.78125], "rotation": 90, "texture": "#1"},
				"east": {"uv": [3.1875, 0.15625, 3.84375, 1.78125], "rotation": 90, "texture": "#1"},
				"west": {"uv": [3.1875, 0.15625, 3.84375, 1.78125], "rotation": 90, "texture": "#1"}
			}
		},
		{
			"from": [6.75, 8.22568, 5.55],
			"to": [9.25, 8.82568, 8.55],
			"rotation": {"angle": 0, "axis": "z", "origin": [7.4, 8.35, 7.55]},
			"faces": {
				"north": {"uv": [4, 0, 6, 2], "texture": "#2"},
				"east": {"uv": [4, 0, 6, 2], "texture": "#2"},
				"south": {"uv": [4, 0, 6, 2], "texture": "#2"},
				"west": {"uv": [4, 0, 6, 2], "texture": "#2"},
				"up": {"uv": [4, 0, 6, 2], "texture": "#2"},
				"down": {"uv": [4, 0, 6, 2], "texture": "#2"}
			}
		},
		{
			"from": [6.85, 8.25068, 8.65],
			"to": [9.15, 9.25068, 11.65],
			"rotation": {"angle": 0, "axis": "z", "origin": [7.5, 8.375, 10.65]},
			"faces": {
				"north": {"uv": [3.1875, 0.15625, 3.84375, 1.78125], "texture": "#1"},
				"east": {"uv": [3.1875, 0.15625, 3.84375, 1.78125], "texture": "#1"},
				"south": {"uv": [3.1875, 0.15625, 3.84375, 1.78125], "texture": "#1"},
				"west": {"uv": [3.1875, 0.15625, 3.84375, 1.78125], "texture": "#1"},
				"down": {"uv": [3.1875, 0.15625, 3.84375, 1.78125], "texture": "#1"}
			}
		},
		{
			"from": [6.85, 8.25068, 12.75],
			"to": [9.15, 9.25068, 16.75],
			"rotation": {"angle": 0, "axis": "z", "origin": [7.5, 8.375, 14.9]},
			"faces": {
				"north": {"uv": [3.1875, 0.15625, 3.84375, 1.78125], "texture": "#1"},
				"east": {"uv": [3.1875, 0.15625, 3.84375, 1.78125], "texture": "#1"},
				"south": {"uv": [3.1875, 0.15625, 3.84375, 1.78125], "texture": "#1"},
				"west": {"uv": [3.1875, 0.15625, 3.84375, 1.78125], "texture": "#1"},
				"down": {"uv": [3.1875, 0.15625, 3.84375, 1.78125], "texture": "#1"}
			}
		},
		{
			"from": [6.8, 8.25068, -3.95],
			"to": [9.2, 9.25068, -3.2],
			"rotation": {"angle": 0, "axis": "z", "origin": [7.5, 8.375, -1.95]},
			"faces": {
				"north": {"uv": [2, 0, 4, 2], "texture": "#1"},
				"east": {"uv": [2, 0, 4, 2], "texture": "#1"},
				"south": {"uv": [2, 0, 4, 2], "texture": "#1"},
				"west": {"uv": [2, 0, 4, 2], "texture": "#1"},
				"up": {"uv": [2, 0, 4, 2], "texture": "#1"},
				"down": {"uv": [2, 0, 4, 2], "texture": "#1"}
			}
		},
		{
			"from": [7.4, 6.77568, 8.625],
			"to": [8.6, 8.27568, 17.025],
			"rotation": {"angle": 0, "axis": "z", "origin": [8, 6.9, 10.625]},
			"faces": {
				"north": {"uv": [3.6875, 0, 4, 1.875], "texture": "#1"},
				"east": {"uv": [3.6875, 0, 4, 1.875], "texture": "#1"},
				"west": {"uv": [3.6875, 0, 4, 1.875], "texture": "#1"},
				"down": {"uv": [3.6875, 0, 4, 1.875], "texture": "#1"}
			}
		},
		{
			"from": [7.4, 6.125, 8.625],
			"to": [8.6, 6.775, 15.125],
			"rotation": {"angle": 0, "axis": "z", "origin": [8, 6.35, 10.625]},
			"faces": {
				"north": {"uv": [3.6875, 0, 4, 1.875], "texture": "#1"},
				"east": {"uv": [3.6875, 0, 4, 1.875], "texture": "#1"},
				"south": {"uv": [3.6875, 0, 4, 1.875], "texture": "#1"},
				"west": {"uv": [3.6875, 0, 4, 1.875], "texture": "#1"},
				"up": {"uv": [3.6875, 0, 4, 1.875], "texture": "#1"},
				"down": {"uv": [3.6875, 0, 4, 1.875], "texture": "#1"}
			}
		},
		{
			"from": [7.4, 5.925, 8.925],
			"to": [8.6, 6.125, 11.675],
			"rotation": {"angle": 0, "axis": "z", "origin": [8, 6.15, 10.925]},
			"faces": {
				"east": {"uv": [3.6875, 0, 4, 1.875], "texture": "#1"},
				"south": {"uv": [3.6875, 0, 4, 1.875], "texture": "#1"},
				"west": {"uv": [3.6875, 0, 4, 1.875], "texture": "#1"},
				"down": {"uv": [3.6875, 0, 4, 1.875], "texture": "#1"}
			}
		},
		{
			"from": [7.4, 5.725, 9.425],
			"to": [8.6, 5.925, 11.675],
			"rotation": {"angle": 0, "axis": "z", "origin": [8, 5.95, 11.425]},
			"faces": {
				"north": {"uv": [3.6875, 0, 4, 1.875], "texture": "#1"},
				"east": {"uv": [3.6875, 0, 4, 1.875], "texture": "#1"},
				"south": {"uv": [3.6875, 0, 4, 1.875], "texture": "#1"},
				"west": {"uv": [3.6875, 0, 4, 1.875], "texture": "#1"}
			}
		},
		{
			"from": [7.4, 5.525, 9.9],
			"to": [8.6, 5.725, 11.68],
			"rotation": {"angle": 0, "axis": "z", "origin": [8, 5.75, 11.9]},
			"faces": {
				"east": {"uv": [3.6875, 0, 4, 1.875], "texture": "#1"},
				"south": {"uv": [3.6875, 0, 4, 1.875], "texture": "#1"},
				"west": {"uv": [3.6875, 0, 4, 1.875], "texture": "#1"},
				"up": {"uv": [3.6875, 0, 4, 1.875], "texture": "#1"}
			}
		},
		{
			"from": [7.4, 5.325, 10.375],
			"to": [8.6, 5.525, 11.69],
			"rotation": {"angle": 0, "axis": "z", "origin": [8, 5.55, 12.375]},
			"faces": {
				"east": {"uv": [3.6875, 0, 4, 1.875], "texture": "#1"},
				"south": {"uv": [3.6875, 0, 4, 1.875], "texture": "#1"},
				"west": {"uv": [3.6875, 0, 4, 1.875], "texture": "#1"},
				"up": {"uv": [3.6875, 0, 4, 1.875], "texture": "#1"},
				"down": {"uv": [3.6875, 0, 4, 1.875], "texture": "#1"}
			}
		},
		{
			"from": [7.4, 5.125, 10.875],
			"to": [8.6, 5.325, 11.7],
			"rotation": {"angle": 0, "axis": "z", "origin": [8, 5.35, 12.875]},
			"faces": {
				"north": {"uv": [3.6875, 0, 4, 1.875], "texture": "#1"},
				"east": {"uv": [3.6875, 0, 4, 1.875], "texture": "#1"},
				"south": {"uv": [3.6875, 0, 4, 1.875], "texture": "#1"},
				"west": {"uv": [3.6875, 0, 4, 1.875], "texture": "#1"},
				"up": {"uv": [3.6875, 0, 4, 1.875], "texture": "#1"}
			}
		},
		{
			"from": [7.4, 4.925, 11.325],
			"to": [8.6, 5.125, 11.71],
			"rotation": {"angle": 0, "axis": "z", "origin": [8, 5.15, 13.325]},
			"faces": {
				"east": {"uv": [3.6875, 0, 4, 1.875], "texture": "#1"},
				"south": {"uv": [3.6875, 0, 4, 1.875], "texture": "#1"},
				"west": {"uv": [3.6875, 0, 4, 1.875], "texture": "#1"},
				"up": {"uv": [3.6875, 0, 4, 1.875], "texture": "#1"}
			}
		},
		{
			"from": [7.2, 4.775, 11.55],
			"to": [8.8, 5.025, 11.8],
			"rotation": {"angle": 0, "axis": "z", "origin": [8, 5, 13.55]},
			"faces": {
				"north": {"uv": [3.6875, 0, 4, 1.875], "texture": "#1"},
				"east": {"uv": [3.6875, 0, 4, 1.875], "texture": "#1"},
				"south": {"uv": [3.6875, 0, 4, 1.875], "texture": "#1"},
				"west": {"uv": [3.6875, 0, 4, 1.875], "texture": "#1"},
				"up": {"uv": [3.6875, 0, 4, 1.875], "texture": "#1"},
				"down": {"uv": [3.6875, 0, 4, 1.875], "texture": "#1"}
			}
		},
		{
			"from": [7.5, 4.9, 11.725],
			"to": [8.5, 5.15, 13.8],
			"rotation": {"angle": 0, "axis": "z", "origin": [8, 5.125, 13.725]},
			"faces": {
				"north": {"uv": [3.6875, 0, 4, 1.875], "texture": "#1"},
				"east": {"uv": [3.6875, 0, 4, 1.875], "texture": "#1"},
				"south": {"uv": [3.6875, 0, 4, 1.875], "texture": "#1"},
				"west": {"uv": [3.6875, 0, 4, 1.875], "texture": "#1"},
				"up": {"uv": [3.6875, 0, 4, 1.875], "texture": "#1"},
				"down": {"uv": [3.6875, 0, 4, 1.875], "texture": "#1"}
			}
		},
		{
			"from": [7.5, 5.025, 13.55],
			"to": [8.5, 6.175, 13.8],
			"rotation": {"angle": 0, "axis": "z", "origin": [8, 5.25, 15.55]},
			"faces": {
				"north": {"uv": [3.6875, 0, 4, 1.875], "texture": "#1"},
				"east": {"uv": [3.6875, 0, 4, 1.875], "texture": "#1"},
				"south": {"uv": [3.6875, 0, 4, 1.875], "texture": "#1"},
				"west": {"uv": [3.6875, 0, 4, 1.875], "texture": "#1"}
			}
		},
		{
			"from": [7.5, 5.025, 13.425],
			"to": [8.5, 5.275, 13.675],
			"rotation": {"angle": 45, "axis": "x", "origin": [8, 5.15, 13.55]},
			"faces": {
				"north": {"uv": [3.6875, 0, 4, 1.875], "texture": "#1"},
				"east": {"uv": [3.6875, 0, 4, 1.875], "texture": "#1"},
				"west": {"uv": [3.6875, 0, 4, 1.875], "texture": "#1"}
			}
		},
		{
			"from": [7.2, 5.425, 8.375],
			"to": [8.8, 5.675, 11.725],
			"rotation": {"angle": 22.5, "axis": "x", "origin": [8, 5.55, 10]},
			"faces": {
				"north": {"uv": [3.6875, 0, 4, 1.875], "texture": "#1"},
				"east": {"uv": [3.6875, 0, 4, 1.875], "texture": "#1"},
				"south": {"uv": [3.6875, 0, 4, 1.875], "texture": "#1"},
				"west": {"uv": [3.6875, 0, 4, 1.875], "texture": "#1"},
				"up": {"uv": [3.6875, 0, 4, 1.875], "texture": "#1"},
				"down": {"uv": [3.6875, 0, 4, 1.875], "texture": "#1"}
			}
		},
		{
			"from": [7.425, 6.30068, 14.375],
			"to": [8.575, 6.95068, 15.375],
			"rotation": {"angle": 22.5, "axis": "x", "origin": [8, 6.90068, 14.975]},
			"faces": {
				"north": {"uv": [3.6875, 0, 4, 1.875], "texture": "#1"},
				"east": {"uv": [3.6875, 0, 4, 1.875], "texture": "#1"},
				"south": {"uv": [3.6875, 0, 4, 1.875], "texture": "#1"},
				"west": {"uv": [3.6875, 0, 4, 1.875], "texture": "#1"}
			}
		},
		{
			"from": [7.6, 7.27568, 7.875],
			"to": [8.4, 8.02568, 8.625],
			"rotation": {"angle": 0, "axis": "z", "origin": [8.2, 7.4, 9.875]},
			"faces": {
				"north": {"uv": [3.6875, 0, 4, 1.875], "texture": "#1"},
				"east": {"uv": [3.6875, 0, 4, 1.875], "texture": "#1"},
				"west": {"uv": [3.6875, 0, 4, 1.875], "texture": "#1"},
				"up": {"uv": [3.6875, 0, 4, 1.875], "texture": "#1"},
				"down": {"uv": [3.6875, 0, 4, 1.875], "texture": "#1"}
			}
		},
		{
			"from": [7.5, 10.17568, -3.975],
			"to": [8.5, 10.35068, 17.025],
			"rotation": {"angle": 0, "axis": "z", "origin": [7.75, 10.30068, 7.025]},
			"faces": {
				"north": {"uv": [2, 0, 4, 2], "texture": "#1"},
				"east": {"uv": [2, 0, 4, 2], "texture": "#1"},
				"west": {"uv": [2, 0, 4, 2], "texture": "#1"},
				"up": {"uv": [2, 0, 4, 2], "texture": "#1"}
			}
		},
		{
			"name": "octagon",
			"from": [7.5, 7.45, 8.02654],
			"to": [8.5, 7.85, 8.42654],
			"rotation": {"angle": 0, "axis": "x", "origin": [7.7, 7.65, 8.10938]},
			"faces": {
				"north": {"uv": [2, 0, 4, 2], "texture": "#2"},
				"east": {"uv": [2, 0, 4, 2], "texture": "#2"},
				"south": {"uv": [2, 0, 4, 2], "texture": "#2"},
				"west": {"uv": [2, 0, 4, 2], "texture": "#2"},
				"up": {"uv": [2, 0, 4, 2], "texture": "#2"},
				"down": {"uv": [2, 0, 4, 2], "texture": "#2"}
			}
		},
		{
			"name": "MK_0",
			"from": [7.5, 5.00087, 13.80327],
			"to": [8.5, 6.14062, 15.24829],
			"rotation": {"angle": 0, "axis": "y", "origin": [7.521, 3.66825, 15.67277]},
			"faces": {
				"north": {"uv": [4, 0, 6, 2], "texture": "#2"},
				"east": {"uv": [4, 0, 6, 2], "texture": "#2"},
				"south": {"uv": [4, 0, 6, 2], "texture": "#2"},
				"west": {"uv": [4, 0, 6, 2], "texture": "#2"},
				"up": {"uv": [4, 0, 6, 2], "texture": "#2"},
				"down": {"uv": [4, 0, 6, 2], "texture": "#2"}
			}
		},
		{
			"name": "MK_1",
			"from": [7.50586, 2.30946, 14.36968],
			"to": [8.49414, 6.14843, 16.12329],
			"rotation": {"angle": -22.5, "axis": "x", "origin": [7.99414, 3.87934, 15.09219]},
			"faces": {
				"north": {"uv": [4, 0, 6, 2], "texture": "#2"},
				"east": {"uv": [4, 0, 6, 2], "texture": "#2"},
				"south": {"uv": [4, 0, 6, 2], "texture": "#2"},
				"west": {"uv": [4, 0, 6, 2], "texture": "#2"},
				"up": {"uv": [4, 0, 6, 2], "texture": "#2"},
				"down": {"uv": [4, 0, 6, 2], "texture": "#2"}
			}
		},
		{
			"from": [7.3, 10.20068, -2.375],
			"to": [8.7, 10.95068, -1.375],
			"rotation": {"angle": 0, "axis": "z", "origin": [7.55, 10.32568, 8.625]},
			"faces": {
				"north": {"uv": [2, 0, 4, 2], "texture": "#2"},
				"east": {"uv": [2, 0, 4, 2], "texture": "#2"},
				"south": {"uv": [2, 0, 4, 2], "texture": "#2"},
				"west": {"uv": [2, 0, 4, 2], "texture": "#2"},
				"up": {"uv": [2, 0, 4, 2], "texture": "#2"},
				"down": {"uv": [2, 0, 4, 2], "texture": "#2"}
			}
		},
		{
			"from": [7.45, 10.4757, -1.375],
			"to": [8.55, 10.9507, 0.625],
			"rotation": {"angle": 0, "axis": "z", "origin": [7.7, 10.60068, 9.625]},
			"faces": {
				"north": {"uv": [2, 0, 4, 2], "texture": "#2"},
				"east": {"uv": [2, 0, 4, 2], "texture": "#2"},
				"south": {"uv": [2, 0, 4, 2], "texture": "#2"},
				"west": {"uv": [2, 0, 4, 2], "texture": "#2"},
				"up": {"uv": [2, 0, 4, 2], "texture": "#2"},
				"down": {"uv": [2, 0, 4, 2], "texture": "#2"}
			}
		},
		{
			"from": [7.7, 10.9507, -1.375],
			"to": [8.3, 11.7007, -1.025],
			"rotation": {"angle": 0, "axis": "z", "origin": [7.95, 11.07568, 9.625]},
			"faces": {
				"north": {"uv": [2, 0, 4, 2], "texture": "#2"},
				"east": {"uv": [2, 0, 4, 2], "texture": "#2"},
				"south": {"uv": [2, 0, 4, 2], "texture": "#2"},
				"west": {"uv": [2, 0, 4, 2], "texture": "#2"},
				"up": {"uv": [2, 0, 4, 2], "texture": "#2"}
			}
		},
		{
			"from": [7.7, 11.7007, -1.375],
			"to": [7.8, 12.4507, -1.025],
			"rotation": {"angle": 0, "axis": "z", "origin": [7.95, 11.82568, 9.625]},
			"faces": {
				"north": {"uv": [2, 0, 4, 2], "texture": "#2"},
				"east": {"uv": [2, 0, 4, 2], "texture": "#2"},
				"south": {"uv": [2, 0, 4, 2], "texture": "#2"},
				"west": {"uv": [2, 0, 4, 2], "texture": "#2"},
				"up": {"uv": [2, 0, 4, 2], "texture": "#2"}
			}
		},
		{
			"from": [8.2, 11.7007, -1.375],
			"to": [8.3, 12.4507, -1.025],
			"rotation": {"angle": 0, "axis": "z", "origin": [8.45, 11.82568, 9.625]},
			"faces": {
				"north": {"uv": [2, 0, 4, 2], "texture": "#2"},
				"east": {"uv": [2, 0, 4, 2], "texture": "#2"},
				"south": {"uv": [2, 0, 4, 2], "texture": "#2"},
				"west": {"uv": [2, 0, 4, 2], "texture": "#2"},
				"up": {"uv": [2, 0, 4, 2], "texture": "#2"}
			}
		},
		{
			"from": [7.3, 10.47568, 7.525],
			"to": [8.7, 10.97568, 12.275],
			"rotation": {"angle": 0, "axis": "z", "origin": [7.55, 10.60068, 18.525]},
			"faces": {
				"north": {"uv": [2, 0, 4, 2], "texture": "#2"},
				"east": {"uv": [2, 0, 4, 2], "texture": "#2"},
				"south": {"uv": [2, 0, 4, 2], "texture": "#2"},
				"west": {"uv": [2, 0, 4, 2], "texture": "#2"},
				"up": {"uv": [2, 0, 4, 2], "texture": "#2"},
				"down": {"uv": [2, 0, 4, 2], "texture": "#2"}
			}
		},
		{
			"from": [7.35, 10.97568, 9.55],
			"to": [8.65, 11.67568, 10.55],
			"rotation": {"angle": 0, "axis": "z", "origin": [7.6, 11.10068, 20.55]},
			"faces": {
				"north": {"uv": [0, 0, 2, 2], "texture": "#2"},
				"east": {"uv": [0, 0, 2, 2], "texture": "#2"},
				"south": {"uv": [0, 0, 2, 2], "texture": "#2"},
				"west": {"uv": [0, 0, 2, 2], "texture": "#2"}
			}
		},
		{
			"from": [7.2, 10.72568, 6.65],
			"to": [8.8, 11.72568, 7.65],
			"rotation": {"angle": 0, "axis": "z", "origin": [7.6, 10.85068, 17.65]},
			"faces": {
				"north": {"uv": [4, 0, 6, 2], "texture": "#2"},
				"east": {"uv": [4, 0, 6, 2], "texture": "#2"},
				"south": {"uv": [4, 0, 6, 2], "texture": "#2"},
				"west": {"uv": [4, 0, 6, 2], "texture": "#2"},
				"up": {"uv": [4, 0, 6, 2], "texture": "#2"},
				"down": {"uv": [4, 0, 6, 2], "texture": "#2"}
			}
		},
		{
			"from": [7.3, 10.72568, 7.4],
			"to": [8.7, 11.22568, 7.9],
			"rotation": {"angle": 45, "axis": "x", "origin": [8, 10.97568, 7.65]},
			"faces": {
				"east": {"uv": [4, 0, 6, 2], "texture": "#2"},
				"west": {"uv": [4, 0, 6, 2], "texture": "#2"},
				"up": {"uv": [4, 0, 6, 2], "texture": "#2"}
			}
		},
		{
			"from": [7.58, 10.97568, 9],
			"to": [8.415, 11.42568, 9.575],
			"rotation": {"angle": 0, "axis": "z", "origin": [7.825, 11.10068, 20]},
			"faces": {
				"north": {"uv": [0, 0, 2, 2], "texture": "#2"},
				"west": {"uv": [0, 0, 2, 2], "texture": "#2"},
				"up": {"uv": [0, 0, 2, 2], "texture": "#2"}
			}
		},
		{
			"from": [7.375, 10.97568, 9.05],
			"to": [7.875, 11.67568, 9.65],
			"rotation": {"angle": -22.5, "axis": "y", "origin": [7.625, 11.20068, 9.55]},
			"faces": {
				"north": {"uv": [0, 0, 2, 2], "texture": "#2"},
				"south": {"uv": [0, 0, 2, 2], "texture": "#2"},
				"west": {"uv": [0, 0, 2, 2], "texture": "#2"},
				"up": {"uv": [0, 0, 2, 2], "texture": "#2"},
				"down": {"uv": [0, 0, 2, 2], "texture": "#2"}
			}
		},
		{
			"from": [8.1275, 10.97568, 9.05],
			"to": [8.6275, 11.67568, 9.65],
			"rotation": {"angle": 22.5, "axis": "y", "origin": [8.38, 11.20068, 9.55]},
			"faces": {
				"north": {"uv": [0, 0, 2, 2], "texture": "#2"},
				"east": {"uv": [0, 0, 2, 2], "texture": "#2"},
				"south": {"uv": [0, 0, 2, 2], "texture": "#2"},
				"up": {"uv": [0, 0, 2, 2], "texture": "#2"},
				"down": {"uv": [0, 0, 2, 2], "texture": "#2"}
			}
		},
		{
			"from": [6.45, 10.47568, 7.825],
			"to": [7.3, 10.72568, 8.675],
			"rotation": {"angle": 0, "axis": "z", "origin": [6.7, 10.60068, 18.825]},
			"faces": {
				"north": {"uv": [2, 0, 4, 2], "texture": "#2"},
				"south": {"uv": [2, 0, 4, 2], "texture": "#2"},
				"west": {"uv": [2, 0, 4, 2], "texture": "#2"},
				"up": {"uv": [2, 0, 4, 2], "texture": "#2"},
				"down": {"uv": [2, 0, 4, 2], "texture": "#2"}
			}
		},
		{
			"from": [6.45, 10.47568, 11.1],
			"to": [7.3, 10.72568, 11.95],
			"rotation": {"angle": 0, "axis": "z", "origin": [6.7, 10.60068, 22.1]},
			"faces": {
				"north": {"uv": [2, 0, 4, 2], "texture": "#2"},
				"south": {"uv": [2, 0, 4, 2], "texture": "#2"},
				"west": {"uv": [2, 0, 4, 2], "texture": "#2"},
				"up": {"uv": [2, 0, 4, 2], "texture": "#2"},
				"down": {"uv": [2, 0, 4, 2], "texture": "#2"}
			}
		},
		{
			"from": [8.5, 10.17568, 7.525],
			"to": [8.7, 10.47568, 12.275],
			"rotation": {"angle": 0, "axis": "z", "origin": [8.75, 10.30068, 18.525]},
			"faces": {
				"north": {"uv": [2, 0, 4, 2], "texture": "#2"},
				"east": {"uv": [2, 0, 4, 2], "texture": "#2"},
				"south": {"uv": [2, 0, 4, 2], "texture": "#2"},
				"west": {"uv": [2, 0, 4, 2], "texture": "#2"}
			}
		},
		{
			"name": "hexadecagon",
			"from": [6.51038, 10.125, 7.74867],
			"to": [7.50571, 10.525, 8.74397],
			"rotation": {"angle": 0, "axis": "y", "origin": [7.00804, 10.325, 7.84766]},
			"faces": {
				"north": {"uv": [0, 0, 2, 2], "texture": "#2"},
				"east": {"uv": [0, 0, 2, 2], "texture": "#2"},
				"south": {"uv": [0, 0, 2, 2], "texture": "#2"},
				"west": {"uv": [0, 0, 2, 2], "texture": "#2"},
				"up": {"uv": [0, 0, 2, 2], "texture": "#2"},
				"down": {"uv": [0, 0, 2, 2], "texture": "#2"}
			}
		},
		{
			"name": "hexadecagon",
			"from": [6.51038, 10.125, 11.03929],
			"to": [7.50571, 10.525, 12.03459],
			"rotation": {"angle": 0, "axis": "y", "origin": [7.00804, 10.325, 11.13828]},
			"faces": {
				"north": {"uv": [0, 0, 2, 2], "texture": "#2"},
				"east": {"uv": [0, 0, 2, 2], "texture": "#2"},
				"south": {"uv": [0, 0, 2, 2], "texture": "#2"},
				"west": {"uv": [0, 0, 2, 2], "texture": "#2"},
				"up": {"uv": [0, 0, 2, 2], "texture": "#2"},
				"down": {"uv": [0, 0, 2, 2], "texture": "#2"}
			}
		},
		{
			"name": "hexadecagon",
			"from": [7.272, 11, 10.847],
			"to": [8.728, 11.15, 12.303],
			"rotation": {"angle": 0, "axis": "y", "origin": [7.41681, 11.2, 11.575]},
			"faces": {
				"north": {"uv": [0, 0, 2, 2], "texture": "#2"},
				"east": {"uv": [0, 0, 2, 2], "texture": "#2"},
				"south": {"uv": [0, 0, 2, 2], "texture": "#2"},
				"west": {"uv": [0, 0, 2, 2], "texture": "#2"},
				"up": {"uv": [0, 0, 2, 2], "texture": "#2"},
				"down": {"uv": [0, 0, 2, 2], "texture": "#2"}
			}
		},
		{
			"name": "hexadecagon",
			"from": [7.7088, 11.15, 11.2963],
			"to": [8.2912, 11.45, 11.8787],
			"rotation": {"angle": 0, "axis": "y", "origin": [7.76672, 11.35, 11.5875]},
			"faces": {
				"north": {"uv": [4, 0, 6, 2], "texture": "#2"},
				"east": {"uv": [4, 0, 6, 2], "texture": "#2"},
				"south": {"uv": [4, 0, 6, 2], "texture": "#2"},
				"west": {"uv": [4, 0, 6, 2], "texture": "#2"},
				"up": {"uv": [4, 0, 6, 2], "texture": "#2"}
			}
		},
		{
			"name": "hexadecagon",
			"from": [7.7995, 11.419, 7.067],
			"to": [8.2005, 11.671, 13.317],
			"rotation": {"angle": -45, "axis": "z", "origin": [8, 12.427, 8.075]},
			"faces": {
				"north": {"uv": [0, 0, 1.03125, 0.3125], "texture": "#1"},
				"east": {"uv": [0, 0.78125, 1.03125, 1.09375], "texture": "#1"},
				"south": {"uv": [0, 0, 0.3125, 0.21875], "texture": "#1"},
				"west": {"uv": [0, 0.78125, 1.03125, 1.09375], "texture": "#1"},
				"up": {"uv": [0, 0.78125, 1.03125, 1.09375], "texture": "#1"},
				"down": {"uv": [0, 0.78125, 1.03125, 1.09375], "texture": "#1"}
			}
		},
		{
			"name": "hexadecagon",
			"from": [7.7995, 11.419, 7.067],
			"to": [8.2005, 11.671, 13.317],
			"rotation": {"angle": -22.5, "axis": "z", "origin": [8, 12.427, 8.075]},
			"faces": {
				"north": {"uv": [0, 0, 1.03125, 0.3125], "texture": "#1"},
				"east": {"uv": [0, 0.78125, 1.03125, 1.09375], "texture": "#1"},
				"south": {"uv": [0, 0, 0.3125, 0.21875], "texture": "#1"},
				"west": {"uv": [0, 0.78125, 1.03125, 1.09375], "texture": "#1"},
				"up": {"uv": [0, 0.78125, 1.03125, 1.09375], "texture": "#1"},
				"down": {"uv": [0, 0.78125, 1.03125, 1.09375], "texture": "#1"}
			}
		},
		{
			"name": "hexadecagon",
			"from": [7.7995, 11.419, 7.067],
			"to": [8.2005, 11.671, 13.317],
			"rotation": {"angle": 0, "axis": "z", "origin": [8, 12.427, 8.075]},
			"faces": {
				"east": {"uv": [0, 0.78125, 1.03125, 1.09375], "texture": "#1"},
				"south": {"uv": [0, 0, 0.3125, 0.21875], "texture": "#1"},
				"west": {"uv": [0, 0.78125, 1.03125, 1.09375], "texture": "#1"},
				"up": {"uv": [0, 0.78125, 1.03125, 1.09375], "texture": "#1"},
				"down": {"uv": [0, 0.78125, 1.03125, 1.09375], "texture": "#1"}
			}
		},
		{
			"name": "hexadecagon",
			"from": [7.7995, 11.419, 7.067],
			"to": [8.2005, 11.671, 13.317],
			"rotation": {"angle": 22.5, "axis": "z", "origin": [8, 12.427, 8.075]},
			"faces": {
				"north": {"uv": [0, 0, 1.03125, 0.3125], "texture": "#1"},
				"east": {"uv": [0, 0.78125, 1.03125, 1.09375], "texture": "#1"},
				"south": {"uv": [0, 0, 0.3125, 0.21875], "texture": "#1"},
				"west": {"uv": [0, 0.78125, 1.03125, 1.09375], "texture": "#1"},
				"up": {"uv": [0, 0.78125, 1.03125, 1.09375], "texture": "#1"},
				"down": {"uv": [0, 0.78125, 1.03125, 1.09375], "texture": "#1"}
			}
		},
		{
			"name": "hexadecagon",
			"from": [7.7995, 11.419, 7.067],
			"to": [8.2005, 11.671, 13.317],
			"rotation": {"angle": 45, "axis": "z", "origin": [8, 12.427, 8.075]},
			"faces": {
				"north": {"uv": [0, 0, 1.03125, 0.3125], "texture": "#1"},
				"east": {"uv": [0, 0.78125, 1.03125, 1.09375], "texture": "#1"},
				"south": {"uv": [0, 0, 0.3125, 0.21875], "texture": "#1"},
				"west": {"uv": [0, 0.78125, 1.03125, 1.09375], "texture": "#1"},
				"up": {"uv": [0, 0.78125, 1.03125, 1.09375], "texture": "#1"},
				"down": {"uv": [0, 0.78125, 1.03125, 1.09375], "texture": "#1"}
			}
		},
		{
			"name": "hexadecagon",
			"from": [7.7995, 13.183, 7.067],
			"to": [8.2005, 13.435, 13.317],
			"rotation": {"angle": -45, "axis": "z", "origin": [8, 12.427, 8.075]},
			"faces": {
				"north": {"uv": [0, 0, 1.03125, 0.3125], "texture": "#1"},
				"east": {"uv": [0, 0.78125, 1.03125, 1.09375], "texture": "#1"},
				"south": {"uv": [0, 0, 0.3125, 0.21875], "texture": "#1"},
				"west": {"uv": [0, 0.78125, 1.03125, 1.09375], "texture": "#1"},
				"up": {"uv": [0, 0.78125, 1.03125, 1.09375], "texture": "#1"},
				"down": {"uv": [0, 0.78125, 1.03125, 1.09375], "texture": "#1"}
			}
		},
		{
			"name": "hexadecagon",
			"from": [7.7995, 13.183, 12.067],
			"to": [8.2005, 13.435, 13.317],
			"rotation": {"angle": -22.5, "axis": "z", "origin": [8, 12.427, 8.075]},
			"faces": {
				"north": {"uv": [0, 0, 1.03125, 0.3125], "texture": "#1"},
				"east": {"uv": [0, 0.78125, 1.03125, 1.09375], "texture": "#1"},
				"south": {"uv": [0, 0, 0.3125, 0.21875], "texture": "#1"},
				"west": {"uv": [0, 0.78125, 1.03125, 1.09375], "texture": "#1"},
				"up": {"uv": [0, 0.78125, 1.03125, 1.09375], "texture": "#1"},
				"down": {"uv": [0, 0.78125, 1.03125, 1.09375], "texture": "#1"}
			}
		},
		{
			"name": "hexadecagon",
			"from": [7.7995, 13.183, 6.817],
			"to": [8.2005, 13.435, 9.317],
			"rotation": {"angle": -22.5, "axis": "z", "origin": [8, 12.427, 7.825]},
			"faces": {
				"north": {"uv": [0, 0, 1.03125, 0.3125], "texture": "#1"},
				"east": {"uv": [0, 0.78125, 1.03125, 1.09375], "texture": "#1"},
				"south": {"uv": [0, 0, 1.03125, 0.3125], "texture": "#1"},
				"west": {"uv": [0, 0.78125, 1.03125, 1.09375], "texture": "#1"},
				"up": {"uv": [0, 0.78125, 1.03125, 1.09375], "texture": "#1"},
				"down": {"uv": [0, 0.78125, 1.03125, 1.09375], "texture": "#1"}
			}
		},
		{
			"name": "hexadecagon",
			"from": [7.4245, 13.183, 13.042],
			"to": [8.5745, 13.533, 13.292],
			"rotation": {"angle": 0, "axis": "z", "origin": [7.625, 12.427, 8.8]},
			"faces": {
				"north": {"uv": [0, 0, 1.03125, 0.3125], "texture": "#1"},
				"east": {"uv": [0, 0.78125, 1.03125, 1.09375], "texture": "#1"},
				"south": {"uv": [0, 0.28125, 1.03125, 0.59375], "texture": "#1"},
				"west": {"uv": [0, 0.78125, 1.03125, 1.09375], "texture": "#1"},
				"up": {"uv": [0, 0.78125, 1.03125, 1.09375], "texture": "#1"}
			}
		},
		{
			"name": "hexadecagon",
			"from": [7.4995, 13.533, 13.067],
			"to": [8.4995, 13.683, 13.267],
			"rotation": {"angle": 0, "axis": "z", "origin": [7.7, 12.777, 8.825]},
			"faces": {
				"north": {"uv": [0, 0, 1.03125, 0.3125], "texture": "#1"},
				"east": {"uv": [0, 0.78125, 1.03125, 1.09375], "texture": "#1"},
				"south": {"uv": [0, 0.28125, 1.03125, 0.59375], "texture": "#1"},
				"west": {"uv": [0, 0.78125, 1.03125, 1.09375], "texture": "#1"},
				"up": {"uv": [0, 0.78125, 1.03125, 1.09375], "texture": "#1"}
			}
		},
		{
			"name": "hexadecagon",
			"from": [7.7995, 13.183, 12.067],
			"to": [8.2005, 13.435, 13.317],
			"rotation": {"angle": 0, "axis": "z", "origin": [8, 12.427, 13.075]},
			"faces": {
				"north": {"uv": [0, 0, 1.03125, 0.3125], "texture": "#1"},
				"east": {"uv": [0, 0.78125, 1.03125, 1.09375], "texture": "#1"},
				"south": {"uv": [0, 0, 0.3125, 0.21875], "texture": "#1"},
				"west": {"uv": [0, 0.78125, 1.03125, 1.09375], "texture": "#1"},
				"up": {"uv": [0, 0.78125, 1.03125, 1.09375], "texture": "#1"},
				"down": {"uv": [0, 0.78125, 1.03125, 1.09375], "texture": "#1"}
			}
		},
		{
			"name": "hexadecagon",
			"from": [7.4245, 13.183, 9.317],
			"to": [8.5745, 13.283, 12.067],
			"rotation": {"angle": 0, "axis": "z", "origin": [7.625, 12.427, 10.325]},
			"faces": {
				"north": {"uv": [0, 0, 1.03125, 0.3125], "texture": "#1"},
				"east": {"uv": [0, 0.78125, 1.03125, 1.09375], "texture": "#1"},
				"south": {"uv": [0, 0, 1.03125, 0.3125], "texture": "#1"},
				"west": {"uv": [0, 0.78125, 1.03125, 1.09375], "texture": "#1"},
				"up": {"uv": [0, 0.78125, 1.03125, 1.09375], "texture": "#1"}
			}
		},
		{
			"name": "hexadecagon",
			"from": [7.7995, 13.183, 6.817],
			"to": [8.2005, 13.435, 9.317],
			"rotation": {"angle": 0, "axis": "z", "origin": [8, 12.427, 7.825]},
			"faces": {
				"north": {"uv": [0, 0, 1.03125, 0.3125], "texture": "#1"},
				"east": {"uv": [0, 0.78125, 1.03125, 1.09375], "texture": "#1"},
				"south": {"uv": [0, 0, 1.03125, 0.3125], "texture": "#1"},
				"west": {"uv": [0, 0.78125, 1.03125, 1.09375], "texture": "#1"},
				"up": {"uv": [0, 0.78125, 1.03125, 1.09375], "texture": "#1"},
				"down": {"uv": [0, 0.78125, 1.03125, 1.09375], "texture": "#1"}
			}
		},
		{
			"name": "hexadecagon",
			"from": [7.7995, 13.183, 12.067],
			"to": [8.2005, 13.435, 13.317],
			"rotation": {"angle": 22.5, "axis": "z", "origin": [8, 12.427, 8.075]},
			"faces": {
				"north": {"uv": [0, 0, 1.03125, 0.3125], "texture": "#1"},
				"east": {"uv": [0, 0.78125, 1.03125, 1.09375], "texture": "#1"},
				"south": {"uv": [0, 0, 0.3125, 0.21875], "texture": "#1"},
				"west": {"uv": [0, 0.78125, 1.03125, 1.09375], "texture": "#1"},
				"up": {"uv": [0, 0.78125, 1.03125, 1.09375], "texture": "#1"},
				"down": {"uv": [0, 0.78125, 1.03125, 1.09375], "texture": "#1"}
			}
		},
		{
			"name": "hexadecagon",
			"from": [7.7995, 13.183, 6.817],
			"to": [8.2005, 13.435, 9.317],
			"rotation": {"angle": 22.5, "axis": "z", "origin": [8, 12.427, 7.825]},
			"faces": {
				"north": {"uv": [0, 0, 1.03125, 0.3125], "texture": "#1"},
				"east": {"uv": [0, 0.78125, 1.03125, 1.09375], "texture": "#1"},
				"south": {"uv": [0, 0, 1.03125, 0.3125], "texture": "#1"},
				"west": {"uv": [0, 0.78125, 1.03125, 1.09375], "texture": "#1"},
				"up": {"uv": [0, 0.78125, 1.03125, 1.09375], "texture": "#1"},
				"down": {"uv": [0, 0.78125, 1.03125, 1.09375], "texture": "#1"}
			}
		},
		{
			"name": "hexadecagon",
			"from": [7.7995, 13.183, 7.067],
			"to": [8.2005, 13.435, 13.317],
			"rotation": {"angle": 45, "axis": "z", "origin": [8, 12.427, 8.075]},
			"faces": {
				"north": {"uv": [0, 0, 1.03125, 0.3125], "texture": "#1"},
				"east": {"uv": [0, 0.78125, 1.03125, 1.09375], "texture": "#1"},
				"south": {"uv": [0, 0, 0.3125, 0.21875], "texture": "#1"},
				"west": {"uv": [0, 0.78125, 1.03125, 1.09375], "texture": "#1"},
				"up": {"uv": [0, 0.78125, 1.03125, 1.09375], "texture": "#1"},
				"down": {"uv": [0, 0.78125, 1.03125, 1.09375], "texture": "#1"}
			}
		},
		{
			"name": "hexadecagon",
			"from": [6.992, 12.2265, 7.192],
			"to": [7.244, 12.6275, 13.317],
			"rotation": {"angle": -22.5, "axis": "z", "origin": [8, 12.427, 8.2]},
			"faces": {
				"north": {"uv": [0, 0, 1.03125, 0.3125], "texture": "#1"},
				"east": {"uv": [0, 0.78125, 1.03125, 1.09375], "texture": "#1"},
				"south": {"uv": [0, 0, 0.3125, 0.21875], "texture": "#1"},
				"west": {"uv": [0, 0.78125, 1.03125, 1.09375], "texture": "#1"},
				"up": {"uv": [0, 0.78125, 1.03125, 1.09375], "texture": "#1"},
				"down": {"uv": [0, 0.78125, 1.03125, 1.09375], "texture": "#1"}
			}
		},
		{
			"name": "hexadecagon",
			"from": [6.992, 12.2265, 11.817],
			"to": [7.244, 12.6275, 13.317],
			"rotation": {"angle": 0, "axis": "z", "origin": [8, 12.427, 12.825]},
			"faces": {
				"east": {"uv": [0, 0.78125, 1.03125, 1.09375], "texture": "#1"},
				"south": {"uv": [0, 0, 0.3125, 0.21875], "texture": "#1"},
				"west": {"uv": [0, 0.78125, 1.03125, 1.09375], "texture": "#1"},
				"up": {"uv": [0, 0.78125, 1.03125, 1.09375], "texture": "#1"},
				"down": {"uv": [0, 0.78125, 1.03125, 1.09375], "texture": "#1"}
			}
		},
		{
			"name": "hexadecagon",
			"from": [6.992, 11.9765, 10.067],
			"to": [7.244, 12.8265, 11.817],
			"rotation": {"angle": 0, "axis": "z", "origin": [8, 12.177, 11.075]},
			"faces": {
				"north": {"uv": [0, 0, 1.03125, 0.3125], "texture": "#1"},
				"east": {"uv": [0, 0.78125, 1.03125, 1.09375], "texture": "#1"},
				"south": {"uv": [0, 0, 1.03125, 0.3125], "texture": "#1"},
				"west": {"uv": [0, 0.78125, 1.03125, 1.09375], "texture": "#1"},
				"up": {"uv": [0, 0.78125, 1.03125, 1.09375], "texture": "#1"},
				"down": {"uv": [0, 0.78125, 1.03125, 1.09375], "texture": "#1"}
			}
		},
		{
			"name": "hexadecagon",
			"from": [6.992, 12.2265, 7.317],
			"to": [7.244, 12.6275, 10.067],
			"rotation": {"angle": 0, "axis": "z", "origin": [8, 12.427, 8.325]},
			"faces": {
				"north": {"uv": [0, 0, 1.03125, 0.3125], "texture": "#1"},
				"east": {"uv": [0, 0.78125, 1.03125, 1.09375], "texture": "#1"},
				"west": {"uv": [0, 0.78125, 1.03125, 1.09375], "texture": "#1"},
				"up": {"uv": [0, 0.78125, 1.03125, 1.09375], "texture": "#1"},
				"down": {"uv": [0, 0.78125, 1.03125, 1.09375], "texture": "#1"}
			}
		},
		{
			"name": "hexadecagon",
			"from": [6.992, 12.2265, 7.267],
			"to": [7.244, 12.6275, 13.317],
			"rotation": {"angle": 22.5, "axis": "z", "origin": [8, 12.427, 8.275]},
			"faces": {
				"north": {"uv": [0, 0, 1.03125, 0.3125], "texture": "#1"},
				"east": {"uv": [0, 0.78125, 1.03125, 1.09375], "texture": "#1"},
				"south": {"uv": [0, 0, 0.3125, 0.21875], "texture": "#1"},
				"west": {"uv": [0, 0.78125, 1.03125, 1.09375], "texture": "#1"},
				"up": {"uv": [0, 0.78125, 1.03125, 1.09375], "texture": "#1"},
				"down": {"uv": [0, 0.78125, 1.03125, 1.09375], "texture": "#1"}
			}
		},
		{
			"name": "hexadecagon",
			"from": [8.756, 12.2265, 7.267],
			"to": [9.008, 12.6275, 13.317],
			"rotation": {"angle": -22.5, "axis": "z", "origin": [8, 12.427, 8.275]},
			"faces": {
				"north": {"uv": [0, 0, 1.03125, 0.3125], "texture": "#1"},
				"east": {"uv": [0, 0.78125, 1.03125, 1.09375], "texture": "#1"},
				"south": {"uv": [0, 0, 0.3125, 0.21875], "texture": "#1"},
				"west": {"uv": [0, 0.78125, 1.03125, 1.09375], "texture": "#1"},
				"up": {"uv": [0, 0.78125, 1.03125, 1.09375], "texture": "#1"},
				"down": {"uv": [0, 0.78125, 1.03125, 1.09375], "texture": "#1"}
			}
		},
		{
			"name": "hexadecagon",
			"from": [8.756, 12.2265, 7.317],
			"to": [9.008, 12.6275, 13.317],
			"rotation": {"angle": 0, "axis": "z", "origin": [8, 12.427, 8.325]},
			"faces": {
				"north": {"uv": [0, 0, 1.03125, 0.3125], "texture": "#1"},
				"east": {"uv": [0, 0.78125, 1.03125, 1.09375], "texture": "#1"},
				"south": {"uv": [0, 0, 0.3125, 0.21875], "texture": "#1"},
				"west": {"uv": [0, 0.78125, 1.03125, 1.09375], "texture": "#1"},
				"up": {"uv": [0, 0.78125, 1.03125, 1.09375], "texture": "#1"},
				"down": {"uv": [0, 0.78125, 1.03125, 1.09375], "texture": "#1"}
			}
		},
		{
			"name": "hexadecagon",
			"from": [8.756, 12.2265, 7.192],
			"to": [9.008, 12.6275, 13.317],
			"rotation": {"angle": 22.5, "axis": "z", "origin": [8, 12.427, 8.2]},
			"faces": {
				"north": {"uv": [0, 0, 1.03125, 0.3125], "texture": "#1"},
				"east": {"uv": [0, 0.78125, 1.03125, 1.09375], "texture": "#1"},
				"south": {"uv": [0, 0, 0.3125, 0.21875], "texture": "#1"},
				"west": {"uv": [0, 0.78125, 1.03125, 1.09375], "texture": "#1"},
				"up": {"uv": [0, 0.78125, 1.03125, 1.09375], "texture": "#1"},
				"down": {"uv": [0, 0.78125, 1.03125, 1.09375], "texture": "#1"}
			}
		},
		{
			"name": "octagon",
			"from": [7.114, 10.889, 6.81051],
			"to": [8.889, 11.561, 7.48251],
			"rotation": {"angle": 0, "axis": "x", "origin": [7.45, 11.225, 6.94969]},
			"faces": {
				"north": {"uv": [0, 0, 2, 2], "texture": "#2"},
				"east": {"uv": [0, 0, 2, 2], "texture": "#2"},
				"south": {"uv": [0, 0, 2, 2], "texture": "#2"},
				"west": {"uv": [0, 0, 2, 2], "texture": "#2"},
				"up": {"uv": [0, 0, 2, 2], "texture": "#2"},
				"down": {"uv": [0, 0, 2, 2], "texture": "#2"}
			}
		},
		{
			"name": "octagon",
			"from": [6.6, 12.23957, 10.827],
			"to": [7, 12.54443, 11.563],
			"rotation": {"angle": 45, "axis": "x", "origin": [6.8, 12.392, 11.195]},
			"faces": {
				"north": {"uv": [4, 0, 4.5, 0.53125], "texture": "#1"},
				"east": {"uv": [4, 0, 4.5, 0.53125], "texture": "#1"},
				"south": {"uv": [4, 0, 4.5, 0.53125], "texture": "#1"},
				"west": {"uv": [4, 0, 4.5, 0.53125], "texture": "#1"}
			}
		},
		{
			"name": "octagon",
			"from": [6.6, 12.23957, 10.827],
			"to": [7, 12.54443, 11.563],
			"rotation": {"angle": 0, "axis": "x", "origin": [6.8, 12.392, 11.195]},
			"faces": {
				"north": {"uv": [4, 0, 4.5, 0.53125], "texture": "#1"},
				"south": {"uv": [4, 0, 4.5, 0.53125], "texture": "#1"},
				"west": {"uv": [4, 0, 4.5, 0.53125], "texture": "#1"}
			}
		},
		{
			"name": "octagon",
			"from": [6.6, 12.024, 11.04257],
			"to": [7, 12.76, 11.34743],
			"rotation": {"angle": 45, "axis": "x", "origin": [6.8, 12.392, 11.195]},
			"faces": {
				"east": {"uv": [4, 0, 4.5, 0.53125], "texture": "#1"},
				"west": {"uv": [4, 0, 4.5, 0.53125], "texture": "#1"},
				"up": {"uv": [4, 0, 4.5, 0.53125], "texture": "#1"},
				"down": {"uv": [4, 0, 4.5, 0.53125], "texture": "#1"}
			}
		},
		{
			"name": "octagon",
			"from": [6.6, 12.024, 11.04257],
			"to": [7, 12.76, 11.34743],
			"rotation": {"angle": 0, "axis": "x", "origin": [6.8, 12.392, 11.195]},
			"faces": {
				"west": {"uv": [4, 0, 4.5, 0.53125], "texture": "#1"},
				"up": {"uv": [4, 0, 4.5, 0.53125], "texture": "#1"},
				"down": {"uv": [4, 0, 4.5, 0.53125], "texture": "#1"}
			}
		},
		{
			"name": "hexadecagon",
			"from": [7.77782, 11.32204, 8.55804],
			"to": [8.22218, 11.60128, 9.30804],
			"rotation": {"angle": -45, "axis": "z", "origin": [8, 12.439, 9.675]},
			"faces": {
				"north": {"uv": [0, 0.6875, 0.9375, 1.03125], "texture": "#1"},
				"south": {"uv": [0, 0.6875, 0.9375, 1.03125], "texture": "#1"},
				"down": {"uv": [0, 0.6875, 0.9375, 1.03125], "texture": "#1"}
			}
		},
		{
			"name": "hexadecagon",
			"from": [7.77782, 11.32204, 8.55804],
			"to": [8.22218, 11.60128, 9.30804],
			"rotation": {"angle": -22.5, "axis": "z", "origin": [8, 12.439, 9.675]},
			"faces": {
				"north": {"uv": [0, 0.6875, 0.9375, 1.03125], "texture": "#1"},
				"south": {"uv": [0, 0.6875, 0.9375, 1.03125], "texture": "#1"},
				"down": {"uv": [0, 0.6875, 0.9375, 1.03125], "texture": "#1"}
			}
		},
		{
			"name": "hexadecagon",
			"from": [7.77782, 11.32204, 8.55804],
			"to": [8.22218, 11.60128, 9.30804],
			"rotation": {"angle": 0, "axis": "z", "origin": [8, 12.439, 9.675]},
			"faces": {
				"north": {"uv": [0, 0.6875, 0.9375, 1.03125], "texture": "#1"},
				"down": {"uv": [0, 0.6875, 0.9375, 1.03125], "texture": "#1"}
			}
		},
		{
			"name": "hexadecagon",
			"from": [7.77782, 11.32204, 8.55804],
			"to": [8.22218, 11.60128, 9.30804],
			"rotation": {"angle": 22.5, "axis": "z", "origin": [8, 12.439, 9.675]},
			"faces": {
				"north": {"uv": [0, 0.6875, 0.9375, 1.03125], "texture": "#1"},
				"south": {"uv": [0, 0.6875, 0.9375, 1.03125], "texture": "#1"},
				"down": {"uv": [0, 0.6875, 0.9375, 1.03125], "texture": "#1"}
			}
		},
		{
			"name": "hexadecagon",
			"from": [7.77782, 11.32204, 8.55804],
			"to": [8.22218, 11.60128, 9.30804],
			"rotation": {"angle": 45, "axis": "z", "origin": [8, 12.439, 9.675]},
			"faces": {
				"north": {"uv": [0, 0.6875, 0.9375, 1.03125], "texture": "#1"},
				"south": {"uv": [0, 0.6875, 0.9375, 1.03125], "texture": "#1"},
				"down": {"uv": [0, 0.6875, 0.9375, 1.03125], "texture": "#1"}
			}
		},
		{
			"name": "hexadecagon",
			"from": [7.77782, 13.27672, 8.55804],
			"to": [8.22218, 13.55596, 9.30804],
			"rotation": {"angle": -45, "axis": "z", "origin": [8, 12.439, 9.675]},
			"faces": {
				"north": {"uv": [0, 0.6875, 0.9375, 1.03125], "texture": "#1"},
				"south": {"uv": [0, 0.6875, 0.9375, 1.03125], "texture": "#1"},
				"up": {"uv": [0, 0.6875, 0.9375, 1.03125], "texture": "#1"}
			}
		},
		{
			"name": "hexadecagon",
			"from": [7.77782, 13.27672, 8.55804],
			"to": [8.22218, 13.55596, 9.30804],
			"rotation": {"angle": -22.5, "axis": "z", "origin": [8, 12.439, 9.675]},
			"faces": {
				"north": {"uv": [0, 0.6875, 0.9375, 1.03125], "texture": "#1"},
				"south": {"uv": [0, 0.6875, 0.9375, 1.03125], "texture": "#1"},
				"up": {"uv": [0, 0.6875, 0.9375, 1.03125], "texture": "#1"}
			}
		},
		{
			"name": "hexadecagon",
			"from": [7.77782, 13.27672, 8.55804],
			"to": [8.22218, 13.55596, 9.30804],
			"rotation": {"angle": 0, "axis": "z", "origin": [8, 12.439, 9.675]},
			"faces": {
				"north": {"uv": [0, 0.6875, 0.9375, 1.03125], "texture": "#1"},
				"south": {"uv": [0, 0.6875, 0.9375, 1.03125], "texture": "#1"},
				"up": {"uv": [0, 0.6875, 0.9375, 1.03125], "texture": "#1"}
			}
		},
		{
			"name": "hexadecagon",
			"from": [7.77782, 13.27672, 8.55804],
			"to": [8.22218, 13.55596, 9.30804],
			"rotation": {"angle": 22.5, "axis": "z", "origin": [8, 12.439, 9.675]},
			"faces": {
				"north": {"uv": [0, 0.6875, 0.9375, 1.03125], "texture": "#1"},
				"south": {"uv": [0, 0.6875, 0.9375, 1.03125], "texture": "#1"},
				"up": {"uv": [0, 0.6875, 0.9375, 1.03125], "texture": "#1"}
			}
		},
		{
			"name": "hexadecagon",
			"from": [7.77782, 13.27672, 8.55804],
			"to": [8.22218, 13.55596, 9.30804],
			"rotation": {"angle": 45, "axis": "z", "origin": [8, 12.439, 9.675]},
			"faces": {
				"north": {"uv": [0, 0.6875, 0.9375, 1.03125], "texture": "#1"},
				"south": {"uv": [0, 0.6875, 0.9375, 1.03125], "texture": "#1"},
				"up": {"uv": [0, 0.6875, 0.9375, 1.03125], "texture": "#1"}
			}
		},
		{
			"name": "hexadecagon",
			"from": [6.88304, 12.21682, 8.55804],
			"to": [7.16228, 12.66118, 9.30804],
			"rotation": {"angle": -22.5, "axis": "z", "origin": [8, 12.439, 9.675]},
			"faces": {
				"north": {"uv": [0, 0.6875, 0.9375, 1.03125], "texture": "#1"},
				"south": {"uv": [0, 0.6875, 0.9375, 1.03125], "texture": "#1"},
				"west": {"uv": [0, 0.6875, 0.9375, 1.03125], "texture": "#1"}
			}
		},
		{
			"name": "hexadecagon",
			"from": [6.88304, 12.21682, 8.55804],
			"to": [7.16228, 12.66118, 9.30804],
			"rotation": {"angle": 0, "axis": "z", "origin": [8, 12.439, 9.675]},
			"faces": {
				"north": {"uv": [0, 0.6875, 0.9375, 1.03125], "texture": "#1"},
				"south": {"uv": [0, 0.6875, 0.9375, 1.03125], "texture": "#1"},
				"west": {"uv": [0, 0.6875, 0.9375, 1.03125], "texture": "#1"}
			}
		},
		{
			"name": "hexadecagon",
			"from": [6.88304, 12.21682, 8.55804],
			"to": [7.16228, 12.66118, 9.30804],
			"rotation": {"angle": 22.5, "axis": "z", "origin": [8, 12.439, 9.675]},
			"faces": {
				"north": {"uv": [0, 0.6875, 0.9375, 1.03125], "texture": "#1"},
				"south": {"uv": [0, 0.6875, 0.9375, 1.03125], "texture": "#1"},
				"west": {"uv": [0, 0.6875, 0.9375, 1.03125], "texture": "#1"}
			}
		},
		{
			"name": "hexadecagon",
			"from": [8.83772, 12.21682, 8.55804],
			"to": [9.11696, 12.66118, 9.30804],
			"rotation": {"angle": -22.5, "axis": "z", "origin": [8, 12.439, 9.675]},
			"faces": {
				"north": {"uv": [0, 0.6875, 0.9375, 1.03125], "texture": "#1"},
				"east": {"uv": [0, 0.6875, 0.9375, 1.03125], "texture": "#1"},
				"south": {"uv": [0, 0.6875, 0.9375, 1.03125], "texture": "#1"}
			}
		},
		{
			"name": "hexadecagon",
			"from": [8.83772, 12.21682, 8.55804],
			"to": [9.11696, 12.66118, 9.30804],
			"rotation": {"angle": 0, "axis": "z", "origin": [8, 12.439, 9.675]},
			"faces": {
				"north": {"uv": [0, 0.6875, 0.9375, 1.03125], "texture": "#1"},
				"east": {"uv": [0, 0.6875, 0.9375, 1.03125], "texture": "#1"},
				"south": {"uv": [0, 0.6875, 0.9375, 1.03125], "texture": "#1"}
			}
		},
		{
			"name": "hexadecagon",
			"from": [8.83772, 12.21682, 8.55804],
			"to": [9.11696, 12.66118, 9.30804],
			"rotation": {"angle": 22.5, "axis": "z", "origin": [8, 12.439, 9.675]},
			"faces": {
				"north": {"uv": [0, 0.6875, 0.9375, 1.03125], "texture": "#1"},
				"east": {"uv": [0, 0.6875, 0.9375, 1.03125], "texture": "#1"},
				"south": {"uv": [0, 0.6875, 0.9375, 1.03125], "texture": "#1"}
			}
		},
		{
			"name": "octagon",
			"from": [6.95, 8.076, 11.9678],
			"to": [9.05, 8.7, 12.5918],
			"rotation": {"angle": 0, "axis": "x", "origin": [7.262, 8.388, 12.09703]},
			"faces": {
				"north": {"uv": [0, 0, 2, 2], "texture": "#2"},
				"east": {"uv": [0, 0, 2, 2], "texture": "#2"},
				"south": {"uv": [0, 0, 2, 2], "texture": "#2"},
				"west": {"uv": [0, 0, 2, 2], "texture": "#2"},
				"up": {"uv": [0, 0, 2, 2], "texture": "#2"},
				"down": {"uv": [0, 0, 2, 2], "texture": "#2"}
			}
		},
		{
			"from": [6.85, 8.25068, 17.025],
			"to": [9.15, 10.25068, 17.275],
			"rotation": {"angle": 0, "axis": "z", "origin": [7.5, 8.375, 19.025]},
			"faces": {
				"north": {"uv": [4, 0, 6, 2], "texture": "#2"},
				"east": {"uv": [4, 0, 6, 2], "texture": "#2"},
				"south": {"uv": [4, 0, 6, 2], "texture": "#2"},
				"west": {"uv": [4, 0, 6, 2], "texture": "#2"},
				"up": {"uv": [4, 0, 6, 2], "texture": "#2"},
				"down": {"uv": [4, 0, 6, 2], "texture": "#2"}
			}
		},
		{
			"from": [7.4, 7.02568, 17.275],
			"to": [8.6, 9.52568, 18.025],
			"rotation": {"angle": 0, "axis": "z", "origin": [8.05, 7.15, 19.275]},
			"faces": {
				"east": {"uv": [4, 0, 6, 2], "texture": "#2"},
				"south": {"uv": [4, 0, 6, 2], "texture": "#2"},
				"west": {"uv": [4, 0, 6, 2], "texture": "#2"},
				"up": {"uv": [4, 0, 6, 2], "texture": "#2"},
				"down": {"uv": [4, 0, 6, 2], "texture": "#2"}
			}
		},
		{
			"from": [7.5, 6.77568, 17.275],
			"to": [8.5, 9.40068, 18.525],
			"rotation": {"angle": 0, "axis": "z", "origin": [8.15, 6.9, 19.275]},
			"faces": {
				"east": {"uv": [3.34375, 0, 4, 2], "texture": "#1"},
				"south": {"uv": [3.34375, 0, 4, 2], "texture": "#1"},
				"west": {"uv": [3.34375, 0, 4, 2], "texture": "#1"},
				"up": {"uv": [3.34375, 0, 4, 2], "texture": "#1"},
				"down": {"uv": [3.34375, 0, 4, 2], "texture": "#1"}
			}
		},
		{
			"from": [7.5, 7.8, 18.525],
			"to": [8.5, 8.05, 20.975],
			"rotation": {"angle": 0, "axis": "z", "origin": [8.15, 7.95, 20.525]},
			"faces": {
				"east": {"uv": [3.34375, 0, 4, 2], "texture": "#1"},
				"west": {"uv": [3.34375, 0, 4, 2], "texture": "#1"},
				"up": {"uv": [3.34375, 0, 4, 2], "texture": "#1"},
				"down": {"uv": [3.34375, 0, 4, 2], "texture": "#1"}
			}
		},
		{
			"from": [7.875, 7, 24.975],
			"to": [8.125, 7.25, 26.225],
			"rotation": {"angle": 0, "axis": "z", "origin": [8.525, 7.15, 26.975]},
			"faces": {
				"east": {"uv": [2, 0, 4, 2], "texture": "#2"},
				"south": {"uv": [2, 0, 4, 2], "texture": "#2"},
				"west": {"uv": [2, 0, 4, 2], "texture": "#2"},
				"up": {"uv": [2, 0, 4, 2], "texture": "#2"},
				"down": {"uv": [2, 0, 4, 2], "texture": "#2"}
			}
		},
		{
			"from": [7.875, 5.75, 24.975],
			"to": [8.125, 6, 26.225],
			"rotation": {"angle": 0, "axis": "z", "origin": [8.525, 5.9, 26.975]},
			"faces": {
				"east": {"uv": [2, 0, 4, 2], "texture": "#2"},
				"south": {"uv": [2, 0, 4, 2], "texture": "#2"},
				"west": {"uv": [2, 0, 4, 2], "texture": "#2"},
				"up": {"uv": [2, 0, 4, 2], "texture": "#2"},
				"down": {"uv": [2, 0, 4, 2], "texture": "#2"}
			}
		},
		{
			"from": [7.5, 9.07568, 18.525],
			"to": [8.5, 9.39968, 19.775],
			"rotation": {"angle": 0, "axis": "z", "origin": [8.15, 9.2, 20.525]},
			"faces": {
				"east": {"uv": [3.34375, 0, 4, 2], "texture": "#1"},
				"south": {"uv": [3.34375, 0, 4, 2], "texture": "#1"},
				"west": {"uv": [3.34375, 0, 4, 2], "texture": "#1"},
				"up": {"uv": [3.34375, 0, 4, 2], "texture": "#1"},
				"down": {"uv": [3.34375, 0, 4, 2], "texture": "#1"}
			}
		},
		{
			"from": [7.5, 7.33768, 20.813],
			"to": [8.5, 9.83768, 21.137],
			"rotation": {"angle": -45, "axis": "x", "origin": [8, 7.96268, 20.975]},
			"faces": {
				"north": {"uv": [3.34375, 0, 4, 2], "rotation": 90, "texture": "#1"},
				"east": {"uv": [3.34375, 0, 4, 2], "rotation": 90, "texture": "#1"},
				"south": {"uv": [3.34375, 0, 4, 2], "rotation": 90, "texture": "#1"},
				"west": {"uv": [3.34375, 0, 4, 2], "rotation": 90, "texture": "#1"},
				"up": {"uv": [3.34375, 0, 4, 2], "rotation": 90, "texture": "#1"}
			}
		},
		{
			"from": [7.5, 5.73768, 20.863],
			"to": [8.5, 7.23768, 21.187],
			"rotation": {"angle": -45, "axis": "x", "origin": [8, 6.36268, 21.025]},
			"faces": {
				"north": {"uv": [3.34375, 0, 4, 2], "rotation": 90, "texture": "#1"},
				"east": {"uv": [3.34375, 0, 4, 2], "rotation": 90, "texture": "#1"},
				"south": {"uv": [3.34375, 0, 4, 2], "rotation": 90, "texture": "#1"},
				"west": {"uv": [3.34375, 0, 4, 2], "rotation": 90, "texture": "#1"}
			}
		},
		{
			"from": [7.5, 5.55068, 21.35],
			"to": [8.5, 6.05068, 25],
			"rotation": {"angle": 0, "axis": "x", "origin": [8, 5.71268, 21.725]},
			"faces": {
				"north": {"uv": [3.34375, 0, 4, 2], "texture": "#1"},
				"east": {"uv": [3.34375, 0, 4, 2], "texture": "#1"},
				"south": {"uv": [3.34375, 0, 4, 2], "texture": "#1"},
				"west": {"uv": [3.34375, 0, 4, 2], "texture": "#1"},
				"up": {"uv": [3.34375, 0, 4, 2], "texture": "#1"}
			}
		},
		{
			"from": [7.4, 5.10068, 21.25],
			"to": [8.6, 5.55068, 25],
			"rotation": {"angle": 0, "axis": "x", "origin": [7.9, 5.26268, 21.625]},
			"faces": {
				"north": {"uv": [3.34375, 0, 4, 2], "texture": "#1"},
				"east": {"uv": [3.34375, 0, 4, 2], "texture": "#1"},
				"south": {"uv": [3.34375, 0, 4, 2], "texture": "#1"},
				"west": {"uv": [3.34375, 0, 4, 2], "texture": "#1"},
				"up": {"uv": [3.34375, 0, 4, 2], "texture": "#1"},
				"down": {"uv": [3.34375, 0, 4, 2], "texture": "#1"}
			}
		},
		{
			"from": [7.5, 6.02568, 21.3],
			"to": [8.5, 7.87568, 22.05],
			"rotation": {"angle": 0, "axis": "x", "origin": [8, 6.18768, 21.675]},
			"faces": {
				"north": {"uv": [3.34375, 0, 4, 2], "texture": "#1"},
				"east": {"uv": [3.34375, 0, 4, 2], "texture": "#1"},
				"south": {"uv": [3.34375, 0, 4, 2], "texture": "#1"},
				"west": {"uv": [3.34375, 0, 4, 2], "texture": "#1"},
				"up": {"uv": [3.34375, 0, 4, 2], "texture": "#1"}
			}
		},
		{
			"from": [7.5, 6.02568, 23.725],
			"to": [8.5, 7.87568, 24.975],
			"rotation": {"angle": 0, "axis": "x", "origin": [8, 6.18768, 24.1]},
			"faces": {
				"north": {"uv": [3.34375, 0, 4, 2], "texture": "#1"},
				"east": {"uv": [3.34375, 0, 4, 2], "texture": "#1"},
				"south": {"uv": [3.34375, 0, 4, 2], "texture": "#1"},
				"west": {"uv": [3.34375, 0, 4, 2], "texture": "#1"},
				"up": {"uv": [3.34375, 0, 4, 2], "texture": "#1"}
			}
		},
		{
			"from": [7.5, 4.25068, 26.25],
			"to": [8.5, 8.75068, 26.75],
			"rotation": {"angle": 0, "axis": "x", "origin": [8, 4.41268, 26.625]},
			"faces": {
				"north": {"uv": [3.34375, 0, 4, 2], "texture": "#1"},
				"east": {"uv": [3.34375, 0, 4, 2], "texture": "#1"},
				"west": {"uv": [3.34375, 0, 4, 2], "texture": "#1"},
				"up": {"uv": [3.34375, 0, 4, 2], "texture": "#1"},
				"down": {"uv": [3.34375, 0, 4, 2], "texture": "#1"}
			}
		},
		{
			"from": [7.3, 4.00068, 26.75],
			"to": [8.7, 9.00068, 27.5],
			"rotation": {"angle": 0, "axis": "x", "origin": [7.8, 4.16268, 27.125]},
			"faces": {
				"north": {"uv": [4, 0, 6, 2], "texture": "#2"},
				"east": {"uv": [4, 0, 6, 2], "texture": "#2"},
				"south": {"uv": [4, 0, 6, 2], "texture": "#2"},
				"west": {"uv": [4, 0, 6, 2], "texture": "#2"},
				"up": {"uv": [4, 0, 6, 2], "texture": "#2"},
				"down": {"uv": [4, 0, 6, 2], "texture": "#2"}
			}
		},
		{
			"from": [7.7, 6.02568, 22.05],
			"to": [8.3, 7.87568, 23.725],
			"rotation": {"angle": 0, "axis": "x", "origin": [8.2, 6.18768, 22.425]},
			"faces": {
				"east": {"uv": [3.34375, 0, 4, 2], "texture": "#1"},
				"west": {"uv": [3.34375, 0, 4, 2], "texture": "#1"},
				"up": {"uv": [3.34375, 0, 4, 2], "texture": "#1"}
			}
		},
		{
			"from": [7.5, 6.97568, 22.05],
			"to": [7.7, 9.67568, 23.725],
			"rotation": {"angle": 0, "axis": "x", "origin": [8, 7.13768, 22.425]},
			"faces": {
				"north": {"uv": [4, 0, 6, 2], "texture": "#2"},
				"east": {"uv": [4, 0, 6, 2], "texture": "#2"},
				"south": {"uv": [4, 0, 6, 2], "texture": "#2"},
				"west": {"uv": [4, 0, 6, 2], "texture": "#2"},
				"down": {"uv": [4, 0, 6, 2], "texture": "#2"}
			}
		},
		{
			"from": [7.3, 7.92568, 22.05],
			"to": [7.5, 8.82568, 23.725],
			"rotation": {"angle": 0, "axis": "x", "origin": [7.8, 8.08768, 22.425]},
			"faces": {
				"north": {"uv": [3.34375, 0, 4, 2], "texture": "#1"},
				"south": {"uv": [3.34375, 0, 4, 2], "texture": "#1"},
				"west": {"uv": [3.34375, 0, 4, 2], "texture": "#1"},
				"up": {"uv": [3.34375, 0, 4, 2], "texture": "#1"},
				"down": {"uv": [3.34375, 0, 4, 2], "texture": "#1"}
			}
		},
		{
			"from": [8.5, 7.92568, 22.05],
			"to": [8.7, 8.82568, 23.725],
			"rotation": {"angle": 0, "axis": "x", "origin": [9, 8.08768, 22.425]},
			"faces": {
				"north": {"uv": [3.34375, 0, 4, 2], "texture": "#1"},
				"east": {"uv": [3.34375, 0, 4, 2], "texture": "#1"},
				"south": {"uv": [3.34375, 0, 4, 2], "texture": "#1"},
				"up": {"uv": [3.34375, 0, 4, 2], "texture": "#1"},
				"down": {"uv": [3.34375, 0, 4, 2], "texture": "#1"}
			}
		},
		{
			"from": [7.025, 9.65068, 20.525],
			"to": [9.025, 9.85068, 24.025],
			"rotation": {"angle": 0, "axis": "x", "origin": [7.525, 9.81268, 20.9]},
			"faces": {
				"north": {"uv": [4, 0, 6, 2], "texture": "#2"},
				"east": {"uv": [4, 0, 6, 2], "texture": "#2"},
				"south": {"uv": [4, 0, 6, 2], "texture": "#2"},
				"west": {"uv": [4, 0, 6, 2], "texture": "#2"},
				"up": {"uv": [4, 0, 6, 2], "texture": "#2"},
				"down": {"uv": [4, 0, 6, 2], "texture": "#2"}
			}
		},
		{
			"from": [8.3, 6.97568, 22.05],
			"to": [8.5, 9.67568, 23.725],
			"rotation": {"angle": 0, "axis": "x", "origin": [8.8, 7.13768, 22.425]},
			"faces": {
				"north": {"uv": [4, 0, 6, 2], "texture": "#2"},
				"east": {"uv": [4, 0, 6, 2], "texture": "#2"},
				"south": {"uv": [4, 0, 6, 2], "texture": "#2"},
				"west": {"uv": [4, 0, 6, 2], "texture": "#2"},
				"down": {"uv": [4, 0, 6, 2], "texture": "#2"}
			}
		},
		{
			"from": [7.5, 6.77568, 18.525],
			"to": [8.5, 7.09968, 20.525],
			"rotation": {"angle": 0, "axis": "z", "origin": [8.15, 6.9, 20.525]},
			"faces": {
				"east": {"uv": [3.34375, 0, 4, 2], "texture": "#1"},
				"south": {"uv": [3.34375, 0, 4, 2], "texture": "#1"},
				"west": {"uv": [3.34375, 0, 4, 2], "texture": "#1"},
				"up": {"uv": [3.34375, 0, 4, 2], "texture": "#1"},
				"down": {"uv": [3.34375, 0, 4, 2], "texture": "#1"}
			}
		},
		{
			"from": [7.2, 6.75068, 17.025],
			"to": [8.8, 8.25068, 17.275],
			"rotation": {"angle": 0, "axis": "z", "origin": [7.85, 6.875, 19.025]},
			"faces": {
				"north": {"uv": [4, 0, 6, 2], "texture": "#2"},
				"east": {"uv": [4, 0, 6, 2], "texture": "#2"},
				"south": {"uv": [4, 0, 6, 2], "texture": "#2"},
				"west": {"uv": [4, 0, 6, 2], "texture": "#2"},
				"down": {"uv": [4, 0, 6, 2], "texture": "#2"}
			}
		},
		{
			"name": "octagon",
			"from": [7.74849, 9.30536, 17.2678],
			"to": [8.25151, 9.8822, 18.0178],
			"rotation": {"angle": 45, "axis": "z", "origin": [8, 9.275, 17.875]},
			"faces": {
				"north": {"uv": [3.46875, 0, 4, 2], "texture": "#2"},
				"south": {"uv": [3.46875, 0, 4, 2], "texture": "#2"},
				"west": {"uv": [3.46875, 0, 4, 2], "texture": "#2"},
				"up": {"uv": [3.46875, 0, 4, 2], "texture": "#2"}
			}
		},
		{
			"name": "octagon",
			"from": [7.79638, 9.22458, 18],
			"to": [8.20362, 9.69159, 19.5],
			"rotation": {"angle": 45, "axis": "z", "origin": [8, 9.2, 18.5]},
			"faces": {
				"north": {"uv": [3.46875, 0, 4, 2], "texture": "#1"},
				"south": {"uv": [3.46875, 0, 4, 2], "texture": "#1"},
				"west": {"uv": [3.46875, 0, 4, 2], "texture": "#1"},
				"up": {"uv": [3.46875, 0, 4, 2], "texture": "#1"},
				"down": {"uv": [3.46875, 0, 4, 2], "texture": "#1"}
			}
		},
		{
			"name": "octagon",
			"from": [7.74849, 9.30536, 17.2678],
			"to": [8.25151, 9.8822, 18.0178],
			"rotation": {"angle": 0, "axis": "z", "origin": [8, 9.275, 17.875]},
			"faces": {
				"south": {"uv": [3.46875, 0, 4, 2], "texture": "#2"},
				"up": {"uv": [3.46875, 0, 4, 2], "texture": "#2"}
			}
		},
		{
			"name": "octagon",
			"from": [7.79638, 9.22458, 18],
			"to": [8.20362, 9.69159, 19.5],
			"rotation": {"angle": 0, "axis": "z", "origin": [8, 9.2, 18.5]},
			"faces": {
				"south": {"uv": [3.46875, 0, 4, 2], "texture": "#1"},
				"up": {"uv": [3.46875, 0, 4, 2], "texture": "#1"}
			}
		},
		{
			"name": "octagon",
			"from": [8.03036, 9.02349, 17.2678],
			"to": [8.6072, 9.52651, 18.0178],
			"rotation": {"angle": 45, "axis": "z", "origin": [8, 9.275, 17.875]},
			"faces": {
				"north": {"uv": [3.46875, 0, 4, 2], "texture": "#2"},
				"east": {"uv": [3.46875, 0, 4, 2], "texture": "#2"},
				"south": {"uv": [3.46875, 0, 4, 2], "texture": "#2"},
				"down": {"uv": [3.46875, 0, 4, 2], "texture": "#2"}
			}
		},
		{
			"name": "octagon",
			"from": [8.02458, 8.99638, 18],
			"to": [8.49159, 9.40362, 19.5],
			"rotation": {"angle": 45, "axis": "z", "origin": [8, 9.2, 18.5]},
			"faces": {
				"north": {"uv": [3.46875, 0, 4, 2], "texture": "#1"},
				"east": {"uv": [3.46875, 0, 4, 2], "texture": "#1"},
				"south": {"uv": [3.46875, 0, 4, 2], "texture": "#1"},
				"west": {"uv": [3.46875, 0, 4, 2], "texture": "#1"},
				"down": {"uv": [3.46875, 0, 4, 2], "texture": "#1"}
			}
		},
		{
			"name": "hexadecagon",
			"from": [7.77722, 10.622, 21.18],
			"to": [8.22278, 10.79, 24.93],
			"rotation": {"angle": -45, "axis": "z", "origin": [8, 9.67, 22.3]},
			"faces": {
				"south": {"uv": [4.125, 1.5625, 4.375, 1.8125], "texture": "#2"},
				"up": {"uv": [4.125, 1.5625, 4.375, 1.8125], "texture": "#2"},
				"down": {"uv": [4.125, 1.5625, 4.375, 1.8125], "texture": "#2"}
			}
		},
		{
			"name": "hexadecagon",
			"from": [7.77722, 10.622, 21.18],
			"to": [8.22278, 10.79, 24.93],
			"rotation": {"angle": -22.5, "axis": "z", "origin": [8, 9.67, 22.3]},
			"faces": {
				"south": {"uv": [4.125, 1.5625, 4.375, 1.8125], "texture": "#2"},
				"up": {"uv": [4.125, 1.5625, 4.375, 1.8125], "texture": "#2"},
				"down": {"uv": [4.125, 1.5625, 4.375, 1.8125], "texture": "#2"}
			}
		},
		{
			"name": "hexadecagon",
			"from": [7.77722, 10.622, 21.18],
			"to": [8.22278, 10.79, 24.93],
			"rotation": {"angle": 0, "axis": "z", "origin": [8, 9.67, 22.3]},
			"faces": {
				"south": {"uv": [4.125, 1.5625, 4.375, 1.8125], "texture": "#2"},
				"up": {"uv": [4.125, 1.5625, 4.375, 1.8125], "texture": "#2"},
				"down": {"uv": [4.125, 1.5625, 4.375, 1.8125], "texture": "#2"}
			}
		},
		{
			"name": "hexadecagon",
			"from": [7.77722, 10.622, 21.18],
			"to": [8.22278, 10.79, 24.93],
			"rotation": {"angle": 22.5, "axis": "z", "origin": [8, 9.67, 22.3]},
			"faces": {
				"south": {"uv": [4.125, 1.5625, 4.375, 1.8125], "texture": "#2"},
				"up": {"uv": [4.125, 1.5625, 4.375, 1.8125], "texture": "#2"},
				"down": {"uv": [4.125, 1.5625, 4.375, 1.8125], "texture": "#2"}
			}
		},
		{
			"name": "hexadecagon",
			"from": [7.77722, 10.622, 21.18],
			"to": [8.22278, 10.79, 24.93],
			"rotation": {"angle": 45, "axis": "z", "origin": [8, 9.67, 22.3]},
			"faces": {
				"south": {"uv": [4.125, 1.5625, 4.375, 1.8125], "texture": "#2"},
				"up": {"uv": [4.125, 1.5625, 4.375, 1.8125], "texture": "#2"},
				"down": {"uv": [4.125, 1.5625, 4.375, 1.8125], "texture": "#2"}
			}
		},
		{
			"name": "hexadecagon",
			"from": [6.88, 9.44722, 21.18],
			"to": [7.048, 9.89278, 24.93],
			"rotation": {"angle": -22.5, "axis": "z", "origin": [8, 9.67, 22.3]},
			"faces": {
				"east": {"uv": [4.125, 1.5625, 4.375, 1.8125], "texture": "#2"},
				"south": {"uv": [4.125, 1.5625, 4.375, 1.8125], "texture": "#2"},
				"west": {"uv": [4.125, 1.5625, 4.375, 1.8125], "texture": "#2"}
			}
		},
		{
			"name": "hexadecagon",
			"from": [6.88, 9.00972, 21.18],
			"to": [7.048, 9.89278, 24.93],
			"rotation": {"angle": 0, "axis": "z", "origin": [8, 9.67, 22.3]},
			"faces": {
				"north": {"uv": [4.125, 1.5625, 4.375, 1.8125], "texture": "#2"},
				"east": {"uv": [4.125, 1.5625, 4.375, 1.8125], "texture": "#2"},
				"south": {"uv": [4.125, 1.5625, 4.375, 1.8125], "texture": "#2"},
				"west": {"uv": [4.125, 1.5625, 4.375, 1.8125], "texture": "#2"},
				"down": {"uv": [4.125, 1.5625, 4.375, 1.8125], "texture": "#2"}
			}
		},
		{
			"name": "hexadecagon",
			"from": [8.952, 9.00972, 21.18],
			"to": [9.12, 9.89278, 24.93],
			"rotation": {"angle": 0, "axis": "z", "origin": [8, 9.67, 22.3]},
			"faces": {
				"north": {"uv": [4.125, 1.5625, 4.375, 1.8125], "texture": "#2"},
				"east": {"uv": [4.125, 1.5625, 4.375, 1.8125], "texture": "#2"},
				"south": {"uv": [4.125, 1.5625, 4.375, 1.8125], "texture": "#2"},
				"west": {"uv": [4.125, 1.5625, 4.375, 1.8125], "texture": "#2"},
				"down": {"uv": [4.125, 1.5625, 4.375, 1.8125], "texture": "#2"}
			}
		},
		{
			"name": "hexadecagon",
			"from": [8.952, 9.44722, 21.18],
			"to": [9.12, 9.89278, 24.93],
			"rotation": {"angle": 22.5, "axis": "z", "origin": [8, 9.67, 22.3]},
			"faces": {
				"east": {"uv": [4.125, 1.5625, 4.375, 1.8125], "texture": "#2"},
				"south": {"uv": [4.125, 1.5625, 4.375, 1.8125], "texture": "#2"},
				"west": {"uv": [4.125, 1.5625, 4.375, 1.8125], "texture": "#2"}
			}
		},
		{
			"name": "hexadecagon",
			"from": [7.77722, 10.622, 20.68],
			"to": [8.22278, 10.79, 21.18],
			"rotation": {"angle": -45, "axis": "z", "origin": [8, 9.67, 21.8]},
			"faces": {
				"up": {"uv": [4.125, 1.5625, 4.375, 1.8125], "texture": "#2"},
				"down": {"uv": [4.125, 1.5625, 4.375, 1.8125], "texture": "#2"}
			}
		},
		{
			"name": "hexadecagon",
			"from": [7.77722, 10.622, 20.68],
			"to": [8.22278, 10.79, 21.18],
			"rotation": {"angle": -22.5, "axis": "z", "origin": [8, 9.67, 21.8]},
			"faces": {
				"up": {"uv": [4.125, 1.5625, 4.375, 1.8125], "texture": "#2"},
				"down": {"uv": [4.125, 1.5625, 4.375, 1.8125], "texture": "#2"}
			}
		},
		{
			"name": "hexadecagon",
			"from": [7.77722, 10.622, 20.68],
			"to": [8.22278, 10.79, 21.18],
			"rotation": {"angle": 0, "axis": "z", "origin": [8, 9.67, 21.8]},
			"faces": {
				"up": {"uv": [4.125, 1.5625, 4.375, 1.8125], "texture": "#2"},
				"down": {"uv": [4.125, 1.5625, 4.375, 1.8125], "texture": "#2"}
			}
		},
		{
			"name": "hexadecagon",
			"from": [7.77722, 10.622, 20.68],
			"to": [8.22278, 10.79, 21.18],
			"rotation": {"angle": 22.5, "axis": "z", "origin": [8, 9.67, 21.8]},
			"faces": {
				"up": {"uv": [4.125, 1.5625, 4.375, 1.8125], "texture": "#2"},
				"down": {"uv": [4.125, 1.5625, 4.375, 1.8125], "texture": "#2"}
			}
		},
		{
			"name": "hexadecagon",
			"from": [7.77722, 10.622, 20.68],
			"to": [8.22278, 10.79, 21.18],
			"rotation": {"angle": 45, "axis": "z", "origin": [8, 9.67, 21.8]},
			"faces": {
				"up": {"uv": [4.125, 1.5625, 4.375, 1.8125], "texture": "#2"},
				"down": {"uv": [4.125, 1.5625, 4.375, 1.8125], "texture": "#2"}
			}
		},
		{
			"name": "hexadecagon",
			"from": [6.88, 9.44722, 20.68],
			"to": [7.048, 9.89278, 21.18],
			"rotation": {"angle": -22.5, "axis": "z", "origin": [8, 9.67, 21.8]},
			"faces": {
				"east": {"uv": [4.125, 1.5625, 4.375, 1.8125], "texture": "#2"},
				"west": {"uv": [4.125, 1.5625, 4.375, 1.8125], "texture": "#2"}
			}
		},
		{
			"name": "hexadecagon",
			"from": [6.88, 9.44722, 20.68],
			"to": [7.048, 9.89278, 21.18],
			"rotation": {"angle": 0, "axis": "z", "origin": [8, 9.67, 21.8]},
			"faces": {
				"north": {"uv": [4.125, 1.5625, 4.375, 1.8125], "texture": "#2"},
				"east": {"uv": [4.125, 1.5625, 4.375, 1.8125], "texture": "#2"},
				"west": {"uv": [4.125, 1.5625, 4.375, 1.8125], "texture": "#2"},
				"down": {"uv": [4.125, 1.5625, 4.375, 1.8125], "texture": "#2"}
			}
		},
		{
			"name": "hexadecagon",
			"from": [8.952, 9.44722, 20.68],
			"to": [9.12, 9.89278, 21.18],
			"rotation": {"angle": 0, "axis": "z", "origin": [8, 9.67, 21.8]},
			"faces": {
				"north": {"uv": [4.125, 1.5625, 4.375, 1.8125], "texture": "#2"},
				"east": {"uv": [4.125, 1.5625, 4.375, 1.8125], "texture": "#2"},
				"west": {"uv": [4.125, 1.5625, 4.375, 1.8125], "texture": "#2"},
				"down": {"uv": [4.125, 1.5625, 4.375, 1.8125], "texture": "#2"}
			}
		},
		{
			"name": "hexadecagon",
			"from": [8.952, 9.44722, 20.68],
			"to": [9.12, 9.89278, 21.18],
			"rotation": {"angle": 22.5, "axis": "z", "origin": [8, 9.67, 21.8]},
			"faces": {
				"east": {"uv": [4.125, 1.5625, 4.375, 1.8125], "texture": "#2"},
				"west": {"uv": [4.125, 1.5625, 4.375, 1.8125], "texture": "#2"}
			}
		},
		{
			"name": "hexadecagon",
			"from": [7.77722, 10.622, 20.18],
			"to": [8.22278, 10.79, 20.68],
			"rotation": {"angle": -45, "axis": "z", "origin": [8, 9.67, 21.3]},
			"faces": {
				"up": {"uv": [4.125, 1.5625, 4.375, 1.8125], "texture": "#2"},
				"down": {"uv": [4.125, 1.5625, 4.375, 1.8125], "texture": "#2"}
			}
		},
		{
			"name": "hexadecagon",
			"from": [7.77722, 10.622, 20.18],
			"to": [8.22278, 10.79, 20.68],
			"rotation": {"angle": -22.5, "axis": "z", "origin": [8, 9.67, 21.3]},
			"faces": {
				"up": {"uv": [4.125, 1.5625, 4.375, 1.8125], "texture": "#2"},
				"down": {"uv": [4.125, 1.5625, 4.375, 1.8125], "texture": "#2"}
			}
		},
		{
			"name": "hexadecagon",
			"from": [7.77722, 10.622, 20.18],
			"to": [8.22278, 10.79, 20.68],
			"rotation": {"angle": 0, "axis": "z", "origin": [8, 9.67, 21.3]},
			"faces": {
				"up": {"uv": [4.125, 1.5625, 4.375, 1.8125], "texture": "#2"},
				"down": {"uv": [4.125, 1.5625, 4.375, 1.8125], "texture": "#2"}
			}
		},
		{
			"name": "hexadecagon",
			"from": [7.77722, 10.622, 20.18],
			"to": [8.22278, 10.79, 20.68],
			"rotation": {"angle": 22.5, "axis": "z", "origin": [8, 9.67, 21.3]},
			"faces": {
				"up": {"uv": [4.125, 1.5625, 4.375, 1.8125], "texture": "#2"},
				"down": {"uv": [4.125, 1.5625, 4.375, 1.8125], "texture": "#2"}
			}
		},
		{
			"name": "hexadecagon",
			"from": [7.77722, 10.622, 20.18],
			"to": [8.22278, 10.79, 20.68],
			"rotation": {"angle": 45, "axis": "z", "origin": [8, 9.67, 21.3]},
			"faces": {
				"up": {"uv": [4.125, 1.5625, 4.375, 1.8125], "texture": "#2"},
				"down": {"uv": [4.125, 1.5625, 4.375, 1.8125], "texture": "#2"}
			}
		},
		{
			"name": "hexadecagon",
			"from": [6.88, 9.44722, 20.18],
			"to": [7.048, 9.89278, 20.68],
			"rotation": {"angle": -22.5, "axis": "z", "origin": [8, 9.67, 21.3]},
			"faces": {
				"east": {"uv": [4.125, 1.5625, 4.375, 1.8125], "texture": "#2"},
				"west": {"uv": [4.125, 1.5625, 4.375, 1.8125], "texture": "#2"},
				"down": {"uv": [4.125, 1.5625, 4.375, 1.8125], "texture": "#2"}
			}
		},
		{
			"name": "hexadecagon",
			"from": [8.952, 9.44722, 20.18],
			"to": [9.12, 9.89278, 20.68],
			"rotation": {"angle": 22.5, "axis": "z", "origin": [8, 9.67, 21.3]},
			"faces": {
				"east": {"uv": [4.125, 1.5625, 4.375, 1.8125], "texture": "#2"},
				"west": {"uv": [4.125, 1.5625, 4.375, 1.8125], "texture": "#2"},
				"down": {"uv": [4.125, 1.5625, 4.375, 1.8125], "texture": "#2"}
			}
		},
		{
			"name": "hexadecagon",
			"from": [7.77722, 10.622, 19.68],
			"to": [8.22278, 10.79, 20.18],
			"rotation": {"angle": -45, "axis": "z", "origin": [8, 9.67, 20.8]},
			"faces": {
				"north": {"uv": [4.125, 1.5625, 4.375, 1.8125], "texture": "#2"},
				"up": {"uv": [4.125, 1.5625, 4.375, 1.8125], "texture": "#2"},
				"down": {"uv": [4.125, 1.5625, 4.375, 1.8125], "texture": "#2"}
			}
		},
		{
			"name": "hexadecagon",
			"from": [7.77722, 10.622, 19.68],
			"to": [8.22278, 10.79, 20.18],
			"rotation": {"angle": -22.5, "axis": "z", "origin": [8, 9.67, 20.8]},
			"faces": {
				"up": {"uv": [4.125, 1.5625, 4.375, 1.8125], "texture": "#2"},
				"down": {"uv": [4.125, 1.5625, 4.375, 1.8125], "texture": "#2"}
			}
		},
		{
			"name": "hexadecagon",
			"from": [7.77722, 10.622, 19.68],
			"to": [8.22278, 10.79, 20.18],
			"rotation": {"angle": 0, "axis": "z", "origin": [8, 9.67, 20.8]},
			"faces": {
				"up": {"uv": [4.125, 1.5625, 4.375, 1.8125], "texture": "#2"},
				"down": {"uv": [4.125, 1.5625, 4.375, 1.8125], "texture": "#2"}
			}
		},
		{
			"name": "hexadecagon",
			"from": [7.77722, 10.622, 19.68],
			"to": [8.22278, 10.79, 20.18],
			"rotation": {"angle": 22.5, "axis": "z", "origin": [8, 9.67, 20.8]},
			"faces": {
				"up": {"uv": [4.125, 1.5625, 4.375, 1.8125], "texture": "#2"},
				"down": {"uv": [4.125, 1.5625, 4.375, 1.8125], "texture": "#2"}
			}
		},
		{
			"name": "hexadecagon",
			"from": [7.77722, 10.622, 19.68],
			"to": [8.22278, 10.79, 20.18],
			"rotation": {"angle": 45, "axis": "z", "origin": [8, 9.67, 20.8]},
			"faces": {
				"north": {"uv": [4.125, 1.5625, 4.375, 1.8125], "texture": "#2"},
				"up": {"uv": [4.125, 1.5625, 4.375, 1.8125], "texture": "#2"},
				"down": {"uv": [4.125, 1.5625, 4.375, 1.8125], "texture": "#2"}
			}
		},
		{
			"name": "hexadecagon",
			"from": [6.88, 9.44722, 19.68],
			"to": [7.048, 9.89278, 20.18],
			"rotation": {"angle": -22.5, "axis": "z", "origin": [8, 9.67, 20.8]},
			"faces": {
				"north": {"uv": [4.125, 1.5625, 4.375, 1.8125], "texture": "#2"},
				"east": {"uv": [4.125, 1.5625, 4.375, 1.8125], "texture": "#2"},
				"west": {"uv": [4.125, 1.5625, 4.375, 1.8125], "texture": "#2"},
				"down": {"uv": [4.125, 1.5625, 4.375, 1.8125], "texture": "#2"}
			}
		},
		{
			"name": "hexadecagon",
			"from": [8.952, 9.44722, 19.68],
			"to": [9.12, 9.89278, 20.18],
			"rotation": {"angle": 22.5, "axis": "z", "origin": [8, 9.67, 20.8]},
			"faces": {
				"north": {"uv": [4.125, 1.5625, 4.375, 1.8125], "texture": "#2"},
				"east": {"uv": [4.125, 1.5625, 4.375, 1.8125], "texture": "#2"},
				"west": {"uv": [4.125, 1.5625, 4.375, 1.8125], "texture": "#2"},
				"down": {"uv": [4.125, 1.5625, 4.375, 1.8125], "texture": "#2"}
			}
		},
		{
			"name": "hexadecagon",
			"from": [7.77722, 10.622, 19.18],
			"to": [8.22278, 10.79, 19.68],
			"rotation": {"angle": -22.5, "axis": "z", "origin": [8, 9.67, 20.3]},
			"faces": {
				"east": {"uv": [4.125, 1.5625, 4.375, 1.8125], "texture": "#2"},
				"up": {"uv": [4.125, 1.5625, 4.375, 1.8125], "texture": "#2"},
				"down": {"uv": [4.125, 1.5625, 4.375, 1.8125], "texture": "#2"}
			}
		},
		{
			"name": "hexadecagon",
			"from": [7.77722, 10.622, 19.18],
			"to": [8.22278, 10.79, 19.68],
			"rotation": {"angle": 0, "axis": "z", "origin": [8, 9.67, 20.3]},
			"faces": {
				"up": {"uv": [4.125, 1.5625, 4.375, 1.8125], "texture": "#2"},
				"down": {"uv": [4.125, 1.5625, 4.375, 1.8125], "texture": "#2"}
			}
		},
		{
			"name": "hexadecagon",
			"from": [7.77722, 10.622, 19.18],
			"to": [8.22278, 10.79, 19.68],
			"rotation": {"angle": 22.5, "axis": "z", "origin": [8, 9.67, 20.3]},
			"faces": {
				"west": {"uv": [4.125, 1.5625, 4.375, 1.8125], "texture": "#2"},
				"up": {"uv": [4.125, 1.5625, 4.375, 1.8125], "texture": "#2"},
				"down": {"uv": [4.125, 1.5625, 4.375, 1.8125], "texture": "#2"}
			}
		},
		{
			"name": "hexadecagon",
			"from": [7.77722, 10.622, 18.68],
			"to": [8.22278, 10.79, 19.18],
			"rotation": {"angle": -22.5, "axis": "z", "origin": [8, 9.67, 19.8]},
			"faces": {
				"north": {"uv": [4.125, 1.5625, 4.375, 1.8125], "texture": "#2"},
				"east": {"uv": [4.125, 1.5625, 4.375, 1.8125], "texture": "#2"},
				"up": {"uv": [4.125, 1.5625, 4.375, 1.8125], "texture": "#2"},
				"down": {"uv": [4.125, 1.5625, 4.375, 1.8125], "texture": "#2"}
			}
		},
		{
			"name": "hexadecagon",
			"from": [7.77722, 10.622, 18.68],
			"to": [8.22278, 10.79, 19.18],
			"rotation": {"angle": 0, "axis": "z", "origin": [8, 9.67, 19.8]},
			"faces": {
				"north": {"uv": [4.125, 1.5625, 4.375, 1.8125], "texture": "#2"},
				"up": {"uv": [4.125, 1.5625, 4.375, 1.8125], "texture": "#2"},
				"down": {"uv": [4.125, 1.5625, 4.375, 1.8125], "texture": "#2"}
			}
		},
		{
			"name": "hexadecagon",
			"from": [7.77722, 10.622, 18.68],
			"to": [8.22278, 10.79, 19.18],
			"rotation": {"angle": 22.5, "axis": "z", "origin": [8, 9.67, 19.8]},
			"faces": {
				"north": {"uv": [4.125, 1.5625, 4.375, 1.8125], "texture": "#2"},
				"west": {"uv": [4.125, 1.5625, 4.375, 1.8125], "texture": "#2"},
				"up": {"uv": [4.125, 1.5625, 4.375, 1.8125], "texture": "#2"},
				"down": {"uv": [4.125, 1.5625, 4.375, 1.8125], "texture": "#2"}
			}
		},
		{
			"from": [7.3, 10.17568, 15.325],
			"to": [8.7, 10.82568, 17.325],
			"rotation": {"angle": 0, "axis": "z", "origin": [7.85, 10.30068, 26.325]},
			"faces": {
				"north": {"uv": [2, 0, 4, 2], "texture": "#2"},
				"east": {"uv": [2, 0, 4, 2], "texture": "#2"},
				"south": {"uv": [2, 0, 4, 2], "texture": "#2"},
				"west": {"uv": [2, 0, 4, 2], "texture": "#2"},
				"up": {"uv": [2, 0, 4, 2], "texture": "#2"},
				"down": {"uv": [2, 0, 4, 2], "texture": "#2"}
			}
		},
		{
			"from": [7.75, 10.40068, 17.325],
			"to": [8.25, 10.75068, 17.575],
			"rotation": {"angle": 0, "axis": "z", "origin": [8.3, 10.52568, 28.325]},
			"faces": {
				"east": {"uv": [2, 0, 4, 2], "texture": "#2"},
				"south": {"uv": [2, 0, 4, 2], "texture": "#2"},
				"west": {"uv": [2, 0, 4, 2], "texture": "#2"},
				"up": {"uv": [2, 0, 4, 2], "texture": "#2"},
				"down": {"uv": [2, 0, 4, 2], "texture": "#2"}
			}
		},
		{
			"name": "hexadecagon",
			"from": [7.1032, 10.44848, 16.38321],
			"to": [8.9032, 11.15152, 17.08621],
			"rotation": {"angle": 0, "axis": "x", "origin": [7.475, 10.8, 16.45313]},
			"faces": {
				"north": {"uv": [6.5625, 0.71875, 6.5625, 0.71875], "texture": "#2"},
				"east": {"uv": [6.5625, 0.71875, 6.5625, 0.71875], "texture": "#2"},
				"south": {"uv": [6.5625, 0.71875, 6.5625, 0.71875], "texture": "#2"},
				"west": {"uv": [6.5625, 0.71875, 6.5625, 0.71875], "texture": "#2"},
				"up": {"uv": [6.5625, 0.71875, 6.5625, 0.71875], "texture": "#2"},
				"down": {"uv": [6.5625, 0.71875, 6.5625, 0.71875], "texture": "#2"}
			}
		},
		{
			"name": "hexadecagon",
			"from": [7.7744, 10.5994, 16.8494],
			"to": [8.2256, 11.0506, 17.9774],
			"rotation": {"angle": 0, "axis": "z", "origin": [7.81927, 10.825, 17.075]},
			"faces": {
				"east": {"uv": [6.5625, 0.71875, 6.5625, 0.71875], "texture": "#2"},
				"south": {"uv": [6.5625, 0.71875, 6.5625, 0.71875], "texture": "#2"},
				"west": {"uv": [6.5625, 0.71875, 6.5625, 0.71875], "texture": "#2"},
				"up": {"uv": [6.5625, 0.71875, 6.5625, 0.71875], "texture": "#2"},
				"down": {"uv": [6.5625, 0.71875, 6.5625, 0.71875], "texture": "#2"}
			}
		},
		{
			"from": [8.6, 7.05068, 10.875],
			"to": [8.75, 7.30068, 12.375],
			"rotation": {"angle": 0, "axis": "z", "origin": [9.2, 7.175, 12.875]},
			"faces": {
				"north": {"uv": [4, 0, 6, 2], "texture": "#2"},
				"east": {"uv": [4, 0, 6, 2], "texture": "#2"},
				"south": {"uv": [4, 0, 6, 2], "texture": "#2"},
				"up": {"uv": [4, 0, 6, 2], "texture": "#2"},
				"down": {"uv": [4, 0, 6, 2], "texture": "#2"}
			}
		},
		{
			"name": "octagon",
			"from": [6.8, 8.819, 10.31038],
			"to": [9.2, 9.131, 10.62238],
			"rotation": {"angle": 0, "axis": "x", "origin": [7, 8.975, 10.375]},
			"faces": {
				"north": {"uv": [4, 0, 6, 2], "texture": "#2"},
				"east": {"uv": [4, 0, 6, 2], "texture": "#2"},
				"south": {"uv": [4, 0, 6, 2], "texture": "#2"},
				"west": {"uv": [4, 0, 6, 2], "texture": "#2"},
				"up": {"uv": [4, 0, 6, 2], "texture": "#2"},
				"down": {"uv": [4, 0, 6, 2], "texture": "#2"}
			}
		},
		{
			"name": "octagon",
			"from": [6.8, 8.819, 13.36038],
			"to": [9.2, 9.131, 13.67238],
			"rotation": {"angle": 0, "axis": "x", "origin": [7, 8.975, 13.425]},
			"faces": {
				"north": {"uv": [4, 0, 6, 2], "texture": "#2"},
				"east": {"uv": [4, 0, 6, 2], "texture": "#2"},
				"south": {"uv": [4, 0, 6, 2], "texture": "#2"},
				"west": {"uv": [4, 0, 6, 2], "texture": "#2"},
				"up": {"uv": [4, 0, 6, 2], "texture": "#2"},
				"down": {"uv": [4, 0, 6, 2], "texture": "#2"}
			}
		},
		{
			"name": "octagon",
			"from": [6.8, 8.819, 15.66038],
			"to": [9.2, 9.131, 15.97238],
			"rotation": {"angle": 0, "axis": "x", "origin": [7, 8.975, 15.725]},
			"faces": {
				"north": {"uv": [4, 0, 6, 2], "texture": "#2"},
				"east": {"uv": [4, 0, 6, 2], "texture": "#2"},
				"south": {"uv": [4, 0, 6, 2], "texture": "#2"},
				"west": {"uv": [4, 0, 6, 2], "texture": "#2"},
				"up": {"uv": [4, 0, 6, 2], "texture": "#2"},
				"down": {"uv": [4, 0, 6, 2], "texture": "#2"}
			}
		},
		{
			"name": "octagon",
			"from": [6.8, 8.519, 16.08538],
			"to": [9.2, 8.831, 16.39738],
			"rotation": {"angle": 0, "axis": "x", "origin": [7, 8.675, 16.15]},
			"faces": {
				"north": {"uv": [4, 0, 6, 2], "texture": "#2"},
				"east": {"uv": [4, 0, 6, 2], "texture": "#2"},
				"south": {"uv": [4, 0, 6, 2], "texture": "#2"},
				"west": {"uv": [4, 0, 6, 2], "texture": "#2"},
				"up": {"uv": [4, 0, 6, 2], "texture": "#2"},
				"down": {"uv": [4, 0, 6, 2], "texture": "#2"}
			}
		},
		{
			"name": "octagon",
			"from": [6.8, 8.519, 16.46038],
			"to": [9.2, 8.831, 16.77238],
			"rotation": {"angle": 0, "axis": "x", "origin": [7, 8.675, 16.525]},
			"faces": {
				"north": {"uv": [4, 0, 6, 2], "texture": "#2"},
				"east": {"uv": [4, 0, 6, 2], "texture": "#2"},
				"south": {"uv": [4, 0, 6, 2], "texture": "#2"},
				"west": {"uv": [4, 0, 6, 2], "texture": "#2"},
				"up": {"uv": [4, 0, 6, 2], "texture": "#2"},
				"down": {"uv": [4, 0, 6, 2], "texture": "#2"}
			}
		},
		{
			"name": "octagon",
			"from": [7.35, 7.694, 14.61038],
			"to": [8.65, 8.006, 14.92238],
			"rotation": {"angle": 0, "axis": "x", "origin": [7.55, 7.85, 14.675]},
			"faces": {
				"north": {"uv": [4, 0, 6, 2], "texture": "#2"},
				"east": {"uv": [4, 0, 6, 2], "texture": "#2"},
				"south": {"uv": [4, 0, 6, 2], "texture": "#2"},
				"west": {"uv": [4, 0, 6, 2], "texture": "#2"},
				"up": {"uv": [4, 0, 6, 2], "texture": "#2"},
				"down": {"uv": [4, 0, 6, 2], "texture": "#2"}
			}
		},
		{
			"name": "octagon",
			"from": [7.35, 6.219, 12.91038],
			"to": [8.65, 6.531, 13.22238],
			"rotation": {"angle": 0, "axis": "x", "origin": [7.55, 6.375, 12.975]},
			"faces": {
				"north": {"uv": [4, 0, 6, 2], "texture": "#2"},
				"east": {"uv": [4, 0, 6, 2], "texture": "#2"},
				"south": {"uv": [4, 0, 6, 2], "texture": "#2"},
				"west": {"uv": [4, 0, 6, 2], "texture": "#2"},
				"up": {"uv": [4, 0, 6, 2], "texture": "#2"},
				"down": {"uv": [4, 0, 6, 2], "texture": "#2"}
			}
		},
		{
			"name": "M4A1 MK_8",
			"from": [7.941, 5.6746, 12.82706],
			"to": [8.061, 6.12891, 13.03238],
			"rotation": {"angle": 0, "axis": "y", "origin": [-5.955, -3.585, 5.8875]},
			"faces": {
				"north": {"uv": [4, 0, 6, 2], "texture": "#2"},
				"east": {"uv": [4, 0, 6, 2], "texture": "#2"},
				"south": {"uv": [4, 0, 6, 2], "texture": "#2"},
				"west": {"uv": [4, 0, 6, 2], "texture": "#2"}
			}
		},
		{
			"name": "M4A1 MK_9",
			"from": [7.941, 5.28007, 12.75284],
			"to": [8.061, 5.73438, 12.95816],
			"rotation": {"angle": 22.5, "axis": "x", "origin": [8.001, 5.50722, 12.8555]},
			"faces": {
				"north": {"uv": [4, 0, 6, 2], "texture": "#2"},
				"east": {"uv": [4, 0, 6, 2], "texture": "#2"},
				"south": {"uv": [4, 0, 6, 2], "texture": "#2"},
				"west": {"uv": [4, 0, 6, 2], "texture": "#2"},
				"up": {"uv": [4, 0, 6, 2], "texture": "#2"},
				"down": {"uv": [4, 0, 6, 2], "texture": "#2"}
			}
		},
		{
			"from": [7.5, 11.65, 7.65],
			"to": [8.5, 13.2, 13],
			"rotation": {"angle": 0, "axis": "y", "origin": [15.5, 19.65, 20]},
			"faces": {
				"north": {"uv": [3, 1.5, 13, 14.5], "texture": "#3"},
				"south": {"uv": [3, 1.5, 13, 14.5], "texture": "#3"}
			}
		},
		{
			"from": [7.25, 11.85, 7.65],
			"to": [7.5, 13, 13],
			"rotation": {"angle": 0, "axis": "y", "origin": [15.25, 19.65, 20]},
			"faces": {
				"north": {"uv": [0, 0, 1, 1], "texture": "#3"},
				"south": {"uv": [0, 0, 1, 1], "texture": "#3"}
			}
		},
		{
			"from": [8.5, 11.85, 7.65],
			"to": [8.75, 13, 13],
			"rotation": {"angle": 0, "axis": "y", "origin": [16.5, 19.65, 20]},
			"faces": {
				"north": {"uv": [0, 0, 1, 1], "texture": "#3"},
				"south": {"uv": [0, 0, 1, 1], "texture": "#3"}
			}
		}
	],
	"display": {
		"firstperson_righthand": {
			"rotation": [-3, 0, 0],
			"translation": [-4, 2.75, 2.25],
			"scale": [1, 1, 0.5]
		}
	},
	"groups": [
		{
			"name": "hexadecagon",
			"origin": [8, 8, 8],
			"color": 0,
			"children": [0]
		},
		{
			"name": "octagon",
			"origin": [8, 8, 8],
			"color": 0,
			"children": [1]
		},
		{
			"name": "body",
			"origin": [8, 8.775, -1.975],
			"color": 0,
			"children": [2, 3, 4, 5, 6, 7, 8, 9, 10, 11, 12, 13, 14, 15, 16]
		},
		{
			"name": "front_rail",
			"origin": [6, 8.25, -1.975],
			"color": 0,
			"children": [17, 18, 19, 20, 21, 22, 23, 24, 25, 26]
		},
		{
			"name": "body_middle",
			"origin": [8, 7.75, 11.025],
			"color": 0,
			"children": [27, 28, 29, 30, 31, 32, 33, 34, 35, 36, 37, 38, 39, 40, 41]
		},
		{
			"name": "top_rail",
			"origin": [7.55, 10.37568, 7.025],
			"color": 0,
			"children": [42]
		},
		{
			"name": "octagon",
			"origin": [8, 8, 8],
			"color": 0,
			"children": [43]
		},
		{
			"name": "MK",
			"origin": [8, 8, 8],
			"color": 0,
			"children": [44, 45]
		},
		{
			"name": "front_sight",
			"origin": [7.75, 10.40068, 8.525],
			"color": 0,
			"children": [46, 47, 48, 49, 50]
		},
		{
			"name": "scope",
			"origin": [7.5, 8.35, -0.95],
			"color": 0,
			"children": [51, 52, 53, 54, 55, 56, 57, 58, 59]
		},
		{
			"name": "scope",
			"origin": [7.5, 8.35, -0.95],
			"color": 0,
			"children": [60]
		},
		{
			"name": "hexadecagon",
			"origin": [8, 8, 8],
			"color": 0,
			"children": [61]
		},
		{
			"name": "hexadecagon",
			"origin": [8, 8, 8],
			"color": 0,
			"children": [62]
		},
		{
			"name": "hexadecagon",
			"origin": [8, 8, 8],
			"color": 0,
			"children": [63]
		},
		{
			"name": "hexadecagon",
			"origin": [8, 8, 8],
			"color": 0,
			"children": [64]
		},
		{
			"name": "hexadecagon",
			"origin": [8, 8, 8],
			"color": 0,
			"children": [65, 66, 67, 68, 69, 70, 71, 72, 73, 74, 75, 76, 77, 78, 79, 80, 81, 82, 83, 84, 85, 86, 87, 88]
		},
		{
			"name": "octagon",
			"origin": [8, 8, 8],
			"color": 0,
			"children": [89]
		},
		{
			"name": "octagon",
			"origin": [8, 8, 8],
			"color": 0,
			"children": [90, 91, 92, 93]
		},
		{
			"name": "hexadecagon",
			"origin": [8, 8, 8],
			"color": 0,
			"children": [94, 95, 96, 97, 98, 99, 100, 101, 102, 103, 104, 105, 106, 107, 108, 109]
		},
		{
			"name": "octagon",
			"origin": [8, 8, 8],
			"color": 0,
			"children": [110]
		},
		{
			"name": "stock",
			"origin": [8, 8, 8],
			"color": 0,
			"children": [111, 112, 113, 114, 115, 116, 117, 118, 119, 120, 121, 122, 123, 124, 125, 126, 127, 128, 129, 130, 131, 132, 133]
		},
		{
			"name": "octagon",
			"origin": [8, 8, 8],
			"color": 0,
			"children": [134, 135, 136, 137, 138, 139]
		},
		{
			"name": "hexadecagon",
			"origin": [8, 8, 8],
			"color": 0,
			"children": [140, 141, 142, 143, 144, 145, 146, 147, 148]
		},
		{
			"name": "hexadecagon",
			"origin": [8, 8, 8],
			"color": 0,
			"children": [149, 150, 151, 152, 153, 154, 155, 156, 157]
		},
		{
			"name": "hexadecagon",
			"origin": [8, 8, 8],
			"color": 0,
			"children": [158, 159, 160, 161, 162, 163, 164]
		},
		{
			"name": "hexadecagon",
			"origin": [8, 8, 8],
			"color": 0,
			"children": [165, 166, 167, 168, 169, 170, 171]
		},
		{
			"name": "hexadecagon",
			"origin": [8, 8, 8],
			"color": 0,
			"children": [172, 173, 174]
		},
		{
			"name": "hexadecagon",
			"origin": [8, 8, 8],
			"color": 0,
			"children": [175, 176, 177]
		},
		{
			"name": "back_sight",
			"origin": [8, 8, 8],
			"color": 0,
			"children": [178, 179]
		},
		{
			"name": "hexadecagon",
			"origin": [8, 8, 8],
			"color": 0,
			"children": [180]
		},
		{
			"name": "hexadecagon",
			"origin": [8, 8, 8],
			"color": 0,
			"children": [181]
		},
		{
			"name": "extra",
			"origin": [9.35, 6.9, 10.625],
			"color": 0,
			"children": [182]
		},
		{
			"name": "octagon",
			"origin": [8, 8, 8],
			"color": 0,
			"children": [183]
		},
		{
			"name": "octagon",
			"origin": [8, 8, 8],
			"color": 0,
			"children": [184]
		},
		{
			"name": "octagon",
			"origin": [8, 8, 8],
			"color": 0,
			"children": [185]
		},
		{
			"name": "octagon",
			"origin": [8, 8, 8],
			"color": 0,
			"children": [186]
		},
		{
			"name": "octagon",
			"origin": [8, 8, 8],
			"color": 0,
			"children": [187]
		},
		{
			"name": "octagon",
			"origin": [8, 8, 8],
			"color": 0,
			"children": [188]
		},
		{
			"name": "octagon",
			"origin": [8, 8, 8],
			"color": 0,
			"children": [189]
		},
		{
			"name": "trigger",
			"origin": [8, 8, 8],
			"color": 0,
			"children": [190, 191]
		},
		{
			"name": "lens",
			"origin": [8, 12.427, 8.075],
			"color": 0,
			"children": [192, 193, 194]
		}
	]
}