{
	"credit": "Made with Blockbench",
	"textures": {
		"0": "ava:item/gun_textures/palette_dreamcatcher",
		"1": "ava:item/gun_textures/palette_gold",
		"particle": "ava:item/gun_textures/palette_dreamcatcher"
	},
	"elements": [
		{
			"name": "hexadecagon",
			"from": [8.25, 6.9642, 12.12],
			"to": [8.65, 7.0358, 12.48],
			"rotation": {"angle": -45, "axis": "x", "origin": [8.4, 7, 12.3]},
			"faces": {
				"north": {"uv": [6.71875, 0.4375, 6.71875, 0.4375], "texture": "#0"},
				"south": {"uv": [6.71875, 0.4375, 6.71875, 0.4375], "texture": "#0"},
				"west": {"uv": [6.71875, 0.4375, 6.71875, 0.4375], "texture": "#0"},
				"up": {"uv": [6.71875, 0.4375, 6.71875, 0.4375], "texture": "#0"},
				"down": {"uv": [6.71875, 0.4375, 6.71875, 0.4375], "texture": "#0"}
			}
		},
		{
			"name": "hexadecagon",
			"from": [8.25, 6.9642, 12.12],
			"to": [8.65, 7.0358, 12.48],
			"rotation": {"angle": -22.5, "axis": "x", "origin": [8.4, 7, 12.3]},
			"faces": {
				"north": {"uv": [6.71875, 0.4375, 6.71875, 0.4375], "texture": "#0"},
				"south": {"uv": [6.71875, 0.4375, 6.71875, 0.4375], "texture": "#0"},
				"west": {"uv": [6.71875, 0.4375, 6.71875, 0.4375], "texture": "#0"},
				"up": {"uv": [6.71875, 0.4375, 6.71875, 0.4375], "texture": "#0"},
				"down": {"uv": [6.71875, 0.4375, 6.71875, 0.4375], "texture": "#0"}
			}
		},
		{
			"name": "hexadecagon",
			"from": [8.25, 6.9642, 12.12],
			"to": [8.65, 7.0358, 12.48],
			"rotation": {"angle": 0, "axis": "y", "origin": [8.4, 7, 12.3]},
			"faces": {
				"north": {"uv": [6.71875, 0.4375, 6.71875, 0.4375], "texture": "#0"},
				"south": {"uv": [6.71875, 0.4375, 6.71875, 0.4375], "texture": "#0"},
				"west": {"uv": [6.71875, 0.4375, 6.71875, 0.4375], "texture": "#0"},
				"up": {"uv": [6.71875, 0.4375, 6.71875, 0.4375], "texture": "#0"},
				"down": {"uv": [6.71875, 0.4375, 6.71875, 0.4375], "texture": "#0"}
			}
		},
		{
			"name": "hexadecagon",
			"from": [8.25, 6.9642, 12.12],
			"to": [8.65, 7.0358, 12.48],
			"rotation": {"angle": 22.5, "axis": "x", "origin": [8.4, 7, 12.3]},
			"faces": {
				"north": {"uv": [6.71875, 0.4375, 6.71875, 0.4375], "texture": "#0"},
				"south": {"uv": [6.71875, 0.4375, 6.71875, 0.4375], "texture": "#0"},
				"west": {"uv": [6.71875, 0.4375, 6.71875, 0.4375], "texture": "#0"},
				"up": {"uv": [6.71875, 0.4375, 6.71875, 0.4375], "texture": "#0"},
				"down": {"uv": [6.71875, 0.4375, 6.71875, 0.4375], "texture": "#0"}
			}
		},
		{
			"name": "hexadecagon",
			"from": [8.25, 6.9642, 12.12],
			"to": [8.65, 7.0358, 12.48],
			"rotation": {"angle": 45, "axis": "x", "origin": [8.4, 7, 12.3]},
			"faces": {
				"north": {"uv": [6.71875, 0.4375, 6.71875, 0.4375], "texture": "#0"},
				"south": {"uv": [6.71875, 0.4375, 6.71875, 0.4375], "texture": "#0"},
				"west": {"uv": [6.71875, 0.4375, 6.71875, 0.4375], "texture": "#0"},
				"up": {"uv": [6.71875, 0.4375, 6.71875, 0.4375], "texture": "#0"},
				"down": {"uv": [6.71875, 0.4375, 6.71875, 0.4375], "texture": "#0"}
			}
		},
		{
			"name": "hexadecagon",
			"from": [8.25, 6.82, 12.2642],
			"to": [8.65, 7.18, 12.3358],
			"rotation": {"angle": -22.5, "axis": "x", "origin": [8.4, 7, 12.3]},
			"faces": {
				"north": {"uv": [6.71875, 0.4375, 6.71875, 0.4375], "texture": "#0"},
				"south": {"uv": [6.71875, 0.4375, 6.71875, 0.4375], "texture": "#0"},
				"west": {"uv": [6.71875, 0.4375, 6.71875, 0.4375], "texture": "#0"},
				"up": {"uv": [6.71875, 0.4375, 6.71875, 0.4375], "texture": "#0"},
				"down": {"uv": [6.71875, 0.4375, 6.71875, 0.4375], "texture": "#0"}
			}
		},
		{
			"name": "hexadecagon",
			"from": [8.25, 6.82, 12.2642],
			"to": [8.65, 7.18, 12.3358],
			"rotation": {"angle": 0, "axis": "y", "origin": [8.4, 7, 12.3]},
			"faces": {
				"north": {"uv": [6.71875, 0.4375, 6.71875, 0.4375], "texture": "#0"},
				"south": {"uv": [6.71875, 0.4375, 6.71875, 0.4375], "texture": "#0"},
				"west": {"uv": [6.71875, 0.4375, 6.71875, 0.4375], "texture": "#0"},
				"up": {"uv": [6.71875, 0.4375, 6.71875, 0.4375], "texture": "#0"},
				"down": {"uv": [6.71875, 0.4375, 6.71875, 0.4375], "texture": "#0"}
			}
		},
		{
			"name": "hexadecagon",
			"from": [8.25, 6.82, 12.2642],
			"to": [8.65, 7.18, 12.3358],
			"rotation": {"angle": 22.5, "axis": "x", "origin": [8.4, 7, 12.3]},
			"faces": {
				"north": {"uv": [6.71875, 0.4375, 6.71875, 0.4375], "texture": "#0"},
				"south": {"uv": [6.71875, 0.4375, 6.71875, 0.4375], "texture": "#0"},
				"west": {"uv": [6.71875, 0.4375, 6.71875, 0.4375], "texture": "#0"},
				"up": {"uv": [6.71875, 0.4375, 6.71875, 0.4375], "texture": "#0"},
				"down": {"uv": [6.71875, 0.4375, 6.71875, 0.4375], "texture": "#0"}
			}
		},
		{
			"name": "hexadecagon",
			"from": [8.65, 6.96062, 12.102],
			"to": [8.85, 7.03938, 12.498],
			"rotation": {"angle": -45, "axis": "x", "origin": [8.5, 7, 12.3]},
			"faces": {
				"north": {"uv": [2.65625, 2.75, 2.65625, 2.75], "texture": "#1"},
				"east": {"uv": [2.65625, 2.75, 2.65625, 2.75], "texture": "#1"},
				"south": {"uv": [2.65625, 2.75, 2.65625, 2.75], "texture": "#1"},
				"west": {"uv": [2.65625, 2.75, 2.65625, 2.75], "texture": "#1"},
				"up": {"uv": [2.65625, 2.75, 2.65625, 2.75], "texture": "#1"},
				"down": {"uv": [2.65625, 2.75, 2.65625, 2.75], "texture": "#1"}
			}
		},
		{
			"name": "hexadecagon",
			"from": [8.65, 6.96062, 12.102],
			"to": [8.85, 7.03938, 12.498],
			"rotation": {"angle": -22.5, "axis": "x", "origin": [8.5, 7, 12.3]},
			"faces": {
				"north": {"uv": [2.65625, 2.75, 2.65625, 2.75], "texture": "#1"},
				"east": {"uv": [2.65625, 2.75, 2.65625, 2.75], "texture": "#1"},
				"south": {"uv": [2.65625, 2.75, 2.65625, 2.75], "texture": "#1"},
				"west": {"uv": [2.65625, 2.75, 2.65625, 2.75], "texture": "#1"},
				"up": {"uv": [2.65625, 2.75, 2.65625, 2.75], "texture": "#1"},
				"down": {"uv": [2.65625, 2.75, 2.65625, 2.75], "texture": "#1"}
			}
		},
		{
			"name": "hexadecagon",
			"from": [8.65, 6.96062, 12.102],
			"to": [8.85, 7.03938, 12.498],
			"rotation": {"angle": 0, "axis": "y", "origin": [8.5, 7, 12.3]},
			"faces": {
				"north": {"uv": [2.65625, 2.75, 2.65625, 2.75], "texture": "#1"},
				"east": {"uv": [2.65625, 2.75, 2.65625, 2.75], "texture": "#1"},
				"south": {"uv": [2.65625, 2.75, 2.65625, 2.75], "texture": "#1"},
				"west": {"uv": [2.65625, 2.75, 2.65625, 2.75], "texture": "#1"},
				"up": {"uv": [2.65625, 2.75, 2.65625, 2.75], "texture": "#1"},
				"down": {"uv": [2.65625, 2.75, 2.65625, 2.75], "texture": "#1"}
			}
		},
		{
			"name": "hexadecagon",
			"from": [8.65, 6.96062, 12.102],
			"to": [8.85, 7.03938, 12.498],
			"rotation": {"angle": 22.5, "axis": "x", "origin": [8.5, 7, 12.3]},
			"faces": {
				"north": {"uv": [2.65625, 2.75, 2.65625, 2.75], "texture": "#1"},
				"east": {"uv": [2.65625, 2.75, 2.65625, 2.75], "texture": "#1"},
				"south": {"uv": [2.65625, 2.75, 2.65625, 2.75], "texture": "#1"},
				"west": {"uv": [2.65625, 2.75, 2.65625, 2.75], "texture": "#1"},
				"up": {"uv": [2.65625, 2.75, 2.65625, 2.75], "texture": "#1"},
				"down": {"uv": [2.65625, 2.75, 2.65625, 2.75], "texture": "#1"}
			}
		},
		{
			"name": "hexadecagon",
			"from": [8.65, 6.96062, 12.102],
			"to": [8.85, 7.03938, 12.498],
			"rotation": {"angle": 45, "axis": "x", "origin": [8.5, 7, 12.3]},
			"faces": {
				"north": {"uv": [2.65625, 2.75, 2.65625, 2.75], "texture": "#1"},
				"east": {"uv": [2.65625, 2.75, 2.65625, 2.75], "texture": "#1"},
				"south": {"uv": [2.65625, 2.75, 2.65625, 2.75], "texture": "#1"},
				"west": {"uv": [2.65625, 2.75, 2.65625, 2.75], "texture": "#1"},
				"up": {"uv": [2.65625, 2.75, 2.65625, 2.75], "texture": "#1"},
				"down": {"uv": [2.65625, 2.75, 2.65625, 2.75], "texture": "#1"}
			}
		},
		{
			"name": "hexadecagon",
			"from": [8.65, 6.802, 12.26062],
			"to": [8.85, 7.198, 12.33938],
			"rotation": {"angle": -22.5, "axis": "x", "origin": [8.5, 7, 12.3]},
			"faces": {
				"north": {"uv": [2.65625, 2.75, 2.65625, 2.75], "texture": "#1"},
				"east": {"uv": [2.65625, 2.75, 2.65625, 2.75], "texture": "#1"},
				"south": {"uv": [2.65625, 2.75, 2.65625, 2.75], "texture": "#1"},
				"west": {"uv": [2.65625, 2.75, 2.65625, 2.75], "texture": "#1"},
				"up": {"uv": [2.65625, 2.75, 2.65625, 2.75], "texture": "#1"},
				"down": {"uv": [2.65625, 2.75, 2.65625, 2.75], "texture": "#1"}
			}
		},
		{
			"name": "hexadecagon",
			"from": [8.65, 6.802, 12.26062],
			"to": [8.85, 7.198, 12.33938],
			"rotation": {"angle": 0, "axis": "y", "origin": [8.5, 7, 12.3]},
			"faces": {
				"north": {"uv": [2.65625, 2.75, 2.65625, 2.75], "texture": "#1"},
				"east": {"uv": [2.65625, 2.75, 2.65625, 2.75], "texture": "#1"},
				"south": {"uv": [2.65625, 2.75, 2.65625, 2.75], "texture": "#1"},
				"west": {"uv": [2.65625, 2.75, 2.65625, 2.75], "texture": "#1"},
				"up": {"uv": [2.65625, 2.75, 2.65625, 2.75], "texture": "#1"},
				"down": {"uv": [2.65625, 2.75, 2.65625, 2.75], "texture": "#1"}
			}
		},
		{
			"name": "hexadecagon",
			"from": [8.65, 6.802, 12.26062],
			"to": [8.85, 7.198, 12.33938],
			"rotation": {"angle": 22.5, "axis": "x", "origin": [8.5, 7, 12.3]},
			"faces": {
				"north": {"uv": [2.65625, 2.75, 2.65625, 2.75], "texture": "#1"},
				"east": {"uv": [2.65625, 2.75, 2.65625, 2.75], "texture": "#1"},
				"south": {"uv": [2.65625, 2.75, 2.65625, 2.75], "texture": "#1"},
				"west": {"uv": [2.65625, 2.75, 2.65625, 2.75], "texture": "#1"},
				"up": {"uv": [2.65625, 2.75, 2.65625, 2.75], "texture": "#1"},
				"down": {"uv": [2.65625, 2.75, 2.65625, 2.75], "texture": "#1"}
			}
		}
	],
	"groups": [
		{
			"name": "handle",
			"origin": [16, 8, 8],
			"color": 0,
			"children": [
				{
					"name": "hexadecagon",
					"origin": [16, 8, 8],
					"color": 0,
					"children": [0, 1, 2, 3, 4, 5, 6, 7]
				},
				{
					"name": "hexadecagon",
					"origin": [16, 8, 8],
					"color": 0,
					"children": [8, 9, 10, 11, 12, 13, 14, 15]
				},
				{
					"name": "group",
					"origin": [16, 8, 8],
					"color": 0,
					"children": []
				}
			]
		}
	]
}