{
	"credit": "Made with Blockbench",
	"textures": {
		"0": "ava:item/gun_effects/fire",
		"1": "ava:item/gun_effects/fire2",
		"particle": "ava:item/gun_effects/fire"
	},
	"elements": [
		{
			"from": [7, 7, -11.05],
			"to": [9, 9, -11.049],
			"rotation": {"angle": 0, "axis": "y", "origin": [7, 8, -11.05]},
			"faces": {
				"north": {"uv": [0, 0, 16, 16], "texture": "#0"},
				"east": {"uv": [0, 0, 16, 16], "texture": "#0"},
				"south": {"uv": [0, 0, 16, 16], "texture": "#0"},
				"west": {"uv": [0, 0, 16, 16], "texture": "#0"},
				"up": {"uv": [0, 0, 16, 16], "texture": "#0"},
				"down": {"uv": [0, 0, 16, 16], "texture": "#0"}
			}
		},
		{
			"from": [7.5, 7.5, -14.051],
			"to": [8.5, 8.5, -11.05],
			"rotation": {"angle": 0, "axis": "y", "origin": [6.5, 8.5, -11.05]},
			"faces": {
				"north": {"uv": [0, 0, 16, 16], "texture": "#1"},
				"east": {"uv": [0, 0, 16, 16], "texture": "#1"},
				"south": {"uv": [0, 0, 16, 16], "texture": "#1"},
				"west": {"uv": [0, 0, 16, 16], "texture": "#1"},
				"up": {"uv": [0, 0, 16, 16], "texture": "#1"},
				"down": {"uv": [0, 0, 16, 16], "texture": "#1"}
			}
		}
	]
}