{
	"credit": "Made with Blockbench",
	"textures": {
		"0": "ava:item/gun_textures/palette_gold",
		"1": "ava:item/gun_effects/neon/cyan/neon_cyan",
		"2": "ava:item/gun_textures/palette_black",
		"particle": "ava:item/gun_textures/palette_gold"
	},
	"elements": [
		{
			"name": "hexadecagon",
			"from": [7.85164, 7.57913, 9.55],
			"to": [8.14836, 7.69, 10.65],
			"rotation": {"angle": -45, "axis": "z", "origin": [8, 8.275, 9.775]},
			"faces": {
				"north": {"uv": [0, 0, 16, 16], "texture": "#1"},
				"up": {"uv": [0, 0, 16, 16], "texture": "#1"},
				"down": {"uv": [0, 0, 16, 16], "texture": "#1"}
			}
		},
		{
			"name": "hexadecagon",
			"from": [7.85164, 7.52913, 10.65],
			"to": [8.14836, 7.69, 10.85],
			"rotation": {"angle": -45, "axis": "z", "origin": [8, 8.275, 10.875]},
			"faces": {
				"north": {"uv": [4, 2, 6, 4], "texture": "#0"},
				"east": {"uv": [4, 2, 6, 4], "texture": "#0"},
				"south": {"uv": [4, 2, 6, 4], "texture": "#0"},
				"west": {"uv": [4, 2, 6, 4], "texture": "#0"},
				"up": {"uv": [4, 2, 6, 4], "texture": "#0"},
				"down": {"uv": [4, 2, 6, 4], "texture": "#0"}
			}
		},
		{
			"name": "hexadecagon",
			"from": [7.85164, 7.52913, 9.55],
			"to": [8.14836, 7.71925, 10.85],
			"rotation": {"angle": -22.5, "axis": "z", "origin": [8, 8.275, 9.775]},
			"faces": {
				"north": {"uv": [4, 2, 6, 4], "texture": "#0"},
				"east": {"uv": [4, 2, 6, 4], "texture": "#0"},
				"south": {"uv": [4, 2, 6, 4], "texture": "#0"},
				"west": {"uv": [4, 2, 6, 4], "texture": "#0"},
				"up": {"uv": [4, 2, 6, 4], "texture": "#0"},
				"down": {"uv": [4, 2, 6, 4], "texture": "#0"}
			}
		},
		{
			"name": "hexadecagon",
			"from": [7.85164, 7.57913, 9.55],
			"to": [8.14836, 7.69, 10.65],
			"rotation": {"angle": 0, "axis": "z", "origin": [8, 8.275, 9.775]},
			"faces": {
				"north": {"uv": [0, 0, 16, 16], "texture": "#1"},
				"up": {"uv": [0, 0, 16, 16], "texture": "#1"},
				"down": {"uv": [0, 0, 16, 16], "texture": "#1"}
			}
		},
		{
			"name": "hexadecagon",
			"from": [7.85164, 7.52913, 10.65],
			"to": [8.14836, 7.69, 10.85],
			"rotation": {"angle": 0, "axis": "z", "origin": [8, 8.275, 10.875]},
			"faces": {
				"north": {"uv": [4, 2, 6, 4], "texture": "#0"},
				"east": {"uv": [4, 2, 6, 4], "texture": "#0"},
				"south": {"uv": [4, 2, 6, 4], "texture": "#0"},
				"west": {"uv": [4, 2, 6, 4], "texture": "#0"},
				"up": {"uv": [4, 2, 6, 4], "texture": "#0"},
				"down": {"uv": [4, 2, 6, 4], "texture": "#0"}
			}
		},
		{
			"name": "hexadecagon",
			"from": [7.85164, 7.52913, 9.55],
			"to": [8.14836, 7.71925, 10.85],
			"rotation": {"angle": 22.5, "axis": "z", "origin": [8, 8.275, 9.775]},
			"faces": {
				"north": {"uv": [4, 2, 6, 4], "texture": "#0"},
				"east": {"uv": [4, 2, 6, 4], "texture": "#0"},
				"south": {"uv": [4, 2, 6, 4], "texture": "#0"},
				"west": {"uv": [4, 2, 6, 4], "texture": "#0"},
				"up": {"uv": [4, 2, 6, 4], "texture": "#0"},
				"down": {"uv": [4, 2, 6, 4], "texture": "#0"}
			}
		},
		{
			"name": "hexadecagon",
			"from": [7.85164, 7.57913, 9.55],
			"to": [8.14836, 7.71925, 10.65],
			"rotation": {"angle": 45, "axis": "z", "origin": [8, 8.275, 9.775]},
			"faces": {
				"north": {"uv": [0, 0, 16, 16], "texture": "#1"},
				"east": {"uv": [0, 0, 16, 16], "texture": "#1"},
				"up": {"uv": [0, 0, 16, 16], "texture": "#1"},
				"down": {"uv": [0, 0, 16, 16], "texture": "#1"}
			}
		},
		{
			"name": "hexadecagon",
			"from": [7.85164, 7.52913, 10.65],
			"to": [8.14836, 7.71925, 10.85],
			"rotation": {"angle": 45, "axis": "z", "origin": [8, 8.275, 10.875]},
			"faces": {
				"north": {"uv": [4, 2, 6, 4], "texture": "#0"},
				"east": {"uv": [4, 2, 6, 4], "texture": "#0"},
				"south": {"uv": [4, 2, 6, 4], "texture": "#0"},
				"west": {"uv": [4, 2, 6, 4], "texture": "#0"},
				"up": {"uv": [4, 2, 6, 4], "texture": "#0"},
				"down": {"uv": [4, 2, 6, 4], "texture": "#0"}
			}
		},
		{
			"name": "hexadecagon",
			"from": [7.85164, 8.86, 9.55],
			"to": [8.14836, 8.97088, 10.65],
			"rotation": {"angle": -45, "axis": "z", "origin": [8, 8.275, 9.775]},
			"faces": {
				"north": {"uv": [0, 0, 16, 16], "texture": "#1"},
				"up": {"uv": [0, 0, 16, 16], "texture": "#1"}
			}
		},
		{
			"name": "hexadecagon",
			"from": [7.85164, 8.86, 10.65],
			"to": [8.14836, 9.02088, 10.85],
			"rotation": {"angle": -45, "axis": "z", "origin": [8, 8.275, 10.875]},
			"faces": {
				"north": {"uv": [4, 2, 6, 4], "texture": "#0"},
				"east": {"uv": [4, 2, 6, 4], "texture": "#0"},
				"south": {"uv": [4, 2, 6, 4], "texture": "#0"},
				"west": {"uv": [4, 2, 6, 4], "texture": "#0"},
				"up": {"uv": [4, 2, 6, 4], "texture": "#0"}
			}
		},
		{
			"name": "hexadecagon",
			"from": [7.85164, 8.83075, 9.55],
			"to": [8.14836, 9.02088, 10.85],
			"rotation": {"angle": -22.5, "axis": "z", "origin": [8, 8.275, 9.775]},
			"faces": {
				"north": {"uv": [4, 2, 6, 4], "texture": "#0"},
				"east": {"uv": [4, 2, 6, 4], "texture": "#0"},
				"south": {"uv": [4, 2, 6, 4], "texture": "#0"},
				"west": {"uv": [4, 2, 6, 4], "texture": "#0"},
				"up": {"uv": [4, 2, 6, 4], "texture": "#0"}
			}
		},
		{
			"name": "hexadecagon",
			"from": [7.85164, 8.86, 9.55],
			"to": [8.14836, 8.97088, 10.65],
			"rotation": {"angle": 0, "axis": "z", "origin": [8, 8.275, 9.775]},
			"faces": {
				"north": {"uv": [0, 0, 16, 16], "texture": "#1"},
				"up": {"uv": [0, 0, 16, 16], "texture": "#1"}
			}
		},
		{
			"name": "hexadecagon",
			"from": [7.85164, 8.86, 10.65],
			"to": [8.14836, 9.02088, 10.85],
			"rotation": {"angle": 0, "axis": "z", "origin": [8, 8.275, 10.875]},
			"faces": {
				"north": {"uv": [4, 2, 6, 4], "texture": "#0"},
				"east": {"uv": [4, 2, 6, 4], "texture": "#0"},
				"south": {"uv": [4, 2, 6, 4], "texture": "#0"},
				"west": {"uv": [4, 2, 6, 4], "texture": "#0"},
				"up": {"uv": [4, 2, 6, 4], "texture": "#0"}
			}
		},
		{
			"name": "hexadecagon",
			"from": [7.85164, 8.83075, 9.55],
			"to": [8.14836, 9.02088, 10.85],
			"rotation": {"angle": 22.5, "axis": "z", "origin": [8, 8.275, 9.775]},
			"faces": {
				"north": {"uv": [4, 2, 6, 4], "texture": "#0"},
				"east": {"uv": [4, 2, 6, 4], "texture": "#0"},
				"south": {"uv": [4, 2, 6, 4], "texture": "#0"},
				"west": {"uv": [4, 2, 6, 4], "texture": "#0"},
				"up": {"uv": [4, 2, 6, 4], "texture": "#0"}
			}
		},
		{
			"name": "hexadecagon",
			"from": [7.85164, 8.86, 9.55],
			"to": [8.14836, 8.97088, 10.65],
			"rotation": {"angle": 45, "axis": "z", "origin": [8, 8.275, 9.775]},
			"faces": {
				"north": {"uv": [0, 0, 16, 16], "texture": "#1"},
				"up": {"uv": [0, 0, 16, 16], "texture": "#1"}
			}
		},
		{
			"name": "hexadecagon",
			"from": [7.85164, 8.86, 10.65],
			"to": [8.14836, 9.02088, 10.85],
			"rotation": {"angle": 45, "axis": "z", "origin": [8, 8.275, 10.875]},
			"faces": {
				"north": {"uv": [4, 2, 6, 4], "texture": "#0"},
				"east": {"uv": [4, 2, 6, 4], "texture": "#0"},
				"south": {"uv": [4, 2, 6, 4], "texture": "#0"},
				"west": {"uv": [4, 2, 6, 4], "texture": "#0"},
				"up": {"uv": [4, 2, 6, 4], "texture": "#0"}
			}
		},
		{
			"name": "hexadecagon",
			"from": [7.25413, 8.12664, 9.55],
			"to": [7.415, 8.42336, 10.85],
			"rotation": {"angle": -22.5, "axis": "z", "origin": [8, 8.275, 9.775]},
			"faces": {
				"north": {"uv": [4, 2, 6, 4], "texture": "#0"},
				"south": {"uv": [4, 2, 6, 4], "texture": "#0"},
				"west": {"uv": [4, 2, 6, 4], "texture": "#0"},
				"up": {"uv": [4, 2, 6, 4], "texture": "#0"},
				"down": {"uv": [4, 2, 6, 4], "texture": "#0"}
			}
		},
		{
			"name": "hexadecagon",
			"from": [7.30413, 8.12664, 9.55],
			"to": [7.38575, 8.42336, 10.65],
			"rotation": {"angle": 0, "axis": "z", "origin": [8, 8.275, 9.775]},
			"faces": {
				"north": {"uv": [0, 0, 16, 16], "texture": "#1"},
				"west": {"uv": [0, 0, 16, 16], "texture": "#1"}
			}
		},
		{
			"name": "hexadecagon",
			"from": [7.25413, 8.12664, 10.65],
			"to": [7.38575, 8.42336, 10.85],
			"rotation": {"angle": 0, "axis": "z", "origin": [8, 8.275, 10.875]},
			"faces": {
				"north": {"uv": [4, 2, 6, 4], "texture": "#0"},
				"south": {"uv": [4, 2, 6, 4], "texture": "#0"},
				"west": {"uv": [4, 2, 6, 4], "texture": "#0"},
				"up": {"uv": [4, 2, 6, 4], "texture": "#0"},
				"down": {"uv": [4, 2, 6, 4], "texture": "#0"}
			}
		},
		{
			"name": "hexadecagon",
			"from": [7.38575, 8.03889, 9.55],
			"to": [7.4735, 8.45261, 10.85],
			"rotation": {"angle": 0, "axis": "z", "origin": [8.14625, 8.275, 9.775]},
			"faces": {
				"north": {"uv": [4, 2, 6, 4], "texture": "#0"},
				"south": {"uv": [4, 2, 6, 4], "texture": "#0"},
				"down": {"uv": [4, 2, 6, 4], "texture": "#0"}
			}
		},
		{
			"name": "hexadecagon",
			"from": [7.4735, 8.18514, 9.55],
			"to": [7.50275, 8.36486, 10.85],
			"rotation": {"angle": 0, "axis": "z", "origin": [8.234, 8.275, 9.775]},
			"faces": {
				"south": {"uv": [4, 2, 6, 4], "texture": "#0"}
			}
		},
		{
			"name": "hexadecagon",
			"from": [8.49725, 8.18514, 9.55],
			"to": [8.5265, 8.36486, 10.85],
			"rotation": {"angle": 0, "axis": "z", "origin": [9.25775, 8.275, 9.775]},
			"faces": {
				"south": {"uv": [4, 2, 6, 4], "texture": "#0"}
			}
		},
		{
			"name": "hexadecagon",
			"from": [8.468, 8.21439, 9.55],
			"to": [8.49725, 8.33561, 10.85],
			"rotation": {"angle": 0, "axis": "z", "origin": [9.2285, 8.275, 9.775]},
			"faces": {
				"south": {"uv": [4, 2, 6, 4], "texture": "#0"}
			}
		},
		{
			"name": "hexadecagon",
			"from": [7.50275, 8.21439, 9.55],
			"to": [7.532, 8.33561, 10.85],
			"rotation": {"angle": 0, "axis": "z", "origin": [8.26325, 8.275, 9.775]},
			"faces": {
				"south": {"uv": [4, 2, 6, 4], "texture": "#0"}
			}
		},
		{
			"name": "hexadecagon",
			"from": [7.532, 8.24364, 9.55],
			"to": [7.5905, 8.30636, 10.85],
			"rotation": {"angle": 0, "axis": "z", "origin": [8.2925, 8.275, 9.775]},
			"faces": {
				"south": {"uv": [4, 2, 6, 4], "texture": "#0"}
			}
		},
		{
			"name": "hexadecagon",
			"from": [7.7075, 8.24364, 9.55],
			"to": [8.2925, 8.30636, 10.85],
			"rotation": {"angle": 0, "axis": "z", "origin": [8.468, 8.275, 9.775]},
			"faces": {
				"south": {"uv": [4, 2, 6, 4], "texture": "#0"}
			}
		},
		{
			"name": "hexadecagon",
			"from": [7.766, 8.21439, 9.55],
			"to": [8.234, 8.33561, 10.85],
			"rotation": {"angle": 0, "axis": "z", "origin": [8.5265, 8.275, 9.775]},
			"faces": {
				"south": {"uv": [4, 2, 6, 4], "texture": "#0"},
				"up": {"uv": [4, 2, 6, 4], "texture": "#0"},
				"down": {"uv": [4, 2, 6, 4], "texture": "#0"}
			}
		},
		{
			"name": "hexadecagon",
			"from": [7.8245, 8.03889, 9.55],
			"to": [8.1755, 8.51111, 10.85],
			"rotation": {"angle": 0, "axis": "z", "origin": [8.468, 8.47975, 9.775]},
			"faces": {
				"north": {"uv": [4, 2, 6, 4], "texture": "#0"},
				"east": {"uv": [4, 2, 6, 4], "texture": "#0"},
				"south": {"uv": [4, 2, 6, 4], "texture": "#0"},
				"west": {"uv": [4, 2, 6, 4], "texture": "#0"},
				"up": {"uv": [4, 2, 6, 4], "texture": "#0"},
				"down": {"uv": [4, 2, 6, 4], "texture": "#0"}
			}
		},
		{
			"name": "hexadecagon",
			"from": [7.5905, 7.74639, 9.55],
			"to": [7.8245, 7.89849, 10.85],
			"rotation": {"angle": 0, "axis": "z", "origin": [8.5265, 7.77775, 9.775]},
			"faces": {
				"north": {"uv": [4, 2, 6, 4], "texture": "#0"},
				"south": {"uv": [4, 2, 6, 4], "texture": "#0"},
				"west": {"uv": [4, 2, 6, 4], "texture": "#0"},
				"up": {"uv": [4, 2, 6, 4], "texture": "#0"}
			}
		},
		{
			"name": "hexadecagon",
			"from": [7.56125, 8.65314, 9.55],
			"to": [7.8245, 8.80524, 10.85],
			"rotation": {"angle": 0, "axis": "z", "origin": [8.5265, 8.6845, 9.775]},
			"faces": {
				"north": {"uv": [4, 2, 6, 4], "texture": "#0"},
				"south": {"uv": [4, 2, 6, 4], "texture": "#0"},
				"down": {"uv": [4, 2, 6, 4], "texture": "#0"}
			}
		},
		{
			"name": "hexadecagon",
			"from": [8.1755, 7.74639, 9.55],
			"to": [8.4095, 7.89849, 10.85],
			"rotation": {"angle": 0, "axis": "z", "origin": [9.1115, 7.77775, 9.775]},
			"faces": {
				"north": {"uv": [4, 2, 6, 4], "texture": "#0"},
				"south": {"uv": [4, 2, 6, 4], "texture": "#0"},
				"up": {"uv": [4, 2, 6, 4], "texture": "#0"}
			}
		},
		{
			"name": "hexadecagon",
			"from": [8.1755, 8.65314, 9.55],
			"to": [8.43875, 8.80524, 10.85],
			"rotation": {"angle": 0, "axis": "z", "origin": [9.1115, 8.6845, 9.775]},
			"faces": {
				"north": {"uv": [4, 2, 6, 4], "texture": "#0"},
				"south": {"uv": [4, 2, 6, 4], "texture": "#0"},
				"down": {"uv": [4, 2, 6, 4], "texture": "#0"}
			}
		},
		{
			"name": "hexadecagon",
			"from": [8.4095, 8.24364, 9.55],
			"to": [8.468, 8.30636, 10.85],
			"rotation": {"angle": 0, "axis": "z", "origin": [9.17, 8.275, 9.775]},
			"faces": {
				"south": {"uv": [4, 2, 6, 4], "texture": "#0"}
			}
		},
		{
			"name": "hexadecagon",
			"from": [8.5265, 8.03889, 9.55],
			"to": [8.61425, 8.45261, 10.85],
			"rotation": {"angle": 0, "axis": "z", "origin": [9.287, 8.275, 9.775]},
			"faces": {
				"north": {"uv": [4, 2, 6, 4], "texture": "#0"},
				"south": {"uv": [4, 2, 6, 4], "texture": "#0"},
				"down": {"uv": [4, 2, 6, 4], "texture": "#0"}
			}
		},
		{
			"name": "hexadecagon",
			"from": [7.25413, 8.12664, 9.55],
			"to": [7.38575, 8.42336, 10.85],
			"rotation": {"angle": 22.5, "axis": "z", "origin": [8, 8.275, 9.775]},
			"faces": {
				"north": {"uv": [4, 2, 6, 4], "texture": "#0"},
				"east": {"uv": [4, 2, 6, 4], "texture": "#0"},
				"south": {"uv": [4, 2, 6, 4], "texture": "#0"},
				"west": {"uv": [4, 2, 6, 4], "texture": "#0"},
				"up": {"uv": [4, 2, 6, 4], "texture": "#0"},
				"down": {"uv": [4, 2, 6, 4], "texture": "#0"}
			}
		},
		{
			"name": "hexadecagon",
			"from": [8.61425, 8.12664, 9.55],
			"to": [8.74588, 8.42336, 10.85],
			"rotation": {"angle": -22.5, "axis": "z", "origin": [8, 8.275, 9.775]},
			"faces": {
				"north": {"uv": [4, 2, 6, 4], "texture": "#0"},
				"east": {"uv": [4, 2, 6, 4], "texture": "#0"},
				"south": {"uv": [4, 2, 6, 4], "texture": "#0"},
				"west": {"uv": [4, 2, 6, 4], "texture": "#0"},
				"up": {"uv": [4, 2, 6, 4], "texture": "#0"},
				"down": {"uv": [4, 2, 6, 4], "texture": "#0"}
			}
		},
		{
			"name": "hexadecagon",
			"from": [8.61425, 8.12664, 9.55],
			"to": [8.69588, 8.42336, 10.65],
			"rotation": {"angle": 0, "axis": "z", "origin": [8, 8.275, 9.775]},
			"faces": {
				"north": {"uv": [0, 0, 16, 16], "texture": "#1"},
				"east": {"uv": [0, 0, 16, 16], "texture": "#1"}
			}
		},
		{
			"name": "hexadecagon",
			"from": [8.61425, 8.12664, 10.65],
			"to": [8.74588, 8.42336, 10.85],
			"rotation": {"angle": 0, "axis": "z", "origin": [8, 8.275, 10.875]},
			"faces": {
				"north": {"uv": [4, 2, 6, 4], "texture": "#0"},
				"east": {"uv": [4, 2, 6, 4], "texture": "#0"},
				"south": {"uv": [4, 2, 6, 4], "texture": "#0"},
				"up": {"uv": [4, 2, 6, 4], "texture": "#0"},
				"down": {"uv": [4, 2, 6, 4], "texture": "#0"}
			}
		},
		{
			"name": "hexadecagon",
			"from": [8.585, 8.12664, 9.55],
			"to": [8.74588, 8.42336, 10.85],
			"rotation": {"angle": 22.5, "axis": "z", "origin": [8, 8.275, 9.775]},
			"faces": {
				"north": {"uv": [4, 2, 6, 4], "texture": "#0"},
				"east": {"uv": [4, 2, 6, 4], "texture": "#0"},
				"south": {"uv": [4, 2, 6, 4], "texture": "#0"},
				"up": {"uv": [4, 2, 6, 4], "texture": "#0"},
				"down": {"uv": [4, 2, 6, 4], "texture": "#0"}
			}
		},
		{
			"name": "hexadecagon",
			"from": [7.95779, 8.4684, 9.55],
			"to": [8.04221, 8.50585, 10.85],
			"rotation": {"angle": -45, "axis": "z", "origin": [8, 8.68062, 9.775]},
			"faces": {
				"north": {"uv": [4, 2, 6, 4], "texture": "#0"},
				"south": {"uv": [4, 2, 6, 4], "texture": "#0"},
				"up": {"uv": [4, 2, 6, 4], "texture": "#0"},
				"down": {"uv": [4, 2, 6, 4], "texture": "#0"}
			}
		},
		{
			"name": "hexadecagon",
			"from": [7.95779, 8.4684, 9.55],
			"to": [8.04221, 8.50585, 10.85],
			"rotation": {"angle": -22.5, "axis": "z", "origin": [8, 8.68062, 9.775]},
			"faces": {
				"north": {"uv": [4, 2, 6, 4], "texture": "#0"},
				"south": {"uv": [4, 2, 6, 4], "texture": "#0"},
				"up": {"uv": [4, 2, 6, 4], "texture": "#0"}
			}
		},
		{
			"name": "hexadecagon",
			"from": [7.95779, 8.4684, 9.55],
			"to": [8.04221, 8.50585, 10.85],
			"rotation": {"angle": 22.5, "axis": "z", "origin": [8, 8.68062, 9.775]},
			"faces": {
				"north": {"uv": [4, 2, 6, 4], "texture": "#0"},
				"south": {"uv": [4, 2, 6, 4], "texture": "#0"},
				"up": {"uv": [4, 2, 6, 4], "texture": "#0"}
			}
		},
		{
			"name": "hexadecagon",
			"from": [7.95779, 8.4684, 9.55],
			"to": [8.04221, 8.50585, 10.85],
			"rotation": {"angle": 45, "axis": "z", "origin": [8, 8.68062, 9.775]},
			"faces": {
				"north": {"uv": [4, 2, 6, 4], "texture": "#0"},
				"south": {"uv": [4, 2, 6, 4], "texture": "#0"},
				"up": {"uv": [4, 2, 6, 4], "texture": "#0"},
				"down": {"uv": [4, 2, 6, 4], "texture": "#0"}
			}
		},
		{
			"name": "hexadecagon",
			"from": [7.95779, 8.85538, 9.55],
			"to": [8.04221, 8.89283, 10.85],
			"rotation": {"angle": -45, "axis": "z", "origin": [8, 8.68062, 9.775]},
			"faces": {
				"north": {"uv": [4, 2, 6, 4], "texture": "#0"},
				"south": {"uv": [4, 2, 6, 4], "texture": "#0"},
				"down": {"uv": [4, 2, 6, 4], "texture": "#0"}
			}
		},
		{
			"name": "hexadecagon",
			"from": [7.95779, 8.85538, 9.55],
			"to": [8.04221, 8.89283, 10.85],
			"rotation": {"angle": -22.5, "axis": "z", "origin": [8, 8.68062, 9.775]},
			"faces": {
				"north": {"uv": [4, 2, 6, 4], "texture": "#0"},
				"south": {"uv": [4, 2, 6, 4], "texture": "#0"},
				"down": {"uv": [4, 2, 6, 4], "texture": "#0"}
			}
		},
		{
			"name": "hexadecagon",
			"from": [7.95779, 8.85538, 9.55],
			"to": [8.04221, 8.89283, 10.85],
			"rotation": {"angle": 0, "axis": "z", "origin": [8, 8.68062, 9.775]},
			"faces": {
				"south": {"uv": [4, 2, 6, 4], "texture": "#0"},
				"down": {"uv": [4, 2, 6, 4], "texture": "#0"}
			}
		},
		{
			"name": "hexadecagon",
			"from": [7.95779, 8.85538, 9.55],
			"to": [8.04221, 8.89283, 10.85],
			"rotation": {"angle": 22.5, "axis": "z", "origin": [8, 8.68062, 9.775]},
			"faces": {
				"north": {"uv": [4, 2, 6, 4], "texture": "#0"},
				"south": {"uv": [4, 2, 6, 4], "texture": "#0"},
				"down": {"uv": [4, 2, 6, 4], "texture": "#0"}
			}
		},
		{
			"name": "hexadecagon",
			"from": [7.95779, 8.85538, 9.55],
			"to": [8.04221, 8.89283, 10.85],
			"rotation": {"angle": 45, "axis": "z", "origin": [8, 8.68062, 9.775]},
			"faces": {
				"north": {"uv": [4, 2, 6, 4], "texture": "#0"},
				"south": {"uv": [4, 2, 6, 4], "texture": "#0"},
				"down": {"uv": [4, 2, 6, 4], "texture": "#0"}
			}
		},
		{
			"name": "hexadecagon",
			"from": [7.78779, 8.6384, 9.55],
			"to": [7.82524, 8.72283, 10.85],
			"rotation": {"angle": -22.5, "axis": "z", "origin": [8, 8.68062, 9.775]},
			"faces": {
				"north": {"uv": [4, 2, 6, 4], "texture": "#0"},
				"east": {"uv": [4, 2, 6, 4], "texture": "#0"},
				"south": {"uv": [4, 2, 6, 4], "texture": "#0"}
			}
		},
		{
			"name": "hexadecagon",
			"from": [7.78779, 8.6384, 9.55],
			"to": [7.82524, 8.72283, 10.85],
			"rotation": {"angle": 0, "axis": "z", "origin": [8, 8.68062, 9.775]},
			"faces": {
				"north": {"uv": [4, 2, 6, 4], "texture": "#0"},
				"east": {"uv": [4, 2, 6, 4], "texture": "#0"},
				"south": {"uv": [4, 2, 6, 4], "texture": "#0"},
				"west": {"uv": [4, 2, 6, 4], "texture": "#0"}
			}
		},
		{
			"name": "hexadecagon",
			"from": [7.78779, 8.6384, 9.55],
			"to": [7.82524, 8.72283, 10.85],
			"rotation": {"angle": 22.5, "axis": "z", "origin": [8, 8.68062, 9.775]},
			"faces": {
				"east": {"uv": [4, 2, 6, 4], "texture": "#0"},
				"south": {"uv": [4, 2, 6, 4], "texture": "#0"},
				"west": {"uv": [4, 2, 6, 4], "texture": "#0"}
			}
		},
		{
			"name": "hexadecagon",
			"from": [8.17476, 8.6384, 9.55],
			"to": [8.21221, 8.72283, 10.85],
			"rotation": {"angle": -22.5, "axis": "z", "origin": [8, 8.68062, 9.775]},
			"faces": {
				"east": {"uv": [4, 2, 6, 4], "texture": "#0"},
				"south": {"uv": [4, 2, 6, 4], "texture": "#0"},
				"west": {"uv": [4, 2, 6, 4], "texture": "#0"}
			}
		},
		{
			"name": "hexadecagon",
			"from": [8.17476, 8.6384, 9.55],
			"to": [8.21221, 8.72283, 10.85],
			"rotation": {"angle": 0, "axis": "z", "origin": [8, 8.68062, 9.775]},
			"faces": {
				"north": {"uv": [4, 2, 6, 4], "texture": "#0"},
				"east": {"uv": [4, 2, 6, 4], "texture": "#0"},
				"south": {"uv": [4, 2, 6, 4], "texture": "#0"},
				"west": {"uv": [4, 2, 6, 4], "texture": "#0"}
			}
		},
		{
			"name": "hexadecagon",
			"from": [8.17476, 8.6384, 9.55],
			"to": [8.21221, 8.72283, 10.85],
			"rotation": {"angle": 22.5, "axis": "z", "origin": [8, 8.68062, 9.775]},
			"faces": {
				"north": {"uv": [4, 2, 6, 4], "texture": "#0"},
				"south": {"uv": [4, 2, 6, 4], "texture": "#0"},
				"west": {"uv": [4, 2, 6, 4], "texture": "#0"}
			}
		},
		{
			"name": "hexadecagon",
			"from": [7.95779, 7.6494, 9.55],
			"to": [8.04221, 7.68685, 10.85],
			"rotation": {"angle": -45, "axis": "z", "origin": [8, 7.86162, 9.775]},
			"faces": {
				"north": {"uv": [4, 2, 6, 4], "texture": "#0"},
				"south": {"uv": [4, 2, 6, 4], "texture": "#0"},
				"up": {"uv": [4, 2, 6, 4], "texture": "#0"}
			}
		},
		{
			"name": "hexadecagon",
			"from": [7.95779, 7.6494, 9.55],
			"to": [8.04221, 7.68685, 10.85],
			"rotation": {"angle": -22.5, "axis": "z", "origin": [8, 7.86162, 9.775]},
			"faces": {
				"north": {"uv": [4, 2, 6, 4], "texture": "#0"},
				"south": {"uv": [4, 2, 6, 4], "texture": "#0"},
				"up": {"uv": [4, 2, 6, 4], "texture": "#0"}
			}
		},
		{
			"name": "hexadecagon",
			"from": [7.95779, 7.6494, 9.55],
			"to": [8.04221, 7.68685, 10.85],
			"rotation": {"angle": 22.5, "axis": "z", "origin": [8, 7.86162, 9.775]},
			"faces": {
				"north": {"uv": [4, 2, 6, 4], "texture": "#0"},
				"south": {"uv": [4, 2, 6, 4], "texture": "#0"},
				"up": {"uv": [4, 2, 6, 4], "texture": "#0"}
			}
		},
		{
			"name": "hexadecagon",
			"from": [7.95779, 7.6494, 9.55],
			"to": [8.04221, 7.68685, 10.85],
			"rotation": {"angle": 45, "axis": "z", "origin": [8, 7.86162, 9.775]},
			"faces": {
				"north": {"uv": [4, 2, 6, 4], "texture": "#0"},
				"south": {"uv": [4, 2, 6, 4], "texture": "#0"},
				"up": {"uv": [4, 2, 6, 4], "texture": "#0"}
			}
		},
		{
			"name": "hexadecagon",
			"from": [7.95779, 8.03638, 9.55],
			"to": [8.04221, 8.07383, 10.85],
			"rotation": {"angle": -45, "axis": "z", "origin": [8, 7.86162, 9.775]},
			"faces": {
				"north": {"uv": [4, 2, 6, 4], "texture": "#0"},
				"south": {"uv": [4, 2, 6, 4], "texture": "#0"},
				"up": {"uv": [4, 2, 6, 4], "texture": "#0"},
				"down": {"uv": [4, 2, 6, 4], "texture": "#0"}
			}
		},
		{
			"name": "hexadecagon",
			"from": [7.95779, 8.03638, 9.55],
			"to": [8.04221, 8.07383, 10.85],
			"rotation": {"angle": -22.5, "axis": "z", "origin": [8, 7.86162, 9.775]},
			"faces": {
				"north": {"uv": [4, 2, 6, 4], "texture": "#0"},
				"south": {"uv": [4, 2, 6, 4], "texture": "#0"},
				"down": {"uv": [4, 2, 6, 4], "texture": "#0"}
			}
		},
		{
			"name": "hexadecagon",
			"from": [7.95779, 8.03638, 9.55],
			"to": [8.04221, 8.07383, 10.85],
			"rotation": {"angle": 0, "axis": "z", "origin": [8, 7.86162, 9.775]},
			"faces": {
				"south": {"uv": [4, 2, 6, 4], "texture": "#0"},
				"down": {"uv": [4, 2, 6, 4], "texture": "#0"}
			}
		},
		{
			"name": "hexadecagon",
			"from": [7.95779, 8.03638, 9.55],
			"to": [8.04221, 8.07383, 10.85],
			"rotation": {"angle": 22.5, "axis": "z", "origin": [8, 7.86162, 9.775]},
			"faces": {
				"north": {"uv": [4, 2, 6, 4], "texture": "#0"},
				"south": {"uv": [4, 2, 6, 4], "texture": "#0"},
				"down": {"uv": [4, 2, 6, 4], "texture": "#0"}
			}
		},
		{
			"name": "hexadecagon",
			"from": [7.95779, 8.03638, 9.55],
			"to": [8.04221, 8.07383, 10.85],
			"rotation": {"angle": 45, "axis": "z", "origin": [8, 7.86162, 9.775]},
			"faces": {
				"north": {"uv": [4, 2, 6, 4], "texture": "#0"},
				"south": {"uv": [4, 2, 6, 4], "texture": "#0"},
				"up": {"uv": [4, 2, 6, 4], "texture": "#0"},
				"down": {"uv": [4, 2, 6, 4], "texture": "#0"}
			}
		},
		{
			"name": "hexadecagon",
			"from": [7.78779, 7.8194, 9.55],
			"to": [7.82524, 7.90383, 10.85],
			"rotation": {"angle": -22.5, "axis": "z", "origin": [8, 7.86162, 9.775]},
			"faces": {
				"east": {"uv": [4, 2, 6, 4], "texture": "#0"},
				"south": {"uv": [4, 2, 6, 4], "texture": "#0"},
				"west": {"uv": [4, 2, 6, 4], "texture": "#0"}
			}
		},
		{
			"name": "hexadecagon",
			"from": [7.78779, 7.8194, 9.55],
			"to": [7.82524, 7.90383, 10.85],
			"rotation": {"angle": 0, "axis": "z", "origin": [8, 7.86162, 9.775]},
			"faces": {
				"north": {"uv": [4, 2, 6, 4], "texture": "#0"},
				"east": {"uv": [4, 2, 6, 4], "texture": "#0"},
				"south": {"uv": [4, 2, 6, 4], "texture": "#0"},
				"west": {"uv": [4, 2, 6, 4], "texture": "#0"}
			}
		},
		{
			"name": "hexadecagon",
			"from": [7.78779, 7.8194, 9.55],
			"to": [7.82524, 7.90383, 10.85],
			"rotation": {"angle": 22.5, "axis": "z", "origin": [8, 7.86162, 9.775]},
			"faces": {
				"north": {"uv": [4, 2, 6, 4], "texture": "#0"},
				"east": {"uv": [4, 2, 6, 4], "texture": "#0"},
				"south": {"uv": [4, 2, 6, 4], "texture": "#0"}
			}
		},
		{
			"name": "hexadecagon",
			"from": [8.17476, 7.8194, 9.55],
			"to": [8.21221, 7.90383, 10.85],
			"rotation": {"angle": -22.5, "axis": "z", "origin": [8, 7.86162, 9.775]},
			"faces": {
				"north": {"uv": [4, 2, 6, 4], "texture": "#0"},
				"south": {"uv": [4, 2, 6, 4], "texture": "#0"},
				"west": {"uv": [4, 2, 6, 4], "texture": "#0"}
			}
		},
		{
			"name": "hexadecagon",
			"from": [8.17476, 7.8194, 9.55],
			"to": [8.21221, 7.90383, 10.85],
			"rotation": {"angle": 0, "axis": "z", "origin": [8, 7.86162, 9.775]},
			"faces": {
				"north": {"uv": [4, 2, 6, 4], "texture": "#0"},
				"east": {"uv": [4, 2, 6, 4], "texture": "#0"},
				"south": {"uv": [4, 2, 6, 4], "texture": "#0"},
				"west": {"uv": [4, 2, 6, 4], "texture": "#0"}
			}
		},
		{
			"name": "hexadecagon",
			"from": [8.17476, 7.8194, 9.55],
			"to": [8.21221, 7.90383, 10.85],
			"rotation": {"angle": 22.5, "axis": "z", "origin": [8, 7.86162, 9.775]},
			"faces": {
				"east": {"uv": [4, 2, 6, 4], "texture": "#0"},
				"south": {"uv": [4, 2, 6, 4], "texture": "#0"},
				"west": {"uv": [4, 2, 6, 4], "texture": "#0"}
			}
		},
		{
			"name": "hexadecagon",
			"from": [7.60679, 7.85415, 9.55],
			"to": [7.69121, 7.8916, 10.85],
			"rotation": {"angle": -45, "axis": "z", "origin": [7.649, 8.06637, 9.775]},
			"faces": {
				"south": {"uv": [4, 2, 6, 4], "texture": "#0"},
				"up": {"uv": [4, 2, 6, 4], "texture": "#0"}
			}
		},
		{
			"name": "hexadecagon",
			"from": [8.30879, 7.85415, 9.55],
			"to": [8.39321, 7.8916, 10.85],
			"rotation": {"angle": -45, "axis": "z", "origin": [8.351, 8.06637, 9.775]},
			"faces": {
				"north": {"uv": [4, 2, 6, 4], "texture": "#0"},
				"south": {"uv": [4, 2, 6, 4], "texture": "#0"},
				"up": {"uv": [4, 2, 6, 4], "texture": "#0"},
				"down": {"uv": [4, 2, 6, 4], "texture": "#0"}
			}
		},
		{
			"name": "hexadecagon",
			"from": [7.60679, 7.85415, 9.55],
			"to": [7.69121, 7.8916, 10.85],
			"rotation": {"angle": -22.5, "axis": "z", "origin": [7.649, 8.06637, 9.775]},
			"faces": {
				"north": {"uv": [4, 2, 6, 4], "texture": "#0"},
				"south": {"uv": [4, 2, 6, 4], "texture": "#0"},
				"up": {"uv": [4, 2, 6, 4], "texture": "#0"},
				"down": {"uv": [4, 2, 6, 4], "texture": "#0"}
			}
		},
		{
			"name": "hexadecagon",
			"from": [8.30879, 7.85415, 9.55],
			"to": [8.39321, 7.8916, 10.85],
			"rotation": {"angle": -22.5, "axis": "z", "origin": [8.351, 8.06637, 9.775]},
			"faces": {
				"north": {"uv": [4, 2, 6, 4], "texture": "#0"},
				"south": {"uv": [4, 2, 6, 4], "texture": "#0"},
				"up": {"uv": [4, 2, 6, 4], "texture": "#0"}
			}
		},
		{
			"name": "hexadecagon",
			"from": [7.60679, 7.85415, 9.55],
			"to": [7.69121, 7.8916, 10.85],
			"rotation": {"angle": 22.5, "axis": "z", "origin": [7.649, 8.06637, 9.775]},
			"faces": {
				"north": {"uv": [4, 2, 6, 4], "texture": "#0"},
				"south": {"uv": [4, 2, 6, 4], "texture": "#0"},
				"up": {"uv": [4, 2, 6, 4], "texture": "#0"}
			}
		},
		{
			"name": "hexadecagon",
			"from": [8.30879, 7.85415, 9.55],
			"to": [8.39321, 7.8916, 10.85],
			"rotation": {"angle": 22.5, "axis": "z", "origin": [8.351, 8.06637, 9.775]},
			"faces": {
				"north": {"uv": [4, 2, 6, 4], "texture": "#0"},
				"south": {"uv": [4, 2, 6, 4], "texture": "#0"},
				"up": {"uv": [4, 2, 6, 4], "texture": "#0"}
			}
		},
		{
			"name": "hexadecagon",
			"from": [7.60679, 7.85415, 9.55],
			"to": [7.69121, 7.8916, 10.85],
			"rotation": {"angle": 45, "axis": "z", "origin": [7.649, 8.06637, 9.775]},
			"faces": {
				"north": {"uv": [4, 2, 6, 4], "texture": "#0"},
				"south": {"uv": [4, 2, 6, 4], "texture": "#0"},
				"up": {"uv": [4, 2, 6, 4], "texture": "#0"},
				"down": {"uv": [4, 2, 6, 4], "texture": "#0"}
			}
		},
		{
			"name": "hexadecagon",
			"from": [7.60679, 8.24113, 9.55],
			"to": [7.69121, 8.27858, 10.85],
			"rotation": {"angle": -45, "axis": "z", "origin": [7.649, 8.06637, 9.775]},
			"faces": {
				"south": {"uv": [4, 2, 6, 4], "texture": "#0"},
				"up": {"uv": [4, 2, 6, 4], "texture": "#0"},
				"down": {"uv": [4, 2, 6, 4], "texture": "#0"}
			}
		},
		{
			"name": "hexadecagon",
			"from": [8.30879, 8.24113, 9.55],
			"to": [8.39321, 8.27858, 10.85],
			"rotation": {"angle": -45, "axis": "z", "origin": [8.351, 8.06637, 9.775]},
			"faces": {
				"north": {"uv": [4, 2, 6, 4], "texture": "#0"},
				"south": {"uv": [4, 2, 6, 4], "texture": "#0"},
				"down": {"uv": [4, 2, 6, 4], "texture": "#0"}
			}
		},
		{
			"name": "hexadecagon",
			"from": [7.60679, 8.24113, 9.55],
			"to": [7.69121, 8.27858, 10.85],
			"rotation": {"angle": -22.5, "axis": "z", "origin": [7.649, 8.06637, 9.775]},
			"faces": {
				"north": {"uv": [4, 2, 6, 4], "texture": "#0"},
				"south": {"uv": [4, 2, 6, 4], "texture": "#0"},
				"down": {"uv": [4, 2, 6, 4], "texture": "#0"}
			}
		},
		{
			"name": "hexadecagon",
			"from": [8.30879, 8.24113, 9.55],
			"to": [8.39321, 8.27858, 10.85],
			"rotation": {"angle": -22.5, "axis": "z", "origin": [8.351, 8.06637, 9.775]},
			"faces": {
				"north": {"uv": [4, 2, 6, 4], "texture": "#0"},
				"south": {"uv": [4, 2, 6, 4], "texture": "#0"},
				"down": {"uv": [4, 2, 6, 4], "texture": "#0"}
			}
		},
		{
			"name": "hexadecagon",
			"from": [7.60679, 8.24113, 9.55],
			"to": [7.69121, 8.27858, 10.85],
			"rotation": {"angle": 0, "axis": "z", "origin": [7.649, 8.06637, 9.775]},
			"faces": {
				"south": {"uv": [4, 2, 6, 4], "texture": "#0"},
				"down": {"uv": [4, 2, 6, 4], "texture": "#0"}
			}
		},
		{
			"name": "hexadecagon",
			"from": [8.30879, 8.24113, 9.55],
			"to": [8.39321, 8.27858, 10.85],
			"rotation": {"angle": 0, "axis": "z", "origin": [8.351, 8.06637, 9.775]},
			"faces": {
				"south": {"uv": [4, 2, 6, 4], "texture": "#0"},
				"down": {"uv": [4, 2, 6, 4], "texture": "#0"}
			}
		},
		{
			"name": "hexadecagon",
			"from": [7.60679, 8.24113, 9.55],
			"to": [7.69121, 8.27858, 10.85],
			"rotation": {"angle": 22.5, "axis": "z", "origin": [7.649, 8.06637, 9.775]},
			"faces": {
				"north": {"uv": [4, 2, 6, 4], "texture": "#0"},
				"south": {"uv": [4, 2, 6, 4], "texture": "#0"},
				"down": {"uv": [4, 2, 6, 4], "texture": "#0"}
			}
		},
		{
			"name": "hexadecagon",
			"from": [8.30879, 8.24113, 9.55],
			"to": [8.39321, 8.27858, 10.85],
			"rotation": {"angle": 22.5, "axis": "z", "origin": [8.351, 8.06637, 9.775]},
			"faces": {
				"north": {"uv": [4, 2, 6, 4], "texture": "#0"},
				"south": {"uv": [4, 2, 6, 4], "texture": "#0"},
				"down": {"uv": [4, 2, 6, 4], "texture": "#0"}
			}
		},
		{
			"name": "hexadecagon",
			"from": [7.60679, 8.24113, 9.55],
			"to": [7.69121, 8.27858, 10.85],
			"rotation": {"angle": 45, "axis": "z", "origin": [7.649, 8.06637, 9.775]},
			"faces": {
				"north": {"uv": [4, 2, 6, 4], "texture": "#0"},
				"south": {"uv": [4, 2, 6, 4], "texture": "#0"},
				"down": {"uv": [4, 2, 6, 4], "texture": "#0"}
			}
		},
		{
			"name": "hexadecagon",
			"from": [8.30879, 8.24113, 9.55],
			"to": [8.39321, 8.27858, 10.85],
			"rotation": {"angle": 45, "axis": "z", "origin": [8.351, 8.06637, 9.775]},
			"faces": {
				"south": {"uv": [4, 2, 6, 4], "texture": "#0"},
				"up": {"uv": [4, 2, 6, 4], "texture": "#0"},
				"down": {"uv": [4, 2, 6, 4], "texture": "#0"}
			}
		},
		{
			"name": "hexadecagon",
			"from": [7.43679, 8.02415, 9.55],
			"to": [7.47424, 8.10858, 10.85],
			"rotation": {"angle": -22.5, "axis": "z", "origin": [7.649, 8.06637, 9.775]},
			"faces": {
				"north": {"uv": [4, 2, 6, 4], "texture": "#0"},
				"east": {"uv": [4, 2, 6, 4], "texture": "#0"},
				"south": {"uv": [4, 2, 6, 4], "texture": "#0"}
			}
		},
		{
			"name": "hexadecagon",
			"from": [8.13879, 8.02415, 9.55],
			"to": [8.17624, 8.10858, 10.85],
			"rotation": {"angle": -22.5, "axis": "z", "origin": [8.351, 8.06637, 9.775]},
			"faces": {
				"east": {"uv": [4, 2, 6, 4], "texture": "#0"},
				"south": {"uv": [4, 2, 6, 4], "texture": "#0"}
			}
		},
		{
			"name": "hexadecagon",
			"from": [7.43679, 8.02415, 9.55],
			"to": [7.47424, 8.10858, 10.85],
			"rotation": {"angle": 0, "axis": "z", "origin": [7.649, 8.06637, 9.775]},
			"faces": {
				"north": {"uv": [4, 2, 6, 4], "texture": "#0"},
				"east": {"uv": [4, 2, 6, 4], "texture": "#0"},
				"south": {"uv": [4, 2, 6, 4], "texture": "#0"},
				"west": {"uv": [4, 2, 6, 4], "texture": "#0"}
			}
		},
		{
			"name": "hexadecagon",
			"from": [8.13879, 8.02415, 9.55],
			"to": [8.17624, 8.10858, 10.85],
			"rotation": {"angle": 0, "axis": "z", "origin": [8.351, 8.06637, 9.775]},
			"faces": {
				"north": {"uv": [4, 2, 6, 4], "texture": "#0"},
				"east": {"uv": [4, 2, 6, 4], "texture": "#0"},
				"south": {"uv": [4, 2, 6, 4], "texture": "#0"},
				"west": {"uv": [4, 2, 6, 4], "texture": "#0"}
			}
		},
		{
			"name": "hexadecagon",
			"from": [7.43679, 8.02415, 9.55],
			"to": [7.47424, 8.10858, 10.85],
			"rotation": {"angle": 22.5, "axis": "z", "origin": [7.649, 8.06637, 9.775]},
			"faces": {
				"east": {"uv": [4, 2, 6, 4], "texture": "#0"},
				"south": {"uv": [4, 2, 6, 4], "texture": "#0"}
			}
		},
		{
			"name": "hexadecagon",
			"from": [8.13879, 8.02415, 9.55],
			"to": [8.17624, 8.10858, 10.85],
			"rotation": {"angle": 22.5, "axis": "z", "origin": [8.351, 8.06637, 9.775]},
			"faces": {
				"east": {"uv": [4, 2, 6, 4], "texture": "#0"},
				"south": {"uv": [4, 2, 6, 4], "texture": "#0"},
				"west": {"uv": [4, 2, 6, 4], "texture": "#0"}
			}
		},
		{
			"name": "hexadecagon",
			"from": [7.82376, 8.02415, 9.55],
			"to": [7.86121, 8.10858, 10.85],
			"rotation": {"angle": -22.5, "axis": "z", "origin": [7.649, 8.06637, 9.775]},
			"faces": {
				"east": {"uv": [4, 2, 6, 4], "texture": "#0"},
				"south": {"uv": [4, 2, 6, 4], "texture": "#0"},
				"west": {"uv": [4, 2, 6, 4], "texture": "#0"}
			}
		},
		{
			"name": "hexadecagon",
			"from": [8.52576, 8.02415, 9.55],
			"to": [8.56321, 8.10858, 10.85],
			"rotation": {"angle": -22.5, "axis": "z", "origin": [8.351, 8.06637, 9.775]},
			"faces": {
				"south": {"uv": [4, 2, 6, 4], "texture": "#0"},
				"west": {"uv": [4, 2, 6, 4], "texture": "#0"}
			}
		},
		{
			"name": "hexadecagon",
			"from": [7.82376, 8.02415, 9.55],
			"to": [7.86121, 8.10858, 10.85],
			"rotation": {"angle": 0, "axis": "z", "origin": [7.649, 8.06637, 9.775]},
			"faces": {
				"north": {"uv": [4, 2, 6, 4], "texture": "#0"},
				"east": {"uv": [4, 2, 6, 4], "texture": "#0"},
				"south": {"uv": [4, 2, 6, 4], "texture": "#0"},
				"west": {"uv": [4, 2, 6, 4], "texture": "#0"}
			}
		},
		{
			"name": "hexadecagon",
			"from": [8.52576, 8.02415, 9.55],
			"to": [8.56321, 8.10858, 10.85],
			"rotation": {"angle": 0, "axis": "z", "origin": [8.351, 8.06637, 9.775]},
			"faces": {
				"north": {"uv": [4, 2, 6, 4], "texture": "#0"},
				"east": {"uv": [4, 2, 6, 4], "texture": "#0"},
				"south": {"uv": [4, 2, 6, 4], "texture": "#0"},
				"west": {"uv": [4, 2, 6, 4], "texture": "#0"}
			}
		},
		{
			"name": "hexadecagon",
			"from": [7.82376, 8.02415, 9.55],
			"to": [7.86121, 8.10858, 10.85],
			"rotation": {"angle": 22.5, "axis": "z", "origin": [7.649, 8.06637, 9.775]},
			"faces": {
				"south": {"uv": [4, 2, 6, 4], "texture": "#0"},
				"west": {"uv": [4, 2, 6, 4], "texture": "#0"}
			}
		},
		{
			"name": "hexadecagon",
			"from": [8.52576, 8.02415, 9.55],
			"to": [8.56321, 8.10858, 10.85],
			"rotation": {"angle": 22.5, "axis": "z", "origin": [8.351, 8.06637, 9.775]},
			"faces": {
				"north": {"uv": [4, 2, 6, 4], "texture": "#0"},
				"south": {"uv": [4, 2, 6, 4], "texture": "#0"},
				"west": {"uv": [4, 2, 6, 4], "texture": "#0"}
			}
		},
		{
			"name": "hexadecagon",
			"from": [7.85187, 7.58032, 9.325],
			"to": [8.14813, 8.96968, 9.55],
			"rotation": {"angle": -45, "axis": "z", "origin": [8, 8.275, 9.75]},
			"faces": {
				"north": {"uv": [4, 3.0625, 4.875, 4], "texture": "#0"},
				"south": {"uv": [4, 3.0625, 4.875, 4], "texture": "#0"},
				"up": {"uv": [4, 3.0625, 4.875, 4], "texture": "#0"},
				"down": {"uv": [4, 3.0625, 4.875, 4], "texture": "#0"}
			}
		},
		{
			"name": "hexadecagon",
			"from": [7.85187, 7.53032, 9.325],
			"to": [8.14813, 9.01968, 9.55],
			"rotation": {"angle": -22.5, "axis": "z", "origin": [8, 8.275, 9.75]},
			"faces": {
				"north": {"uv": [4, 3.0625, 4.875, 4], "texture": "#0"},
				"east": {"uv": [4, 3.0625, 4.875, 4], "texture": "#0"},
				"south": {"uv": [4, 3.0625, 4.875, 4], "texture": "#0"},
				"west": {"uv": [4, 3.0625, 4.875, 4], "texture": "#0"},
				"up": {"uv": [4, 3.0625, 4.875, 4], "texture": "#0"},
				"down": {"uv": [4, 3.0625, 4.875, 4], "texture": "#0"}
			}
		},
		{
			"name": "hexadecagon",
			"from": [7.85187, 7.58032, 9.325],
			"to": [8.14813, 8.96968, 9.55],
			"rotation": {"angle": 0, "axis": "z", "origin": [8, 8.275, 9.75]},
			"faces": {
				"north": {"uv": [4, 3.0625, 4.875, 4], "texture": "#0"},
				"south": {"uv": [4, 3.0625, 4.875, 4], "texture": "#0"},
				"up": {"uv": [4, 3.0625, 4.875, 4], "texture": "#0"},
				"down": {"uv": [4, 3.0625, 4.875, 4], "texture": "#0"}
			}
		},
		{
			"name": "hexadecagon",
			"from": [7.85187, 7.53032, 9.325],
			"to": [8.14813, 9.01968, 9.55],
			"rotation": {"angle": 22.5, "axis": "z", "origin": [8, 8.275, 9.75]},
			"faces": {
				"north": {"uv": [4, 3.0625, 4.875, 4], "texture": "#0"},
				"east": {"uv": [4, 3.0625, 4.875, 4], "texture": "#0"},
				"south": {"uv": [4, 3.0625, 4.875, 4], "texture": "#0"},
				"west": {"uv": [4, 3.0625, 4.875, 4], "texture": "#0"},
				"up": {"uv": [4, 3.0625, 4.875, 4], "texture": "#0"},
				"down": {"uv": [4, 3.0625, 4.875, 4], "texture": "#0"}
			}
		},
		{
			"name": "hexadecagon",
			"from": [7.85187, 7.58032, 9.325],
			"to": [8.14813, 8.96968, 9.55],
			"rotation": {"angle": 45, "axis": "z", "origin": [8, 8.275, 9.75]},
			"faces": {
				"north": {"uv": [4, 3.0625, 4.875, 4], "texture": "#0"},
				"south": {"uv": [4, 3.0625, 4.875, 4], "texture": "#0"},
				"up": {"uv": [4, 3.0625, 4.875, 4], "texture": "#0"},
				"down": {"uv": [4, 3.0625, 4.875, 4], "texture": "#0"}
			}
		},
		{
			"name": "hexadecagon",
			"from": [7.25532, 8.12687, 9.325],
			"to": [8.74468, 8.42313, 9.55],
			"rotation": {"angle": -22.5, "axis": "z", "origin": [8, 8.275, 9.75]},
			"faces": {
				"north": {"uv": [4, 3.0625, 4.875, 4], "texture": "#0"},
				"east": {"uv": [4, 3.0625, 4.875, 4], "texture": "#0"},
				"south": {"uv": [4, 3.0625, 4.875, 4], "texture": "#0"},
				"west": {"uv": [4, 3.0625, 4.875, 4], "texture": "#0"},
				"up": {"uv": [4, 3.0625, 4.875, 4], "texture": "#0"},
				"down": {"uv": [4, 3.0625, 4.875, 4], "texture": "#0"}
			}
		},
		{
			"name": "hexadecagon",
			"from": [7.30532, 8.12687, 9.325],
			"to": [8.66968, 8.42313, 9.55],
			"rotation": {"angle": 0, "axis": "z", "origin": [8, 8.275, 9.75]},
			"faces": {
				"north": {"uv": [4, 3.0625, 4.875, 4], "texture": "#0"},
				"east": {"uv": [4, 3.0625, 4.875, 4], "texture": "#0"},
				"south": {"uv": [4, 3.0625, 4.875, 4], "texture": "#0"},
				"west": {"uv": [4, 3.0625, 4.875, 4], "texture": "#0"}
			}
		},
		{
			"name": "hexadecagon",
			"from": [7.25532, 8.12687, 9.325],
			"to": [8.74468, 8.42313, 9.55],
			"rotation": {"angle": 22.5, "axis": "z", "origin": [8, 8.275, 9.75]},
			"faces": {
				"north": {"uv": [4, 3.0625, 4.875, 4], "texture": "#0"},
				"east": {"uv": [4, 3.0625, 4.875, 4], "texture": "#0"},
				"south": {"uv": [4, 3.0625, 4.875, 4], "texture": "#0"},
				"west": {"uv": [4, 3.0625, 4.875, 4], "texture": "#0"},
				"up": {"uv": [4, 3.0625, 4.875, 4], "texture": "#0"},
				"down": {"uv": [4, 3.0625, 4.875, 4], "texture": "#0"}
			}
		},
		{
			"name": "hexadecagon",
			"from": [7.69634, 8.17731, 8.575],
			"to": [7.74216, 8.40769, 9.425],
			"rotation": {"angle": -45, "axis": "z", "origin": [7.71925, 8.2925, 9]},
			"faces": {
				"north": {"uv": [4, 0, 6, 2], "texture": "#2"},
				"east": {"uv": [4, 0, 6, 2], "texture": "#2"},
				"south": {"uv": [4, 0, 6, 2], "texture": "#2"},
				"west": {"uv": [4, 0, 6, 2], "texture": "#2"},
				"up": {"uv": [4, 0, 6, 2], "texture": "#2"},
				"down": {"uv": [4, 0, 6, 2], "texture": "#2"}
			}
		},
		{
			"name": "hexadecagon",
			"from": [7.69634, 8.17731, 8.575],
			"to": [7.74216, 8.40769, 9.425],
			"rotation": {"angle": -22.5, "axis": "z", "origin": [7.71925, 8.2925, 9]},
			"faces": {
				"north": {"uv": [4, 0, 6, 2], "texture": "#2"},
				"east": {"uv": [4, 0, 6, 2], "texture": "#2"},
				"south": {"uv": [4, 0, 6, 2], "texture": "#2"},
				"west": {"uv": [4, 0, 6, 2], "texture": "#2"},
				"up": {"uv": [4, 0, 6, 2], "texture": "#2"},
				"down": {"uv": [4, 0, 6, 2], "texture": "#2"}
			}
		},
		{
			"name": "hexadecagon",
			"from": [7.69634, 8.17731, 8.575],
			"to": [7.74216, 8.40769, 9.425],
			"rotation": {"angle": 0, "axis": "z", "origin": [7.71925, 8.2925, 9]},
			"faces": {
				"north": {"uv": [4, 0, 6, 2], "texture": "#2"},
				"east": {"uv": [4, 0, 6, 2], "texture": "#2"},
				"west": {"uv": [4, 0, 6, 2], "texture": "#2"},
				"up": {"uv": [4, 0, 6, 2], "texture": "#2"},
				"down": {"uv": [4, 0, 6, 2], "texture": "#2"}
			}
		},
		{
			"name": "hexadecagon",
			"from": [7.69634, 8.17731, 8.575],
			"to": [7.74216, 8.40769, 9.425],
			"rotation": {"angle": 22.5, "axis": "z", "origin": [7.71925, 8.2925, 9]},
			"faces": {
				"north": {"uv": [4, 0, 6, 2], "texture": "#2"},
				"east": {"uv": [4, 0, 6, 2], "texture": "#2"},
				"south": {"uv": [4, 0, 6, 2], "texture": "#2"},
				"west": {"uv": [4, 0, 6, 2], "texture": "#2"},
				"up": {"uv": [4, 0, 6, 2], "texture": "#2"},
				"down": {"uv": [4, 0, 6, 2], "texture": "#2"}
			}
		},
		{
			"name": "hexadecagon",
			"from": [7.69634, 8.17731, 8.575],
			"to": [7.74216, 8.40769, 9.425],
			"rotation": {"angle": 45, "axis": "z", "origin": [7.71925, 8.2925, 9]},
			"faces": {
				"north": {"uv": [4, 0, 6, 2], "texture": "#2"},
				"east": {"uv": [4, 0, 6, 2], "texture": "#2"},
				"south": {"uv": [4, 0, 6, 2], "texture": "#2"},
				"west": {"uv": [4, 0, 6, 2], "texture": "#2"},
				"up": {"uv": [4, 0, 6, 2], "texture": "#2"},
				"down": {"uv": [4, 0, 6, 2], "texture": "#2"}
			}
		},
		{
			"name": "hexadecagon",
			"from": [7.60406, 8.26959, 8.575],
			"to": [7.83444, 8.31541, 9.425],
			"rotation": {"angle": -22.5, "axis": "z", "origin": [7.71925, 8.2925, 9]},
			"faces": {
				"north": {"uv": [4, 0, 6, 2], "texture": "#2"},
				"east": {"uv": [4, 0, 6, 2], "texture": "#2"},
				"west": {"uv": [4, 0, 6, 2], "texture": "#2"},
				"up": {"uv": [4, 0, 6, 2], "texture": "#2"},
				"down": {"uv": [4, 0, 6, 2], "texture": "#2"}
			}
		},
		{
			"name": "hexadecagon",
			"from": [7.60406, 8.26959, 8.575],
			"to": [7.83444, 8.31541, 9.425],
			"rotation": {"angle": 0, "axis": "z", "origin": [7.71925, 8.2925, 9]},
			"faces": {
				"north": {"uv": [4, 0, 6, 2], "texture": "#2"},
				"east": {"uv": [4, 0, 6, 2], "texture": "#2"},
				"west": {"uv": [4, 0, 6, 2], "texture": "#2"},
				"up": {"uv": [4, 0, 6, 2], "texture": "#2"},
				"down": {"uv": [4, 0, 6, 2], "texture": "#2"}
			}
		},
		{
			"name": "hexadecagon",
			"from": [7.60406, 8.26959, 8.575],
			"to": [7.83444, 8.31541, 9.425],
			"rotation": {"angle": 22.5, "axis": "z", "origin": [7.71925, 8.2925, 9]},
			"faces": {
				"north": {"uv": [4, 0, 6, 2], "texture": "#2"},
				"east": {"uv": [4, 0, 6, 2], "texture": "#2"},
				"west": {"uv": [4, 0, 6, 2], "texture": "#2"},
				"up": {"uv": [4, 0, 6, 2], "texture": "#2"},
				"down": {"uv": [4, 0, 6, 2], "texture": "#2"}
			}
		},
		{
			"name": "hexadecagon",
			"from": [7.60679, 8.26365, 9.55],
			"to": [7.69121, 8.3011, 10.85],
			"rotation": {"angle": -45, "axis": "z", "origin": [7.649, 8.47587, 9.775]},
			"faces": {
				"north": {"uv": [4, 2, 6, 4], "texture": "#0"},
				"south": {"uv": [4, 2, 6, 4], "texture": "#0"},
				"up": {"uv": [4, 2, 6, 4], "texture": "#0"}
			}
		},
		{
			"name": "hexadecagon",
			"from": [8.30879, 8.26365, 9.55],
			"to": [8.39321, 8.3011, 10.85],
			"rotation": {"angle": -45, "axis": "z", "origin": [8.351, 8.47587, 9.775]},
			"faces": {
				"north": {"uv": [4, 2, 6, 4], "texture": "#0"},
				"south": {"uv": [4, 2, 6, 4], "texture": "#0"},
				"up": {"uv": [4, 2, 6, 4], "texture": "#0"},
				"down": {"uv": [4, 2, 6, 4], "texture": "#0"}
			}
		},
		{
			"name": "hexadecagon",
			"from": [7.60679, 8.26365, 9.55],
			"to": [7.69121, 8.3011, 10.85],
			"rotation": {"angle": -22.5, "axis": "z", "origin": [7.649, 8.47587, 9.775]},
			"faces": {
				"north": {"uv": [4, 2, 6, 4], "texture": "#0"},
				"south": {"uv": [4, 2, 6, 4], "texture": "#0"},
				"up": {"uv": [4, 2, 6, 4], "texture": "#0"}
			}
		},
		{
			"name": "hexadecagon",
			"from": [8.30879, 8.26365, 9.55],
			"to": [8.39321, 8.3011, 10.85],
			"rotation": {"angle": -22.5, "axis": "z", "origin": [8.351, 8.47587, 9.775]},
			"faces": {
				"south": {"uv": [4, 2, 6, 4], "texture": "#0"},
				"up": {"uv": [4, 2, 6, 4], "texture": "#0"}
			}
		},
		{
			"name": "hexadecagon",
			"from": [7.60679, 8.26365, 9.55],
			"to": [7.69121, 8.3011, 10.85],
			"rotation": {"angle": 0, "axis": "z", "origin": [7.649, 8.47587, 9.775]},
			"faces": {
				"south": {"uv": [4, 2, 6, 4], "texture": "#0"},
				"up": {"uv": [4, 2, 6, 4], "texture": "#0"}
			}
		},
		{
			"name": "hexadecagon",
			"from": [8.30879, 8.26365, 9.55],
			"to": [8.39321, 8.3011, 10.85],
			"rotation": {"angle": 0, "axis": "z", "origin": [8.351, 8.47587, 9.775]},
			"faces": {
				"south": {"uv": [4, 2, 6, 4], "texture": "#0"},
				"up": {"uv": [4, 2, 6, 4], "texture": "#0"}
			}
		},
		{
			"name": "hexadecagon",
			"from": [7.60679, 8.26365, 9.55],
			"to": [7.69121, 8.3011, 10.85],
			"rotation": {"angle": 22.5, "axis": "z", "origin": [7.649, 8.47587, 9.775]},
			"faces": {
				"south": {"uv": [4, 2, 6, 4], "texture": "#0"},
				"up": {"uv": [4, 2, 6, 4], "texture": "#0"}
			}
		},
		{
			"name": "hexadecagon",
			"from": [8.30879, 8.26365, 9.55],
			"to": [8.39321, 8.3011, 10.85],
			"rotation": {"angle": 22.5, "axis": "z", "origin": [8.351, 8.47587, 9.775]},
			"faces": {
				"north": {"uv": [4, 2, 6, 4], "texture": "#0"},
				"south": {"uv": [4, 2, 6, 4], "texture": "#0"},
				"up": {"uv": [4, 2, 6, 4], "texture": "#0"}
			}
		},
		{
			"name": "hexadecagon",
			"from": [7.60679, 8.26365, 9.55],
			"to": [7.69121, 8.3011, 10.85],
			"rotation": {"angle": 45, "axis": "z", "origin": [7.649, 8.47587, 9.775]},
			"faces": {
				"north": {"uv": [4, 2, 6, 4], "texture": "#0"},
				"south": {"uv": [4, 2, 6, 4], "texture": "#0"},
				"up": {"uv": [4, 2, 6, 4], "texture": "#0"},
				"down": {"uv": [4, 2, 6, 4], "texture": "#0"}
			}
		},
		{
			"name": "hexadecagon",
			"from": [8.30879, 8.26365, 9.55],
			"to": [8.39321, 8.3011, 10.85],
			"rotation": {"angle": 45, "axis": "z", "origin": [8.351, 8.47587, 9.775]},
			"faces": {
				"north": {"uv": [4, 2, 6, 4], "texture": "#0"},
				"south": {"uv": [4, 2, 6, 4], "texture": "#0"},
				"up": {"uv": [4, 2, 6, 4], "texture": "#0"}
			}
		},
		{
			"name": "hexadecagon",
			"from": [7.60679, 8.65063, 9.55],
			"to": [7.69121, 8.68808, 10.85],
			"rotation": {"angle": -45, "axis": "z", "origin": [7.649, 8.47587, 9.775]},
			"faces": {
				"north": {"uv": [4, 2, 6, 4], "texture": "#0"},
				"south": {"uv": [4, 2, 6, 4], "texture": "#0"},
				"up": {"uv": [4, 2, 6, 4], "texture": "#0"},
				"down": {"uv": [4, 2, 6, 4], "texture": "#0"}
			}
		},
		{
			"name": "hexadecagon",
			"from": [8.30879, 8.65063, 9.55],
			"to": [8.39321, 8.68808, 10.85],
			"rotation": {"angle": -45, "axis": "z", "origin": [8.351, 8.47587, 9.775]},
			"faces": {
				"north": {"uv": [4, 2, 6, 4], "texture": "#0"},
				"south": {"uv": [4, 2, 6, 4], "texture": "#0"},
				"down": {"uv": [4, 2, 6, 4], "texture": "#0"}
			}
		},
		{
			"name": "hexadecagon",
			"from": [7.60679, 8.65063, 9.55],
			"to": [7.69121, 8.68808, 10.85],
			"rotation": {"angle": -22.5, "axis": "z", "origin": [7.649, 8.47587, 9.775]},
			"faces": {
				"north": {"uv": [4, 2, 6, 4], "texture": "#0"},
				"south": {"uv": [4, 2, 6, 4], "texture": "#0"},
				"down": {"uv": [4, 2, 6, 4], "texture": "#0"}
			}
		},
		{
			"name": "hexadecagon",
			"from": [8.30879, 8.65063, 9.55],
			"to": [8.39321, 8.68808, 10.85],
			"rotation": {"angle": -22.5, "axis": "z", "origin": [8.351, 8.47587, 9.775]},
			"faces": {
				"north": {"uv": [4, 2, 6, 4], "texture": "#0"},
				"south": {"uv": [4, 2, 6, 4], "texture": "#0"},
				"down": {"uv": [4, 2, 6, 4], "texture": "#0"}
			}
		},
		{
			"name": "hexadecagon",
			"from": [7.60679, 8.65063, 9.55],
			"to": [7.69121, 8.68808, 10.85],
			"rotation": {"angle": 0, "axis": "z", "origin": [7.649, 8.47587, 9.775]},
			"faces": {
				"north": {"uv": [4, 2, 6, 4], "texture": "#0"},
				"south": {"uv": [4, 2, 6, 4], "texture": "#0"},
				"down": {"uv": [4, 2, 6, 4], "texture": "#0"}
			}
		},
		{
			"name": "hexadecagon",
			"from": [8.30879, 8.65063, 9.55],
			"to": [8.39321, 8.68808, 10.85],
			"rotation": {"angle": 0, "axis": "z", "origin": [8.351, 8.47587, 9.775]},
			"faces": {
				"north": {"uv": [4, 2, 6, 4], "texture": "#0"},
				"south": {"uv": [4, 2, 6, 4], "texture": "#0"},
				"down": {"uv": [4, 2, 6, 4], "texture": "#0"}
			}
		},
		{
			"name": "hexadecagon",
			"from": [7.60679, 8.65063, 9.55],
			"to": [7.69121, 8.68808, 10.85],
			"rotation": {"angle": 22.5, "axis": "z", "origin": [7.649, 8.47587, 9.775]},
			"faces": {
				"north": {"uv": [4, 2, 6, 4], "texture": "#0"},
				"south": {"uv": [4, 2, 6, 4], "texture": "#0"},
				"down": {"uv": [4, 2, 6, 4], "texture": "#0"}
			}
		},
		{
			"name": "hexadecagon",
			"from": [8.30879, 8.65063, 9.55],
			"to": [8.39321, 8.68808, 10.85],
			"rotation": {"angle": 22.5, "axis": "z", "origin": [8.351, 8.47587, 9.775]},
			"faces": {
				"north": {"uv": [4, 2, 6, 4], "texture": "#0"},
				"south": {"uv": [4, 2, 6, 4], "texture": "#0"},
				"down": {"uv": [4, 2, 6, 4], "texture": "#0"}
			}
		},
		{
			"name": "hexadecagon",
			"from": [7.60679, 8.65063, 9.55],
			"to": [7.69121, 8.68808, 10.85],
			"rotation": {"angle": 45, "axis": "z", "origin": [7.649, 8.47587, 9.775]},
			"faces": {
				"north": {"uv": [4, 2, 6, 4], "texture": "#0"},
				"south": {"uv": [4, 2, 6, 4], "texture": "#0"},
				"down": {"uv": [4, 2, 6, 4], "texture": "#0"}
			}
		},
		{
			"name": "hexadecagon",
			"from": [8.30879, 8.65063, 9.55],
			"to": [8.39321, 8.68808, 10.85],
			"rotation": {"angle": 45, "axis": "z", "origin": [8.351, 8.47587, 9.775]},
			"faces": {
				"north": {"uv": [4, 2, 6, 4], "texture": "#0"},
				"south": {"uv": [4, 2, 6, 4], "texture": "#0"},
				"up": {"uv": [4, 2, 6, 4], "texture": "#0"},
				"down": {"uv": [4, 2, 6, 4], "texture": "#0"}
			}
		},
		{
			"name": "hexadecagon",
			"from": [7.43679, 8.43365, 9.55],
			"to": [7.47424, 8.51808, 10.85],
			"rotation": {"angle": -22.5, "axis": "z", "origin": [7.649, 8.47587, 9.775]},
			"faces": {
				"east": {"uv": [4, 2, 6, 4], "texture": "#0"},
				"south": {"uv": [4, 2, 6, 4], "texture": "#0"}
			}
		},
		{
			"name": "hexadecagon",
			"from": [8.13879, 8.43365, 9.55],
			"to": [8.17624, 8.51808, 10.85],
			"rotation": {"angle": -22.5, "axis": "z", "origin": [8.351, 8.47587, 9.775]},
			"faces": {
				"east": {"uv": [4, 2, 6, 4], "texture": "#0"},
				"south": {"uv": [4, 2, 6, 4], "texture": "#0"},
				"west": {"uv": [4, 2, 6, 4], "texture": "#0"}
			}
		},
		{
			"name": "hexadecagon",
			"from": [7.43679, 8.43365, 9.55],
			"to": [7.47424, 8.51808, 10.85],
			"rotation": {"angle": 0, "axis": "z", "origin": [7.649, 8.47587, 9.775]},
			"faces": {
				"north": {"uv": [4, 2, 6, 4], "texture": "#0"},
				"east": {"uv": [4, 2, 6, 4], "texture": "#0"},
				"south": {"uv": [4, 2, 6, 4], "texture": "#0"}
			}
		},
		{
			"name": "hexadecagon",
			"from": [8.13879, 8.43365, 9.55],
			"to": [8.17624, 8.51808, 10.85],
			"rotation": {"angle": 0, "axis": "z", "origin": [8.351, 8.47587, 9.775]},
			"faces": {
				"north": {"uv": [4, 2, 6, 4], "texture": "#0"},
				"east": {"uv": [4, 2, 6, 4], "texture": "#0"},
				"south": {"uv": [4, 2, 6, 4], "texture": "#0"},
				"west": {"uv": [4, 2, 6, 4], "texture": "#0"}
			}
		},
		{
			"name": "hexadecagon",
			"from": [7.43679, 8.43365, 9.55],
			"to": [7.47424, 8.51808, 10.85],
			"rotation": {"angle": 22.5, "axis": "z", "origin": [7.649, 8.47587, 9.775]},
			"faces": {
				"north": {"uv": [4, 2, 6, 4], "texture": "#0"},
				"east": {"uv": [4, 2, 6, 4], "texture": "#0"},
				"south": {"uv": [4, 2, 6, 4], "texture": "#0"}
			}
		},
		{
			"name": "hexadecagon",
			"from": [8.13879, 8.43365, 9.55],
			"to": [8.17624, 8.51808, 10.85],
			"rotation": {"angle": 22.5, "axis": "z", "origin": [8.351, 8.47587, 9.775]},
			"faces": {
				"east": {"uv": [4, 2, 6, 4], "texture": "#0"},
				"south": {"uv": [4, 2, 6, 4], "texture": "#0"}
			}
		},
		{
			"name": "hexadecagon",
			"from": [7.82376, 8.43365, 9.55],
			"to": [7.86121, 8.51808, 10.85],
			"rotation": {"angle": -22.5, "axis": "z", "origin": [7.649, 8.47587, 9.775]},
			"faces": {
				"south": {"uv": [4, 2, 6, 4], "texture": "#0"},
				"west": {"uv": [4, 2, 6, 4], "texture": "#0"}
			}
		},
		{
			"name": "hexadecagon",
			"from": [8.52576, 8.43365, 9.55],
			"to": [8.56321, 8.51808, 10.85],
			"rotation": {"angle": -22.5, "axis": "z", "origin": [8.351, 8.47587, 9.775]},
			"faces": {
				"north": {"uv": [4, 2, 6, 4], "texture": "#0"},
				"south": {"uv": [4, 2, 6, 4], "texture": "#0"},
				"west": {"uv": [4, 2, 6, 4], "texture": "#0"}
			}
		},
		{
			"name": "hexadecagon",
			"from": [7.82376, 8.43365, 9.55],
			"to": [7.86121, 8.51808, 10.85],
			"rotation": {"angle": 0, "axis": "z", "origin": [7.649, 8.47587, 9.775]},
			"faces": {
				"north": {"uv": [4, 2, 6, 4], "texture": "#0"},
				"east": {"uv": [4, 2, 6, 4], "texture": "#0"},
				"south": {"uv": [4, 2, 6, 4], "texture": "#0"},
				"west": {"uv": [4, 2, 6, 4], "texture": "#0"}
			}
		},
		{
			"name": "hexadecagon",
			"from": [8.52576, 8.43365, 9.55],
			"to": [8.56321, 8.51808, 10.85],
			"rotation": {"angle": 0, "axis": "z", "origin": [8.351, 8.47587, 9.775]},
			"faces": {
				"north": {"uv": [4, 2, 6, 4], "texture": "#0"},
				"south": {"uv": [4, 2, 6, 4], "texture": "#0"},
				"west": {"uv": [4, 2, 6, 4], "texture": "#0"}
			}
		},
		{
			"name": "hexadecagon",
			"from": [7.82376, 8.43365, 9.55],
			"to": [7.86121, 8.51808, 10.85],
			"rotation": {"angle": 22.5, "axis": "z", "origin": [7.649, 8.47587, 9.775]},
			"faces": {
				"east": {"uv": [4, 2, 6, 4], "texture": "#0"},
				"south": {"uv": [4, 2, 6, 4], "texture": "#0"},
				"west": {"uv": [4, 2, 6, 4], "texture": "#0"}
			}
		},
		{
			"name": "hexadecagon",
			"from": [8.52576, 8.43365, 9.55],
			"to": [8.56321, 8.51808, 10.85],
			"rotation": {"angle": 22.5, "axis": "z", "origin": [8.351, 8.47587, 9.775]},
			"faces": {
				"south": {"uv": [4, 2, 6, 4], "texture": "#0"},
				"west": {"uv": [4, 2, 6, 4], "texture": "#0"}
			}
		}
	],
	"groups": [
		{
			"name": "wheel",
			"origin": [8, 8, 8],
			"color": 0,
			"children": [
				0,
				1,
				2,
				3,
				4,
				5,
				6,
				7,
				8,
				9,
				10,
				11,
				12,
				13,
				14,
				15,
				16,
				17,
				18,
				19,
				20,
				21,
				22,
				23,
				24,
				25,
				26,
				27,
				28,
				29,
				30,
				31,
				32,
				33,
				34,
				35,
				36,
				37,
				38,
				{
					"name": "hexadecagon",
					"origin": [8, 8, 8],
					"color": 0,
					"children": [39, 40, 41, 42, 43, 44, 45, 46, 47, 48, 49, 50, 51, 52, 53]
				},
				{
					"name": "hexadecagon",
					"origin": [8, 8, 8],
					"color": 0,
					"children": [54, 55, 56, 57, 58, 59, 60, 61, 62, 63, 64, 65, 66, 67, 68]
				},
				{
					"name": "hexadecagon",
					"origin": [8, 8, 8],
					"color": 0,
					"children": [69, 70, 71, 72, 73, 74, 75, 76, 77, 78, 79, 80, 81, 82, 83, 84, 85, 86, 87, 88, 89, 90, 91, 92, 93, 94, 95, 96, 97]
				},
				{
					"name": "hexadecagon",
					"origin": [8, 8, 8],
					"color": 0,
					"children": [98, 99, 100, 101, 102, 103, 104, 105]
				},
				{
					"name": "hexadecagon",
					"origin": [8, 8, 8],
					"color": 0,
					"children": [106, 107, 108, 109, 110, 111, 112, 113]
				},
				{
					"name": "hexadecagon",
					"origin": [8, 8, 8],
					"color": 0,
					"children": [114, 115, 116, 117, 118, 119, 120, 121, 122, 123, 124, 125, 126, 127, 128, 129, 130, 131, 132, 133, 134, 135, 136, 137, 138, 139, 140, 141, 142, 143, 144, 145]
				}
			]
		}
	]
}