{
	"credit": "Made with Blockbench",
	"texture_size": [192, 192],
	"textures": {
		"0": "ava:item/gun_textures/palette_silver",
		"1": "ava:item/gun_textures/palette_black",
		"3": "ava:item/gun_textures/palette_red",
		"13": "ava:item/gun_textures/sw1911_colt_argento",
		"particle": "ava:item/gun_textures/palette_silver"
	},
	"elements": [
		{
			"from": [7.64766, 8.24734, 5.51718],
			"to": [8.35703, 8.91719, 6.01718],
			"rotation": {"angle": 0, "axis": "y", "origin": [8, 8.6375, 6.2]},
			"faces": {
				"east": {"uv": [5.33333, 0, 0, 5.33333], "texture": "#13"},
				"west": {"uv": [0, 0, 5.33333, 5.33333], "texture": "#13"}
			}
		},
		{
			"from": [7.64766, 8.24734, 6.51718],
			"to": [8.35703, 8.91719, 7.01718],
			"rotation": {"angle": 0, "axis": "y", "origin": [8, 8.6375, 6.2]},
			"faces": {
				"east": {"uv": [10.66667, 10.66667, 5.33333, 16], "texture": "#13"},
				"west": {"uv": [5.33333, 10.66667, 10.66667, 16], "texture": "#13"}
			}
		},
		{
			"from": [7.64766, 8.24734, 7.01718],
			"to": [8.35703, 8.91719, 7.51718],
			"rotation": {"angle": 0, "axis": "y", "origin": [8, 8.6375, 6.2]},
			"faces": {
				"east": {"uv": [5.33333, 10.66667, 0, 16], "texture": "#13"},
				"west": {"uv": [0, 10.66667, 5.33333, 16], "texture": "#13"}
			}
		},
		{
			"from": [7.64766, 8.24734, 7.51718],
			"to": [8.35703, 8.91719, 8.01718],
			"rotation": {"angle": 0, "axis": "y", "origin": [8, 8.6375, 6.2]},
			"faces": {
				"east": {"uv": [16, 5.33333, 10.66667, 10.66667], "texture": "#13"},
				"west": {"uv": [10.66667, 5.33333, 16, 10.66667], "texture": "#13"}
			}
		},
		{
			"from": [7.64766, 8.24734, 8.01718],
			"to": [8.35703, 8.91719, 8.51718],
			"rotation": {"angle": 0, "axis": "y", "origin": [8, 8.6375, 6.2]},
			"faces": {
				"east": {"uv": [10.66667, 5.33333, 5.33333, 10.66667], "texture": "#13"},
				"west": {"uv": [5.33333, 5.33333, 10.66667, 10.66667], "texture": "#13"}
			}
		},
		{
			"from": [7.64766, 8.24734, 8.51718],
			"to": [8.35703, 8.91719, 9.01718],
			"rotation": {"angle": 0, "axis": "y", "origin": [8, 8.6375, 6.2]},
			"faces": {
				"east": {"uv": [5.33333, 5.33333, 0, 10.66667], "texture": "#13"},
				"west": {"uv": [0, 5.33333, 5.33333, 10.66667], "texture": "#13"}
			}
		},
		{
			"from": [8.09687, 8.22, 10.08593],
			"to": [8.32578, 8.925, 10.34062],
			"rotation": {"angle": 0, "axis": "y", "origin": [8, 8.6375, 10]},
			"faces": {
				"east": {"uv": [7, 0, 8.66667, 5.33333], "texture": "#13"},
				"south": {"uv": [5.33333, 0, 7, 5.33333], "texture": "#13"}
			}
		},
		{
			"from": [7.67109, 8.22, 10.08593],
			"to": [7.9, 8.925, 10.34062],
			"rotation": {"angle": 0, "axis": "y", "origin": [8, 8.6375, 10]},
			"faces": {
				"south": {"uv": [7, 0, 5.33333, 5.33333], "texture": "#13"},
				"west": {"uv": [8.66667, 0, 7, 5.33333], "texture": "#13"}
			}
		},
		{
			"from": [7.675, 8.45, 5.825],
			"to": [8.325, 9, 5.875],
			"rotation": {"angle": -22.5, "axis": "x", "origin": [8, 8.63, 5.975]},
			"faces": {
				"north": {"uv": [0.21615, 0.08854, 0.21615, 0.08854], "texture": "#missing"},
				"east": {"uv": [0.21615, 0.08854, 0.21615, 0.08854], "texture": "#missing"},
				"south": {"uv": [0.21615, 0.08854, 0.21615, 0.08854], "texture": "#missing"},
				"west": {"uv": [0.21615, 0.08854, 0.21615, 0.08854], "texture": "#missing"},
				"up": {"uv": [0.21615, 0.08854, 0.21615, 0.08854], "texture": "#missing"}
			}
		},
		{
			"name": "hexadecagon",
			"from": [7.91798, 8.90876, 4.05],
			"to": [8.08202, 9.11625, 4.8],
			"rotation": {"angle": -45, "axis": "z", "origin": [8, 8.7, 4.475]},
			"faces": {
				"up": {"uv": [14.93333, 0, 16, 5.33333], "texture": "#13"}
			}
		},
		{
			"name": "hexadecagon",
			"from": [7.91798, 8.88376, 4.8],
			"to": [8.08202, 9.11625, 5.55],
			"rotation": {"angle": 45, "axis": "z", "origin": [8, 8.7, 5.225]},
			"faces": {
				"up": {"uv": [10.66667, 0, 11.73333, 5.33333], "texture": "#13"}
			}
		},
		{
			"name": "hexadecagon",
			"from": [7.91816, 8.70875, 4.8],
			"to": [8.05684, 9.11534, 5.55],
			"rotation": {"angle": 22.5, "axis": "z", "origin": [8, 8.7, 5.225]},
			"faces": {
				"up": {"uv": [11.73333, 0, 12.8, 5.33333], "texture": "#13"}
			}
		},
		{
			"name": "hexadecagon",
			"from": [7.89686, 8.71312, 4.8],
			"to": [8.11054, 9.10562, 5.55],
			"rotation": {"angle": 0, "axis": "y", "origin": [7.9412, 8.91251, 6.3]},
			"faces": {
				"up": {"uv": [12.8, 0, 13.86667, 5.33333], "texture": "#13"}
			}
		},
		{
			"name": "hexadecagon",
			"from": [7.94316, 8.70875, 4.8],
			"to": [8.08184, 9.11534, 5.55],
			"rotation": {"angle": -22.5, "axis": "z", "origin": [8, 8.7, 5.225]},
			"faces": {
				"up": {"uv": [13.86667, 0, 14.93333, 5.33333], "texture": "#13"}
			}
		},
		{
			"name": "hexadecagon",
			"from": [7.91798, 8.90876, 4.8],
			"to": [8.08202, 9.11625, 5.55],
			"rotation": {"angle": -45, "axis": "z", "origin": [8, 8.7, 5.225]},
			"faces": {
				"up": {"uv": [14.93333, 0, 16, 5.33333], "texture": "#13"}
			}
		},
		{
			"name": "hexadecagon",
			"from": [7.91798, 8.88376, 5.55],
			"to": [8.08202, 9.11625, 6.3],
			"rotation": {"angle": 45, "axis": "z", "origin": [8, 8.7, 5.975]},
			"faces": {
				"up": {"uv": [10.66667, 0, 11.73333, 5.33333], "texture": "#13"}
			}
		},
		{
			"name": "hexadecagon",
			"from": [7.91816, 8.70875, 5.55],
			"to": [8.05684, 9.11534, 6.3],
			"rotation": {"angle": 22.5, "axis": "z", "origin": [8, 8.7, 5.975]},
			"faces": {
				"up": {"uv": [11.73333, 0, 12.8, 5.33333], "texture": "#13"}
			}
		},
		{
			"name": "hexadecagon",
			"from": [7.89686, 8.71312, 5.55],
			"to": [8.11054, 9.10562, 6.3],
			"rotation": {"angle": 0, "axis": "y", "origin": [7.9412, 8.91251, 7.05]},
			"faces": {
				"up": {"uv": [12.8, 0, 13.86667, 5.33333], "texture": "#13"}
			}
		},
		{
			"name": "hexadecagon",
			"from": [7.94316, 8.70875, 5.55],
			"to": [8.08184, 9.11534, 6.3],
			"rotation": {"angle": -22.5, "axis": "z", "origin": [8, 8.7, 5.975]},
			"faces": {
				"up": {"uv": [13.86667, 0, 14.93333, 5.33333], "texture": "#13"}
			}
		},
		{
			"name": "hexadecagon",
			"from": [7.91798, 8.90876, 5.55],
			"to": [8.08202, 9.11625, 6.3],
			"rotation": {"angle": -45, "axis": "z", "origin": [8, 8.7, 5.975]},
			"faces": {
				"up": {"uv": [14.93333, 0, 16, 5.33333], "texture": "#13"}
			}
		},
		{
			"name": "hexadecagon",
			"from": [7.91798, 8.88376, 6.3],
			"to": [8.08202, 9.11625, 7.05],
			"rotation": {"angle": 45, "axis": "z", "origin": [8, 8.7, 6.725]},
			"faces": {
				"up": {"uv": [10.66667, 0, 11.73333, 5.33333], "texture": "#13"}
			}
		},
		{
			"name": "hexadecagon",
			"from": [7.91816, 8.70875, 6.3],
			"to": [8.05684, 9.11534, 7.05],
			"rotation": {"angle": 22.5, "axis": "z", "origin": [8, 8.7, 6.725]},
			"faces": {
				"up": {"uv": [11.73333, 0, 12.8, 5.33333], "texture": "#13"}
			}
		},
		{
			"name": "hexadecagon",
			"from": [7.89686, 8.71312, 6.3],
			"to": [8.11054, 9.10562, 7.05],
			"rotation": {"angle": 0, "axis": "y", "origin": [7.9412, 8.91251, 7.8]},
			"faces": {
				"up": {"uv": [12.8, 0, 13.86667, 5.33333], "texture": "#13"}
			}
		},
		{
			"name": "hexadecagon",
			"from": [7.94316, 8.70875, 6.3],
			"to": [8.08184, 9.11534, 7.05],
			"rotation": {"angle": -22.5, "axis": "z", "origin": [8, 8.7, 6.725]},
			"faces": {
				"up": {"uv": [13.86667, 0, 14.93333, 5.33333], "texture": "#13"}
			}
		},
		{
			"name": "hexadecagon",
			"from": [7.91798, 8.90876, 6.3],
			"to": [8.08202, 9.11625, 7.05],
			"rotation": {"angle": -45, "axis": "z", "origin": [8, 8.7, 6.725]},
			"faces": {
				"up": {"uv": [14.93333, 0, 16, 5.33333], "texture": "#13"}
			}
		},
		{
			"name": "hexadecagon",
			"from": [7.91798, 8.88376, 7.05],
			"to": [8.08202, 9.11625, 8],
			"rotation": {"angle": 45, "axis": "z", "origin": [8, 8.7, 7.475]},
			"faces": {
				"up": {"uv": [10.66667, 0, 11.73333, 5.33333], "texture": "#13"}
			}
		},
		{
			"name": "hexadecagon",
			"from": [7.91798, 8.90876, 7.05],
			"to": [8.08202, 9.11625, 8],
			"rotation": {"angle": -45, "axis": "z", "origin": [8, 8.7, 7.475]},
			"faces": {
				"up": {"uv": [14.93333, 0, 16, 5.33333], "texture": "#13"}
			}
		},
		{
			"name": "hexadecagon",
			"from": [7.91798, 8.88376, 8],
			"to": [8.08202, 9.11625, 8.75],
			"rotation": {"angle": 45, "axis": "z", "origin": [8, 8.7, 8.425]},
			"faces": {
				"up": {"uv": [10.66667, 0, 11.73333, 5.33333], "texture": "#13"}
			}
		},
		{
			"name": "hexadecagon",
			"from": [7.91798, 8.90876, 8],
			"to": [8.08202, 9.11625, 8.75],
			"rotation": {"angle": -45, "axis": "z", "origin": [8, 8.7, 8.425]},
			"faces": {
				"up": {"uv": [14.93333, 0, 16, 5.33333], "texture": "#13"}
			}
		},
		{
			"name": "hexadecagon",
			"from": [7.91798, 8.88376, 8.75],
			"to": [8.08202, 9.11625, 9.5],
			"rotation": {"angle": 45, "axis": "z", "origin": [8, 8.7, 9.175]},
			"faces": {
				"up": {"uv": [10.66667, 0, 11.73333, 5.33333], "texture": "#13"}
			}
		},
		{
			"name": "hexadecagon",
			"from": [7.91816, 8.70875, 8.75],
			"to": [8.05684, 9.11534, 9.5],
			"rotation": {"angle": 22.5, "axis": "z", "origin": [8, 8.7, 9.175]},
			"faces": {
				"up": {"uv": [11.73333, 0, 12.8, 5.33333], "texture": "#13"}
			}
		},
		{
			"name": "hexadecagon",
			"from": [7.89686, 8.71312, 8.2],
			"to": [8.11054, 9.10562, 8.75],
			"rotation": {"angle": 0, "axis": "y", "origin": [7.9412, 8.91251, 9.5]},
			"faces": {
				"up": {"uv": [12.8, 1.42223, 13.86667, 5.33333], "texture": "#13"}
			}
		},
		{
			"name": "hexadecagon",
			"from": [7.91816, 8.70875, 8.2],
			"to": [8.05684, 9.11534, 8.75],
			"rotation": {"angle": 22.5, "axis": "z", "origin": [8, 8.7, 8.425]},
			"faces": {
				"up": {"uv": [11.73333, 1.42223, 12.8, 5.33333], "texture": "#13"}
			}
		},
		{
			"name": "hexadecagon",
			"from": [7.89686, 8.71312, 8.75],
			"to": [8.11054, 9.10562, 9.5],
			"rotation": {"angle": 0, "axis": "y", "origin": [7.9412, 8.91251, 10.25]},
			"faces": {
				"up": {"uv": [12.8, 0, 13.86667, 5.33333], "texture": "#13"}
			}
		},
		{
			"name": "hexadecagon",
			"from": [7.94316, 8.70875, 8.75],
			"to": [8.08184, 9.11534, 9.5],
			"rotation": {"angle": -22.5, "axis": "z", "origin": [8, 8.7, 9.175]},
			"faces": {
				"up": {"uv": [13.86667, 0, 14.93333, 5.33333], "texture": "#13"}
			}
		},
		{
			"name": "hexadecagon",
			"from": [7.94316, 8.70875, 8.2],
			"to": [8.08184, 9.11534, 8.75],
			"rotation": {"angle": -22.5, "axis": "z", "origin": [8, 8.7, 9.175]},
			"faces": {
				"up": {"uv": [13.86667, 1.42223, 14.93333, 5.33333], "texture": "#13"}
			}
		},
		{
			"name": "hexadecagon",
			"from": [7.91798, 8.90876, 8.75],
			"to": [8.08202, 9.11625, 9.5],
			"rotation": {"angle": -45, "axis": "z", "origin": [8, 8.7, 9.175]},
			"faces": {
				"up": {"uv": [14.93333, 0, 16, 5.33333], "texture": "#13"}
			}
		},
		{
			"name": "hexadecagon",
			"from": [7.91798, 8.88376, 4.05],
			"to": [8.08202, 9.11625, 4.8],
			"rotation": {"angle": 45, "axis": "z", "origin": [8, 8.7, 4.475]},
			"faces": {
				"up": {"uv": [10.66667, 0, 11.73333, 5.33333], "texture": "#13"}
			}
		},
		{
			"name": "hexadecagon",
			"from": [7.91816, 8.70875, 4.05],
			"to": [8.05684, 9.11534, 4.8],
			"rotation": {"angle": 22.5, "axis": "z", "origin": [8, 8.7, 4.475]},
			"faces": {
				"up": {"uv": [11.73333, 0, 12.8, 5.33333], "texture": "#13"}
			}
		},
		{
			"name": "hexadecagon",
			"from": [7.94316, 8.70875, 4.05],
			"to": [8.08184, 9.11534, 4.8],
			"rotation": {"angle": -22.5, "axis": "z", "origin": [8, 8.7, 4.475]},
			"faces": {
				"up": {"uv": [13.86667, 0, 14.93333, 5.33333], "texture": "#13"}
			}
		},
		{
			"name": "hexadecagon",
			"from": [7.89686, 8.71312, 4.05],
			"to": [8.11054, 9.10562, 4.8],
			"rotation": {"angle": 0, "axis": "y", "origin": [7.9412, 8.91251, 5.55]},
			"faces": {
				"up": {"uv": [12.8, 0, 13.86667, 5.33333], "texture": "#13"}
			}
		},
		{
			"name": "hexadecagon",
			"from": [7.82186, 9.23421, 10.05],
			"to": [7.93554, 9.32671, 10.15],
			"rotation": {"angle": 0, "axis": "y", "origin": [7.9412, 9.33751, 9.7]},
			"faces": {
				"north": {"uv": [0.40365, 0.04688, 0.40104, 0.04688], "texture": "#missing"},
				"east": {"uv": [0.40365, 0.04688, 0.40104, 0.04688], "texture": "#missing"},
				"south": {"uv": [0.40365, 0.04688, 0.40104, 0.04688], "texture": "#missing"},
				"west": {"uv": [0.40365, 0.04688, 0.40104, 0.04688], "texture": "#missing"},
				"up": {"uv": [0.40365, 0.04688, 0.40104, 0.04688], "texture": "#missing"}
			}
		},
		{
			"name": "hexadecagon",
			"from": [8.07186, 9.23421, 10.05],
			"to": [8.18554, 9.32671, 10.15],
			"rotation": {"angle": 0, "axis": "y", "origin": [8.1912, 9.33751, 9.7]},
			"faces": {
				"north": {"uv": [0.40365, 0.04688, 0.40104, 0.04688], "texture": "#missing"},
				"east": {"uv": [0.40365, 0.04688, 0.40104, 0.04688], "texture": "#missing"},
				"south": {"uv": [0.40365, 0.04688, 0.40104, 0.04688], "texture": "#missing"},
				"west": {"uv": [0.40365, 0.04688, 0.40104, 0.04688], "texture": "#missing"},
				"up": {"uv": [0.40365, 0.04688, 0.40104, 0.04688], "texture": "#missing"}
			}
		},
		{
			"name": "octagon",
			"from": [7.88261, 9.2625, 10.1],
			"to": [7.90332, 9.3125, 10.15625],
			"rotation": {"angle": 45, "axis": "z", "origin": [7.89297, 9.2875, 8]},
			"faces": {
				"north": {"uv": [2.98958, 0, 2.98796, 0], "texture": "#3"},
				"east": {"uv": [2.98958, 0, 2.98796, 0], "texture": "#3"},
				"south": {"uv": [2.98958, 0, 2.98796, 0], "texture": "#3"},
				"west": {"uv": [2.98958, 0, 2.98796, 0], "texture": "#3"},
				"up": {"uv": [2.98958, 0, 2.98796, 0], "texture": "#3"},
				"down": {"uv": [2.98958, 0, 2.98796, 0], "texture": "#3"}
			}
		},
		{
			"name": "octagon",
			"from": [7.88261, 9.2625, 10.1],
			"to": [7.90332, 9.3125, 10.15625],
			"rotation": {"angle": 0, "axis": "y", "origin": [7.89297, 9.2875, 8]},
			"faces": {
				"north": {"uv": [2.98958, 0, 2.98796, 0], "texture": "#3"},
				"east": {"uv": [2.98958, 0, 2.98796, 0], "texture": "#3"},
				"south": {"uv": [2.98958, 0, 2.98796, 0], "texture": "#3"},
				"west": {"uv": [2.98958, 0, 2.98796, 0], "texture": "#3"},
				"up": {"uv": [2.98958, 0, 2.98796, 0], "texture": "#3"},
				"down": {"uv": [2.98958, 0, 2.98796, 0], "texture": "#3"}
			}
		},
		{
			"name": "octagon",
			"from": [7.86797, 9.27714, 10.1],
			"to": [7.91797, 9.29786, 10.15625],
			"rotation": {"angle": 45, "axis": "z", "origin": [7.89297, 9.2875, 8]},
			"faces": {
				"north": {"uv": [2.98958, 0, 2.98796, 0], "texture": "#3"},
				"east": {"uv": [2.98958, 0, 2.98796, 0], "texture": "#3"},
				"south": {"uv": [2.98958, 0, 2.98796, 0], "texture": "#3"},
				"west": {"uv": [2.98958, 0, 2.98796, 0], "texture": "#3"},
				"up": {"uv": [2.98958, 0, 2.98796, 0], "texture": "#3"},
				"down": {"uv": [2.98958, 0, 2.98796, 0], "texture": "#3"}
			}
		},
		{
			"name": "octagon",
			"from": [7.86797, 9.27714, 10.1],
			"to": [7.91797, 9.29786, 10.15625],
			"rotation": {"angle": 0, "axis": "y", "origin": [7.89297, 9.2875, 8]},
			"faces": {
				"north": {"uv": [2.98958, 0, 2.98796, 0], "texture": "#3"},
				"east": {"uv": [2.98958, 0, 2.98796, 0], "texture": "#3"},
				"south": {"uv": [2.98958, 0, 2.98796, 0], "texture": "#3"},
				"west": {"uv": [2.98958, 0, 2.98796, 0], "texture": "#3"},
				"up": {"uv": [2.98958, 0, 2.98796, 0], "texture": "#3"},
				"down": {"uv": [2.98958, 0, 2.98796, 0], "texture": "#3"}
			}
		},
		{
			"name": "octagon",
			"from": [7.99199, 9.19219, 4.12344],
			"to": [8.0127, 9.24219, 4.17969],
			"rotation": {"angle": 45, "axis": "z", "origin": [8.00234, 9.21719, 2.02344]},
			"faces": {
				"north": {"uv": [2.98958, 0, 2.98796, 0], "texture": "#3"},
				"east": {"uv": [2.98958, 0, 2.98796, 0], "texture": "#3"},
				"south": {"uv": [2.98958, 0, 2.98796, 0], "texture": "#3"},
				"west": {"uv": [2.98958, 0, 2.98796, 0], "texture": "#3"},
				"up": {"uv": [2.98958, 0, 2.98796, 0], "texture": "#3"},
				"down": {"uv": [2.98958, 0, 2.98796, 0], "texture": "#3"}
			}
		},
		{
			"name": "octagon",
			"from": [7.99199, 9.19219, 4.12344],
			"to": [8.0127, 9.24219, 4.17969],
			"rotation": {"angle": 0, "axis": "y", "origin": [8.00234, 9.21719, 2.02344]},
			"faces": {
				"north": {"uv": [2.98958, 0, 2.98796, 0], "texture": "#3"},
				"east": {"uv": [2.98958, 0, 2.98796, 0], "texture": "#3"},
				"south": {"uv": [2.98958, 0, 2.98796, 0], "texture": "#3"},
				"west": {"uv": [2.98958, 0, 2.98796, 0], "texture": "#3"},
				"up": {"uv": [2.98958, 0, 2.98796, 0], "texture": "#3"},
				"down": {"uv": [2.98958, 0, 2.98796, 0], "texture": "#3"}
			}
		},
		{
			"name": "octagon",
			"from": [7.97734, 9.20683, 4.12344],
			"to": [8.02734, 9.22754, 4.17969],
			"rotation": {"angle": 45, "axis": "z", "origin": [8.00234, 9.21719, 2.02344]},
			"faces": {
				"north": {"uv": [2.98958, 0, 2.98796, 0], "texture": "#3"},
				"east": {"uv": [2.98958, 0, 2.98796, 0], "texture": "#3"},
				"south": {"uv": [2.98958, 0, 2.98796, 0], "texture": "#3"},
				"west": {"uv": [2.98958, 0, 2.98796, 0], "texture": "#3"},
				"up": {"uv": [2.98958, 0, 2.98796, 0], "texture": "#3"},
				"down": {"uv": [2.98958, 0, 2.98796, 0], "texture": "#3"}
			}
		},
		{
			"name": "octagon",
			"from": [7.97734, 9.20683, 4.12344],
			"to": [8.02734, 9.22754, 4.17969],
			"rotation": {"angle": 0, "axis": "y", "origin": [8.00234, 9.21719, 2.02344]},
			"faces": {
				"north": {"uv": [2.98958, 0, 2.98796, 0], "texture": "#3"},
				"east": {"uv": [2.98958, 0, 2.98796, 0], "texture": "#3"},
				"south": {"uv": [2.98958, 0, 2.98796, 0], "texture": "#3"},
				"west": {"uv": [2.98958, 0, 2.98796, 0], "texture": "#3"},
				"up": {"uv": [2.98958, 0, 2.98796, 0], "texture": "#3"},
				"down": {"uv": [2.98958, 0, 2.98796, 0], "texture": "#3"}
			}
		},
		{
			"name": "octagon",
			"from": [8.10293, 9.2625, 10.1],
			"to": [8.12364, 9.3125, 10.15625],
			"rotation": {"angle": 45, "axis": "z", "origin": [8.11328, 9.2875, 8]},
			"faces": {
				"north": {"uv": [2.98958, 0, 2.98796, 0], "texture": "#3"},
				"east": {"uv": [2.98958, 0, 2.98796, 0], "texture": "#3"},
				"south": {"uv": [2.98958, 0, 2.98796, 0], "texture": "#3"},
				"west": {"uv": [2.98958, 0, 2.98796, 0], "texture": "#3"},
				"up": {"uv": [2.98958, 0, 2.98796, 0], "texture": "#3"},
				"down": {"uv": [2.98958, 0, 2.98796, 0], "texture": "#3"}
			}
		},
		{
			"name": "octagon",
			"from": [8.10293, 9.2625, 10.1],
			"to": [8.12364, 9.3125, 10.15625],
			"rotation": {"angle": 0, "axis": "y", "origin": [8.11328, 9.2875, 8]},
			"faces": {
				"north": {"uv": [2.98958, 0, 2.98796, 0], "texture": "#3"},
				"east": {"uv": [2.98958, 0, 2.98796, 0], "texture": "#3"},
				"south": {"uv": [2.98958, 0, 2.98796, 0], "texture": "#3"},
				"west": {"uv": [2.98958, 0, 2.98796, 0], "texture": "#3"},
				"up": {"uv": [2.98958, 0, 2.98796, 0], "texture": "#3"},
				"down": {"uv": [2.98958, 0, 2.98796, 0], "texture": "#3"}
			}
		},
		{
			"name": "octagon",
			"from": [8.08828, 9.27714, 10.1],
			"to": [8.13828, 9.29786, 10.15625],
			"rotation": {"angle": 45, "axis": "z", "origin": [8.11328, 9.2875, 8]},
			"faces": {
				"north": {"uv": [2.98958, 0, 2.98796, 0], "texture": "#3"},
				"east": {"uv": [2.98958, 0, 2.98796, 0], "texture": "#3"},
				"south": {"uv": [2.98958, 0, 2.98796, 0], "texture": "#3"},
				"west": {"uv": [2.98958, 0, 2.98796, 0], "texture": "#3"},
				"up": {"uv": [2.98958, 0, 2.98796, 0], "texture": "#3"},
				"down": {"uv": [2.98958, 0, 2.98796, 0], "texture": "#3"}
			}
		},
		{
			"name": "octagon",
			"from": [8.08828, 9.27714, 10.1],
			"to": [8.13828, 9.29786, 10.15625],
			"rotation": {"angle": 0, "axis": "y", "origin": [8.11328, 9.2875, 8]},
			"faces": {
				"north": {"uv": [2.98958, 0, 2.98796, 0], "texture": "#3"},
				"east": {"uv": [2.98958, 0, 2.98796, 0], "texture": "#3"},
				"south": {"uv": [2.98958, 0, 2.98796, 0], "texture": "#3"},
				"west": {"uv": [2.98958, 0, 2.98796, 0], "texture": "#3"},
				"up": {"uv": [2.98958, 0, 2.98796, 0], "texture": "#3"},
				"down": {"uv": [2.98958, 0, 2.98796, 0], "texture": "#3"}
			}
		},
		{
			"name": "hexadecagon",
			"from": [7.91798, 8.90876, 9.5],
			"to": [8.08202, 9.11625, 10.25],
			"rotation": {"angle": -45, "axis": "z", "origin": [8, 8.7, 9.925]},
			"faces": {
				"up": {"uv": [14.93333, 0, 16, 5.33333], "texture": "#13"}
			}
		},
		{
			"name": "hexadecagon",
			"from": [7.94316, 8.70875, 9.5],
			"to": [8.08184, 9.11534, 10.25],
			"rotation": {"angle": -22.5, "axis": "z", "origin": [8, 8.7, 9.925]},
			"faces": {
				"up": {"uv": [13.86667, 0, 14.93333, 5.33333], "texture": "#13"}
			}
		},
		{
			"name": "hexadecagon",
			"from": [7.89686, 8.71312, 9.5],
			"to": [8.11054, 9.10562, 10.25],
			"rotation": {"angle": 0, "axis": "y", "origin": [7.9412, 8.91251, 11]},
			"faces": {
				"up": {"uv": [12.8, 0, 13.86667, 5.33333], "texture": "#13"}
			}
		},
		{
			"name": "hexadecagon",
			"from": [7.91816, 8.70875, 9.5],
			"to": [8.05684, 9.11534, 10.25],
			"rotation": {"angle": 22.5, "axis": "z", "origin": [8, 8.7, 9.925]},
			"faces": {
				"up": {"uv": [11.73333, 0, 12.8, 5.33333], "texture": "#13"}
			}
		},
		{
			"name": "hexadecagon",
			"from": [7.91798, 8.88376, 9.5],
			"to": [8.08202, 9.11625, 10.25],
			"rotation": {"angle": 45, "axis": "z", "origin": [8, 8.7, 9.925]},
			"faces": {
				"up": {"uv": [10.66667, 0, 11.73333, 5.33333], "texture": "#13"}
			}
		},
		{
			"name": "hexadecagon",
			"from": [7.91798, 8.90485, 4.05],
			"to": [8.08202, 9.11234, 10.25],
			"rotation": {"angle": -45, "axis": "z", "origin": [8, 8.7, 4.475]},
			"faces": {
				"north": {"uv": [2.59375, 1.0625, 2.59375, 1.0625], "texture": "#0"},
				"east": {"uv": [2.59375, 1.0625, 2.59375, 1.0625], "texture": "#0"},
				"south": {"uv": [2.59375, 1.0625, 2.59375, 1.0625], "texture": "#0"},
				"west": {"uv": [2.59375, 1.0625, 2.59375, 1.0625], "texture": "#0"},
				"up": {"uv": [2.59375, 1.0625, 2.59375, 1.0625], "texture": "#0"}
			}
		},
		{
			"name": "hexadecagon",
			"from": [7.91798, 8.87985, 4.05],
			"to": [8.08202, 9.11234, 10.25],
			"rotation": {"angle": 45, "axis": "z", "origin": [8, 8.7, 4.475]},
			"faces": {
				"north": {"uv": [2.59375, 1.0625, 2.59375, 1.0625], "texture": "#0"},
				"east": {"uv": [2.59375, 1.0625, 2.59375, 1.0625], "texture": "#0"},
				"south": {"uv": [2.59375, 1.0625, 2.59375, 1.0625], "texture": "#0"},
				"west": {"uv": [2.59375, 1.0625, 2.59375, 1.0625], "texture": "#0"},
				"up": {"uv": [2.59375, 1.0625, 2.59375, 1.0625], "texture": "#0"}
			}
		},
		{
			"name": "hexadecagon",
			"from": [7.91816, 8.70484, 4.05],
			"to": [8.05684, 9.11143, 7.05],
			"rotation": {"angle": 22.5, "axis": "z", "origin": [8, 8.7, 4.475]},
			"faces": {
				"north": {"uv": [2.59375, 1.0625, 2.59375, 1.0625], "texture": "#0"},
				"east": {"uv": [2.59375, 1.0625, 2.59375, 1.0625], "texture": "#0"},
				"south": {"uv": [2.59375, 1.0625, 2.59375, 1.0625], "texture": "#0"},
				"up": {"uv": [2.59375, 1.0625, 2.59375, 1.0625], "texture": "#0"}
			}
		},
		{
			"name": "hexadecagon",
			"from": [7.91816, 8.87984, 8.2],
			"to": [8.05684, 9.11143, 10.25],
			"rotation": {"angle": 22.5, "axis": "z", "origin": [8, 8.7, 8.625]},
			"faces": {
				"north": {"uv": [2.59375, 1.0625, 2.59375, 1.0625], "texture": "#0"},
				"east": {"uv": [2.59375, 1.0625, 2.59375, 1.0625], "texture": "#0"},
				"south": {"uv": [2.59375, 1.0625, 2.59375, 1.0625], "texture": "#0"},
				"up": {"uv": [2.59375, 1.0625, 2.59375, 1.0625], "texture": "#0"},
				"down": {"uv": [2.59375, 1.0625, 2.59375, 1.0625], "texture": "#0"}
			}
		},
		{
			"name": "hexadecagon",
			"from": [7.91816, 8.70484, 7.05],
			"to": [7.95684, 9.11143, 8.2],
			"rotation": {"angle": 22.5, "axis": "z", "origin": [8, 8.7, 7.65]},
			"faces": {
				"east": {"uv": [2.59375, 1.0625, 2.59375, 1.0625], "texture": "#0"},
				"south": {"uv": [2.59375, 1.0625, 2.59375, 1.0625], "texture": "#0"},
				"up": {"uv": [2.59375, 1.0625, 2.59375, 1.0625], "texture": "#0"}
			}
		},
		{
			"name": "hexadecagon",
			"from": [7.94316, 8.70484, 4.05],
			"to": [8.08184, 9.11143, 7.05],
			"rotation": {"angle": -22.5, "axis": "z", "origin": [8, 8.7, 4.475]},
			"faces": {
				"north": {"uv": [2.59375, 1.0625, 2.59375, 1.0625], "texture": "#0"},
				"south": {"uv": [2.59375, 1.0625, 2.59375, 1.0625], "texture": "#0"},
				"west": {"uv": [2.59375, 1.0625, 2.59375, 1.0625], "texture": "#0"},
				"up": {"uv": [2.59375, 1.0625, 2.59375, 1.0625], "texture": "#0"}
			}
		},
		{
			"name": "hexadecagon",
			"from": [7.94316, 8.87984, 8.2],
			"to": [8.08184, 9.11143, 10.25],
			"rotation": {"angle": -22.5, "axis": "z", "origin": [8, 8.7, 8.625]},
			"faces": {
				"north": {"uv": [2.59375, 1.0625, 2.59375, 1.0625], "texture": "#0"},
				"south": {"uv": [2.59375, 1.0625, 2.59375, 1.0625], "texture": "#0"},
				"west": {"uv": [2.59375, 1.0625, 2.59375, 1.0625], "texture": "#0"},
				"up": {"uv": [2.59375, 1.0625, 2.59375, 1.0625], "texture": "#0"},
				"down": {"uv": [2.59375, 1.0625, 2.59375, 1.0625], "texture": "#0"}
			}
		},
		{
			"name": "hexadecagon",
			"from": [7.89686, 8.70921, 4.05],
			"to": [8.11054, 9.10171, 7.05],
			"rotation": {"angle": 0, "axis": "y", "origin": [7.9412, 8.91251, 5.55]},
			"faces": {
				"north": {"uv": [2.59375, 1.0625, 2.59375, 1.0625], "texture": "#0"},
				"east": {"uv": [2.59375, 1.0625, 2.59375, 1.0625], "texture": "#0"},
				"south": {"uv": [2.59375, 1.0625, 2.59375, 1.0625], "texture": "#0"},
				"west": {"uv": [2.59375, 1.0625, 2.59375, 1.0625], "texture": "#0"},
				"up": {"uv": [2.59375, 1.0625, 2.59375, 1.0625], "texture": "#0"}
			}
		},
		{
			"name": "hexadecagon",
			"from": [7.89686, 8.88421, 8.2],
			"to": [8.11054, 9.10171, 10.25],
			"rotation": {"angle": 0, "axis": "y", "origin": [7.9412, 8.91251, 9.7]},
			"faces": {
				"north": {"uv": [2.59375, 1.0625, 2.59375, 1.0625], "texture": "#0"},
				"east": {"uv": [2.59375, 1.0625, 2.59375, 1.0625], "texture": "#0"},
				"south": {"uv": [2.59375, 1.0625, 2.59375, 1.0625], "texture": "#0"},
				"west": {"uv": [2.59375, 1.0625, 2.59375, 1.0625], "texture": "#0"},
				"up": {"uv": [2.59375, 1.0625, 2.59375, 1.0625], "texture": "#0"},
				"down": {"uv": [2.59375, 1.0625, 2.59375, 1.0625], "texture": "#0"}
			}
		},
		{
			"name": "hexadecagon",
			"from": [7.87186, 9.08421, 9.725],
			"to": [8.13554, 9.22671, 10.175],
			"rotation": {"angle": 0, "axis": "y", "origin": [7.9412, 9.13751, 9.7]},
			"faces": {
				"north": {"uv": [4.84375, 0.5625, 4.8125, 0.5625], "texture": "#1"},
				"east": {"uv": [4.84375, 0.5625, 4.8125, 0.5625], "texture": "#1"},
				"west": {"uv": [4.84375, 0.5625, 4.8125, 0.5625], "texture": "#1"},
				"up": {"uv": [4.84375, 0.5625, 4.8125, 0.5625], "texture": "#1"}
			}
		},
		{
			"name": "hexadecagon",
			"from": [7.87186, 9.08421, 4.05],
			"to": [8.13554, 9.17671, 4.2],
			"rotation": {"angle": 0, "axis": "y", "origin": [7.9412, 9.13751, 4.025]},
			"faces": {
				"north": {"uv": [4.84375, 0.5625, 4.8125, 0.5625], "texture": "#1"},
				"east": {"uv": [4.84375, 0.5625, 4.8125, 0.5625], "texture": "#1"},
				"south": {"uv": [4.84375, 0.5625, 4.8125, 0.5625], "texture": "#1"},
				"west": {"uv": [4.84375, 0.5625, 4.8125, 0.5625], "texture": "#1"},
				"up": {"uv": [4.84375, 0.5625, 4.8125, 0.5625], "texture": "#1"}
			}
		},
		{
			"name": "hexadecagon",
			"from": [7.97186, 9.15921, 4.05],
			"to": [8.03554, 9.25171, 4.175],
			"rotation": {"angle": 0, "axis": "y", "origin": [7.9412, 9.21251, 4.025]},
			"faces": {
				"north": {"uv": [4.84375, 0.5625, 4.8125, 0.5625], "texture": "#1"},
				"east": {"uv": [4.84375, 0.5625, 4.8125, 0.5625], "texture": "#1"},
				"south": {"uv": [4.84375, 0.5625, 4.8125, 0.5625], "texture": "#1"},
				"west": {"uv": [4.84375, 0.5625, 4.8125, 0.5625], "texture": "#1"},
				"up": {"uv": [4.84375, 0.5625, 4.8125, 0.5625], "texture": "#1"}
			}
		},
		{
			"name": "hexadecagon",
			"from": [7.82186, 9.05921, 10.05],
			"to": [8.18554, 9.25171, 10.175],
			"rotation": {"angle": 0, "axis": "y", "origin": [7.9412, 9.13751, 9.7]},
			"faces": {
				"north": {"uv": [4.84375, 0.5625, 4.8125, 0.5625], "texture": "#1"},
				"east": {"uv": [4.84375, 0.5625, 4.8125, 0.5625], "texture": "#1"},
				"south": {"uv": [4.84375, 0.5625, 4.8125, 0.5625], "texture": "#1"},
				"west": {"uv": [4.84375, 0.5625, 4.8125, 0.5625], "texture": "#1"},
				"up": {"uv": [4.84375, 0.5625, 4.8125, 0.5625], "texture": "#1"}
			}
		},
		{
			"name": "hexadecagon",
			"from": [7.82186, 9.23421, 10.05],
			"to": [7.93554, 9.32671, 10.15],
			"rotation": {"angle": 0, "axis": "y", "origin": [7.9412, 9.33751, 9.7]},
			"faces": {
				"north": {"uv": [4.84375, 0.5625, 4.8125, 0.5625], "texture": "#1"},
				"east": {"uv": [4.84375, 0.5625, 4.8125, 0.5625], "texture": "#1"},
				"south": {"uv": [4.84375, 0.5625, 4.8125, 0.5625], "texture": "#1"},
				"west": {"uv": [4.84375, 0.5625, 4.8125, 0.5625], "texture": "#1"},
				"up": {"uv": [4.84375, 0.5625, 4.8125, 0.5625], "texture": "#1"}
			}
		},
		{
			"name": "hexadecagon",
			"from": [8.07186, 9.23421, 10.05],
			"to": [8.18554, 9.32671, 10.15],
			"rotation": {"angle": 0, "axis": "y", "origin": [8.1912, 9.33751, 9.7]},
			"faces": {
				"north": {"uv": [4.84375, 0.5625, 4.8125, 0.5625], "texture": "#1"},
				"east": {"uv": [4.84375, 0.5625, 4.8125, 0.5625], "texture": "#1"},
				"south": {"uv": [4.84375, 0.5625, 4.8125, 0.5625], "texture": "#1"},
				"west": {"uv": [4.84375, 0.5625, 4.8125, 0.5625], "texture": "#1"},
				"up": {"uv": [4.84375, 0.5625, 4.8125, 0.5625], "texture": "#1"}
			}
		},
		{
			"name": "hexadecagon",
			"from": [8.04316, 8.70484, 7.05],
			"to": [8.08184, 9.11143, 8.2],
			"rotation": {"angle": -22.5, "axis": "z", "origin": [8, 8.7, 7.65]},
			"faces": {
				"south": {"uv": [2.59375, 1.0625, 2.59375, 1.0625], "texture": "#0"},
				"west": {"uv": [2.59375, 1.0625, 2.59375, 1.0625], "texture": "#0"},
				"up": {"uv": [2.59375, 1.0625, 2.59375, 1.0625], "texture": "#0"}
			}
		},
		{
			"from": [7.65, 8.375, 4.049],
			"to": [8.35, 8.93, 4.625],
			"rotation": {"angle": 0, "axis": "y", "origin": [8, 8.6375, 4.325]},
			"faces": {
				"north": {"uv": [2.59375, 1.0625, 2.59375, 1.0625], "texture": "#0"},
				"east": {"uv": [2.59375, 1.0625, 2.59375, 1.0625], "texture": "#0"},
				"south": {"uv": [2.59375, 1.0625, 2.59375, 1.0625], "texture": "#0"},
				"west": {"uv": [2.59375, 1.0625, 2.59375, 1.0625], "texture": "#0"},
				"up": {"uv": [2.59375, 1.0625, 2.59375, 1.0625], "texture": "#0"},
				"down": {"uv": [2.59375, 1.0625, 2.59375, 1.0625], "texture": "#0"}
			}
		},
		{
			"from": [7.7, 8.225, 8.45],
			"to": [8.3, 8.905, 9.675],
			"rotation": {"angle": 0, "axis": "y", "origin": [8, 8.6375, 8.875]},
			"faces": {
				"east": {"uv": [2.59375, 1.0625, 2.59375, 1.0625], "texture": "#0"},
				"west": {"uv": [2.59375, 1.0625, 2.59375, 1.0625], "texture": "#0"}
			}
		},
		{
			"from": [7.675, 8.225, 8.45],
			"to": [8.325, 8.28, 9.675],
			"rotation": {"angle": 0, "axis": "y", "origin": [8, 8.6375, 8.875]},
			"faces": {
				"east": {"uv": [2.59375, 1.0625, 2.59375, 1.0625], "texture": "#0"},
				"west": {"uv": [2.59375, 1.0625, 2.59375, 1.0625], "texture": "#0"},
				"up": {"uv": [2.59375, 1.0625, 2.59375, 1.0625], "texture": "#0"},
				"down": {"uv": [2.59375, 1.0625, 2.59375, 1.0625], "texture": "#0"}
			}
		},
		{
			"from": [7.675, 8.22, 5.875],
			"to": [8.325, 8.925, 8.45],
			"rotation": {"angle": 0, "axis": "y", "origin": [8, 8.6375, 6.2]},
			"faces": {
				"north": {"uv": [2.59375, 1.0625, 2.59375, 1.0625], "texture": "#0"},
				"east": {"uv": [2.59375, 1.0625, 2.59375, 1.0625], "texture": "#0"},
				"south": {"uv": [2.59375, 1.0625, 2.59375, 1.0625], "texture": "#0"},
				"west": {"uv": [2.59375, 1.0625, 2.59375, 1.0625], "texture": "#0"},
				"up": {"uv": [2.59375, 1.0625, 2.59375, 1.0625], "texture": "#0"},
				"down": {"uv": [2.59375, 1.0625, 2.59375, 1.0625], "texture": "#0"}
			}
		},
		{
			"from": [7.675, 8.22, 9.675],
			"to": [7.9, 8.925, 10.325],
			"rotation": {"angle": 0, "axis": "y", "origin": [8, 8.6375, 10]},
			"faces": {
				"north": {"uv": [2.59375, 1.0625, 2.59375, 1.0625], "texture": "#0"},
				"east": {"uv": [2.59375, 1.0625, 2.59375, 1.0625], "texture": "#0"},
				"south": {"uv": [2.59375, 1.0625, 2.59375, 1.0625], "texture": "#0"},
				"west": {"uv": [2.59375, 1.0625, 2.59375, 1.0625], "texture": "#0"},
				"up": {"uv": [2.59375, 1.0625, 2.59375, 1.0625], "texture": "#0"},
				"down": {"uv": [2.59375, 1.0625, 2.59375, 1.0625], "texture": "#0"}
			}
		},
		{
			"from": [8.1, 8.22, 9.675],
			"to": [8.325, 8.925, 10.325],
			"rotation": {"angle": 0, "axis": "y", "origin": [8.45, 8.6375, 10]},
			"faces": {
				"north": {"uv": [2.59375, 1.0625, 2.59375, 1.0625], "texture": "#0"},
				"east": {"uv": [2.59375, 1.0625, 2.59375, 1.0625], "texture": "#0"},
				"south": {"uv": [2.59375, 1.0625, 2.59375, 1.0625], "texture": "#0"},
				"west": {"uv": [2.59375, 1.0625, 2.59375, 1.0625], "texture": "#0"},
				"up": {"uv": [2.59375, 1.0625, 2.59375, 1.0625], "texture": "#0"},
				"down": {"uv": [2.59375, 1.0625, 2.59375, 1.0625], "texture": "#0"}
			}
		},
		{
			"from": [7.9, 8.22, 9.675],
			"to": [8.1, 8.475, 10.325],
			"rotation": {"angle": 0, "axis": "y", "origin": [8.2, 8.6375, 10]},
			"faces": {
				"south": {"uv": [2.59375, 1.0625, 2.59375, 1.0625], "texture": "#0"},
				"up": {"uv": [2.59375, 1.0625, 2.59375, 1.0625], "texture": "#0"},
				"down": {"uv": [2.59375, 1.0625, 2.59375, 1.0625], "texture": "#0"}
			}
		},
		{
			"from": [7.875, 8.22, 9.45],
			"to": [8.125, 8.875, 10.075],
			"rotation": {"angle": -22.5, "axis": "x", "origin": [8, 8.5475, 9.7125]},
			"faces": {
				"north": {"uv": [2.59375, 1.0625, 2.59375, 1.0625], "texture": "#0"},
				"east": {"uv": [2.59375, 1.0625, 2.59375, 1.0625], "texture": "#0"},
				"south": {"uv": [2.59375, 1.0625, 2.59375, 1.0625], "texture": "#0"},
				"west": {"uv": [2.59375, 1.0625, 2.59375, 1.0625], "texture": "#0"},
				"up": {"uv": [2.59375, 1.0625, 2.59375, 1.0625], "texture": "#0"},
				"down": {"uv": [2.59375, 1.0625, 2.59375, 1.0625], "texture": "#0"}
			}
		},
		{
			"from": [7.675, 8.22, 8.45],
			"to": [8.325, 8.425, 8.5],
			"rotation": {"angle": 0, "axis": "y", "origin": [8, 8.6375, 8.25]},
			"faces": {
				"east": {"uv": [2.59375, 1.0625, 2.59375, 1.0625], "texture": "#0"},
				"west": {"uv": [2.59375, 1.0625, 2.59375, 1.0625], "texture": "#0"},
				"down": {"uv": [2.59375, 1.0625, 2.59375, 1.0625], "texture": "#0"}
			}
		},
		{
			"from": [7.675, 8.22, 8.5],
			"to": [8.325, 8.325, 8.55],
			"rotation": {"angle": 0, "axis": "y", "origin": [8, 8.6375, 8.3]},
			"faces": {
				"east": {"uv": [2.59375, 1.0625, 2.59375, 1.0625], "texture": "#0"},
				"south": {"uv": [2.59375, 1.0625, 2.59375, 1.0625], "texture": "#0"},
				"west": {"uv": [2.59375, 1.0625, 2.59375, 1.0625], "texture": "#0"},
				"up": {"uv": [2.59375, 1.0625, 2.59375, 1.0625], "texture": "#0"},
				"down": {"uv": [2.59375, 1.0625, 2.59375, 1.0625], "texture": "#0"}
			}
		},
		{
			"from": [7.65, 8.375, 4.625],
			"to": [8.35, 8.405, 5.125],
			"rotation": {"angle": 0, "axis": "y", "origin": [8, 8.6375, 4.9]},
			"faces": {
				"east": {"uv": [2.59375, 1.0625, 2.59375, 1.0625], "texture": "#0"},
				"south": {"uv": [2.59375, 1.0625, 2.59375, 1.0625], "texture": "#0"},
				"west": {"uv": [2.59375, 1.0625, 2.59375, 1.0625], "texture": "#0"},
				"up": {"uv": [2.59375, 1.0625, 2.59375, 1.0625], "texture": "#0"},
				"down": {"uv": [2.59375, 1.0625, 2.59375, 1.0625], "texture": "#0"}
			}
		},
		{
			"from": [7.65, 8.275, 5.1],
			"to": [8.35, 8.305, 5.5],
			"rotation": {"angle": 22.5, "axis": "x", "origin": [8, 8.29, 5.35]},
			"faces": {
				"north": {"uv": [2.59375, 1.0625, 2.59375, 1.0625], "texture": "#0"},
				"east": {"uv": [2.59375, 1.0625, 2.59375, 1.0625], "texture": "#0"},
				"south": {"uv": [2.59375, 1.0625, 2.59375, 1.0625], "texture": "#0"},
				"west": {"uv": [2.59375, 1.0625, 2.59375, 1.0625], "texture": "#0"},
				"up": {"uv": [2.59375, 1.0625, 2.59375, 1.0625], "texture": "#0"},
				"down": {"uv": [2.59375, 1.0625, 2.59375, 1.0625], "texture": "#0"}
			}
		},
		{
			"from": [7.65, 8.21913, 5.47881],
			"to": [8.35, 8.24913, 5.90381],
			"rotation": {"angle": 0, "axis": "y", "origin": [8, 8.23413, 5.67881]},
			"faces": {
				"north": {"uv": [2.59375, 1.0625, 2.59375, 1.0625], "texture": "#0"},
				"east": {"uv": [2.59375, 1.0625, 2.59375, 1.0625], "texture": "#0"},
				"south": {"uv": [2.59375, 1.0625, 2.59375, 1.0625], "texture": "#0"},
				"west": {"uv": [2.59375, 1.0625, 2.59375, 1.0625], "texture": "#0"},
				"up": {"uv": [2.59375, 1.0625, 2.59375, 1.0625], "texture": "#0"},
				"down": {"uv": [2.59375, 1.0625, 2.59375, 1.0625], "texture": "#0"}
			}
		},
		{
			"from": [7.65, 8.875, 4.625],
			"to": [8.35, 8.93, 5.875],
			"rotation": {"angle": 0, "axis": "y", "origin": [8, 9.1375, 4.9]},
			"faces": {
				"east": {"uv": [2.59375, 1.0625, 2.59375, 1.0625], "texture": "#0"},
				"south": {"uv": [2.59375, 1.0625, 2.59375, 1.0625], "texture": "#0"},
				"west": {"uv": [2.59375, 1.0625, 2.59375, 1.0625], "texture": "#0"},
				"up": {"uv": [2.59375, 1.0625, 2.59375, 1.0625], "texture": "#0"},
				"down": {"uv": [2.59375, 1.0625, 2.59375, 1.0625], "texture": "#0"}
			}
		},
		{
			"from": [7.7, 8.375, 4.625],
			"to": [8.3, 8.93, 5.875],
			"rotation": {"angle": 0, "axis": "y", "origin": [8, 8.6375, 4.9]},
			"faces": {
				"east": {"uv": [2.59375, 1.0625, 2.59375, 1.0625], "texture": "#0"},
				"west": {"uv": [2.59375, 1.0625, 2.59375, 1.0625], "texture": "#0"}
			}
		},
		{
			"from": [7.7, 8.35, 5.175],
			"to": [8.3, 8.38, 5.875],
			"rotation": {"angle": 0, "axis": "y", "origin": [8, 8.0875, 5.575]},
			"faces": {
				"east": {"uv": [2.59375, 1.0625, 2.59375, 1.0625], "texture": "#0"},
				"west": {"uv": [2.59375, 1.0625, 2.59375, 1.0625], "texture": "#0"}
			}
		},
		{
			"from": [7.7, 8.325, 5.225],
			"to": [8.3, 8.355, 5.875],
			"rotation": {"angle": 0, "axis": "y", "origin": [8, 8.0625, 5.625]},
			"faces": {
				"north": {"uv": [2.59375, 1.0625, 2.59375, 1.0625], "texture": "#0"},
				"east": {"uv": [2.59375, 1.0625, 2.59375, 1.0625], "texture": "#0"},
				"west": {"uv": [2.59375, 1.0625, 2.59375, 1.0625], "texture": "#0"},
				"down": {"uv": [2.59375, 1.0625, 2.59375, 1.0625], "texture": "#0"}
			}
		},
		{
			"from": [7.7, 8.3, 5.3],
			"to": [8.3, 8.33, 5.875],
			"rotation": {"angle": 0, "axis": "y", "origin": [8, 8.0375, 5.7]},
			"faces": {
				"east": {"uv": [2.59375, 1.0625, 2.59375, 1.0625], "texture": "#0"},
				"west": {"uv": [2.59375, 1.0625, 2.59375, 1.0625], "texture": "#0"}
			}
		},
		{
			"from": [7.7, 8.275, 5.375],
			"to": [8.3, 8.305, 5.875],
			"rotation": {"angle": 0, "axis": "y", "origin": [8, 8.0125, 5.775]},
			"faces": {
				"east": {"uv": [2.59375, 1.0625, 2.59375, 1.0625], "texture": "#0"},
				"west": {"uv": [2.59375, 1.0625, 2.59375, 1.0625], "texture": "#0"}
			}
		},
		{
			"from": [7.7, 8.25, 5.425],
			"to": [8.3, 8.28, 5.875],
			"rotation": {"angle": 0, "axis": "y", "origin": [8, 7.9875, 5.825]},
			"faces": {
				"east": {"uv": [2.59375, 1.0625, 2.59375, 1.0625], "texture": "#0"},
				"west": {"uv": [2.59375, 1.0625, 2.59375, 1.0625], "texture": "#0"},
				"down": {"uv": [2.59375, 1.0625, 2.59375, 1.0625], "texture": "#0"}
			}
		},
		{
			"from": [7.65, 8.375, 4.625],
			"to": [8.35, 8.505, 4.8],
			"rotation": {"angle": 0, "axis": "y", "origin": [8, 8.6375, 4.9]},
			"faces": {
				"east": {"uv": [2.59375, 1.0625, 2.59375, 1.0625], "texture": "#0"},
				"south": {"uv": [2.59375, 1.0625, 2.59375, 1.0625], "texture": "#0"},
				"west": {"uv": [2.59375, 1.0625, 2.59375, 1.0625], "texture": "#0"},
				"up": {"uv": [2.59375, 1.0625, 2.59375, 1.0625], "texture": "#0"}
			}
		},
		{
			"from": [7.675, 8.425, 4.45],
			"to": [8.325, 8.9, 4.725],
			"rotation": {"angle": -22.5, "axis": "x", "origin": [8, 8.63, 4.6]},
			"faces": {
				"east": {"uv": [2.59375, 1.0625, 2.59375, 1.0625], "texture": "#0"},
				"south": {"uv": [2.59375, 1.0625, 2.59375, 1.0625], "texture": "#0"},
				"west": {"uv": [2.59375, 1.0625, 2.59375, 1.0625], "texture": "#0"}
			}
		},
		{
			"from": [7.675, 8.425, 4.825],
			"to": [8.325, 9, 4.875],
			"rotation": {"angle": -22.5, "axis": "x", "origin": [8, 8.63, 4.975]},
			"faces": {
				"north": {"uv": [2.59375, 1.0625, 2.59375, 1.0625], "texture": "#0"},
				"east": {"uv": [2.59375, 1.0625, 2.59375, 1.0625], "texture": "#0"},
				"south": {"uv": [2.59375, 1.0625, 2.59375, 1.0625], "texture": "#0"},
				"west": {"uv": [2.59375, 1.0625, 2.59375, 1.0625], "texture": "#0"},
				"up": {"uv": [2.59375, 1.0625, 2.59375, 1.0625], "texture": "#0"}
			}
		},
		{
			"from": [7.675, 8.25, 5.325],
			"to": [8.325, 9, 5.375],
			"rotation": {"angle": -22.5, "axis": "x", "origin": [8, 8.63, 5.475]},
			"faces": {
				"north": {"uv": [2.59375, 1.0625, 2.59375, 1.0625], "texture": "#0"},
				"east": {"uv": [2.59375, 1.0625, 2.59375, 1.0625], "texture": "#0"},
				"south": {"uv": [2.59375, 1.0625, 2.59375, 1.0625], "texture": "#0"},
				"west": {"uv": [2.59375, 1.0625, 2.59375, 1.0625], "texture": "#0"},
				"up": {"uv": [2.59375, 1.0625, 2.59375, 1.0625], "texture": "#0"}
			}
		},
		{
			"from": [7.675, 8.375, 5.075],
			"to": [8.325, 9, 5.125],
			"rotation": {"angle": -22.5, "axis": "x", "origin": [8, 8.63, 5.225]},
			"faces": {
				"north": {"uv": [2.59375, 1.0625, 2.59375, 1.0625], "texture": "#0"},
				"east": {"uv": [2.59375, 1.0625, 2.59375, 1.0625], "texture": "#0"},
				"south": {"uv": [2.59375, 1.0625, 2.59375, 1.0625], "texture": "#0"},
				"west": {"uv": [2.59375, 1.0625, 2.59375, 1.0625], "texture": "#0"},
				"up": {"uv": [2.59375, 1.0625, 2.59375, 1.0625], "texture": "#0"},
				"down": {"uv": [2.59375, 1.0625, 2.59375, 1.0625], "texture": "#0"}
			}
		},
		{
			"from": [7.675, 8.25, 5.575],
			"to": [8.325, 9, 5.625],
			"rotation": {"angle": -22.5, "axis": "x", "origin": [8, 8.63, 5.725]},
			"faces": {
				"north": {"uv": [2.59375, 1.0625, 2.59375, 1.0625], "texture": "#0"},
				"east": {"uv": [2.59375, 1.0625, 2.59375, 1.0625], "texture": "#0"},
				"south": {"uv": [2.59375, 1.0625, 2.59375, 1.0625], "texture": "#0"},
				"west": {"uv": [2.59375, 1.0625, 2.59375, 1.0625], "texture": "#0"},
				"up": {"uv": [2.59375, 1.0625, 2.59375, 1.0625], "texture": "#0"}
			}
		},
		{
			"from": [7.675, 8.25, 8.375],
			"to": [8.325, 8.6, 8.425],
			"rotation": {"angle": -22.5, "axis": "x", "origin": [8, 8.63, 8.525]},
			"faces": {
				"east": {"uv": [2.59375, 1.0625, 2.59375, 1.0625], "texture": "#0"},
				"south": {"uv": [2.59375, 1.0625, 2.59375, 1.0625], "texture": "#0"},
				"west": {"uv": [2.59375, 1.0625, 2.59375, 1.0625], "texture": "#0"}
			}
		},
		{
			"from": [7.675, 8.275, 8.475],
			"to": [8.325, 8.975, 8.525],
			"rotation": {"angle": -22.5, "axis": "x", "origin": [8, 8.655, 8.625]},
			"faces": {
				"north": {"uv": [2.59375, 1.0625, 2.59375, 1.0625], "texture": "#0"},
				"east": {"uv": [2.59375, 1.0625, 2.59375, 1.0625], "texture": "#0"},
				"south": {"uv": [2.59375, 1.0625, 2.59375, 1.0625], "texture": "#0"},
				"west": {"uv": [2.59375, 1.0625, 2.59375, 1.0625], "texture": "#0"}
			}
		},
		{
			"from": [7.675, 8.275, 8.6],
			"to": [8.325, 9, 8.65],
			"rotation": {"angle": -22.5, "axis": "x", "origin": [8, 8.655, 8.75]},
			"faces": {
				"north": {"uv": [2.59375, 1.0625, 2.59375, 1.0625], "texture": "#0"},
				"east": {"uv": [2.59375, 1.0625, 2.59375, 1.0625], "texture": "#0"},
				"south": {"uv": [2.59375, 1.0625, 2.59375, 1.0625], "texture": "#0"},
				"west": {"uv": [2.59375, 1.0625, 2.59375, 1.0625], "texture": "#0"},
				"up": {"uv": [2.59375, 1.0625, 2.59375, 1.0625], "texture": "#0"}
			}
		},
		{
			"from": [7.675, 8.275, 9.1],
			"to": [8.325, 9, 9.15],
			"rotation": {"angle": -22.5, "axis": "x", "origin": [8, 8.655, 9.25]},
			"faces": {
				"north": {"uv": [2.59375, 1.0625, 2.59375, 1.0625], "texture": "#0"},
				"east": {"uv": [2.59375, 1.0625, 2.59375, 1.0625], "texture": "#0"},
				"south": {"uv": [2.59375, 1.0625, 2.59375, 1.0625], "texture": "#0"},
				"west": {"uv": [2.59375, 1.0625, 2.59375, 1.0625], "texture": "#0"},
				"up": {"uv": [2.59375, 1.0625, 2.59375, 1.0625], "texture": "#0"}
			}
		},
		{
			"from": [7.675, 8.275, 8.85],
			"to": [8.325, 9, 8.9],
			"rotation": {"angle": -22.5, "axis": "x", "origin": [8, 8.655, 9]},
			"faces": {
				"north": {"uv": [2.59375, 1.0625, 2.59375, 1.0625], "texture": "#0"},
				"east": {"uv": [2.59375, 1.0625, 2.59375, 1.0625], "texture": "#0"},
				"south": {"uv": [2.59375, 1.0625, 2.59375, 1.0625], "texture": "#0"},
				"west": {"uv": [2.59375, 1.0625, 2.59375, 1.0625], "texture": "#0"},
				"up": {"uv": [2.59375, 1.0625, 2.59375, 1.0625], "texture": "#0"}
			}
		},
		{
			"from": [7.675, 8.275, 9.35],
			"to": [8.325, 9, 9.4],
			"rotation": {"angle": -22.5, "axis": "x", "origin": [8, 8.655, 9.5]},
			"faces": {
				"north": {"uv": [2.59375, 1.0625, 2.59375, 1.0625], "texture": "#0"},
				"east": {"uv": [2.59375, 1.0625, 2.59375, 1.0625], "texture": "#0"},
				"south": {"uv": [2.59375, 1.0625, 2.59375, 1.0625], "texture": "#0"},
				"west": {"uv": [2.59375, 1.0625, 2.59375, 1.0625], "texture": "#0"},
				"up": {"uv": [2.59375, 1.0625, 2.59375, 1.0625], "texture": "#0"}
			}
		},
		{
			"from": [7.675, 8.275, 8.725],
			"to": [8.325, 9, 8.775],
			"rotation": {"angle": -22.5, "axis": "x", "origin": [8, 8.655, 8.875]},
			"faces": {
				"north": {"uv": [2.59375, 1.0625, 2.59375, 1.0625], "texture": "#0"},
				"east": {"uv": [2.59375, 1.0625, 2.59375, 1.0625], "texture": "#0"},
				"south": {"uv": [2.59375, 1.0625, 2.59375, 1.0625], "texture": "#0"},
				"west": {"uv": [2.59375, 1.0625, 2.59375, 1.0625], "texture": "#0"},
				"up": {"uv": [2.59375, 1.0625, 2.59375, 1.0625], "texture": "#0"}
			}
		},
		{
			"from": [7.675, 8.275, 9.225],
			"to": [8.325, 9, 9.275],
			"rotation": {"angle": -22.5, "axis": "x", "origin": [8, 8.655, 9.375]},
			"faces": {
				"north": {"uv": [2.59375, 1.0625, 2.59375, 1.0625], "texture": "#0"},
				"east": {"uv": [2.59375, 1.0625, 2.59375, 1.0625], "texture": "#0"},
				"south": {"uv": [2.59375, 1.0625, 2.59375, 1.0625], "texture": "#0"},
				"west": {"uv": [2.59375, 1.0625, 2.59375, 1.0625], "texture": "#0"},
				"up": {"uv": [2.59375, 1.0625, 2.59375, 1.0625], "texture": "#0"}
			}
		},
		{
			"from": [7.675, 8.275, 8.975],
			"to": [8.325, 9, 9.025],
			"rotation": {"angle": -22.5, "axis": "x", "origin": [8, 8.655, 9.125]},
			"faces": {
				"north": {"uv": [2.59375, 1.0625, 2.59375, 1.0625], "texture": "#0"},
				"east": {"uv": [2.59375, 1.0625, 2.59375, 1.0625], "texture": "#0"},
				"south": {"uv": [2.59375, 1.0625, 2.59375, 1.0625], "texture": "#0"},
				"west": {"uv": [2.59375, 1.0625, 2.59375, 1.0625], "texture": "#0"},
				"up": {"uv": [2.59375, 1.0625, 2.59375, 1.0625], "texture": "#0"}
			}
		},
		{
			"from": [7.675, 8.275, 9.475],
			"to": [8.325, 9, 9.525],
			"rotation": {"angle": -22.5, "axis": "x", "origin": [8, 8.655, 9.625]},
			"faces": {
				"north": {"uv": [2.59375, 1.0625, 2.59375, 1.0625], "texture": "#0"},
				"east": {"uv": [2.59375, 1.0625, 2.59375, 1.0625], "texture": "#0"},
				"south": {"uv": [2.59375, 1.0625, 2.59375, 1.0625], "texture": "#0"},
				"west": {"uv": [2.59375, 1.0625, 2.59375, 1.0625], "texture": "#0"},
				"up": {"uv": [2.59375, 1.0625, 2.59375, 1.0625], "texture": "#0"}
			}
		},
		{
			"from": [7.675, 8.275, 9.6],
			"to": [8.325, 9, 9.65],
			"rotation": {"angle": -22.5, "axis": "x", "origin": [8, 8.655, 9.75]},
			"faces": {
				"north": {"uv": [2.59375, 1.0625, 2.59375, 1.0625], "texture": "#0"},
				"east": {"uv": [2.59375, 1.0625, 2.59375, 1.0625], "texture": "#0"},
				"south": {"uv": [2.59375, 1.0625, 2.59375, 1.0625], "texture": "#0"},
				"west": {"uv": [2.59375, 1.0625, 2.59375, 1.0625], "texture": "#0"},
				"up": {"uv": [2.59375, 1.0625, 2.59375, 1.0625], "texture": "#0"}
			}
		},
		{
			"from": [7.675, 8.275, 9.725],
			"to": [8.325, 9, 9.8],
			"rotation": {"angle": -22.5, "axis": "x", "origin": [8, 8.655, 9.875]},
			"faces": {
				"north": {"uv": [2.59375, 1.0625, 2.59375, 1.0625], "texture": "#0"},
				"east": {"uv": [2.59375, 1.0625, 2.59375, 1.0625], "texture": "#0"},
				"south": {"uv": [2.59375, 1.0625, 2.59375, 1.0625], "texture": "#0"},
				"west": {"uv": [2.59375, 1.0625, 2.59375, 1.0625], "texture": "#0"},
				"up": {"uv": [2.59375, 1.0625, 2.59375, 1.0625], "texture": "#0"}
			}
		},
		{
			"from": [7.675, 8.425, 4.95],
			"to": [8.325, 9, 5],
			"rotation": {"angle": -22.5, "axis": "x", "origin": [8, 8.63, 5.1]},
			"faces": {
				"north": {"uv": [2.59375, 1.0625, 2.59375, 1.0625], "texture": "#0"},
				"east": {"uv": [2.59375, 1.0625, 2.59375, 1.0625], "texture": "#0"},
				"south": {"uv": [2.59375, 1.0625, 2.59375, 1.0625], "texture": "#0"},
				"west": {"uv": [2.59375, 1.0625, 2.59375, 1.0625], "texture": "#0"},
				"up": {"uv": [2.59375, 1.0625, 2.59375, 1.0625], "texture": "#0"}
			}
		},
		{
			"from": [7.675, 8.25, 5.45],
			"to": [8.325, 9, 5.5],
			"rotation": {"angle": -22.5, "axis": "x", "origin": [8, 8.63, 5.6]},
			"faces": {
				"north": {"uv": [2.59375, 1.0625, 2.59375, 1.0625], "texture": "#0"},
				"east": {"uv": [2.59375, 1.0625, 2.59375, 1.0625], "texture": "#0"},
				"south": {"uv": [2.59375, 1.0625, 2.59375, 1.0625], "texture": "#0"},
				"west": {"uv": [2.59375, 1.0625, 2.59375, 1.0625], "texture": "#0"},
				"up": {"uv": [2.59375, 1.0625, 2.59375, 1.0625], "texture": "#0"}
			}
		},
		{
			"from": [7.675, 8.3, 5.2],
			"to": [8.325, 9, 5.25],
			"rotation": {"angle": -22.5, "axis": "x", "origin": [8, 8.63, 5.35]},
			"faces": {
				"north": {"uv": [2.59375, 1.0625, 2.59375, 1.0625], "texture": "#0"},
				"east": {"uv": [2.59375, 1.0625, 2.59375, 1.0625], "texture": "#0"},
				"south": {"uv": [2.59375, 1.0625, 2.59375, 1.0625], "texture": "#0"},
				"west": {"uv": [2.59375, 1.0625, 2.59375, 1.0625], "texture": "#0"},
				"up": {"uv": [2.59375, 1.0625, 2.59375, 1.0625], "texture": "#0"},
				"down": {"uv": [2.59375, 1.0625, 2.59375, 1.0625], "texture": "#0"}
			}
		},
		{
			"from": [7.675, 8.25, 5.7],
			"to": [8.325, 9, 5.75],
			"rotation": {"angle": -22.5, "axis": "x", "origin": [8, 8.63, 5.85]},
			"faces": {
				"north": {"uv": [2.59375, 1.0625, 2.59375, 1.0625], "texture": "#0"},
				"east": {"uv": [2.59375, 1.0625, 2.59375, 1.0625], "texture": "#0"},
				"south": {"uv": [2.59375, 1.0625, 2.59375, 1.0625], "texture": "#0"},
				"west": {"uv": [2.59375, 1.0625, 2.59375, 1.0625], "texture": "#0"},
				"up": {"uv": [2.59375, 1.0625, 2.59375, 1.0625], "texture": "#0"}
			}
		},
		{
			"from": [7.675, 8.45, 5.825],
			"to": [8.325, 9, 5.875],
			"rotation": {"angle": -22.5, "axis": "x", "origin": [8, 8.63, 5.975]},
			"faces": {
				"north": {"uv": [2.59375, 1.0625, 2.59375, 1.0625], "texture": "#0"},
				"east": {"uv": [2.59375, 1.0625, 2.59375, 1.0625], "texture": "#0"},
				"south": {"uv": [2.59375, 1.0625, 2.59375, 1.0625], "texture": "#0"},
				"west": {"uv": [2.59375, 1.0625, 2.59375, 1.0625], "texture": "#0"},
				"up": {"uv": [2.59375, 1.0625, 2.59375, 1.0625], "texture": "#0"}
			}
		},
		{
			"from": [7.64766, 8.24734, 6.01718],
			"to": [8.35703, 8.91719, 6.51718],
			"rotation": {"angle": 0, "axis": "y", "origin": [8, 8.6375, 6.2]},
			"faces": {
				"east": {"uv": [16, 10.66667, 10.66667, 16], "texture": "#13"},
				"west": {"uv": [10.66667, 10.66667, 16, 16], "texture": "#13"}
			}
		}
	],
	"groups": [
		{
			"name": "slide",
			"origin": [8, 8.7875, 4.325],
			"color": 0,
			"children": [0, 1, 2, 3, 4, 5, 6, 7, 8]
		},
		{
			"name": "hexadecagon",
			"origin": [8, 8, 8],
			"color": 0,
			"children": [9, 10, 11, 12, 13, 14, 15, 16, 17, 18, 19, 20, 21, 22, 23, 24, 25, 26, 27, 28, 29, 30, 31, 32, 33, 34, 35, 36, 37, 38, 39, 40, 41, 42]
		},
		{
			"name": "octagon",
			"origin": [8, 8, 8],
			"color": 0,
			"children": [
				43,
				44,
				45,
				46,
				{
					"name": "octagon",
					"origin": [8, 8, 8],
					"color": 0,
					"children": [47, 48, 49, 50]
				}
			]
		},
		{
			"name": "octagon",
			"origin": [8, 8, 8],
			"color": 0,
			"children": [51, 52, 53, 54]
		},
		55,
		56,
		57,
		58,
		59,
		{
			"name": "a",
			"origin": [8, 8, 8],
			"color": 0,
			"children": [
				{
					"name": "hexadecagon",
					"origin": [8, 8, 8],
					"color": 0,
					"children": [60, 61, 62, 63, 64, 65, 66, 67, 68, 69, 70, 71, 72, 73, 74, 75]
				},
				{
					"name": "slide",
					"origin": [8, 8.7875, 4.325],
					"color": 0,
					"children": [76, 77, 78, 79, 80, 81, 82, 83, 84, 85, 86, 87, 88, 89, 90, 91, 92, 93, 94, 95, 96, 97, 98, 99, 100, 101, 102, 103, 104, 105, 106, 107, 108, 109, 110, 111, 112, 113, 114, 115, 116, 117, 118]
				}
			]
		},
		119
	]
}