{
  "parent": "minecraft:block/block",
  "elements": [
    {
      "faces": {
        "down": {
          "texture": "#particle"
        },
        "east": {
          "texture": "#particle"
        },
        "north": {
          "texture": "#particle"
        },
        "south": {
          "texture": "#particle"
        },
        "up": {
          "texture": "#particle"
        },
        "west": {
          "texture": "#particle"
        }
      },
      "from": [
        0,
        0,
        0
      ],
      "to": [
        16,
        16,
        8
      ]
    }
  ]
}