{
  "accuracy": 71.8,
  "accuracy_aim": 64.7,
  "accuracy_aim_crouch": 69.4,
  "accuracy_aim_jumping": 10.6,
  "accuracy_aim_moving": 21.0,
  "accuracy_crouch": 77.1,
  "accuracy_jumping": 28.1,
  "accuracy_moving": 49.5,
  "ammo_type": "ava:regular_rifle_magazine",
  "attack_damage": 49.0,
  "attack_damage_floating": {
    "max": 8.0,
    "min": -4.0
  },
  "capacity": 30,
  "fire_rate": 8.7,
  "initial_accuracy": 96.1,
  "initial_accuracy_aim": 96.1,
  "initial_accuracy_aim_crouch": 95.8,
  "initial_accuracy_aim_jumping": 53.0,
  "initial_accuracy_aim_moving": 73.3,
  "initial_accuracy_crouch": 96.8,
  "initial_accuracy_jumping": 69.4,
  "initial_accuracy_moving": 100.0,
  "mobility": 92.4,
  "pellets": 1,
  "penetration": 65.0,
  "range": 63.0,
  "recoil_compensation": 64.9,
  "shake_factor": 1.5,
  "shake_turn_chance": 0.3,
  "spread_factor": 1.0,
  "spread_max": 1.0,
  "spread_recovery": 0.043799996,
  "spread_recovery_factor": 1.5,
  "stability": 64.9,
  "stability_aim": 71.1,
  "stability_aim_crouch": 68.4,
  "stability_aim_jumping": 26.0,
  "stability_aim_moving": 54.3,
  "stability_crouch": 71.8,
  "stability_jumping": 50.9,
  "stability_moving": 62.2,
  "weapon": "ava:ak12"
}