{
  "accuracy": 24.7,
  "accuracy_aim": 32.4,
  "accuracy_aim_crouch": 90.9,
  "accuracy_aim_jumping": 13.1,
  "accuracy_aim_moving": 23.8,
  "accuracy_crouch": 42.4,
  "accuracy_jumping": 15.9,
  "accuracy_moving": 19.4,
  "ammo_type": "ava:heavy_ap_magazine",
  "attack_damage": 200.0,
  "attack_damage_floating": {
    "max": 12.0,
    "min": -6.0
  },
  "capacity": 10,
  "fire_rate": 1.4,
  "initial_accuracy": 24.7,
  "initial_accuracy_aim": 93.0,
  "initial_accuracy_aim_crouch": 95.0,
  "initial_accuracy_aim_jumping": 13.1,
  "initial_accuracy_aim_moving": 90.0,
  "initial_accuracy_crouch": 42.4,
  "initial_accuracy_jumping": 15.9,
  "initial_accuracy_moving": 19.4,
  "mobility": 93.9,
  "pellets": 1,
  "penetration": 75.0,
  "range": 99.7,
  "recoil_compensation": 0.25,
  "shake_factor": 1.0,
  "shake_turn_chance": 0.5,
  "spread_factor": 1.0,
  "spread_max": 1.0,
  "spread_recovery": 0.11445001,
  "spread_recovery_factor": 1.5,
  "stability": 40.5,
  "stability_aim": 40.5,
  "stability_aim_crouch": 57.1,
  "stability_aim_jumping": 11.6,
  "stability_aim_moving": 23.3,
  "stability_crouch": 76.0,
  "stability_jumping": 54.9,
  "stability_moving": 54.9,
  "weapon": "ava:barrett"
}