{
  "accuracy": 86.5,
  "accuracy_aim": 89.7,
  "accuracy_aim_crouch": 90.7,
  "accuracy_aim_jumping": 76.8,
  "accuracy_aim_moving": 78.9,
  "accuracy_crouch": 87.6,
  "accuracy_jumping": 83.4,
  "accuracy_moving": 85.3,
  "ammo_type": "ava:regular_pistol_magazine",
  "attack_damage": 36.5,
  "attack_damage_floating": {
    "max": 5.0,
    "min": -2.5
  },
  "capacity": 15,
  "fire_rate": 8.14,
  "initial_accuracy": 86.5,
  "initial_accuracy_aim": 89.7,
  "initial_accuracy_aim_crouch": 90.7,
  "initial_accuracy_aim_jumping": 76.8,
  "initial_accuracy_aim_moving": 78.9,
  "initial_accuracy_crouch": 87.6,
  "initial_accuracy_jumping": 83.4,
  "initial_accuracy_moving": 85.3,
  "mobility": 97.9,
  "pellets": 1,
  "penetration": 0.0,
  "range": 40.2,
  "recoil_compensation": 81.4,
  "shake_factor": 1.0,
  "shake_turn_chance": 0.33,
  "spread_factor": 5.0,
  "spread_max": 2.5,
  "spread_recovery": 0.02175,
  "spread_recovery_factor": 1.5,
  "stability": 81.4,
  "stability_aim": 81.4,
  "stability_aim_crouch": 84.5,
  "stability_aim_jumping": 74.4,
  "stability_aim_moving": 75.7,
  "stability_crouch": 84.5,
  "stability_jumping": 74.4,
  "stability_moving": 75.7,
  "weapon": "ava:beretta_92fs_sports"
}