{
  "accuracy": 78.0,
  "accuracy_aim": 83.2,
  "accuracy_aim_crouch": 84.6,
  "accuracy_aim_jumping": 68.1,
  "accuracy_aim_moving": 81.8,
  "accuracy_crouch": 79.8,
  "accuracy_jumping": 68.1,
  "accuracy_moving": 76.4,
  "ammo_type": "ava:regular_pistol_magazine",
  "attack_damage": 67.0,
  "attack_damage_floating": {
    "max": 8.0,
    "min": -4.0
  },
  "capacity": 7,
  "fire_rate": 4.17,
  "initial_accuracy": 78.0,
  "initial_accuracy_aim": 83.2,
  "initial_accuracy_aim_crouch": 84.6,
  "initial_accuracy_aim_jumping": 68.1,
  "initial_accuracy_aim_moving": 81.8,
  "initial_accuracy_crouch": 79.8,
  "initial_accuracy_jumping": 68.1,
  "initial_accuracy_moving": 76.4,
  "mobility": 94.4,
  "pellets": 1,
  "penetration": 40.0,
  "range": 42.4,
  "recoil_compensation": 59.1,
  "shake_factor": 1.0,
  "shake_turn_chance": 0.5,
  "spread_factor": 1.0,
  "spread_max": 1.0,
  "spread_recovery": 0.0345,
  "spread_recovery_factor": 1.5,
  "stability": 59.1,
  "stability_aim": 59.1,
  "stability_aim_crouch": 67.3,
  "stability_aim_jumping": 38.7,
  "stability_aim_moving": 51.0,
  "stability_crouch": 67.3,
  "stability_jumping": 38.7,
  "stability_moving": 51.0,
  "weapon": "ava:desert_eagle"
}