{
  "accuracy": 24.7,
  "accuracy_aim": 92.2,
  "accuracy_aim_crouch": 95.8,
  "accuracy_aim_jumping": 40.7,
  "accuracy_aim_moving": 80.2,
  "accuracy_crouch": 42.4,
  "accuracy_jumping": 15.9,
  "accuracy_moving": 19.4,
  "ammo_type": "ava:small_sniper_magazine",
  "attack_damage": 127.6,
  "attack_damage_floating": {
    "max": 5.0,
    "min": -2.5
  },
  "capacity": 5,
  "fire_rate": 0.9,
  "initial_accuracy": 24.7,
  "initial_accuracy_aim": 92.2,
  "initial_accuracy_aim_crouch": 95.8,
  "initial_accuracy_aim_jumping": 40.7,
  "initial_accuracy_aim_moving": 80.2,
  "initial_accuracy_crouch": 42.4,
  "initial_accuracy_jumping": 15.9,
  "initial_accuracy_moving": 19.4,
  "mobility": 93.3,
  "pellets": 1,
  "penetration": 65.0,
  "range": 94.8,
  "recoil_compensation": 63.6,
  "shake_factor": 1.0,
  "shake_turn_chance": 0.5,
  "spread_factor": 1.0,
  "spread_max": 1.0,
  "spread_recovery": 0.11445001,
  "spread_recovery_factor": 1.5,
  "stability": 63.6,
  "stability_aim": 64.0,
  "stability_aim_crouch": 68.1,
  "stability_aim_jumping": 57.3,
  "stability_aim_moving": 57.3,
  "stability_crouch": 67.7,
  "stability_jumping": 57.3,
  "stability_moving": 57.3,
  "weapon": "ava:dsr1"
}