{
  "accuracy": 73.7,
  "accuracy_aim": 81.1,
  "accuracy_aim_crouch": 81.1,
  "accuracy_aim_jumping": 62.0,
  "accuracy_aim_moving": 67.1,
  "accuracy_crouch": 73.7,
  "accuracy_jumping": 65.1,
  "accuracy_moving": 70.0,
  "ammo_type": "ava:regular_sub_machinegun_magazine",
  "attack_damage": 36.0,
  "attack_damage_floating": {
    "max": 6.0,
    "min": -3.0
  },
  "capacity": 30,
  "fire_rate": 11.43,
  "initial_accuracy": 81.9,
  "initial_accuracy_aim": 84.1,
  "initial_accuracy_aim_crouch": 84.1,
  "initial_accuracy_aim_jumping": 68.3,
  "initial_accuracy_aim_moving": 72.9,
  "initial_accuracy_crouch": 81.9,
  "initial_accuracy_jumping": 75.0,
  "initial_accuracy_moving": 79.0,
  "mobility": 98.7,
  "pellets": 1,
  "penetration": 28.0,
  "range": 49.8,
  "recoil_compensation": 85.1,
  "shake_factor": 1.0,
  "shake_turn_chance": 0.5,
  "spread_factor": 1.0,
  "spread_max": 1.0,
  "spread_recovery": 0.040950004,
  "spread_recovery_factor": 1.5,
  "stability": 85.1,
  "stability_aim": 85.1,
  "stability_aim_crouch": 87.6,
  "stability_aim_jumping": 72.9,
  "stability_aim_moving": 75.9,
  "stability_crouch": 87.6,
  "stability_jumping": 78.3,
  "stability_moving": 80.9,
  "weapon": "ava:k1a1"
}