{
  "accuracy": 77.2,
  "accuracy_aim": 78.8,
  "accuracy_aim_crouch": 80.5,
  "accuracy_aim_jumping": 65.1,
  "accuracy_aim_moving": 68.5,
  "accuracy_crouch": 79.0,
  "accuracy_jumping": 68.3,
  "accuracy_moving": 70.8,
  "ammo_type": "ava:regular_sub_machinegun_magazine",
  "attack_damage": 41.5,
  "attack_damage_floating": {
    "max": 9.0,
    "min": -4.5
  },
  "capacity": 28,
  "fire_rate": 12.5,
  "initial_accuracy": 77.5,
  "initial_accuracy_aim": 79.0,
  "initial_accuracy_aim_crouch": 80.6,
  "initial_accuracy_aim_jumping": 66.7,
  "initial_accuracy_aim_moving": 69.9,
  "initial_accuracy_crouch": 79.3,
  "initial_accuracy_jumping": 69.6,
  "initial_accuracy_moving": 72.0,
  "mobility": 101.1,
  "pellets": 1,
  "penetration": 15.0,
  "range": 48.5,
  "recoil_compensation": 91.3,
  "shake_factor": 1.25,
  "shake_turn_chance": 0.5,
  "spread_factor": 1.0,
  "spread_max": 1.0,
  "spread_recovery": 0.035700005,
  "spread_recovery_factor": 1.5,
  "stability": 91.3,
  "stability_aim": 88.3,
  "stability_aim_crouch": 90.8,
  "stability_aim_jumping": 77.4,
  "stability_aim_moving": 80.1,
  "stability_crouch": 91.7,
  "stability_jumping": 83.1,
  "stability_moving": 86.0,
  "weapon": "ava:kriss_super_v"
}