{
  "accuracy": 67.9,
  "accuracy_aim": 90.2,
  "accuracy_aim_crouch": 93.0,
  "accuracy_aim_jumping": 49.8,
  "accuracy_aim_moving": 90.2,
  "accuracy_crouch": 74.7,
  "accuracy_jumping": 55.8,
  "accuracy_moving": 60.9,
  "ammo_type": "ava:small_rifle_magazine",
  "attack_damage": 70.4,
  "attack_damage_floating": {
    "max": 4.0,
    "min": -2.5
  },
  "capacity": 8,
  "fire_rate": 9.09,
  "initial_accuracy": 67.9,
  "initial_accuracy_aim": 90.2,
  "initial_accuracy_aim_crouch": 93.0,
  "initial_accuracy_aim_jumping": 49.8,
  "initial_accuracy_aim_moving": 90.2,
  "initial_accuracy_crouch": 74.7,
  "initial_accuracy_jumping": 55.8,
  "initial_accuracy_moving": 60.9,
  "mobility": 93.5,
  "pellets": 1,
  "penetration": 68.0,
  "range": 55.4,
  "recoil_compensation": 89.5,
  "shake_factor": 10.0,
  "shake_turn_chance": 1.0,
  "spread_factor": 1.0,
  "spread_max": 1.0,
  "spread_recovery": 0.04965,
  "spread_recovery_factor": 1.5,
  "stability": 89.5,
  "stability_aim": 92.7,
  "stability_aim_crouch": 98.1,
  "stability_aim_jumping": 82.6,
  "stability_aim_moving": 97.8,
  "stability_crouch": 92.6,
  "stability_jumping": 79.7,
  "stability_moving": 88.0,
  "weapon": "ava:m1_garand"
}