{
  "accuracy": 85.6,
  "accuracy_aim": 88.7,
  "accuracy_aim_crouch": 90.0,
  "accuracy_aim_jumping": 44.1,
  "accuracy_aim_moving": 70.4,
  "accuracy_crouch": 86.9,
  "accuracy_jumping": 46.1,
  "accuracy_moving": 72.6,
  "ammo_type": "ava:regular_rifle_magazine",
  "attack_damage": 35.0,
  "attack_damage_floating": {
    "max": 6.0,
    "min": -3.0
  },
  "capacity": 30,
  "fire_rate": 10.5,
  "initial_accuracy": 90.0,
  "initial_accuracy_aim": 89.7,
  "initial_accuracy_aim_crouch": 90.9,
  "initial_accuracy_aim_jumping": 48.6,
  "initial_accuracy_aim_moving": 75.3,
  "initial_accuracy_crouch": 91.4,
  "initial_accuracy_jumping": 54.4,
  "initial_accuracy_moving": 81.9,
  "mobility": 95.0,
  "pellets": 1,
  "penetration": 28.0,
  "range": 70.0,
  "recoil_compensation": 77.2,
  "shake_factor": 0.5,
  "shake_turn_chance": 0.1,
  "spread_factor": 1.0,
  "spread_max": 1.0,
  "spread_recovery": 0.023100002,
  "spread_recovery_factor": 1.5,
  "stability": 77.2,
  "stability_aim": 77.2,
  "stability_aim_crouch": 77.2,
  "stability_aim_jumping": 42.5,
  "stability_aim_moving": 67.5,
  "stability_crouch": 77.2,
  "stability_jumping": 55.6,
  "stability_moving": 74.6,
  "weapon": "ava:m4a1_cotton_candy"
}