{
  "accuracy": 85.4,
  "accuracy_aim": 85.5,
  "accuracy_aim_crouch": 87.9,
  "accuracy_aim_jumping": 62.6,
  "accuracy_aim_moving": 69.9,
  "accuracy_crouch": 85.7,
  "accuracy_jumping": 62.7,
  "accuracy_moving": 81.4,
  "ammo_type": "ava:regular_sub_machinegun_magazine",
  "attack_damage": 34.0,
  "attack_damage_floating": {
    "max": 2.0,
    "min": -1.0
  },
  "capacity": 50,
  "fire_rate": 11.76,
  "initial_accuracy": 87.4,
  "initial_accuracy_aim": 86.2,
  "initial_accuracy_aim_crouch": 88.6,
  "initial_accuracy_aim_jumping": 67.9,
  "initial_accuracy_aim_moving": 76.7,
  "initial_accuracy_crouch": 87.5,
  "initial_accuracy_jumping": 70.9,
  "initial_accuracy_moving": 86.2,
  "mobility": 98.7,
  "pellets": 1,
  "penetration": 35.0,
  "range": 39.2,
  "recoil_compensation": 90.9,
  "shake_factor": 1.0,
  "shake_turn_chance": 0.05,
  "spread_factor": 1.0,
  "spread_max": 1.0,
  "spread_recovery": 0.023399998,
  "spread_recovery_factor": 1.5,
  "stability": 90.9,
  "stability_aim": 90.7,
  "stability_aim_crouch": 92.7,
  "stability_aim_jumping": 76.2,
  "stability_aim_moving": 79.8,
  "stability_crouch": 92.9,
  "stability_jumping": 81.2,
  "stability_moving": 84.6,
  "weapon": "ava:p90"
}