{
  "accuracy": 100.0,
  "accuracy_aim": 100.0,
  "accuracy_aim_crouch": 100.0,
  "accuracy_aim_jumping": 100.0,
  "accuracy_aim_moving": 100.0,
  "accuracy_crouch": 100.0,
  "accuracy_jumping": 100.0,
  "accuracy_moving": 100.0,
  "ammo_type": "ava:m202_rocket",
  "attack_damage": 250.0,
  "attack_damage_floating": {
    "max": 0.0,
    "min": 0.0
  },
  "capacity": 1,
  "fire_rate": 1.0,
  "initial_accuracy": 100.0,
  "initial_accuracy_aim": 100.0,
  "initial_accuracy_aim_crouch": 100.0,
  "initial_accuracy_aim_jumping": 100.0,
  "initial_accuracy_aim_moving": 100.0,
  "initial_accuracy_crouch": 100.0,
  "initial_accuracy_jumping": 100.0,
  "initial_accuracy_moving": 100.0,
  "mobility": 85.0,
  "pellets": 1,
  "penetration": 0.0,
  "range": 100.0,
  "recoil_compensation": 50.0,
  "shake_factor": 1.0,
  "shake_turn_chance": 0.5,
  "spread_factor": 1.0,
  "spread_max": 1.0,
  "spread_recovery": 0.0015,
  "spread_recovery_factor": 1.5,
  "stability": 50.0,
  "stability_aim": 50.0,
  "stability_aim_crouch": 50.0,
  "stability_aim_jumping": 50.0,
  "stability_aim_moving": 50.0,
  "stability_crouch": 50.0,
  "stability_jumping": 50.0,
  "stability_moving": 50.0,
  "weapon": "ava:rpg7"
}