{
  "accuracy": 85.6,
  "accuracy_aim": 73.3,
  "accuracy_aim_crouch": 83.6,
  "accuracy_aim_jumping": 38.0,
  "accuracy_aim_moving": 73.3,
  "accuracy_crouch": 86.9,
  "accuracy_jumping": 55.2,
  "accuracy_moving": 83.8,
  "ammo_type": "ava:regular_rifle_magazine",
  "attack_damage": 36.0,
  "attack_damage_floating": {
    "max": 4.0,
    "min": -2.0
  },
  "capacity": 30,
  "fire_rate": 10.53,
  "initial_accuracy": 88.8,
  "initial_accuracy_aim": 83.6,
  "initial_accuracy_aim_crouch": 91.4,
  "initial_accuracy_aim_jumping": 51.1,
  "initial_accuracy_aim_moving": 83.6,
  "initial_accuracy_crouch": 89.6,
  "initial_accuracy_jumping": 64.2,
  "initial_accuracy_moving": 87.6,
  "mobility": 96.2,
  "pellets": 1,
  "penetration": 28.0,
  "range": 70.6,
  "recoil_compensation": 77.0,
  "shake_factor": 2.25,
  "shake_turn_chance": 0.01,
  "spread_factor": 1.0,
  "spread_max": 1.0,
  "spread_recovery": 0.023100002,
  "spread_recovery_factor": 1.5,
  "stability": 77.0,
  "stability_aim": 77.2,
  "stability_aim_crouch": 79.4,
  "stability_aim_jumping": 45.9,
  "stability_aim_moving": 73.9,
  "stability_crouch": 82.6,
  "stability_jumping": 64.7,
  "stability_moving": 76.8,
  "weapon": "ava:scar_l"
}