{
  "accuracy": 75.4,
  "accuracy_aim": 78.2,
  "accuracy_aim_crouch": 80.0,
  "accuracy_aim_jumping": 61.1,
  "accuracy_aim_moving": 70.9,
  "accuracy_crouch": 75.4,
  "accuracy_jumping": 54.6,
  "accuracy_moving": 65.5,
  "ammo_type": "ava:regular_rifle_magazine",
  "attack_damage": 39.2,
  "attack_damage_floating": {
    "max": 6.0,
    "min": -4.2
  },
  "capacity": 30,
  "fire_rate": 10.0,
  "initial_accuracy": 84.7,
  "initial_accuracy_aim": 81.1,
  "initial_accuracy_aim_crouch": 82.4,
  "initial_accuracy_aim_jumping": 66.6,
  "initial_accuracy_aim_moving": 76.4,
  "initial_accuracy_crouch": 84.7,
  "initial_accuracy_jumping": 61.6,
  "initial_accuracy_moving": 74.7,
  "mobility": 93.2,
  "pellets": 1,
  "penetration": 28.0,
  "range": 69.6,
  "recoil_compensation": 90.8,
  "shake_factor": 2.0,
  "shake_turn_chance": 0.2,
  "spread_factor": 1.0,
  "spread_max": 1.0,
  "spread_recovery": 0.038399998,
  "spread_recovery_factor": 0.7,
  "stability": 90.8,
  "stability_aim": 88.4,
  "stability_aim_crouch": 90.9,
  "stability_aim_jumping": 77.7,
  "stability_aim_moving": 79.7,
  "stability_crouch": 90.9,
  "stability_jumping": 82.9,
  "stability_moving": 90.7,
  "weapon": "ava:xm8_snowfall"
}