{
  "variants": {
    "facing=east": {
      "model": "ava:block/slope_90s/bright_pink_concrete_slope_90",
      "y": 90
    },
    "facing=north": {
      "model": "ava:block/slope_90s/bright_pink_concrete_slope_90"
    },
    "facing=south": {
      "model": "ava:block/slope_90s/bright_pink_concrete_slope_90",
      "y": 180
    },
    "facing=west": {
      "model": "ava:block/slope_90s/bright_pink_concrete_slope_90",
      "y": 270
    }
  }
}