{
  "variants": {
    "facing=east": {
      "model": "ava:block/slope_6752s/crimson_hyphae_slope_6752",
      "y": 90
    },
    "facing=north": {
      "model": "ava:block/slope_6752s/crimson_hyphae_slope_6752"
    },
    "facing=south": {
      "model": "ava:block/slope_6752s/crimson_hyphae_slope_6752",
      "y": 180
    },
    "facing=west": {
      "model": "ava:block/slope_6752s/crimson_hyphae_slope_6752",
      "y": 270
    }
  }
}