{
  "variants": {
    "facing=east": {
      "model": "ava:block/slope_675s/cyan_glazed_terracotta_slope_675",
      "y": 90
    },
    "facing=north": {
      "model": "ava:block/slope_675s/cyan_glazed_terracotta_slope_675"
    },
    "facing=south": {
      "model": "ava:block/slope_675s/cyan_glazed_terracotta_slope_675",
      "y": 180
    },
    "facing=west": {
      "model": "ava:block/slope_675s/cyan_glazed_terracotta_slope_675",
      "y": 270
    }
  }
}