{
  "variants": {
    "facing=east": {
      "model": "ava:block/slope_2253s/cyan_concrete_slope_2253",
      "y": 90
    },
    "facing=north": {
      "model": "ava:block/slope_2253s/cyan_concrete_slope_2253"
    },
    "facing=south": {
      "model": "ava:block/slope_2253s/cyan_concrete_slope_2253",
      "y": 180
    },
    "facing=west": {
      "model": "ava:block/slope_2253s/cyan_concrete_slope_2253",
      "y": 270
    }
  }
}