{
  "variants": {
    "facing=east": {
      "model": "ava:block/slope_6753s/gold_block_slope_6753",
      "y": 90
    },
    "facing=north": {
      "model": "ava:block/slope_6753s/gold_block_slope_6753"
    },
    "facing=south": {
      "model": "ava:block/slope_6753s/gold_block_slope_6753",
      "y": 180
    },
    "facing=west": {
      "model": "ava:block/slope_6753s/gold_block_slope_6753",
      "y": 270
    }
  }
}