{
  "variants": {
    "facing=east": {
      "model": "ava:block/slope_225s/mossy_cobblestone_slope_225",
      "y": 90
    },
    "facing=north": {
      "model": "ava:block/slope_225s/mossy_cobblestone_slope_225"
    },
    "facing=south": {
      "model": "ava:block/slope_225s/mossy_cobblestone_slope_225",
      "y": 180
    },
    "facing=west": {
      "model": "ava:block/slope_225s/mossy_cobblestone_slope_225",
      "y": 270
    }
  }
}