{
  "variants": {
    "facing=east": {
      "model": "ava:block/slope_2252s/plaster_gray_slope_2252",
      "y": 90
    },
    "facing=north": {
      "model": "ava:block/slope_2252s/plaster_gray_slope_2252"
    },
    "facing=south": {
      "model": "ava:block/slope_2252s/plaster_gray_slope_2252",
      "y": 180
    },
    "facing=west": {
      "model": "ava:block/slope_2252s/plaster_gray_slope_2252",
      "y": 270
    }
  }
}