{
  "variants": {
    "type=bottom": {
      "model": "ava:block/plaster_slabs_orange"
    },
    "type=double": {
      "model": "ava:block/plaster_orange"
    },
    "type=top": {
      "model": "ava:block/plaster_slabs_orange_top"
    }
  }
}