{
  "multipart": [
    {
      "apply": {
        "model": "ava:block/repairable_black_stained_glass_pane_post"
      }
    },
    {
      "apply": {
        "model": "ava:block/repairable_black_stained_glass_pane_side"
      },
      "when": {
        "north": "true"
      }
    },
    {
      "apply": {
        "model": "ava:block/repairable_black_stained_glass_pane_noside"
      },
      "when": {
        "north": "false"
      }
    },
    {
      "apply": {
        "model": "ava:block/repairable_black_stained_glass_pane_side_alt"
      },
      "when": {
        "south": "true"
      }
    },
    {
      "apply": {
        "model": "ava:block/repairable_black_stained_glass_pane_noside_alt",
        "y": 90
      },
      "when": {
        "south": "false"
      }
    },
    {
      "apply": {
        "model": "ava:block/repairable_black_stained_glass_pane_side_alt",
        "y": 90
      },
      "when": {
        "west": "true"
      }
    },
    {
      "apply": {
        "model": "ava:block/repairable_black_stained_glass_pane_noside",
        "y": 270
      },
      "when": {
        "west": "false"
      }
    },
    {
      "apply": {
        "model": "ava:block/repairable_black_stained_glass_pane_side",
        "y": 90
      },
      "when": {
        "east": "true"
      }
    },
    {
      "apply": {
        "model": "ava:block/repairable_black_stained_glass_pane_noside_alt"
      },
      "when": {
        "east": "false"
      }
    }
  ]
}