{
  "variants": {
    "facing=east,is_top=false": {
      "model": "ava:block/planks_floors/stripped_birch_wood_planks_floor_bottom",
      "y": 90
    },
    "facing=east,is_top=true": {
      "model": "ava:block/planks_floors/stripped_birch_wood_planks_floor_top",
      "y": 90
    },
    "facing=north,is_top=false": {
      "model": "ava:block/planks_floors/stripped_birch_wood_planks_floor_bottom"
    },
    "facing=north,is_top=true": {
      "model": "ava:block/planks_floors/stripped_birch_wood_planks_floor_top"
    },
    "facing=south,is_top=false": {
      "model": "ava:block/planks_floors/stripped_birch_wood_planks_floor_bottom",
      "y": 180
    },
    "facing=south,is_top=true": {
      "model": "ava:block/planks_floors/stripped_birch_wood_planks_floor_top",
      "y": 180
    },
    "facing=west,is_top=false": {
      "model": "ava:block/planks_floors/stripped_birch_wood_planks_floor_bottom",
      "y": 270
    },
    "facing=west,is_top=true": {
      "model": "ava:block/planks_floors/stripped_birch_wood_planks_floor_top",
      "y": 270
    }
  }
}