{
  "variants": {
    "facing=east": {
      "model": "ava:block/thin_pillars/thin_brown_terracotta",
      "y": 90
    },
    "facing=north": {
      "model": "ava:block/thin_pillars/thin_brown_terracotta"
    },
    "facing=south": {
      "model": "ava:block/thin_pillars/thin_brown_terracotta",
      "y": 180
    },
    "facing=west": {
      "model": "ava:block/thin_pillars/thin_brown_terracotta",
      "y": 270
    }
  }
}