{
  "variants": {
    "facing=east": {
      "model": "ava:block/wall_thin_pillars/wall_thin_lapis_block",
      "y": 90
    },
    "facing=north": {
      "model": "ava:block/wall_thin_pillars/wall_thin_lapis_block"
    },
    "facing=south": {
      "model": "ava:block/wall_thin_pillars/wall_thin_lapis_block",
      "y": 180
    },
    "facing=west": {
      "model": "ava:block/wall_thin_pillars/wall_thin_lapis_block",
      "y": 270
    }
  }
}