{
	"credit": "Made with Blockbench",
	"textures": {
		"0": "ava:item/gun_textures/palette_black",
		"particle": "ava:item/gun_textures/palette_black"
	},
	"elements": [
		{
			"name": "octagon",
			"from": [7.65, 1.0457, 6.20332],
			"to": [8.35, 1.4197, 8.48472],
			"rotation": {"angle": 22.5, "axis": "x", "origin": [8, -3.78444, 10.3998]},
			"faces": {
				"north": {"uv": [4.96875, 2.84375, 4.96875, 2.84375], "texture": "#0"},
				"east": {"uv": [4.96875, 2.84375, 4.96875, 2.84375], "texture": "#0"},
				"south": {"uv": [4.96875, 2.84375, 4.96875, 2.84375], "texture": "#0"},
				"west": {"uv": [4.96875, 2.84375, 4.96875, 2.84375], "texture": "#0"},
				"down": {"uv": [4.96875, 2.84375, 4.96875, 2.84375], "texture": "#0"}
			}
		},
		{
			"name": "octagon",
			"from": [7.65, 3.22425, 8.60627],
			"to": [8.35, 3.41125, 11.03727],
			"rotation": {"angle": 0, "axis": "y", "origin": [8, -1.91444, 10.3998]},
			"faces": {
				"north": {"uv": [4.96875, 2.84375, 4.96875, 2.84375], "texture": "#0"},
				"east": {"uv": [4.96875, 2.84375, 4.96875, 2.84375], "texture": "#0"},
				"south": {"uv": [4.96875, 2.84375, 4.96875, 2.84375], "texture": "#0"},
				"west": {"uv": [4.96875, 2.84375, 4.96875, 2.84375], "texture": "#0"},
				"up": {"uv": [4.96875, 2.84375, 4.96875, 2.84375], "texture": "#0"},
				"down": {"uv": [4.96875, 2.84375, 4.96875, 2.84375], "texture": "#0"}
			}
		},
		{
			"name": "octagon",
			"from": [7.65, 3.03725, 8.55952],
			"to": [8.35, 3.22425, 10.99052],
			"rotation": {"angle": 0, "axis": "y", "origin": [8, -1.91444, 10.3998]},
			"faces": {
				"north": {"uv": [4.96875, 2.84375, 4.96875, 2.84375], "texture": "#0"},
				"east": {"uv": [4.96875, 2.84375, 4.96875, 2.84375], "texture": "#0"},
				"south": {"uv": [4.96875, 2.84375, 4.96875, 2.84375], "texture": "#0"},
				"west": {"uv": [4.96875, 2.84375, 4.96875, 2.84375], "texture": "#0"},
				"up": {"uv": [4.96875, 2.84375, 4.96875, 2.84375], "texture": "#0"},
				"down": {"uv": [4.96875, 2.84375, 4.96875, 2.84375], "texture": "#0"}
			}
		},
		{
			"name": "octagon",
			"from": [7.65, 2.85025, 8.51277],
			"to": [8.35, 3.03725, 10.94377],
			"rotation": {"angle": 0, "axis": "y", "origin": [8, -1.91444, 10.3998]},
			"faces": {
				"north": {"uv": [4.96875, 2.84375, 4.96875, 2.84375], "texture": "#0"},
				"east": {"uv": [4.96875, 2.84375, 4.96875, 2.84375], "texture": "#0"},
				"south": {"uv": [4.96875, 2.84375, 4.96875, 2.84375], "texture": "#0"},
				"west": {"uv": [4.96875, 2.84375, 4.96875, 2.84375], "texture": "#0"},
				"up": {"uv": [4.96875, 2.84375, 4.96875, 2.84375], "texture": "#0"},
				"down": {"uv": [4.96875, 2.84375, 4.96875, 2.84375], "texture": "#0"}
			}
		},
		{
			"name": "octagon",
			"from": [7.65, 2.66325, 8.46602],
			"to": [8.35, 2.85025, 10.89702],
			"rotation": {"angle": 0, "axis": "y", "origin": [8, -1.91444, 10.3998]},
			"faces": {
				"north": {"uv": [4.96875, 2.84375, 4.96875, 2.84375], "texture": "#0"},
				"east": {"uv": [4.96875, 2.84375, 4.96875, 2.84375], "texture": "#0"},
				"south": {"uv": [4.96875, 2.84375, 4.96875, 2.84375], "texture": "#0"},
				"west": {"uv": [4.96875, 2.84375, 4.96875, 2.84375], "texture": "#0"},
				"up": {"uv": [4.96875, 2.84375, 4.96875, 2.84375], "texture": "#0"},
				"down": {"uv": [4.96875, 2.84375, 4.96875, 2.84375], "texture": "#0"}
			}
		},
		{
			"name": "octagon",
			"from": [7.65, 2.47625, 8.41927],
			"to": [8.35, 2.66325, 10.85027],
			"rotation": {"angle": 0, "axis": "y", "origin": [8, -1.91444, 10.3998]},
			"faces": {
				"north": {"uv": [4.96875, 2.84375, 4.96875, 2.84375], "texture": "#0"},
				"east": {"uv": [4.96875, 2.84375, 4.96875, 2.84375], "texture": "#0"},
				"south": {"uv": [4.96875, 2.84375, 4.96875, 2.84375], "texture": "#0"},
				"west": {"uv": [4.96875, 2.84375, 4.96875, 2.84375], "texture": "#0"},
				"up": {"uv": [4.96875, 2.84375, 4.96875, 2.84375], "texture": "#0"},
				"down": {"uv": [4.96875, 2.84375, 4.96875, 2.84375], "texture": "#0"}
			}
		},
		{
			"name": "octagon",
			"from": [7.65, 2.10225, 9.16727],
			"to": [8.35, 2.28925, 10.75677],
			"rotation": {"angle": 0, "axis": "y", "origin": [8, -1.91444, 10.3998]},
			"faces": {
				"east": {"uv": [4.96875, 2.84375, 4.96875, 2.84375], "texture": "#0"},
				"south": {"uv": [4.96875, 2.84375, 4.96875, 2.84375], "texture": "#0"},
				"west": {"uv": [4.96875, 2.84375, 4.96875, 2.84375], "texture": "#0"},
				"down": {"uv": [4.96875, 2.84375, 4.96875, 2.84375], "texture": "#0"}
			}
		},
		{
			"name": "octagon",
			"from": [7.65, 1.91525, 9.77502],
			"to": [8.35, 2.10225, 10.71002],
			"rotation": {"angle": 0, "axis": "y", "origin": [8, -1.91444, 10.3998]},
			"faces": {
				"east": {"uv": [4.96875, 2.84375, 4.96875, 2.84375], "texture": "#0"},
				"south": {"uv": [4.96875, 2.84375, 4.96875, 2.84375], "texture": "#0"},
				"west": {"uv": [4.96875, 2.84375, 4.96875, 2.84375], "texture": "#0"},
				"down": {"uv": [4.96875, 2.84375, 4.96875, 2.84375], "texture": "#0"}
			}
		},
		{
			"name": "octagon",
			"from": [7.65, 1.72825, 10.19577],
			"to": [8.35, 1.91525, 10.66327],
			"rotation": {"angle": 0, "axis": "y", "origin": [8, -1.91444, 10.3998]},
			"faces": {
				"east": {"uv": [4.96875, 2.84375, 4.96875, 2.84375], "texture": "#0"},
				"south": {"uv": [4.96875, 2.84375, 4.96875, 2.84375], "texture": "#0"},
				"west": {"uv": [4.96875, 2.84375, 4.96875, 2.84375], "texture": "#0"},
				"down": {"uv": [4.96875, 2.84375, 4.96875, 2.84375], "texture": "#0"}
			}
		},
		{
			"name": "octagon",
			"from": [7.65, 2.28925, 8.37252],
			"to": [8.35, 2.47625, 10.80352],
			"rotation": {"angle": 0, "axis": "y", "origin": [8, -1.91444, 10.3998]},
			"faces": {
				"north": {"uv": [4.96875, 2.84375, 4.96875, 2.84375], "texture": "#0"},
				"east": {"uv": [4.96875, 2.84375, 4.96875, 2.84375], "texture": "#0"},
				"south": {"uv": [4.96875, 2.84375, 4.96875, 2.84375], "texture": "#0"},
				"west": {"uv": [4.96875, 2.84375, 4.96875, 2.84375], "texture": "#0"},
				"up": {"uv": [4.96875, 2.84375, 4.96875, 2.84375], "texture": "#0"},
				"down": {"uv": [4.96875, 2.84375, 4.96875, 2.84375], "texture": "#0"}
			}
		},
		{
			"name": "octagon",
			"from": [7.65, 4.34625, 8.88677],
			"to": [8.35, 4.53325, 11.31777],
			"rotation": {"angle": 0, "axis": "y", "origin": [8, -1.91444, 10.3998]},
			"faces": {
				"north": {"uv": [4.96875, 2.84375, 4.96875, 2.84375], "texture": "#0"},
				"east": {"uv": [4.96875, 2.84375, 4.96875, 2.84375], "texture": "#0"},
				"south": {"uv": [4.96875, 2.84375, 4.96875, 2.84375], "texture": "#0"},
				"west": {"uv": [4.96875, 2.84375, 4.96875, 2.84375], "texture": "#0"},
				"up": {"uv": [4.96875, 2.84375, 4.96875, 2.84375], "texture": "#0"},
				"down": {"uv": [4.96875, 2.84375, 4.96875, 2.84375], "texture": "#0"}
			}
		},
		{
			"name": "octagon",
			"from": [7.65, 4.15925, 8.84002],
			"to": [8.35, 4.34625, 11.27102],
			"rotation": {"angle": 0, "axis": "y", "origin": [8, -1.91444, 10.3998]},
			"faces": {
				"north": {"uv": [4.96875, 2.84375, 4.96875, 2.84375], "texture": "#0"},
				"east": {"uv": [4.96875, 2.84375, 4.96875, 2.84375], "texture": "#0"},
				"south": {"uv": [4.96875, 2.84375, 4.96875, 2.84375], "texture": "#0"},
				"west": {"uv": [4.96875, 2.84375, 4.96875, 2.84375], "texture": "#0"},
				"up": {"uv": [4.96875, 2.84375, 4.96875, 2.84375], "texture": "#0"},
				"down": {"uv": [4.96875, 2.84375, 4.96875, 2.84375], "texture": "#0"}
			}
		},
		{
			"name": "octagon",
			"from": [7.65, 3.97225, 8.79327],
			"to": [8.35, 4.15925, 11.22427],
			"rotation": {"angle": 0, "axis": "y", "origin": [8, -1.91444, 10.3998]},
			"faces": {
				"north": {"uv": [4.96875, 2.84375, 4.96875, 2.84375], "texture": "#0"},
				"east": {"uv": [4.96875, 2.84375, 4.96875, 2.84375], "texture": "#0"},
				"south": {"uv": [4.96875, 2.84375, 4.96875, 2.84375], "texture": "#0"},
				"west": {"uv": [4.96875, 2.84375, 4.96875, 2.84375], "texture": "#0"},
				"up": {"uv": [4.96875, 2.84375, 4.96875, 2.84375], "texture": "#0"},
				"down": {"uv": [4.96875, 2.84375, 4.96875, 2.84375], "texture": "#0"}
			}
		},
		{
			"name": "octagon",
			"from": [7.65, 3.78525, 8.74652],
			"to": [8.35, 3.97225, 11.17752],
			"rotation": {"angle": 0, "axis": "y", "origin": [8, -1.91444, 10.3998]},
			"faces": {
				"north": {"uv": [4.96875, 2.84375, 4.96875, 2.84375], "texture": "#0"},
				"east": {"uv": [4.96875, 2.84375, 4.96875, 2.84375], "texture": "#0"},
				"south": {"uv": [4.96875, 2.84375, 4.96875, 2.84375], "texture": "#0"},
				"west": {"uv": [4.96875, 2.84375, 4.96875, 2.84375], "texture": "#0"},
				"up": {"uv": [4.96875, 2.84375, 4.96875, 2.84375], "texture": "#0"},
				"down": {"uv": [4.96875, 2.84375, 4.96875, 2.84375], "texture": "#0"}
			}
		},
		{
			"name": "octagon",
			"from": [7.65, 3.59825, 8.69977],
			"to": [8.35, 3.78525, 11.13077],
			"rotation": {"angle": 0, "axis": "y", "origin": [8, -1.91444, 10.3998]},
			"faces": {
				"north": {"uv": [4.96875, 2.84375, 4.96875, 2.84375], "texture": "#0"},
				"east": {"uv": [4.96875, 2.84375, 4.96875, 2.84375], "texture": "#0"},
				"south": {"uv": [4.96875, 2.84375, 4.96875, 2.84375], "texture": "#0"},
				"west": {"uv": [4.96875, 2.84375, 4.96875, 2.84375], "texture": "#0"},
				"up": {"uv": [4.96875, 2.84375, 4.96875, 2.84375], "texture": "#0"},
				"down": {"uv": [4.96875, 2.84375, 4.96875, 2.84375], "texture": "#0"}
			}
		},
		{
			"name": "octagon",
			"from": [7.65, 3.41125, 8.65302],
			"to": [8.35, 3.59825, 11.08402],
			"rotation": {"angle": 0, "axis": "y", "origin": [8, -1.91444, 10.3998]},
			"faces": {
				"north": {"uv": [4.96875, 2.84375, 4.96875, 2.84375], "texture": "#0"},
				"east": {"uv": [4.96875, 2.84375, 4.96875, 2.84375], "texture": "#0"},
				"south": {"uv": [4.96875, 2.84375, 4.96875, 2.84375], "texture": "#0"},
				"west": {"uv": [4.96875, 2.84375, 4.96875, 2.84375], "texture": "#0"},
				"up": {"uv": [4.96875, 2.84375, 4.96875, 2.84375], "texture": "#0"},
				"down": {"uv": [4.96875, 2.84375, 4.96875, 2.84375], "texture": "#0"}
			}
		},
		{
			"name": "octagon",
			"from": [7.65, 5.09425, 9.07377],
			"to": [8.35, 5.28125, 11.50477],
			"rotation": {"angle": 0, "axis": "y", "origin": [8, -1.91444, 10.3998]},
			"faces": {
				"north": {"uv": [4.96875, 2.84375, 4.96875, 2.84375], "texture": "#0"},
				"east": {"uv": [4.96875, 2.84375, 4.96875, 2.84375], "texture": "#0"},
				"south": {"uv": [4.96875, 2.84375, 4.96875, 2.84375], "texture": "#0"},
				"west": {"uv": [4.96875, 2.84375, 4.96875, 2.84375], "texture": "#0"},
				"up": {"uv": [4.96875, 2.84375, 4.96875, 2.84375], "texture": "#0"},
				"down": {"uv": [4.96875, 2.84375, 4.96875, 2.84375], "texture": "#0"}
			}
		},
		{
			"name": "octagon",
			"from": [7.65, 4.90725, 9.02702],
			"to": [8.35, 5.09425, 11.45802],
			"rotation": {"angle": 0, "axis": "y", "origin": [8, -1.91444, 10.3998]},
			"faces": {
				"north": {"uv": [4.96875, 2.84375, 4.96875, 2.84375], "texture": "#0"},
				"east": {"uv": [4.96875, 2.84375, 4.96875, 2.84375], "texture": "#0"},
				"south": {"uv": [4.96875, 2.84375, 4.96875, 2.84375], "texture": "#0"},
				"west": {"uv": [4.96875, 2.84375, 4.96875, 2.84375], "texture": "#0"},
				"up": {"uv": [4.96875, 2.84375, 4.96875, 2.84375], "texture": "#0"},
				"down": {"uv": [4.96875, 2.84375, 4.96875, 2.84375], "texture": "#0"}
			}
		},
		{
			"name": "octagon",
			"from": [7.65, 4.72025, 8.98027],
			"to": [8.35, 4.90725, 11.41127],
			"rotation": {"angle": 0, "axis": "y", "origin": [8, -1.91444, 10.3998]},
			"faces": {
				"north": {"uv": [4.96875, 2.84375, 4.96875, 2.84375], "texture": "#0"},
				"east": {"uv": [4.96875, 2.84375, 4.96875, 2.84375], "texture": "#0"},
				"south": {"uv": [4.96875, 2.84375, 4.96875, 2.84375], "texture": "#0"},
				"west": {"uv": [4.96875, 2.84375, 4.96875, 2.84375], "texture": "#0"},
				"up": {"uv": [4.96875, 2.84375, 4.96875, 2.84375], "texture": "#0"},
				"down": {"uv": [4.96875, 2.84375, 4.96875, 2.84375], "texture": "#0"}
			}
		},
		{
			"name": "octagon",
			"from": [7.65, 4.53325, 8.93352],
			"to": [8.35, 4.72025, 11.36452],
			"rotation": {"angle": 0, "axis": "y", "origin": [8, -1.91444, 10.3998]},
			"faces": {
				"north": {"uv": [4.96875, 2.84375, 4.96875, 2.84375], "texture": "#0"},
				"east": {"uv": [4.96875, 2.84375, 4.96875, 2.84375], "texture": "#0"},
				"south": {"uv": [4.96875, 2.84375, 4.96875, 2.84375], "texture": "#0"},
				"west": {"uv": [4.96875, 2.84375, 4.96875, 2.84375], "texture": "#0"},
				"up": {"uv": [4.96875, 2.84375, 4.96875, 2.84375], "texture": "#0"},
				"down": {"uv": [4.96875, 2.84375, 4.96875, 2.84375], "texture": "#0"}
			}
		},
		{
			"name": "octagon",
			"from": [7.65, 5.28125, 9.12052],
			"to": [8.35, 5.46825, 11.55152],
			"rotation": {"angle": 0, "axis": "y", "origin": [8, -1.91444, 10.3998]},
			"faces": {
				"north": {"uv": [4.96875, 2.84375, 4.96875, 2.84375], "texture": "#0"},
				"east": {"uv": [4.96875, 2.84375, 4.96875, 2.84375], "texture": "#0"},
				"south": {"uv": [4.96875, 2.84375, 4.96875, 2.84375], "texture": "#0"},
				"west": {"uv": [4.96875, 2.84375, 4.96875, 2.84375], "texture": "#0"},
				"up": {"uv": [4.96875, 2.84375, 4.96875, 2.84375], "texture": "#0"},
				"down": {"uv": [4.96875, 2.84375, 4.96875, 2.84375], "texture": "#0"}
			}
		},
		{
			"name": "octagon",
			"from": [7.65, 5.46825, 9.16727],
			"to": [8.35, 7.33825, 11.59827],
			"rotation": {"angle": 0, "axis": "y", "origin": [8, -0.04444, 10.3998]},
			"faces": {
				"north": {"uv": [4.96875, 2.84375, 4.96875, 2.84375], "texture": "#0"},
				"east": {"uv": [4.96875, 2.84375, 4.96875, 2.84375], "texture": "#0"},
				"south": {"uv": [4.96875, 2.84375, 4.96875, 2.84375], "texture": "#0"},
				"west": {"uv": [4.96875, 2.84375, 4.96875, 2.84375], "texture": "#0"},
				"up": {"uv": [4.96875, 2.84375, 4.96875, 2.84375], "texture": "#0"},
				"down": {"uv": [4.96875, 2.84375, 4.96875, 2.84375], "texture": "#0"}
			}
		}
	],
	"groups": [
		{
			"name": "mag",
			"origin": [7.8, 7.9, 10],
			"color": 0,
			"children": [0, 1, 2, 3, 4, 5, 6, 7, 8, 9, 10, 11, 12, 13, 14, 15, 16, 17, 18, 19, 20, 21]
		}
	]
}