{
	"credit": "Made with Blockbench",
	"texture_size": [128, 128],
	"textures": {
		"0": "ava:item/gun_textures/mk18_air_warfare",
		"particle": "ava:item/gun_textures/mk18_air_warfare"
	},
	"elements": [
		{
			"name": "octagon",
			"from": [7.65391, 1.0457, 6.20332],
			"to": [8.34609, 1.4197, 8.48472],
			"rotation": {"angle": 22.5, "axis": "x", "origin": [7.99609, -3.78444, 10.3998]},
			"faces": {
				"north": {"uv": [10.44531, 11.22656, 10.44141, 11.22656], "texture": "#0"},
				"east": {"uv": [10.44531, 11.22656, 10.44141, 11.22656], "texture": "#0"},
				"south": {"uv": [10.44531, 11.22656, 10.44141, 11.22656], "texture": "#0"},
				"west": {"uv": [10.44531, 11.22656, 10.44141, 11.22656], "texture": "#0"},
				"down": {"uv": [10.44531, 11.22656, 10.44141, 11.22656], "texture": "#0"}
			}
		},
		{
			"name": "octagon",
			"from": [7.65, 3.22425, 8.60627],
			"to": [8.35, 3.41125, 11.03727],
			"rotation": {"angle": 0, "axis": "y", "origin": [8, -1.91444, 10.3998]},
			"faces": {
				"north": {"uv": [10.44531, 11.35156, 10.75, 11.375], "texture": "#0"},
				"east": {"uv": [10.75, 11.35156, 10.44531, 11.375], "texture": "#0"},
				"south": {"uv": [10.44531, 11.35156, 10.75, 11.375], "texture": "#0"},
				"west": {"uv": [10.44531, 11.35156, 10.75, 11.375], "texture": "#0"},
				"up": {"uv": [10.44531, 11.35156, 10.75, 11.375], "texture": "#0"},
				"down": {"uv": [10.44531, 11.35156, 10.75, 11.375], "texture": "#0"}
			}
		},
		{
			"name": "octagon",
			"from": [7.65, 3.03725, 8.55952],
			"to": [8.35, 3.22425, 10.99052],
			"rotation": {"angle": 0, "axis": "y", "origin": [8, -1.91444, 10.3998]},
			"faces": {
				"north": {"uv": [11.19531, 11.22656, 11.5, 11.25], "texture": "#0"},
				"east": {"uv": [11.5, 11.22656, 11.19531, 11.25], "texture": "#0"},
				"south": {"uv": [11.19531, 11.22656, 11.5, 11.25], "texture": "#0"},
				"west": {"uv": [11.19531, 11.22656, 11.5, 11.25], "texture": "#0"},
				"up": {"uv": [11.19531, 11.22656, 11.5, 11.25], "texture": "#0"},
				"down": {"uv": [11.19531, 11.22656, 11.5, 11.25], "texture": "#0"}
			}
		},
		{
			"name": "octagon",
			"from": [7.65, 2.85025, 8.51277],
			"to": [8.35, 3.03725, 10.94377],
			"rotation": {"angle": 0, "axis": "y", "origin": [8, -1.91444, 10.3998]},
			"faces": {
				"north": {"uv": [12.07031, 13.85156, 12.375, 13.875], "texture": "#0"},
				"east": {"uv": [12.375, 13.85156, 12.07031, 13.875], "texture": "#0"},
				"south": {"uv": [12.07031, 13.85156, 12.375, 13.875], "texture": "#0"},
				"west": {"uv": [12.07031, 13.85156, 12.375, 13.875], "texture": "#0"},
				"up": {"uv": [12.07031, 13.85156, 12.375, 13.875], "texture": "#0"},
				"down": {"uv": [12.07031, 13.85156, 12.375, 13.875], "texture": "#0"}
			}
		},
		{
			"name": "octagon",
			"from": [7.65, 2.66325, 8.46602],
			"to": [8.35, 2.85025, 10.89702],
			"rotation": {"angle": 0, "axis": "y", "origin": [8, -1.91444, 10.3998]},
			"faces": {
				"north": {"uv": [14.57031, 12.10156, 14.875, 12.125], "texture": "#0"},
				"east": {"uv": [14.875, 12.10156, 14.57031, 12.125], "texture": "#0"},
				"south": {"uv": [14.57031, 12.10156, 14.875, 12.125], "texture": "#0"},
				"west": {"uv": [14.57031, 12.10156, 14.875, 12.125], "texture": "#0"},
				"up": {"uv": [14.57031, 12.10156, 14.875, 12.125], "texture": "#0"},
				"down": {"uv": [14.57031, 12.10156, 14.875, 12.125], "texture": "#0"}
			}
		},
		{
			"name": "octagon",
			"from": [7.65, 2.47625, 8.41927],
			"to": [8.35, 2.66325, 10.85027],
			"rotation": {"angle": 0, "axis": "y", "origin": [8, -1.91444, 10.3998]},
			"faces": {
				"north": {"uv": [14.94531, 12.10156, 15.25, 12.125], "texture": "#0"},
				"east": {"uv": [15.25, 12.10156, 14.94531, 12.125], "texture": "#0"},
				"south": {"uv": [14.94531, 12.10156, 15.25, 12.125], "texture": "#0"},
				"west": {"uv": [14.94531, 12.10156, 15.25, 12.125], "texture": "#0"},
				"up": {"uv": [14.94531, 12.10156, 15.25, 12.125], "texture": "#0"},
				"down": {"uv": [14.94531, 12.10156, 15.25, 12.125], "texture": "#0"}
			}
		},
		{
			"name": "octagon",
			"from": [7.65, 2.10225, 9.16727],
			"to": [8.35, 2.28925, 10.75677],
			"rotation": {"angle": 0, "axis": "y", "origin": [8, -1.91444, 10.3998]},
			"faces": {
				"north": {"uv": [13.07031, 12.60156, 13.26953, 12.625], "texture": "#0"},
				"east": {"uv": [13.26953, 12.60156, 13.07031, 12.625], "texture": "#0"},
				"south": {"uv": [13.07031, 12.60156, 13.26953, 12.625], "texture": "#0"},
				"west": {"uv": [13.07031, 12.60156, 13.26953, 12.625], "texture": "#0"},
				"down": {"uv": [13.07031, 12.60156, 13.26953, 12.625], "texture": "#0"}
			}
		},
		{
			"name": "octagon",
			"from": [7.65, 1.91525, 9.77502],
			"to": [8.35, 2.10225, 10.71002],
			"rotation": {"angle": 0, "axis": "y", "origin": [8, -1.91444, 10.3998]},
			"faces": {
				"north": {"uv": [13.19531, 14.22656, 13.3125, 14.25], "texture": "#0"},
				"east": {"uv": [13.3125, 14.22656, 13.19531, 14.25], "texture": "#0"},
				"south": {"uv": [13.19531, 14.22656, 13.3125, 14.25], "texture": "#0"},
				"west": {"uv": [13.19531, 14.22656, 13.3125, 14.25], "texture": "#0"},
				"down": {"uv": [13.19531, 14.22656, 13.3125, 14.25], "texture": "#0"}
			}
		},
		{
			"name": "octagon",
			"from": [7.65, 1.72825, 10.19577],
			"to": [8.35, 1.91525, 10.66327],
			"rotation": {"angle": 0, "axis": "y", "origin": [8, -1.91444, 10.3998]},
			"faces": {
				"north": {"uv": [15.44531, 11.10156, 15.50391, 11.125], "texture": "#0"},
				"east": {"uv": [15.44531, 11.10156, 15.50391, 11.125], "texture": "#0"},
				"south": {"uv": [15.44531, 11.10156, 15.50391, 11.125], "texture": "#0"},
				"west": {"uv": [15.44531, 11.10156, 15.50391, 11.125], "texture": "#0"},
				"down": {"uv": [15.44531, 11.10156, 15.50391, 11.125], "texture": "#0"}
			}
		},
		{
			"name": "octagon",
			"from": [7.65, 2.28925, 8.37252],
			"to": [8.35, 2.47625, 10.80352],
			"rotation": {"angle": 0, "axis": "y", "origin": [8, -1.91444, 10.3998]},
			"faces": {
				"north": {"uv": [15.07031, 9.97656, 15.375, 10], "texture": "#0"},
				"east": {"uv": [15.375, 9.97656, 15.07031, 10], "texture": "#0"},
				"south": {"uv": [15.07031, 9.97656, 15.375, 10], "texture": "#0"},
				"west": {"uv": [15.07031, 9.97656, 15.375, 10], "texture": "#0"},
				"up": {"uv": [15.07031, 9.97656, 15.375, 10], "texture": "#0"},
				"down": {"uv": [15.07031, 9.97656, 15.375, 10], "texture": "#0"}
			}
		},
		{
			"name": "octagon",
			"from": [7.65, 4.34625, 8.88677],
			"to": [8.35, 4.53325, 11.31777],
			"rotation": {"angle": 0, "axis": "y", "origin": [8, -1.91444, 10.3998]},
			"faces": {
				"north": {"uv": [15.07031, 11.10156, 15.375, 11.125], "texture": "#0"},
				"east": {"uv": [15.375, 11.10156, 15.07031, 11.125], "texture": "#0"},
				"south": {"uv": [15.07031, 11.10156, 15.375, 11.125], "texture": "#0"},
				"west": {"uv": [15.07031, 11.10156, 15.375, 11.125], "texture": "#0"},
				"up": {"uv": [15.07031, 11.10156, 15.375, 11.125], "texture": "#0"},
				"down": {"uv": [15.07031, 11.10156, 15.375, 11.125], "texture": "#0"}
			}
		},
		{
			"name": "octagon",
			"from": [7.65, 4.15925, 8.84002],
			"to": [8.35, 4.34625, 11.27102],
			"rotation": {"angle": 0, "axis": "y", "origin": [8, -1.91444, 10.3998]},
			"faces": {
				"north": {"uv": [15.19531, 13.60156, 15.5, 13.625], "texture": "#0"},
				"east": {"uv": [15.5, 13.60156, 15.19531, 13.625], "texture": "#0"},
				"south": {"uv": [15.19531, 13.60156, 15.5, 13.625], "texture": "#0"},
				"west": {"uv": [15.19531, 13.60156, 15.5, 13.625], "texture": "#0"},
				"up": {"uv": [15.19531, 13.60156, 15.5, 13.625], "texture": "#0"},
				"down": {"uv": [15.19531, 13.60156, 15.5, 13.625], "texture": "#0"}
			}
		},
		{
			"name": "octagon",
			"from": [7.65, 3.97225, 8.79327],
			"to": [8.35, 4.15925, 11.22427],
			"rotation": {"angle": 0, "axis": "y", "origin": [8, -1.91444, 10.3998]},
			"faces": {
				"north": {"uv": [15.32031, 11.22656, 15.625, 11.25], "texture": "#0"},
				"east": {"uv": [15.32031, 11.22656, 15.625, 11.25], "texture": "#0"},
				"south": {"uv": [15.32031, 11.22656, 15.625, 11.25], "texture": "#0"},
				"west": {"uv": [15.32031, 11.22656, 15.625, 11.25], "texture": "#0"},
				"up": {"uv": [15.32031, 11.22656, 15.625, 11.25], "texture": "#0"},
				"down": {"uv": [15.32031, 11.22656, 15.625, 11.25], "texture": "#0"}
			}
		},
		{
			"name": "octagon",
			"from": [7.65, 3.78525, 8.74652],
			"to": [8.35, 3.97225, 11.17752],
			"rotation": {"angle": 0, "axis": "y", "origin": [8, -1.91444, 10.3998]},
			"faces": {
				"north": {"uv": [15.32031, 13.22656, 15.625, 13.25], "texture": "#0"},
				"east": {"uv": [15.32031, 13.22656, 15.625, 13.25], "texture": "#0"},
				"south": {"uv": [15.32031, 13.22656, 15.625, 13.25], "texture": "#0"},
				"west": {"uv": [15.32031, 13.22656, 15.625, 13.25], "texture": "#0"},
				"up": {"uv": [15.32031, 13.22656, 15.625, 13.25], "texture": "#0"},
				"down": {"uv": [15.32031, 13.22656, 15.625, 13.25], "texture": "#0"}
			}
		},
		{
			"name": "octagon",
			"from": [7.65, 3.59825, 8.69977],
			"to": [8.35, 3.78525, 11.13077],
			"rotation": {"angle": 0, "axis": "y", "origin": [8, -1.91444, 10.3998]},
			"faces": {
				"north": {"uv": [15.32031, 13.47656, 15.625, 13.5], "texture": "#0"},
				"east": {"uv": [15.32031, 13.47656, 15.625, 13.5], "texture": "#0"},
				"south": {"uv": [15.32031, 13.47656, 15.625, 13.5], "texture": "#0"},
				"west": {"uv": [15.32031, 13.47656, 15.625, 13.5], "texture": "#0"},
				"up": {"uv": [15.32031, 13.47656, 15.625, 13.5], "texture": "#0"},
				"down": {"uv": [15.32031, 13.47656, 15.625, 13.5], "texture": "#0"}
			}
		},
		{
			"name": "octagon",
			"from": [7.65, 3.41125, 8.65302],
			"to": [8.35, 3.59825, 11.08402],
			"rotation": {"angle": 0, "axis": "y", "origin": [8, -1.91444, 10.3998]},
			"faces": {
				"north": {"uv": [15.44531, 13.85156, 15.75, 13.875], "texture": "#0"},
				"east": {"uv": [15.75, 13.85156, 15.44531, 13.875], "texture": "#0"},
				"south": {"uv": [15.44531, 13.85156, 15.75, 13.875], "texture": "#0"},
				"west": {"uv": [15.44531, 13.85156, 15.75, 13.875], "texture": "#0"},
				"up": {"uv": [15.44531, 13.85156, 15.75, 13.875], "texture": "#0"},
				"down": {"uv": [15.44531, 13.85156, 15.75, 13.875], "texture": "#0"}
			}
		},
		{
			"name": "octagon",
			"from": [7.65, 5.09425, 9.07377],
			"to": [8.35, 5.28125, 11.50477],
			"rotation": {"angle": 0, "axis": "y", "origin": [8, -1.91444, 10.3998]},
			"faces": {
				"north": {"uv": [15.44531, 14.35156, 15.75, 14.375], "texture": "#0"},
				"east": {"uv": [15.75, 14.35156, 15.44531, 14.375], "texture": "#0"},
				"south": {"uv": [15.44531, 14.35156, 15.75, 14.375], "texture": "#0"},
				"west": {"uv": [15.44531, 14.35156, 15.75, 14.375], "texture": "#0"},
				"up": {"uv": [15.44531, 14.35156, 15.75, 14.375], "texture": "#0"},
				"down": {"uv": [15.44531, 14.35156, 15.75, 14.375], "texture": "#0"}
			}
		},
		{
			"name": "octagon",
			"from": [7.65, 4.90725, 9.02702],
			"to": [8.35, 5.09425, 11.45802],
			"rotation": {"angle": 0, "axis": "y", "origin": [8, -1.91444, 10.3998]},
			"faces": {
				"north": {"uv": [10.19531, 15.97656, 10.5, 16], "texture": "#0"},
				"east": {"uv": [10.5, 15.97656, 10.19531, 16], "texture": "#0"},
				"south": {"uv": [10.19531, 15.97656, 10.5, 16], "texture": "#0"},
				"west": {"uv": [10.19531, 15.97656, 10.5, 16], "texture": "#0"},
				"up": {"uv": [10.19531, 15.97656, 10.5, 16], "texture": "#0"},
				"down": {"uv": [10.19531, 15.97656, 10.5, 16], "texture": "#0"}
			}
		},
		{
			"name": "octagon",
			"from": [7.65, 4.72025, 8.98027],
			"to": [8.35, 4.90725, 11.41127],
			"rotation": {"angle": 0, "axis": "y", "origin": [8, -1.91444, 10.3998]},
			"faces": {
				"north": {"uv": [15.57031, 11.85156, 15.875, 11.875], "texture": "#0"},
				"east": {"uv": [15.875, 11.85156, 15.57031, 11.875], "texture": "#0"},
				"south": {"uv": [15.57031, 11.85156, 15.875, 11.875], "texture": "#0"},
				"west": {"uv": [15.57031, 11.85156, 15.875, 11.875], "texture": "#0"},
				"up": {"uv": [15.57031, 11.85156, 15.875, 11.875], "texture": "#0"},
				"down": {"uv": [15.57031, 11.85156, 15.875, 11.875], "texture": "#0"}
			}
		},
		{
			"name": "octagon",
			"from": [7.65, 4.53325, 8.93352],
			"to": [8.35, 4.72025, 11.36452],
			"rotation": {"angle": 0, "axis": "y", "origin": [8, -1.91444, 10.3998]},
			"faces": {
				"north": {"uv": [12.57031, 15.97656, 12.875, 16], "texture": "#0"},
				"east": {"uv": [12.875, 15.97656, 12.57031, 16], "texture": "#0"},
				"south": {"uv": [12.57031, 15.97656, 12.875, 16], "texture": "#0"},
				"west": {"uv": [12.57031, 15.97656, 12.875, 16], "texture": "#0"},
				"up": {"uv": [12.57031, 15.97656, 12.875, 16], "texture": "#0"},
				"down": {"uv": [12.57031, 15.97656, 12.875, 16], "texture": "#0"}
			}
		},
		{
			"name": "octagon",
			"from": [7.65, 5.28125, 9.12052],
			"to": [8.35, 5.46825, 11.55152],
			"rotation": {"angle": 0, "axis": "y", "origin": [8, -1.91444, 10.3998]},
			"faces": {
				"north": {"uv": [15.69531, 13.22656, 16, 13.25], "texture": "#0"},
				"east": {"uv": [15.69531, 13.22656, 16, 13.25], "texture": "#0"},
				"south": {"uv": [15.69531, 13.22656, 16, 13.25], "texture": "#0"},
				"west": {"uv": [15.69531, 13.22656, 16, 13.25], "texture": "#0"},
				"up": {"uv": [15.69531, 13.22656, 16, 13.25], "texture": "#0"},
				"down": {"uv": [15.69531, 13.22656, 16, 13.25], "texture": "#0"}
			}
		},
		{
			"name": "octagon",
			"from": [7.65, 5.46825, 9.16727],
			"to": [8.35, 7.33825, 11.59827],
			"rotation": {"angle": 0, "axis": "y", "origin": [8, -0.04444, 10.3998]},
			"faces": {
				"north": {"uv": [9.57031, 10.22656, 9.875, 10.46094], "texture": "#0"},
				"east": {"uv": [9.57031, 10.22656, 9.875, 10.46094], "texture": "#0"},
				"south": {"uv": [9.57031, 10.22656, 9.875, 10.46094], "texture": "#0"},
				"west": {"uv": [9.57031, 10.22656, 9.875, 10.46094], "texture": "#0"},
				"up": {"uv": [9.57031, 10.22656, 9.875, 10.46094], "texture": "#0"},
				"down": {"uv": [9.57031, 10.22656, 9.875, 10.46094], "texture": "#0"}
			}
		}
	],
	"groups": [
		{
			"name": "mag",
			"origin": [7.8, 7.9, 10],
			"color": 0,
			"children": [0, 1, 2, 3, 4, 5, 6, 7, 8, 9, 10, 11, 12, 13, 14, 15, 16, 17, 18, 19, 20, 21]
		}
	]
}