{
	"credit": "Made with Blockbench",
	"textures": {
		"0": "ava:item/gun_textures/lens",
		"particle": "ava:item/gun_textures/lens"
	},
	"elements": [
		{
			"name": "lens",
			"from": [7.525, 9.475, 7.075],
			"to": [8.525, 10.225, 7.525],
			"rotation": {"angle": 0, "axis": "y", "origin": [14.825, 17.675, 15.525]},
			"faces": {
				"north": {"uv": [0, 0, 16, 16], "texture": "#0"},
				"south": {"uv": [0, 2, 16, 14], "texture": "#0"}
			}
		}
	]
}