{
	"credit": "Made with Blockbench",
	"textures": {
		"0": "ava:item/gun_textures/palette_desert",
		"1": "ava:item/gun_textures/palette_black",
		"2": "ava:item/gun_textures/lens_m4a1",
		"particle": "ava:item/gun_textures/palette_desert"
	},
	"elements": [
		{
			"name": "hexadecagon",
			"from": [7.67345, 7.475, 0.65],
			"to": [8.32655, 8.12813, 2.15],
			"rotation": {"angle": 0, "axis": "z", "origin": [7.7381, 7.8, 8]},
			"faces": {
				"north": {"uv": [3.09375, 0.78125, 3.09375, 0.78125], "texture": "#1"},
				"east": {"uv": [3.09375, 0.78125, 3.09375, 0.78125], "texture": "#1"},
				"south": {"uv": [3.09375, 0.78125, 3.09375, 0.78125], "texture": "#1"},
				"west": {"uv": [3.09375, 0.78125, 3.09375, 0.78125], "texture": "#1"},
				"up": {"uv": [3.09375, 0.78125, 3.09375, 0.78125], "texture": "#1"},
				"down": {"uv": [3.09375, 0.78125, 3.09375, 0.78125], "texture": "#1"}
			}
		},
		{
			"name": "octagon",
			"from": [7.75345, 7.003, 2],
			"to": [8.25345, 8.503, 5],
			"rotation": {"angle": 0, "axis": "z", "origin": [8.125, 7.9, 2.85]},
			"faces": {
				"north": {"uv": [4, 0, 5, 1], "texture": "#0"},
				"east": {"uv": [4, 0, 5, 1], "texture": "#0"},
				"south": {"uv": [4, 0, 5, 1], "texture": "#0"},
				"west": {"uv": [4, 0, 5, 1], "texture": "#0"},
				"up": {"uv": [4, 0, 5, 1], "texture": "#0"},
				"down": {"uv": [4, 0, 5, 1], "texture": "#0"}
			}
		},
		{
			"name": "octagon",
			"from": [7.67845, 7.8276, 2],
			"to": [8.32845, 8.4776, 5],
			"rotation": {"angle": 45, "axis": "z", "origin": [8.05, 7.8, 2.85]},
			"faces": {
				"north": {"uv": [4, 0, 5, 1], "texture": "#0"},
				"south": {"uv": [4, 0, 5, 1], "texture": "#0"},
				"up": {"uv": [4, 0, 5, 1], "texture": "#0"}
			}
		},
		{
			"name": "octagon",
			"from": [8.15345, 7.8276, 2],
			"to": [8.80345, 8.4776, 5],
			"rotation": {"angle": 45, "axis": "z", "origin": [8.525, 7.8, 2.85]},
			"faces": {
				"north": {"uv": [4, 0, 5, 1], "texture": "#0"},
				"east": {"uv": [4, 0, 5, 1], "texture": "#0"},
				"south": {"uv": [4, 0, 5, 1], "texture": "#0"},
				"down": {"uv": [4, 0, 5, 1], "texture": "#0"}
			}
		},
		{
			"name": "octagon",
			"from": [7.67845, 7.2776, 2],
			"to": [8.32845, 7.9276, 5],
			"rotation": {"angle": 45, "axis": "z", "origin": [8.05, 7.25, 2.85]},
			"faces": {
				"north": {"uv": [4, 0, 5, 1], "texture": "#0"},
				"south": {"uv": [4, 0, 5, 1], "texture": "#0"},
				"west": {"uv": [4, 0, 5, 1], "texture": "#0"},
				"up": {"uv": [4, 0, 5, 1], "texture": "#0"}
			}
		},
		{
			"name": "octagon",
			"from": [8.15345, 7.2776, 2],
			"to": [8.80345, 7.9276, 5],
			"rotation": {"angle": 45, "axis": "z", "origin": [8.525, 7.25, 2.85]},
			"faces": {
				"north": {"uv": [4, 0, 5, 1], "texture": "#0"},
				"east": {"uv": [4, 0, 5, 1], "texture": "#0"},
				"south": {"uv": [4, 0, 5, 1], "texture": "#0"},
				"down": {"uv": [4, 0, 5, 1], "texture": "#0"}
			}
		},
		{
			"name": "octagon",
			"from": [7.3, 7.475, 2],
			"to": [8.7, 8.025, 5],
			"rotation": {"angle": 0, "axis": "z", "origin": [8.175, 7.925, 2.85]},
			"faces": {
				"north": {"uv": [4, 0, 5, 1], "texture": "#0"},
				"east": {"uv": [4, 0, 5, 1], "texture": "#0"},
				"west": {"uv": [4, 0, 5, 1], "texture": "#0"},
				"up": {"uv": [4, 0, 5, 1], "texture": "#0"},
				"down": {"uv": [4, 0, 5, 1], "texture": "#0"}
			}
		},
		{
			"name": "octagon",
			"from": [7.75, 6.8, 2.25],
			"to": [8.25, 8.6, 5.25],
			"rotation": {"angle": 0, "axis": "z", "origin": [8.175, 7.7, 3.1]},
			"faces": {
				"north": {"uv": [2, 0, 4, 2], "texture": "#1"},
				"east": {"uv": [2, 0, 4, 2], "texture": "#1"},
				"west": {"uv": [2, 0, 4, 2], "texture": "#1"},
				"up": {"uv": [2, 0, 4, 2], "texture": "#1"},
				"down": {"uv": [2, 0, 4, 2], "texture": "#1"}
			}
		},
		{
			"name": "octagon",
			"from": [7.7, 8.45, 2.125],
			"to": [7.86, 8.8, 2.375],
			"rotation": {"angle": 0, "axis": "z", "origin": [8.04, 9.35, 2.975]},
			"faces": {
				"north": {"uv": [4, 0, 5, 1], "texture": "#0"},
				"south": {"uv": [4, 0, 5, 1], "texture": "#0"},
				"west": {"uv": [4, 0, 5, 1], "texture": "#0"},
				"up": {"uv": [4, 0, 5, 1], "texture": "#0"},
				"down": {"uv": [4, 0, 5, 1], "texture": "#0"}
			}
		},
		{
			"name": "octagon",
			"from": [7.835, 8.425, 2.15],
			"to": [8.165, 8.925, 2.4],
			"rotation": {"angle": -22.5, "axis": "x", "origin": [8, 8.8, 2.275]},
			"faces": {
				"north": {"uv": [4, 0, 6, 2], "texture": "#1"},
				"east": {"uv": [4, 0, 6, 2], "texture": "#1"},
				"south": {"uv": [4, 0, 6, 2], "texture": "#1"},
				"west": {"uv": [4, 0, 6, 2], "texture": "#1"},
				"up": {"uv": [4, 0, 6, 2], "texture": "#1"}
			}
		},
		{
			"name": "octagon",
			"from": [7.86, 8.375, 2.125],
			"to": [8.14, 8.825, 2.375],
			"rotation": {"angle": 0, "axis": "x", "origin": [8, 8.75, 2.25]},
			"faces": {
				"north": {"uv": [4, 0, 5, 1], "texture": "#0"},
				"east": {"uv": [4, 0, 5, 1], "texture": "#0"},
				"west": {"uv": [4, 0, 5, 1], "texture": "#0"},
				"up": {"uv": [4, 0, 5, 1], "texture": "#0"}
			}
		},
		{
			"name": "octagon",
			"from": [8.14, 8.45, 2.125],
			"to": [8.3, 8.8, 2.375],
			"rotation": {"angle": 0, "axis": "z", "origin": [8.48, 9.35, 2.975]},
			"faces": {
				"north": {"uv": [4, 0, 5, 1], "texture": "#0"},
				"east": {"uv": [4, 0, 5, 1], "texture": "#0"},
				"south": {"uv": [4, 0, 5, 1], "texture": "#0"},
				"up": {"uv": [4, 0, 5, 1], "texture": "#0"},
				"down": {"uv": [4, 0, 5, 1], "texture": "#0"}
			}
		},
		{
			"name": "octagon",
			"from": [7.175, 7.025, 4.15],
			"to": [8.825, 8.025, 5.15],
			"rotation": {"angle": 0, "axis": "z", "origin": [7.625, 7.925, 5]},
			"faces": {
				"north": {"uv": [4, 0, 5, 1], "texture": "#0"},
				"east": {"uv": [4, 0, 5, 1], "texture": "#0"},
				"south": {"uv": [4, 0, 5, 1], "texture": "#0"},
				"west": {"uv": [4, 0, 5, 1], "texture": "#0"},
				"up": {"uv": [4, 0, 5, 1], "texture": "#0"},
				"down": {"uv": [4, 0, 5, 1], "texture": "#0"}
			}
		},
		{
			"name": "octagon",
			"from": [7.4, 7.025, 5.15],
			"to": [8.6, 8.025, 14.75],
			"rotation": {"angle": 0, "axis": "z", "origin": [7.825, 7.925, 6]},
			"faces": {
				"east": {"uv": [4, 0, 5, 1], "texture": "#0"},
				"south": {"uv": [4, 0, 5, 1], "texture": "#0"},
				"west": {"uv": [4, 0, 5, 1], "texture": "#0"},
				"down": {"uv": [4, 0, 5, 1], "texture": "#0"}
			}
		},
		{
			"name": "octagon",
			"from": [7.4, 6.775, 5.375],
			"to": [8.6, 7.025, 7.875],
			"rotation": {"angle": 0, "axis": "z", "origin": [7.725, 7.675, 6.225]},
			"faces": {
				"east": {"uv": [4, 0, 5, 1], "texture": "#0"},
				"south": {"uv": [4, 0, 5, 1], "texture": "#0"},
				"west": {"uv": [4, 0, 5, 1], "texture": "#0"},
				"down": {"uv": [4, 0, 5, 1], "texture": "#0"}
			}
		},
		{
			"name": "octagon",
			"from": [7.4, 6.475, 6.9],
			"to": [8.6, 6.775, 7.8],
			"rotation": {"angle": 0, "axis": "z", "origin": [7.725, 7.375, 7.75]},
			"faces": {
				"north": {"uv": [4, 0, 5, 1], "texture": "#0"},
				"east": {"uv": [4, 0, 5, 1], "texture": "#0"},
				"south": {"uv": [4, 0, 5, 1], "texture": "#0"},
				"west": {"uv": [4, 0, 5, 1], "texture": "#0"},
				"down": {"uv": [4, 0, 5, 1], "texture": "#0"}
			}
		},
		{
			"name": "octagon",
			"from": [7.425, 6.425, 7.775],
			"to": [8.575, 7.325, 8.075],
			"rotation": {"angle": 45, "axis": "x", "origin": [8, 6.875, 7.925]},
			"faces": {
				"east": {"uv": [4, 0, 5, 1], "rotation": 90, "texture": "#0"},
				"south": {"uv": [4, 0, 5, 1], "rotation": 90, "texture": "#0"},
				"west": {"uv": [4, 0, 5, 1], "rotation": 90, "texture": "#0"},
				"down": {"uv": [4, 0, 5, 1], "rotation": 90, "texture": "#0"}
			}
		},
		{
			"name": "octagon",
			"from": [7.425, 6.725, 9.625],
			"to": [8.575, 7.025, 10.125],
			"rotation": {"angle": 45, "axis": "x", "origin": [8, 6.875, 10.075]},
			"faces": {
				"east": {"uv": [4, 0, 5, 1], "rotation": 180, "texture": "#0"},
				"west": {"uv": [4, 0, 5, 1], "rotation": 180, "texture": "#0"},
				"down": {"uv": [4, 0, 5, 1], "rotation": 180, "texture": "#0"}
			}
		},
		{
			"name": "octagon",
			"from": [7.4, 5.65, 11.45],
			"to": [8.6, 6.35, 11.75],
			"rotation": {"angle": -22.5, "axis": "x", "origin": [8, 6.2, 11.6]},
			"faces": {
				"north": {"uv": [4, 0, 5, 1], "rotation": 270, "texture": "#0"},
				"east": {"uv": [4, 0, 5, 1], "rotation": 270, "texture": "#0"},
				"west": {"uv": [4, 0, 5, 1], "rotation": 270, "texture": "#0"},
				"down": {"uv": [4, 0, 5, 1], "rotation": 270, "texture": "#0"}
			}
		},
		{
			"name": "octagon",
			"from": [7.4, 6.275, 10],
			"to": [8.6, 7.025, 14],
			"rotation": {"angle": 0, "axis": "x", "origin": [8, 6.425, 10.45]},
			"faces": {
				"north": {"uv": [4.15625, 0.6875, 4.25, 0.78125], "rotation": 180, "texture": "#0"},
				"east": {"uv": [4.15625, 0.6875, 4.25, 0.78125], "rotation": 180, "texture": "#0"},
				"south": {"uv": [4.15625, 0.6875, 4.25, 0.78125], "rotation": 180, "texture": "#0"},
				"west": {"uv": [4.15625, 0.6875, 4.25, 0.78125], "rotation": 180, "texture": "#0"},
				"down": {"uv": [4.15625, 0.6875, 4.25, 0.78125], "rotation": 180, "texture": "#0"}
			}
		},
		{
			"name": "octagon",
			"from": [7.4, 5.625, 11.675],
			"to": [8.6, 6.275, 14.325],
			"rotation": {"angle": 0, "axis": "x", "origin": [8, 5.775, 12.125]},
			"faces": {
				"north": {"uv": [4.15625, 0.6875, 4.25, 0.78125], "rotation": 180, "texture": "#0"},
				"east": {"uv": [4.15625, 0.6875, 4.25, 0.78125], "rotation": 180, "texture": "#0"},
				"south": {"uv": [4.15625, 0.6875, 4.25, 0.78125], "rotation": 180, "texture": "#0"},
				"west": {"uv": [4.15625, 0.6875, 4.25, 0.78125], "rotation": 180, "texture": "#0"},
				"up": {"uv": [4.15625, 0.6875, 4.25, 0.78125], "rotation": 180, "texture": "#0"},
				"down": {"uv": [4.15625, 0.6875, 4.25, 0.78125], "rotation": 180, "texture": "#0"}
			}
		},
		{
			"name": "octagon",
			"from": [7.425, 6.15, 14.175],
			"to": [8.575, 7.15, 14.825],
			"rotation": {"angle": 22.5, "axis": "x", "origin": [8, 7.4, 14.5]},
			"faces": {
				"east": {"uv": [4.15625, 0.6875, 4.25, 0.78125], "rotation": 270, "texture": "#0"},
				"south": {"uv": [4.15625, 0.6875, 4.25, 0.78125], "rotation": 270, "texture": "#0"},
				"west": {"uv": [4.15625, 0.6875, 4.25, 0.78125], "rotation": 270, "texture": "#0"}
			}
		},
		{
			"name": "octagon",
			"from": [7.2, 8.025, 4.69219],
			"to": [8.8, 8.575, 14.75],
			"rotation": {"angle": 0, "axis": "z", "origin": [7.625, 8.925, 5.55]},
			"faces": {
				"north": {"uv": [4, 0, 5, 1], "texture": "#0"},
				"east": {"uv": [4, 0, 5, 1], "texture": "#0"},
				"south": {"uv": [4, 0, 5, 1], "texture": "#0"},
				"west": {"uv": [4, 0, 5, 1], "texture": "#0"},
				"up": {"uv": [4, 0, 5, 1], "texture": "#0"},
				"down": {"uv": [4, 0, 5, 1], "texture": "#0"}
			}
		},
		{
			"name": "octagon",
			"from": [7.2, 7.475, 8.625],
			"to": [8.8, 8.025, 9.375],
			"rotation": {"angle": 0, "axis": "z", "origin": [7.625, 8.375, 9.475]},
			"faces": {
				"north": {"uv": [4, 0.5, 4.46875, 1], "texture": "#0"},
				"east": {"uv": [4, 0.5, 4.46875, 1], "texture": "#0"},
				"south": {"uv": [4, 0.5, 4.46875, 1], "texture": "#0"},
				"west": {"uv": [4, 0.5, 4.46875, 1], "texture": "#0"},
				"down": {"uv": [4, 0.5, 4.46875, 1], "texture": "#0"}
			}
		},
		{
			"name": "octagon",
			"from": [7.2, 7.025, 5.5],
			"to": [8.8, 7.375, 5.85],
			"rotation": {"angle": 0, "axis": "z", "origin": [7.625, 7.925, 6.35]},
			"faces": {
				"north": {"uv": [2, 0, 4, 2], "texture": "#1"},
				"east": {"uv": [2, 0, 4, 2], "texture": "#1"},
				"south": {"uv": [2, 0, 4, 2], "texture": "#1"},
				"west": {"uv": [2, 0, 4, 2], "texture": "#1"},
				"up": {"uv": [2, 0, 4, 2], "texture": "#1"},
				"down": {"uv": [2, 0, 4, 2], "texture": "#1"}
			}
		},
		{
			"name": "octagon",
			"from": [7.2, 7.575, 13.95],
			"to": [8.8, 8.025, 14.7],
			"rotation": {"angle": 0, "axis": "z", "origin": [7.625, 8.475, 14.8]},
			"faces": {
				"north": {"uv": [4, 0, 5, 1], "texture": "#0"},
				"east": {"uv": [4, 0, 5, 1], "texture": "#0"},
				"south": {"uv": [4, 0, 5, 1], "texture": "#0"},
				"west": {"uv": [4, 0, 5, 1], "texture": "#0"},
				"down": {"uv": [4, 0, 5, 1], "texture": "#0"}
			}
		},
		{
			"name": "octagon",
			"from": [7.2, 6.375, 11.05],
			"to": [8.8, 6.725, 12.3],
			"rotation": {"angle": 0, "axis": "z", "origin": [7.625, 7.275, 11.9]},
			"faces": {
				"north": {"uv": [2, 0, 4, 2], "texture": "#1"},
				"east": {"uv": [2, 0, 4, 2], "texture": "#1"},
				"south": {"uv": [2, 0, 4, 2], "texture": "#1"},
				"west": {"uv": [2, 0, 4, 2], "texture": "#1"},
				"up": {"uv": [2, 0, 4, 2], "texture": "#1"},
				"down": {"uv": [2, 0, 4, 2], "texture": "#1"}
			}
		},
		{
			"name": "octagon",
			"from": [7.2, 7.375, 10.075],
			"to": [8.8, 7.775, 12.575],
			"rotation": {"angle": 0, "axis": "z", "origin": [7.625, 8.275, 10.925]},
			"faces": {
				"north": {"uv": [2, 0, 4, 2], "texture": "#1"},
				"east": {"uv": [2, 0, 4, 2], "texture": "#1"},
				"south": {"uv": [2, 0, 4, 2], "texture": "#1"},
				"west": {"uv": [2, 0, 4, 2], "texture": "#1"},
				"up": {"uv": [2, 0, 4, 2], "texture": "#1"},
				"down": {"uv": [2, 0, 4, 2], "texture": "#1"}
			}
		},
		{
			"name": "octagon",
			"from": [7.35, 7.625, 5.15],
			"to": [8.625, 8.025, 7.625],
			"rotation": {"angle": 0, "axis": "z", "origin": [7.775, 8.525, 6]},
			"faces": {
				"east": {"uv": [2, 0, 4, 2], "texture": "#1"},
				"west": {"uv": [2, 0, 4, 2], "texture": "#1"}
			}
		},
		{
			"name": "octagon",
			"from": [7.25, 7.625, 5.15],
			"to": [8.725, 7.875, 7.65],
			"rotation": {"angle": 0, "axis": "z", "origin": [7.675, 8.525, 6]},
			"faces": {
				"east": {"uv": [4, 0, 5, 1], "texture": "#0"},
				"south": {"uv": [4, 0, 5, 1], "texture": "#0"},
				"west": {"uv": [4, 0, 5, 1], "texture": "#0"},
				"up": {"uv": [4, 0, 5, 1], "texture": "#0"},
				"down": {"uv": [4, 0, 5, 1], "texture": "#0"}
			}
		},
		{
			"name": "octagon",
			"from": [7.25, 7.875, 7.15],
			"to": [8.725, 8.125, 7.65],
			"rotation": {"angle": 0, "axis": "z", "origin": [7.675, 8.775, 8]},
			"faces": {
				"north": {"uv": [4, 0, 5, 1], "texture": "#0"},
				"east": {"uv": [4, 0, 5, 1], "texture": "#0"},
				"south": {"uv": [4, 0, 5, 1], "texture": "#0"},
				"west": {"uv": [4, 0, 5, 1], "texture": "#0"}
			}
		},
		{
			"name": "octagon",
			"from": [7.55, 8.425, 4.7],
			"to": [8.45, 8.825, 7.7],
			"rotation": {"angle": 0, "axis": "z", "origin": [7.8, 8.675, 6.7]},
			"faces": {
				"north": {"uv": [4, 0, 6, 2], "texture": "#1"},
				"east": {"uv": [4, 0, 6, 2], "texture": "#1"},
				"south": {"uv": [4, 0, 6, 2], "texture": "#1"},
				"west": {"uv": [4, 0, 6, 2], "texture": "#1"},
				"up": {"uv": [4, 0, 6, 2], "texture": "#1"}
			}
		},
		{
			"name": "octagon",
			"from": [7.7, 8.425, 6.7],
			"to": [8.3, 8.775, 9.2],
			"rotation": {"angle": 0, "axis": "z", "origin": [7.95, 8.675, 8.7]},
			"faces": {
				"east": {"uv": [4, 0, 6, 2], "texture": "#1"},
				"west": {"uv": [4, 0, 6, 2], "texture": "#1"},
				"up": {"uv": [4, 0, 6, 2], "texture": "#1"}
			}
		},
		{
			"name": "octagon",
			"from": [7.65, 8.35, 8.55],
			"to": [8.35, 8.85, 9.25],
			"rotation": {"angle": 0, "axis": "z", "origin": [7.9, 8.6, 10.55]},
			"faces": {
				"north": {"uv": [4, 0, 6, 2], "texture": "#1"},
				"east": {"uv": [4, 0, 6, 2], "texture": "#1"},
				"south": {"uv": [4, 0, 6, 2], "texture": "#1"},
				"west": {"uv": [4, 0, 6, 2], "texture": "#1"},
				"up": {"uv": [4, 0, 6, 2], "texture": "#1"}
			}
		},
		{
			"name": "octagon",
			"from": [7.8, 8.75, 4.7],
			"to": [8.2, 8.95, 8.2],
			"rotation": {"angle": 0, "axis": "z", "origin": [8.05, 9, 6.7]},
			"faces": {
				"north": {"uv": [2, 0, 4, 2], "texture": "#1"},
				"east": {"uv": [2, 0, 4, 2], "texture": "#1"},
				"south": {"uv": [2, 0, 4, 2], "texture": "#1"},
				"west": {"uv": [2, 0, 4, 2], "texture": "#1"},
				"up": {"uv": [2, 0, 4, 2], "texture": "#1"}
			}
		},
		{
			"name": "octagon",
			"from": [7.4, 4.25, 5.675],
			"to": [8.6, 7.25, 5.925],
			"rotation": {"angle": -22.5, "axis": "x", "origin": [7.75, 5.675, 5.8]},
			"faces": {
				"north": {"uv": [4, 0, 5, 1], "texture": "#0"},
				"east": {"uv": [4, 0, 5, 1], "texture": "#0"},
				"south": {"uv": [4, 0, 5, 1], "texture": "#0"},
				"west": {"uv": [4, 0, 5, 1], "texture": "#0"}
			}
		},
		{
			"name": "octagon",
			"from": [7.4, 4.3, 6.225],
			"to": [8.6, 4.55, 7.475],
			"rotation": {"angle": 0, "axis": "x", "origin": [7.75, 5.725, 6.35]},
			"faces": {
				"north": {"uv": [4, 0, 5, 1], "texture": "#0"},
				"east": {"uv": [4, 0, 5, 1], "texture": "#0"},
				"south": {"uv": [4, 0, 5, 1], "texture": "#0"},
				"west": {"uv": [4, 0, 5, 1], "texture": "#0"},
				"up": {"uv": [4, 0, 5, 1], "texture": "#0"},
				"down": {"uv": [4, 0, 5, 1], "texture": "#0"}
			}
		},
		{
			"name": "X95R grip_10",
			"from": [7.5, 4.31742, 6.90897],
			"to": [8.5, 6.49373, 7.78527],
			"rotation": {"angle": 0, "axis": "y", "origin": [7.42302, 5.37891, 7.50435]},
			"faces": {
				"north": {"uv": [4.21875, 0.71875, 4.21875, 0.71875], "rotation": 270, "texture": "#0"},
				"east": {"uv": [4.21875, 0.71875, 4.21875, 0.71875], "rotation": 270, "texture": "#0"},
				"south": {"uv": [4.21875, 0.71875, 4.21875, 0.71875], "rotation": 270, "texture": "#0"},
				"west": {"uv": [4.21875, 0.71875, 4.21875, 0.71875], "rotation": 270, "texture": "#0"},
				"down": {"uv": [4.21875, 0.71875, 4.21875, 0.71875], "rotation": 270, "texture": "#0"}
			}
		},
		{
			"name": "hexadecagon",
			"from": [7.81262, 8.05399, 9.5],
			"to": [8.18738, 8.96702, 14.7],
			"rotation": {"angle": -45, "axis": "z", "origin": [8, 8.025, 10]},
			"faces": {
				"north": {"uv": [4.3125, 0.34375, 4.5625, 0.59375], "texture": "#0"},
				"south": {"uv": [4.3125, 0.34375, 4.5625, 0.59375], "texture": "#0"},
				"west": {"uv": [4.3125, 0.34375, 4.5625, 0.59375], "texture": "#0"},
				"up": {"uv": [4.3125, 0.34375, 4.5625, 0.59375], "texture": "#0"}
			}
		},
		{
			"name": "hexadecagon",
			"from": [7.47082, 8.05399, 10.5],
			"to": [8.52918, 8.96702, 14.7],
			"rotation": {"angle": 0, "axis": "z", "origin": [8.00195, 8.025, 11]},
			"faces": {
				"north": {"uv": [4.3125, 0.34375, 4.5625, 0.59375], "texture": "#0"},
				"east": {"uv": [4.3125, 0.34375, 4.5625, 0.59375], "texture": "#0"},
				"south": {"uv": [4.3125, 0.34375, 4.5625, 0.59375], "texture": "#0"},
				"west": {"uv": [4.3125, 0.34375, 4.5625, 0.59375], "texture": "#0"},
				"up": {"uv": [4.3125, 0.34375, 4.5625, 0.59375], "texture": "#0"}
			}
		},
		{
			"name": "hexadecagon",
			"from": [7.5, 8.47899, 9.525],
			"to": [8.5, 8.72899, 10.725],
			"rotation": {"angle": 0, "axis": "z", "origin": [7.7, 8.45, 10.025]},
			"faces": {
				"north": {"uv": [4.3125, 0.34375, 4.5625, 0.59375], "texture": "#0"},
				"up": {"uv": [4.3125, 0.34375, 4.5625, 0.59375], "texture": "#0"}
			}
		},
		{
			"name": "hexadecagon",
			"from": [7.81262, 8.05399, 9.5],
			"to": [8.18738, 8.96702, 14.7],
			"rotation": {"angle": 45, "axis": "z", "origin": [8, 8.025, 10]},
			"faces": {
				"north": {"uv": [4.3125, 0.34375, 4.5625, 0.59375], "texture": "#0"},
				"east": {"uv": [4.3125, 0.34375, 4.5625, 0.59375], "texture": "#0"},
				"south": {"uv": [4.3125, 0.34375, 4.5625, 0.59375], "texture": "#0"},
				"up": {"uv": [4.3125, 0.34375, 4.5625, 0.59375], "texture": "#0"}
			}
		},
		{
			"name": "scobo1",
			"from": [7.532, 8.7476, 5.1915],
			"to": [8.468, 9.3716, 7.6875],
			"rotation": {"angle": 0, "axis": "y", "origin": [19.7, 19.925, 3.0075]},
			"faces": {
				"north": {"uv": [4, 0, 5, 1], "rotation": 270, "texture": "#0"},
				"east": {"uv": [4, 0, 5, 1], "rotation": 270, "texture": "#0"},
				"south": {"uv": [4, 0, 5, 1], "rotation": 270, "texture": "#0"},
				"west": {"uv": [4, 0, 5, 1], "rotation": 270, "texture": "#0"},
				"up": {"uv": [4, 0, 5, 1], "rotation": 270, "texture": "#0"},
				"down": {"uv": [4, 0, 5, 1], "rotation": 270, "texture": "#0"}
			}
		},
		{
			"name": "scobo2",
			"from": [7.493, 8.849, 5.3475],
			"to": [8.507, 9.005, 7.5315],
			"rotation": {"angle": 0, "axis": "y", "origin": [19.7, 19.925, 3.0075]},
			"faces": {
				"north": {"uv": [4, 0, 5, 1], "rotation": 270, "texture": "#0"},
				"east": {"uv": [4, 0, 5, 1], "rotation": 270, "texture": "#0"},
				"west": {"uv": [4, 0, 5, 1], "rotation": 270, "texture": "#0"},
				"up": {"uv": [4, 0, 5, 1], "rotation": 270, "texture": "#0"},
				"down": {"uv": [4, 0, 5, 1], "rotation": 270, "texture": "#0"}
			}
		},
		{
			"name": "scover1",
			"from": [7.376, 8.771, 6.3615],
			"to": [7.532, 9.161, 7.6875],
			"rotation": {"angle": 0, "axis": "y", "origin": [19.7, 21.485, 3.0075]},
			"faces": {
				"north": {"uv": [4.15625, 0.46875, 4.4375, 0.75], "rotation": 270, "texture": "#0"},
				"south": {"uv": [4.15625, 0.46875, 4.4375, 0.75], "rotation": 270, "texture": "#0"},
				"west": {"uv": [4.15625, 0.46875, 4.4375, 0.75], "rotation": 270, "texture": "#0"},
				"down": {"uv": [4.15625, 0.46875, 4.4375, 0.75], "rotation": 270, "texture": "#0"}
			}
		},
		{
			"name": "scover2",
			"from": [7.376, 9.161, 6.8529],
			"to": [7.532, 10.097, 7.6329],
			"rotation": {"angle": 0, "axis": "y", "origin": [19.7, 21.485, 3.5145]},
			"faces": {
				"north": {"uv": [4.15625, 0.65625, 4.25, 0.75], "rotation": 270, "texture": "#0"},
				"east": {"uv": [4.15625, 0.65625, 4.25, 0.75], "rotation": 270, "texture": "#0"},
				"south": {"uv": [4.15625, 0.65625, 4.25, 0.75], "rotation": 270, "texture": "#0"},
				"west": {"uv": [4.15625, 0.65625, 4.25, 0.75], "rotation": 270, "texture": "#0"},
				"up": {"uv": [4.15625, 0.65625, 4.25, 0.75], "rotation": 270, "texture": "#0"}
			}
		},
		{
			"name": "scover3",
			"from": [8.468, 9.161, 6.8529],
			"to": [8.624, 10.097, 7.6329],
			"rotation": {"angle": 0, "axis": "y", "origin": [20.792, 21.485, 3.5145]},
			"faces": {
				"north": {"uv": [4.15625, 0.65625, 4.25, 0.75], "rotation": 270, "texture": "#0"},
				"east": {"uv": [4.15625, 0.65625, 4.25, 0.75], "rotation": 270, "texture": "#0"},
				"south": {"uv": [4.15625, 0.65625, 4.25, 0.75], "rotation": 270, "texture": "#0"},
				"west": {"uv": [4.15625, 0.65625, 4.25, 0.75], "rotation": 270, "texture": "#0"},
				"up": {"uv": [4.15625, 0.65625, 4.25, 0.75], "rotation": 270, "texture": "#0"}
			}
		},
		{
			"name": "scover3",
			"from": [7.376, 9.161, 6.5565],
			"to": [7.532, 9.317, 6.8529],
			"rotation": {"angle": 0, "axis": "y", "origin": [19.7, 21.485, 2.7345]},
			"faces": {
				"west": {"uv": [4.15625, 0.46875, 4.4375, 0.75], "rotation": 270, "texture": "#0"}
			}
		},
		{
			"name": "scover4",
			"from": [8.468, 9.161, 6.5565],
			"to": [8.624, 9.317, 6.8529],
			"rotation": {"angle": 0, "axis": "y", "origin": [20.792, 21.485, 2.7345]},
			"faces": {
				"east": {"uv": [4.15625, 0.46875, 4.4375, 0.75], "rotation": 270, "texture": "#0"}
			}
		},
		{
			"name": "scover4",
			"from": [7.376, 9.317, 6.7281],
			"to": [7.532, 9.4496, 6.8529],
			"rotation": {"angle": 0, "axis": "y", "origin": [19.7, 21.641, 2.8905]},
			"faces": {
				"east": {"uv": [4.15625, 0.46875, 4.4375, 0.75], "rotation": 270, "texture": "#0"},
				"west": {"uv": [4.15625, 0.46875, 4.4375, 0.75], "rotation": 270, "texture": "#0"}
			}
		},
		{
			"name": "scover5",
			"from": [8.468, 9.317, 6.7281],
			"to": [8.624, 9.4496, 6.8529],
			"rotation": {"angle": 0, "axis": "y", "origin": [20.792, 21.641, 2.8905]},
			"faces": {
				"east": {"uv": [4.15625, 0.46875, 4.4375, 0.75], "rotation": 270, "texture": "#0"},
				"west": {"uv": [4.15625, 0.46875, 4.4375, 0.75], "rotation": 270, "texture": "#0"}
			}
		},
		{
			"name": "scover3",
			"from": [7.376, 9.161, 7.6095],
			"to": [7.532, 9.785, 7.6875],
			"rotation": {"angle": 0, "axis": "y", "origin": [19.7, 21.485, 4.1385]},
			"faces": {
				"east": {"uv": [4, 0, 5, 1], "rotation": 270, "texture": "#0"},
				"south": {"uv": [4, 0, 5, 1], "rotation": 270, "texture": "#0"},
				"west": {"uv": [4, 0, 5, 1], "rotation": 270, "texture": "#0"},
				"up": {"uv": [4, 0, 5, 1], "rotation": 270, "texture": "#0"}
			}
		},
		{
			"name": "scover4",
			"from": [8.468, 9.161, 7.6095],
			"to": [8.624, 9.785, 7.6875],
			"rotation": {"angle": 0, "axis": "y", "origin": [20.792, 21.485, 4.1385]},
			"faces": {
				"east": {"uv": [4, 0, 5, 1], "rotation": 270, "texture": "#0"},
				"south": {"uv": [4, 0, 5, 1], "rotation": 270, "texture": "#0"},
				"west": {"uv": [4, 0, 5, 1], "rotation": 270, "texture": "#0"},
				"up": {"uv": [4, 0, 5, 1], "rotation": 270, "texture": "#0"}
			}
		},
		{
			"name": "scover2",
			"from": [7.376, 9.512, 6.2211],
			"to": [7.532, 9.668, 6.9231],
			"rotation": {"angle": -45, "axis": "x", "origin": [7.454, 9.58222, 6.90218]},
			"faces": {
				"north": {"uv": [4.15625, 0.46875, 4.4375, 0.75], "rotation": 270, "texture": "#0"},
				"east": {"uv": [4.15625, 0.46875, 4.4375, 0.75], "rotation": 270, "texture": "#0"},
				"west": {"uv": [4.15625, 0.46875, 4.4375, 0.75], "rotation": 270, "texture": "#0"},
				"up": {"uv": [4.15625, 0.46875, 4.4375, 0.75], "rotation": 270, "texture": "#0"}
			}
		},
		{
			"name": "scover3",
			"from": [8.468, 9.512, 6.2211],
			"to": [8.624, 9.668, 6.9231],
			"rotation": {"angle": -45, "axis": "x", "origin": [8.546, 9.58222, 6.90218]},
			"faces": {
				"north": {"uv": [4.15625, 0.46875, 4.4375, 0.75], "rotation": 270, "texture": "#0"},
				"east": {"uv": [4.15625, 0.46875, 4.4375, 0.75], "rotation": 270, "texture": "#0"},
				"west": {"uv": [4.15625, 0.46875, 4.4375, 0.75], "rotation": 270, "texture": "#0"},
				"up": {"uv": [4.15625, 0.46875, 4.4375, 0.75], "rotation": 270, "texture": "#0"}
			}
		},
		{
			"name": "scover2",
			"from": [8.468, 8.771, 6.3615],
			"to": [8.624, 9.161, 7.6875],
			"rotation": {"angle": 0, "axis": "y", "origin": [19.7, 21.485, 3.0075]},
			"faces": {
				"north": {"uv": [4.15625, 0.46875, 4.4375, 0.75], "rotation": 270, "texture": "#0"},
				"east": {"uv": [4.15625, 0.46875, 4.4375, 0.75], "rotation": 270, "texture": "#0"},
				"south": {"uv": [4.15625, 0.46875, 4.4375, 0.75], "rotation": 270, "texture": "#0"},
				"down": {"uv": [4.15625, 0.46875, 4.4375, 0.75], "rotation": 270, "texture": "#0"}
			}
		},
		{
			"name": "scopar",
			"from": [7.493, 10.097, 6.8529],
			"to": [8.507, 10.214, 7.6329],
			"rotation": {"angle": 0, "axis": "y", "origin": [19.739, 19.925, 3.0075]},
			"faces": {
				"north": {"uv": [4.15625, 0.65625, 4.25, 0.75], "rotation": 270, "texture": "#0"},
				"east": {"uv": [4.15625, 0.65625, 4.25, 0.75], "rotation": 270, "texture": "#0"},
				"south": {"uv": [4.15625, 0.65625, 4.25, 0.75], "rotation": 270, "texture": "#0"},
				"west": {"uv": [4.15625, 0.65625, 4.25, 0.75], "rotation": 270, "texture": "#0"},
				"up": {"uv": [4.15625, 0.65625, 4.25, 0.75], "rotation": 270, "texture": "#0"},
				"down": {"uv": [4.15625, 0.65625, 4.25, 0.75], "rotation": 270, "texture": "#0"}
			}
		},
		{
			"name": "scopar",
			"from": [-3.0136, 15.6662, 6.8529],
			"to": [-2.8576, 15.8222, 7.6329],
			"rotation": {"angle": 45, "axis": "z", "origin": [9.092, 25.502, 3.1245]},
			"faces": {
				"north": {"uv": [4.15625, 0.65625, 4.25, 0.75], "rotation": 270, "texture": "#0"},
				"east": {"uv": [4.15625, 0.65625, 4.25, 0.75], "rotation": 270, "texture": "#0"},
				"south": {"uv": [4.15625, 0.65625, 4.25, 0.75], "rotation": 270, "texture": "#0"},
				"west": {"uv": [4.15625, 0.65625, 4.25, 0.75], "rotation": 270, "texture": "#0"},
				"up": {"uv": [4.15625, 0.65625, 4.25, 0.75], "rotation": 270, "texture": "#0"},
				"down": {"uv": [4.15625, 0.65625, 4.25, 0.75], "rotation": 270, "texture": "#0"}
			}
		},
		{
			"name": "scopar",
			"from": [-1.9879, 15.6662, 6.8529],
			"to": [-1.8319, 15.8222, 7.6329],
			"rotation": {"angle": 45, "axis": "z", "origin": [10.11692, 25.502, 3.1245]},
			"faces": {
				"north": {"uv": [4.15625, 0.65625, 4.25, 0.75], "rotation": 270, "texture": "#0"},
				"east": {"uv": [4.15625, 0.65625, 4.25, 0.75], "rotation": 270, "texture": "#0"},
				"south": {"uv": [4.15625, 0.65625, 4.25, 0.75], "rotation": 270, "texture": "#0"},
				"west": {"uv": [4.15625, 0.65625, 4.25, 0.75], "rotation": 270, "texture": "#0"},
				"up": {"uv": [4.15625, 0.65625, 4.25, 0.75], "rotation": 270, "texture": "#0"},
				"down": {"uv": [4.15625, 0.65625, 4.25, 0.75], "rotation": 270, "texture": "#0"}
			}
		},
		{
			"name": "octagon",
			"from": [7.125, 7.5345, 8.76366],
			"to": [8.875, 8.0155, 9.24466],
			"rotation": {"angle": 0, "axis": "x", "origin": [7.45, 7.775, 8.86328]},
			"faces": {
				"north": {"uv": [5.40625, 0.625, 5.40625, 0.625], "texture": "#1"},
				"east": {"uv": [5.40625, 0.625, 5.40625, 0.625], "texture": "#1"},
				"south": {"uv": [5.40625, 0.625, 5.40625, 0.625], "texture": "#1"},
				"west": {"uv": [5.40625, 0.625, 5.40625, 0.625], "texture": "#1"},
				"up": {"uv": [5.40625, 0.625, 5.40625, 0.625], "texture": "#1"},
				"down": {"uv": [5.40625, 0.625, 5.40625, 0.625], "texture": "#1"}
			}
		},
		{
			"name": "octagon",
			"from": [7.3, 5.6826, 12.34531],
			"to": [8.7, 6.0674, 12.73011],
			"rotation": {"angle": 0, "axis": "x", "origin": [7.55, 5.875, 12.425]},
			"faces": {
				"north": {"uv": [4, 0, 6, 2], "texture": "#1"},
				"east": {"uv": [4, 0, 6, 2], "texture": "#1"},
				"south": {"uv": [4, 0, 6, 2], "texture": "#1"},
				"west": {"uv": [4, 0, 6, 2], "texture": "#1"},
				"up": {"uv": [4, 0, 6, 2], "texture": "#1"},
				"down": {"uv": [4, 0, 6, 2], "texture": "#1"}
			}
		},
		{
			"name": "octagon",
			"from": [7.3, 5.91912, 13.20437],
			"to": [8.7, 6.38088, 13.66617],
			"rotation": {"angle": 0, "axis": "x", "origin": [7.55, 6.15, 13.3]},
			"faces": {
				"north": {"uv": [4, 0, 6, 2], "texture": "#1"},
				"east": {"uv": [4, 0, 6, 2], "texture": "#1"},
				"south": {"uv": [4, 0, 6, 2], "texture": "#1"},
				"west": {"uv": [4, 0, 6, 2], "texture": "#1"},
				"up": {"uv": [4, 0, 6, 2], "texture": "#1"},
				"down": {"uv": [4, 0, 6, 2], "texture": "#1"}
			}
		},
		{
			"name": "octagon",
			"from": [7.15, 7.64221, 14.09831],
			"to": [8.85, 8.05779, 14.51391],
			"rotation": {"angle": 0, "axis": "x", "origin": [7.4, 7.85, 14.18438]},
			"faces": {
				"north": {"uv": [4, 0, 6, 2], "texture": "#1"},
				"east": {"uv": [4, 0, 6, 2], "texture": "#1"},
				"south": {"uv": [4, 0, 6, 2], "texture": "#1"},
				"west": {"uv": [4, 0, 6, 2], "texture": "#1"},
				"up": {"uv": [4, 0, 6, 2], "texture": "#1"},
				"down": {"uv": [4, 0, 6, 2], "texture": "#1"}
			}
		},
		{
			"name": "octagon",
			"from": [7.3, 6.70177, 7.06611],
			"to": [8.7, 7.34823, 7.71261],
			"rotation": {"angle": 0, "axis": "x", "origin": [7.55, 7.025, 7.2]},
			"faces": {
				"north": {"uv": [5.40625, 0.625, 5.40625, 0.625], "texture": "#1"},
				"east": {"uv": [5.40625, 0.625, 5.40625, 0.625], "texture": "#1"},
				"south": {"uv": [5.40625, 0.625, 5.40625, 0.625], "texture": "#1"},
				"west": {"uv": [5.40625, 0.625, 5.40625, 0.625], "texture": "#1"},
				"up": {"uv": [5.40625, 0.625, 5.40625, 0.625], "texture": "#1"},
				"down": {"uv": [5.40625, 0.625, 5.40625, 0.625], "texture": "#1"}
			}
		},
		{
			"name": "octagon",
			"from": [7.125, 8.20684, 4.78894],
			"to": [8.875, 8.54316, 5.12524],
			"rotation": {"angle": 0, "axis": "x", "origin": [7.45, 8.375, 4.85859]},
			"faces": {
				"north": {"uv": [4, 0, 6, 2], "texture": "#1"},
				"east": {"uv": [4, 0, 6, 2], "texture": "#1"},
				"south": {"uv": [4, 0, 6, 2], "texture": "#1"},
				"west": {"uv": [5.40625, 0.625, 5.40625, 0.625], "texture": "#1"},
				"up": {"uv": [4, 0, 6, 2], "texture": "#1"},
				"down": {"uv": [4, 0, 6, 2], "texture": "#1"}
			}
		},
		{
			"name": "octagon",
			"from": [7.675, 8.725, 9.7],
			"to": [8.325, 8.975, 10.35],
			"rotation": {"angle": 0, "axis": "y", "origin": [7.80962, 9.05, 10.025]},
			"faces": {
				"north": {"uv": [2, 1.40625, 2.53125, 2], "texture": "#0"},
				"east": {"uv": [2, 1.40625, 2.53125, 2], "texture": "#0"},
				"south": {"uv": [2, 1.40625, 2.53125, 2], "texture": "#0"},
				"west": {"uv": [2, 1.40625, 2.53125, 2], "texture": "#0"},
				"up": {"uv": [2, 1.40625, 2.53125, 2], "texture": "#0"}
			}
		},
		{
			"name": "octagon",
			"from": [7.74, 8.675, 8.64],
			"to": [8.26, 8.925, 9.16],
			"rotation": {"angle": 0, "axis": "y", "origin": [7.8477, 9, 8.9]},
			"faces": {
				"north": {"uv": [2, 1.40625, 2.53125, 2], "texture": "#0"},
				"east": {"uv": [2, 1.40625, 2.53125, 2], "texture": "#0"},
				"south": {"uv": [2, 1.40625, 2.53125, 2], "texture": "#0"},
				"west": {"uv": [2, 1.40625, 2.53125, 2], "texture": "#0"},
				"up": {"uv": [2, 1.40625, 2.53125, 2], "texture": "#0"}
			}
		},
		{
			"name": "lens",
			"from": [7.525, 9.375, 7.075],
			"to": [8.525, 10.125, 7.525],
			"rotation": {"angle": 0, "axis": "y", "origin": [14.825, 17.675, 15.525]},
			"faces": {
				"north": {"uv": [0, 0, 16, 16], "texture": "#2"},
				"south": {"uv": [0, 2, 16, 14], "texture": "#2"},
				"down": {"uv": [0, 0, 16, 16], "texture": "#2"}
			}
		},
		{
			"name": "M4A1 MK_8",
			"from": [7.8, 6.36623, 6.192],
			"to": [8, 6.79038, 6.39418],
			"rotation": {"angle": 0, "axis": "y", "origin": [-7.255, -0.99, 0.67891]},
			"faces": {
				"north": {"uv": [2, 0, 4, 2], "texture": "#1"},
				"east": {"uv": [2, 0, 4, 2], "texture": "#1"},
				"south": {"uv": [2, 0, 4, 2], "texture": "#1"},
				"west": {"uv": [2, 0, 4, 2], "texture": "#1"},
				"down": {"uv": [2, 0, 4, 2], "texture": "#1"}
			}
		},
		{
			"name": "M4A1 MK_9",
			"from": [7.8, 5.99514, 6.12168],
			"to": [8, 6.41929, 6.32387],
			"rotation": {"angle": 22.5, "axis": "x", "origin": [7.9, 6.20721, 6.22278]},
			"faces": {
				"north": {"uv": [2, 0, 4, 2], "texture": "#1"},
				"east": {"uv": [2, 0, 4, 2], "texture": "#1"},
				"south": {"uv": [2, 0, 4, 2], "texture": "#1"},
				"west": {"uv": [2, 0, 4, 2], "texture": "#1"},
				"up": {"uv": [2, 0, 4, 2], "texture": "#1"},
				"down": {"uv": [2, 0, 4, 2], "texture": "#1"}
			}
		}
	],
	"display": {
		"firstperson_righthand": {
			"rotation": [0, 9, 0],
			"translation": [-3.5, 1.75, 0.25],
			"scale": [2.5, 2.5, 1.5]
		}
	},
	"groups": [
		{
			"name": "hexadecagon",
			"origin": [8, 8, 8],
			"color": 0,
			"children": [0]
		},
		{
			"name": "octagon",
			"origin": [8, 8, 8],
			"color": 0,
			"children": [1, 2, 3, 4, 5, 6]
		},
		{
			"name": "rails",
			"origin": [8, 7.8, 2.85],
			"color": 0,
			"children": [7, 8, 9, 10, 11]
		},
		{
			"name": "body",
			"origin": [8.125, 7.7, 3.1],
			"color": 0,
			"children": [12, 13, 14, 15, 16, 17, 18, 19, 20, 21, 22, 23, 24, 25, 26, 27, 28, 29, 30]
		},
		{
			"name": "rail",
			"origin": [7.625, 9.475, 6],
			"color": 0,
			"children": [31, 32, 33, 34]
		},
		{
			"name": "grip",
			"origin": [8, 8, 8],
			"color": 0,
			"children": [35, 36]
		},
		{
			"name": "X95R grip",
			"origin": [8, 8, 8],
			"color": 0,
			"children": [37]
		},
		{
			"name": "hexadecagon",
			"origin": [8, 8, 8],
			"color": 0,
			"children": [38, 39, 40, 41]
		},
		{
			"name": "sco",
			"origin": [8, 8, 8],
			"color": 0,
			"children": [42, 43, 44, 45, 46, 47, 48, 49, 50, 51, 52, 53, 54, 55, 56, 57, 58]
		},
		{
			"name": "octagon",
			"origin": [8, 8, 8],
			"color": 0,
			"children": [59]
		},
		{
			"name": "octagon",
			"origin": [8, 8, 8],
			"color": 0,
			"children": [60]
		},
		{
			"name": "octagon",
			"origin": [8, 8, 8],
			"color": 0,
			"children": [61]
		},
		{
			"name": "octagon",
			"origin": [8, 8, 8],
			"color": 0,
			"children": [62]
		},
		{
			"name": "octagon",
			"origin": [8, 8, 8],
			"color": 0,
			"children": [63]
		},
		{
			"name": "octagon",
			"origin": [8, 8, 8],
			"color": 0,
			"children": [64]
		},
		{
			"name": "octagon",
			"origin": [8, 8, 8],
			"color": 0,
			"children": [65]
		},
		{
			"name": "octagon",
			"origin": [8, 8, 8],
			"color": 0,
			"children": [66]
		},
		67,
		{
			"name": "trigger",
			"origin": [8, 8, 8],
			"color": 0,
			"children": [68, 69]
		}
	]
}