{
	"credit": "Made with Blockbench",
	"textures": {
		"2": "ava:item/gun_textures/palette_blue",
		"particle": "ava:item/gun_textures/palette_blue"
	},
	"elements": [
		{
			"name": "X95R mag_0",
			"from": [7.69688, 4.69726, 10.00578],
			"to": [8.30313, 6.77593, 11.50341],
			"rotation": {"angle": 0, "axis": "y", "origin": [7.97266, 4.49347, 10.48445]},
			"faces": {
				"north": {"uv": [1.125, 6.21875, 1.125, 6.21875], "texture": "#2"},
				"east": {"uv": [1.125, 6.21875, 1.125, 6.21875], "texture": "#2"},
				"south": {"uv": [1.125, 6.21875, 1.125, 6.21875], "texture": "#2"},
				"west": {"uv": [1.125, 6.21875, 1.125, 6.21875], "texture": "#2"},
				"up": {"uv": [1.125, 6.21875, 1.125, 6.21875], "texture": "#2"},
				"down": {"uv": [1.125, 6.21875, 1.125, 6.21875], "texture": "#2"}
			}
		},
		{
			"name": "X95R mag_1",
			"from": [7.69688, 5.53138, 11.50341],
			"to": [8.30313, 6.17593, 11.65507],
			"rotation": {"angle": 0, "axis": "y", "origin": [7.97266, 4.49347, 10.48445]},
			"faces": {
				"east": {"uv": [1.125, 6.21875, 1.125, 6.21875], "texture": "#2"},
				"south": {"uv": [1.125, 6.21875, 1.125, 6.21875], "texture": "#2"},
				"west": {"uv": [1.125, 6.21875, 1.125, 6.21875], "texture": "#2"},
				"up": {"uv": [1.125, 6.21875, 1.125, 6.21875], "texture": "#2"},
				"down": {"uv": [1.125, 6.21875, 1.125, 6.21875], "texture": "#2"}
			}
		},
		{
			"name": "X95R mag_2",
			"from": [7.69688, 3.35129, 9.98682],
			"to": [8.30313, 6.13802, 10.00578],
			"rotation": {"angle": 0, "axis": "y", "origin": [7.97266, 4.49347, 10.48445]},
			"faces": {
				"north": {"uv": [1.125, 6.21875, 1.125, 6.21875], "texture": "#2"},
				"east": {"uv": [1.125, 6.21875, 1.125, 6.21875], "texture": "#2"},
				"west": {"uv": [1.125, 6.21875, 1.125, 6.21875], "texture": "#2"},
				"up": {"uv": [1.125, 6.21875, 1.125, 6.21875], "texture": "#2"},
				"down": {"uv": [1.125, 6.21875, 1.125, 6.21875], "texture": "#2"}
			}
		},
		{
			"name": "X95R mag_3",
			"from": [7.69688, 3.37024, 9.96786],
			"to": [8.30313, 5.9674, 9.98682],
			"rotation": {"angle": 0, "axis": "y", "origin": [7.97266, 4.49347, 10.48445]},
			"faces": {
				"north": {"uv": [1.125, 6.21875, 1.125, 6.21875], "texture": "#2"},
				"east": {"uv": [1.125, 6.21875, 1.125, 6.21875], "texture": "#2"},
				"west": {"uv": [1.125, 6.21875, 1.125, 6.21875], "texture": "#2"},
				"up": {"uv": [1.125, 6.21875, 1.125, 6.21875], "texture": "#2"},
				"down": {"uv": [1.125, 6.21875, 1.125, 6.21875], "texture": "#2"}
			}
		},
		{
			"name": "X95R mag_4",
			"from": [7.69688, 3.37024, 9.94891],
			"to": [8.30313, 5.8347, 9.96786],
			"rotation": {"angle": 0, "axis": "y", "origin": [7.97266, 4.49347, 10.48445]},
			"faces": {
				"north": {"uv": [1.125, 6.21875, 1.125, 6.21875], "texture": "#2"},
				"east": {"uv": [1.125, 6.21875, 1.125, 6.21875], "texture": "#2"},
				"west": {"uv": [1.125, 6.21875, 1.125, 6.21875], "texture": "#2"},
				"up": {"uv": [1.125, 6.21875, 1.125, 6.21875], "texture": "#2"},
				"down": {"uv": [1.125, 6.21875, 1.125, 6.21875], "texture": "#2"}
			}
		},
		{
			"name": "X95R mag_5",
			"from": [7.69688, 3.37024, 9.92995],
			"to": [8.30313, 5.702, 9.94891],
			"rotation": {"angle": 0, "axis": "y", "origin": [7.97266, 4.49347, 10.48445]},
			"faces": {
				"north": {"uv": [1.125, 6.21875, 1.125, 6.21875], "texture": "#2"},
				"east": {"uv": [1.125, 6.21875, 1.125, 6.21875], "texture": "#2"},
				"west": {"uv": [1.125, 6.21875, 1.125, 6.21875], "texture": "#2"},
				"up": {"uv": [1.125, 6.21875, 1.125, 6.21875], "texture": "#2"},
				"down": {"uv": [1.125, 6.21875, 1.125, 6.21875], "texture": "#2"}
			}
		},
		{
			"name": "X95R mag_6",
			"from": [7.69688, 3.37024, 9.91099],
			"to": [8.30313, 5.58825, 9.92995],
			"rotation": {"angle": 0, "axis": "y", "origin": [7.97266, 4.49347, 10.48445]},
			"faces": {
				"north": {"uv": [1.125, 6.21875, 1.125, 6.21875], "texture": "#2"},
				"east": {"uv": [1.125, 6.21875, 1.125, 6.21875], "texture": "#2"},
				"west": {"uv": [1.125, 6.21875, 1.125, 6.21875], "texture": "#2"},
				"up": {"uv": [1.125, 6.21875, 1.125, 6.21875], "texture": "#2"},
				"down": {"uv": [1.125, 6.21875, 1.125, 6.21875], "texture": "#2"}
			}
		},
		{
			"name": "X95R mag_7",
			"from": [7.69688, 5.41764, 11.50341],
			"to": [8.30313, 5.53138, 11.63611],
			"rotation": {"angle": 0, "axis": "y", "origin": [7.97266, 4.49347, 10.48445]},
			"faces": {
				"east": {"uv": [1.125, 6.21875, 1.125, 6.21875], "texture": "#2"},
				"south": {"uv": [1.125, 6.21875, 1.125, 6.21875], "texture": "#2"},
				"west": {"uv": [1.125, 6.21875, 1.125, 6.21875], "texture": "#2"},
				"down": {"uv": [1.125, 6.21875, 1.125, 6.21875], "texture": "#2"}
			}
		},
		{
			"name": "X95R mag_8",
			"from": [7.69688, 3.3892, 9.89203],
			"to": [8.30313, 5.47451, 9.91099],
			"rotation": {"angle": 0, "axis": "y", "origin": [7.97266, 4.49347, 10.48445]},
			"faces": {
				"north": {"uv": [1.125, 6.21875, 1.125, 6.21875], "texture": "#2"},
				"east": {"uv": [1.125, 6.21875, 1.125, 6.21875], "texture": "#2"},
				"west": {"uv": [1.125, 6.21875, 1.125, 6.21875], "texture": "#2"},
				"up": {"uv": [1.125, 6.21875, 1.125, 6.21875], "texture": "#2"},
				"down": {"uv": [1.125, 6.21875, 1.125, 6.21875], "texture": "#2"}
			}
		},
		{
			"name": "X95R mag_9",
			"from": [7.69688, 5.28494, 11.50341],
			"to": [8.30313, 5.41764, 11.61715],
			"rotation": {"angle": 0, "axis": "y", "origin": [7.97266, 4.49347, 10.48445]},
			"faces": {
				"east": {"uv": [1.125, 6.21875, 1.125, 6.21875], "texture": "#2"},
				"south": {"uv": [1.125, 6.21875, 1.125, 6.21875], "texture": "#2"},
				"west": {"uv": [1.125, 6.21875, 1.125, 6.21875], "texture": "#2"},
				"down": {"uv": [1.125, 6.21875, 1.125, 6.21875], "texture": "#2"}
			}
		},
		{
			"name": "X95R mag_10",
			"from": [7.69688, 3.3892, 9.87308],
			"to": [8.30313, 5.34181, 9.89203],
			"rotation": {"angle": 0, "axis": "y", "origin": [7.97266, 4.49347, 10.48445]},
			"faces": {
				"north": {"uv": [1.125, 6.21875, 1.125, 6.21875], "texture": "#2"},
				"east": {"uv": [1.125, 6.21875, 1.125, 6.21875], "texture": "#2"},
				"west": {"uv": [1.125, 6.21875, 1.125, 6.21875], "texture": "#2"},
				"up": {"uv": [1.125, 6.21875, 1.125, 6.21875], "texture": "#2"},
				"down": {"uv": [1.125, 6.21875, 1.125, 6.21875], "texture": "#2"}
			}
		},
		{
			"name": "X95R mag_11",
			"from": [7.69688, 5.19015, 11.50341],
			"to": [8.30313, 5.28494, 11.5982],
			"rotation": {"angle": 0, "axis": "y", "origin": [7.97266, 4.49347, 10.48445]},
			"faces": {
				"east": {"uv": [1.125, 6.21875, 1.125, 6.21875], "texture": "#2"},
				"south": {"uv": [1.125, 6.21875, 1.125, 6.21875], "texture": "#2"},
				"west": {"uv": [1.125, 6.21875, 1.125, 6.21875], "texture": "#2"},
				"down": {"uv": [1.125, 6.21875, 1.125, 6.21875], "texture": "#2"}
			}
		},
		{
			"name": "X95R mag_12",
			"from": [7.69688, 3.3892, 9.85412],
			"to": [8.30313, 5.20911, 9.87308],
			"rotation": {"angle": 0, "axis": "y", "origin": [7.97266, 4.49347, 10.48445]},
			"faces": {
				"north": {"uv": [1.125, 6.21875, 1.125, 6.21875], "texture": "#2"},
				"east": {"uv": [1.125, 6.21875, 1.125, 6.21875], "texture": "#2"},
				"west": {"uv": [1.125, 6.21875, 1.125, 6.21875], "texture": "#2"},
				"up": {"uv": [1.125, 6.21875, 1.125, 6.21875], "texture": "#2"},
				"down": {"uv": [1.125, 6.21875, 1.125, 6.21875], "texture": "#2"}
			}
		},
		{
			"name": "X95R mag_13",
			"from": [7.69688, 5.0764, 11.50341],
			"to": [8.30313, 5.19015, 11.57924],
			"rotation": {"angle": 0, "axis": "y", "origin": [7.97266, 4.49347, 10.48445]},
			"faces": {
				"east": {"uv": [1.125, 6.21875, 1.125, 6.21875], "texture": "#2"},
				"south": {"uv": [1.125, 6.21875, 1.125, 6.21875], "texture": "#2"},
				"west": {"uv": [1.125, 6.21875, 1.125, 6.21875], "texture": "#2"},
				"down": {"uv": [1.125, 6.21875, 1.125, 6.21875], "texture": "#2"}
			}
		},
		{
			"name": "X95R mag_14",
			"from": [7.69688, 3.3892, 9.83516],
			"to": [8.30313, 5.13328, 9.85412],
			"rotation": {"angle": 0, "axis": "y", "origin": [7.97266, 4.49347, 10.48445]},
			"faces": {
				"north": {"uv": [1.125, 6.21875, 1.125, 6.21875], "texture": "#2"},
				"east": {"uv": [1.125, 6.21875, 1.125, 6.21875], "texture": "#2"},
				"west": {"uv": [1.125, 6.21875, 1.125, 6.21875], "texture": "#2"},
				"up": {"uv": [1.125, 6.21875, 1.125, 6.21875], "texture": "#2"},
				"down": {"uv": [1.125, 6.21875, 1.125, 6.21875], "texture": "#2"}
			}
		},
		{
			"name": "X95R mag_15",
			"from": [7.69688, 3.40816, 9.8162],
			"to": [8.30313, 5.0764, 9.83516],
			"rotation": {"angle": 0, "axis": "y", "origin": [7.97266, 4.49347, 10.48445]},
			"faces": {
				"north": {"uv": [1.125, 6.21875, 1.125, 6.21875], "texture": "#2"},
				"east": {"uv": [1.125, 6.21875, 1.125, 6.21875], "texture": "#2"},
				"west": {"uv": [1.125, 6.21875, 1.125, 6.21875], "texture": "#2"},
				"up": {"uv": [1.125, 6.21875, 1.125, 6.21875], "texture": "#2"},
				"down": {"uv": [1.125, 6.21875, 1.125, 6.21875], "texture": "#2"}
			}
		},
		{
			"name": "X95R mag_16",
			"from": [7.69688, 4.9437, 11.50341],
			"to": [8.30313, 5.0764, 11.56028],
			"rotation": {"angle": 0, "axis": "y", "origin": [7.97266, 4.49347, 10.48445]},
			"faces": {
				"east": {"uv": [1.125, 6.21875, 1.125, 6.21875], "texture": "#2"},
				"south": {"uv": [1.125, 6.21875, 1.125, 6.21875], "texture": "#2"},
				"west": {"uv": [1.125, 6.21875, 1.125, 6.21875], "texture": "#2"},
				"down": {"uv": [1.125, 6.21875, 1.125, 6.21875], "texture": "#2"}
			}
		},
		{
			"name": "X95R mag_17",
			"from": [7.69688, 3.40816, 9.79725],
			"to": [8.30313, 5.00058, 9.8162],
			"rotation": {"angle": 0, "axis": "y", "origin": [7.97266, 4.49347, 10.48445]},
			"faces": {
				"north": {"uv": [1.125, 6.21875, 1.125, 6.21875], "texture": "#2"},
				"east": {"uv": [1.125, 6.21875, 1.125, 6.21875], "texture": "#2"},
				"west": {"uv": [1.125, 6.21875, 1.125, 6.21875], "texture": "#2"},
				"up": {"uv": [1.125, 6.21875, 1.125, 6.21875], "texture": "#2"},
				"down": {"uv": [1.125, 6.21875, 1.125, 6.21875], "texture": "#2"}
			}
		},
		{
			"name": "X95R mag_18",
			"from": [7.69688, 4.84892, 11.50341],
			"to": [8.30313, 4.9437, 11.54132],
			"rotation": {"angle": 0, "axis": "y", "origin": [7.97266, 4.49347, 10.48445]},
			"faces": {
				"east": {"uv": [1.125, 6.21875, 1.125, 6.21875], "texture": "#2"},
				"south": {"uv": [1.125, 6.21875, 1.125, 6.21875], "texture": "#2"},
				"west": {"uv": [1.125, 6.21875, 1.125, 6.21875], "texture": "#2"},
				"down": {"uv": [1.125, 6.21875, 1.125, 6.21875], "texture": "#2"}
			}
		},
		{
			"name": "X95R mag_19",
			"from": [7.69688, 3.40816, 9.77829],
			"to": [8.30313, 4.92475, 9.79725],
			"rotation": {"angle": 0, "axis": "y", "origin": [7.97266, 4.49347, 10.48445]},
			"faces": {
				"north": {"uv": [1.125, 6.21875, 1.125, 6.21875], "texture": "#2"},
				"east": {"uv": [1.125, 6.21875, 1.125, 6.21875], "texture": "#2"},
				"west": {"uv": [1.125, 6.21875, 1.125, 6.21875], "texture": "#2"},
				"up": {"uv": [1.125, 6.21875, 1.125, 6.21875], "texture": "#2"},
				"down": {"uv": [1.125, 6.21875, 1.125, 6.21875], "texture": "#2"}
			}
		},
		{
			"name": "X95R mag_20",
			"from": [7.69688, 3.40816, 9.75933],
			"to": [8.30313, 4.84892, 9.77829],
			"rotation": {"angle": 0, "axis": "y", "origin": [7.97266, 4.49347, 10.48445]},
			"faces": {
				"north": {"uv": [1.125, 6.21875, 1.125, 6.21875], "texture": "#2"},
				"east": {"uv": [1.125, 6.21875, 1.125, 6.21875], "texture": "#2"},
				"west": {"uv": [1.125, 6.21875, 1.125, 6.21875], "texture": "#2"},
				"up": {"uv": [1.125, 6.21875, 1.125, 6.21875], "texture": "#2"},
				"down": {"uv": [1.125, 6.21875, 1.125, 6.21875], "texture": "#2"}
			}
		},
		{
			"name": "X95R mag_21",
			"from": [7.69688, 4.79204, 11.50341],
			"to": [8.30313, 4.84892, 11.52237],
			"rotation": {"angle": 0, "axis": "y", "origin": [7.97266, 4.49347, 10.48445]},
			"faces": {
				"east": {"uv": [1.125, 6.21875, 1.125, 6.21875], "texture": "#2"},
				"south": {"uv": [1.125, 6.21875, 1.125, 6.21875], "texture": "#2"},
				"west": {"uv": [1.125, 6.21875, 1.125, 6.21875], "texture": "#2"},
				"down": {"uv": [1.125, 6.21875, 1.125, 6.21875], "texture": "#2"}
			}
		},
		{
			"name": "X95R mag_22",
			"from": [7.69688, 3.40816, 9.74038],
			"to": [8.30313, 4.79204, 9.75933],
			"rotation": {"angle": 0, "axis": "y", "origin": [7.97266, 4.49347, 10.48445]},
			"faces": {
				"north": {"uv": [1.125, 6.21875, 1.125, 6.21875], "texture": "#2"},
				"east": {"uv": [1.125, 6.21875, 1.125, 6.21875], "texture": "#2"},
				"west": {"uv": [1.125, 6.21875, 1.125, 6.21875], "texture": "#2"},
				"up": {"uv": [1.125, 6.21875, 1.125, 6.21875], "texture": "#2"},
				"down": {"uv": [1.125, 6.21875, 1.125, 6.21875], "texture": "#2"}
			}
		},
		{
			"name": "X95R mag_23",
			"from": [7.69688, 3.42712, 9.72142],
			"to": [8.30313, 4.71622, 9.74038],
			"rotation": {"angle": 0, "axis": "y", "origin": [7.97266, 4.49347, 10.48445]},
			"faces": {
				"north": {"uv": [1.125, 6.21875, 1.125, 6.21875], "texture": "#2"},
				"east": {"uv": [1.125, 6.21875, 1.125, 6.21875], "texture": "#2"},
				"west": {"uv": [1.125, 6.21875, 1.125, 6.21875], "texture": "#2"},
				"up": {"uv": [1.125, 6.21875, 1.125, 6.21875], "texture": "#2"},
				"down": {"uv": [1.125, 6.21875, 1.125, 6.21875], "texture": "#2"}
			}
		},
		{
			"name": "X95R mag_24",
			"from": [7.69688, 3.54086, 10.00578],
			"to": [8.30313, 4.69726, 11.14322],
			"rotation": {"angle": 0, "axis": "y", "origin": [7.97266, 4.49347, 10.48445]},
			"faces": {
				"east": {"uv": [1.125, 6.21875, 1.125, 6.21875], "texture": "#2"},
				"south": {"uv": [1.125, 6.21875, 1.125, 6.21875], "texture": "#2"},
				"west": {"uv": [1.125, 6.21875, 1.125, 6.21875], "texture": "#2"},
				"down": {"uv": [1.125, 6.21875, 1.125, 6.21875], "texture": "#2"}
			}
		},
		{
			"name": "X95R mag_25",
			"from": [7.69688, 4.43186, 11.14322],
			"to": [8.30313, 4.69726, 11.42758],
			"rotation": {"angle": 0, "axis": "y", "origin": [7.97266, 4.49347, 10.48445]},
			"faces": {
				"east": {"uv": [1.125, 6.21875, 1.125, 6.21875], "texture": "#2"},
				"south": {"uv": [1.125, 6.21875, 1.125, 6.21875], "texture": "#2"},
				"west": {"uv": [1.125, 6.21875, 1.125, 6.21875], "texture": "#2"},
				"down": {"uv": [1.125, 6.21875, 1.125, 6.21875], "texture": "#2"}
			}
		},
		{
			"name": "X95R mag_26",
			"from": [7.69688, 4.64039, 11.42758],
			"to": [8.30313, 4.69726, 11.48445],
			"rotation": {"angle": 0, "axis": "y", "origin": [7.97266, 4.49347, 10.48445]},
			"faces": {
				"east": {"uv": [1.125, 6.21875, 1.125, 6.21875], "texture": "#2"},
				"south": {"uv": [1.125, 6.21875, 1.125, 6.21875], "texture": "#2"},
				"west": {"uv": [1.125, 6.21875, 1.125, 6.21875], "texture": "#2"},
				"down": {"uv": [1.125, 6.21875, 1.125, 6.21875], "texture": "#2"}
			}
		},
		{
			"name": "X95R mag_27",
			"from": [7.69688, 3.42712, 9.70246],
			"to": [8.30313, 4.64039, 9.72142],
			"rotation": {"angle": 0, "axis": "y", "origin": [7.97266, 4.49347, 10.48445]},
			"faces": {
				"north": {"uv": [1.125, 6.21875, 1.125, 6.21875], "texture": "#2"},
				"east": {"uv": [1.125, 6.21875, 1.125, 6.21875], "texture": "#2"},
				"west": {"uv": [1.125, 6.21875, 1.125, 6.21875], "texture": "#2"},
				"up": {"uv": [1.125, 6.21875, 1.125, 6.21875], "texture": "#2"},
				"down": {"uv": [1.125, 6.21875, 1.125, 6.21875], "texture": "#2"}
			}
		},
		{
			"name": "X95R mag_28",
			"from": [7.69688, 4.56456, 11.42758],
			"to": [8.30313, 4.64039, 11.46549],
			"rotation": {"angle": 0, "axis": "y", "origin": [7.97266, 4.49347, 10.48445]},
			"faces": {
				"east": {"uv": [1.125, 6.21875, 1.125, 6.21875], "texture": "#2"},
				"south": {"uv": [1.125, 6.21875, 1.125, 6.21875], "texture": "#2"},
				"west": {"uv": [1.125, 6.21875, 1.125, 6.21875], "texture": "#2"},
				"down": {"uv": [1.125, 6.21875, 1.125, 6.21875], "texture": "#2"}
			}
		},
		{
			"name": "X95R mag_29",
			"from": [7.69688, 3.44607, 9.6835],
			"to": [8.30313, 4.58351, 9.70246],
			"rotation": {"angle": 0, "axis": "y", "origin": [7.97266, 4.49347, 10.48445]},
			"faces": {
				"north": {"uv": [1.125, 6.21875, 1.125, 6.21875], "texture": "#2"},
				"east": {"uv": [1.125, 6.21875, 1.125, 6.21875], "texture": "#2"},
				"west": {"uv": [1.125, 6.21875, 1.125, 6.21875], "texture": "#2"},
				"up": {"uv": [1.125, 6.21875, 1.125, 6.21875], "texture": "#2"},
				"down": {"uv": [1.125, 6.21875, 1.125, 6.21875], "texture": "#2"}
			}
		},
		{
			"name": "X95R mag_30",
			"from": [7.69688, 4.48873, 11.42758],
			"to": [8.30313, 4.56456, 11.44654],
			"rotation": {"angle": 0, "axis": "y", "origin": [7.97266, 4.49347, 10.48445]},
			"faces": {
				"east": {"uv": [1.125, 6.21875, 1.125, 6.21875], "texture": "#2"},
				"south": {"uv": [1.125, 6.21875, 1.125, 6.21875], "texture": "#2"},
				"west": {"uv": [1.125, 6.21875, 1.125, 6.21875], "texture": "#2"},
				"down": {"uv": [1.125, 6.21875, 1.125, 6.21875], "texture": "#2"}
			}
		},
		{
			"name": "X95R mag_31",
			"from": [7.69688, 3.44607, 9.66455],
			"to": [8.30313, 4.50768, 9.6835],
			"rotation": {"angle": 0, "axis": "y", "origin": [7.97266, 4.49347, 10.48445]},
			"faces": {
				"north": {"uv": [1.125, 6.21875, 1.125, 6.21875], "texture": "#2"},
				"east": {"uv": [1.125, 6.21875, 1.125, 6.21875], "texture": "#2"},
				"west": {"uv": [1.125, 6.21875, 1.125, 6.21875], "texture": "#2"},
				"up": {"uv": [1.125, 6.21875, 1.125, 6.21875], "texture": "#2"},
				"down": {"uv": [1.125, 6.21875, 1.125, 6.21875], "texture": "#2"}
			}
		},
		{
			"name": "X95R mag_32",
			"from": [7.69688, 3.44607, 9.64559],
			"to": [8.30313, 4.45081, 9.66455],
			"rotation": {"angle": 0, "axis": "y", "origin": [7.97266, 4.49347, 10.48445]},
			"faces": {
				"north": {"uv": [1.125, 6.21875, 1.125, 6.21875], "texture": "#2"},
				"east": {"uv": [1.125, 6.21875, 1.125, 6.21875], "texture": "#2"},
				"west": {"uv": [1.125, 6.21875, 1.125, 6.21875], "texture": "#2"},
				"up": {"uv": [1.125, 6.21875, 1.125, 6.21875], "texture": "#2"},
				"down": {"uv": [1.125, 6.21875, 1.125, 6.21875], "texture": "#2"}
			}
		},
		{
			"name": "X95R mag_33",
			"from": [7.69688, 4.22332, 11.14322],
			"to": [8.30313, 4.43186, 11.37071],
			"rotation": {"angle": 0, "axis": "y", "origin": [7.97266, 4.49347, 10.48445]},
			"faces": {
				"east": {"uv": [1.125, 6.21875, 1.125, 6.21875], "texture": "#2"},
				"south": {"uv": [1.125, 6.21875, 1.125, 6.21875], "texture": "#2"},
				"west": {"uv": [1.125, 6.21875, 1.125, 6.21875], "texture": "#2"},
				"down": {"uv": [1.125, 6.21875, 1.125, 6.21875], "texture": "#2"}
			}
		},
		{
			"name": "X95R mag_34",
			"from": [7.69688, 4.35603, 11.37071],
			"to": [8.30313, 4.43186, 11.40862],
			"rotation": {"angle": 0, "axis": "y", "origin": [7.97266, 4.49347, 10.48445]},
			"faces": {
				"east": {"uv": [1.125, 6.21875, 1.125, 6.21875], "texture": "#2"},
				"south": {"uv": [1.125, 6.21875, 1.125, 6.21875], "texture": "#2"},
				"west": {"uv": [1.125, 6.21875, 1.125, 6.21875], "texture": "#2"},
				"down": {"uv": [1.125, 6.21875, 1.125, 6.21875], "texture": "#2"}
			}
		},
		{
			"name": "X95R mag_35",
			"from": [7.69688, 3.44607, 9.62663],
			"to": [8.30313, 4.39394, 9.64559],
			"rotation": {"angle": 0, "axis": "y", "origin": [7.97266, 4.49347, 10.48445]},
			"faces": {
				"north": {"uv": [1.125, 6.21875, 1.125, 6.21875], "texture": "#2"},
				"east": {"uv": [1.125, 6.21875, 1.125, 6.21875], "texture": "#2"},
				"west": {"uv": [1.125, 6.21875, 1.125, 6.21875], "texture": "#2"},
				"up": {"uv": [1.125, 6.21875, 1.125, 6.21875], "texture": "#2"},
				"down": {"uv": [1.125, 6.21875, 1.125, 6.21875], "texture": "#2"}
			}
		},
		{
			"name": "X95R mag_36",
			"from": [7.69688, 4.29915, 11.37071],
			"to": [8.30313, 4.35603, 11.38966],
			"rotation": {"angle": 0, "axis": "y", "origin": [7.97266, 4.49347, 10.48445]},
			"faces": {
				"east": {"uv": [1.125, 6.21875, 1.125, 6.21875], "texture": "#2"},
				"south": {"uv": [1.125, 6.21875, 1.125, 6.21875], "texture": "#2"},
				"west": {"uv": [1.125, 6.21875, 1.125, 6.21875], "texture": "#2"},
				"down": {"uv": [1.125, 6.21875, 1.125, 6.21875], "texture": "#2"}
			}
		},
		{
			"name": "X95R mag_37",
			"from": [7.69688, 3.44607, 9.60767],
			"to": [8.30313, 4.33707, 9.62663],
			"rotation": {"angle": 0, "axis": "y", "origin": [7.97266, 4.49347, 10.48445]},
			"faces": {
				"north": {"uv": [1.125, 6.21875, 1.125, 6.21875], "texture": "#2"},
				"east": {"uv": [1.125, 6.21875, 1.125, 6.21875], "texture": "#2"},
				"west": {"uv": [1.125, 6.21875, 1.125, 6.21875], "texture": "#2"},
				"up": {"uv": [1.125, 6.21875, 1.125, 6.21875], "texture": "#2"},
				"down": {"uv": [1.125, 6.21875, 1.125, 6.21875], "texture": "#2"}
			}
		},
		{
			"name": "X95R mag_38",
			"from": [7.69688, 3.44607, 9.58872],
			"to": [8.30313, 4.29915, 9.60767],
			"rotation": {"angle": 0, "axis": "y", "origin": [7.97266, 4.49347, 10.48445]},
			"faces": {
				"north": {"uv": [1.125, 6.21875, 1.125, 6.21875], "texture": "#2"},
				"east": {"uv": [1.125, 6.21875, 1.125, 6.21875], "texture": "#2"},
				"west": {"uv": [1.125, 6.21875, 1.125, 6.21875], "texture": "#2"},
				"up": {"uv": [1.125, 6.21875, 1.125, 6.21875], "texture": "#2"},
				"down": {"uv": [1.125, 6.21875, 1.125, 6.21875], "texture": "#2"}
			}
		},
		{
			"name": "X95R mag_39",
			"from": [7.69688, 3.46503, 9.56976],
			"to": [8.30313, 4.24228, 9.58872],
			"rotation": {"angle": 0, "axis": "y", "origin": [7.97266, 4.49347, 10.48445]},
			"faces": {
				"north": {"uv": [1.125, 6.21875, 1.125, 6.21875], "texture": "#2"},
				"east": {"uv": [1.125, 6.21875, 1.125, 6.21875], "texture": "#2"},
				"west": {"uv": [1.125, 6.21875, 1.125, 6.21875], "texture": "#2"},
				"up": {"uv": [1.125, 6.21875, 1.125, 6.21875], "texture": "#2"},
				"down": {"uv": [1.125, 6.21875, 1.125, 6.21875], "texture": "#2"}
			}
		},
		{
			"name": "X95R mag_40",
			"from": [7.69688, 4.03375, 11.14322],
			"to": [8.30313, 4.22332, 11.31384],
			"rotation": {"angle": 0, "axis": "y", "origin": [7.97266, 4.49347, 10.48445]},
			"faces": {
				"east": {"uv": [1.125, 6.21875, 1.125, 6.21875], "texture": "#2"},
				"south": {"uv": [1.125, 6.21875, 1.125, 6.21875], "texture": "#2"},
				"west": {"uv": [1.125, 6.21875, 1.125, 6.21875], "texture": "#2"},
				"down": {"uv": [1.125, 6.21875, 1.125, 6.21875], "texture": "#2"}
			}
		},
		{
			"name": "X95R mag_41",
			"from": [7.69688, 4.16645, 11.31384],
			"to": [8.30313, 4.22332, 11.35175],
			"rotation": {"angle": 0, "axis": "y", "origin": [7.97266, 4.49347, 10.48445]},
			"faces": {
				"east": {"uv": [1.125, 6.21875, 1.125, 6.21875], "texture": "#2"},
				"south": {"uv": [1.125, 6.21875, 1.125, 6.21875], "texture": "#2"},
				"west": {"uv": [1.125, 6.21875, 1.125, 6.21875], "texture": "#2"},
				"down": {"uv": [1.125, 6.21875, 1.125, 6.21875], "texture": "#2"}
			}
		},
		{
			"name": "X95R mag_42",
			"from": [7.69688, 3.46503, 9.5508],
			"to": [8.30313, 4.18541, 9.56976],
			"rotation": {"angle": 0, "axis": "y", "origin": [7.97266, 4.49347, 10.48445]},
			"faces": {
				"north": {"uv": [1.125, 6.21875, 1.125, 6.21875], "texture": "#2"},
				"east": {"uv": [1.125, 6.21875, 1.125, 6.21875], "texture": "#2"},
				"west": {"uv": [1.125, 6.21875, 1.125, 6.21875], "texture": "#2"},
				"up": {"uv": [1.125, 6.21875, 1.125, 6.21875], "texture": "#2"},
				"down": {"uv": [1.125, 6.21875, 1.125, 6.21875], "texture": "#2"}
			}
		},
		{
			"name": "X95R mag_43",
			"from": [7.69688, 4.09062, 11.31384],
			"to": [8.30313, 4.16645, 11.33279],
			"rotation": {"angle": 0, "axis": "y", "origin": [7.97266, 4.49347, 10.48445]},
			"faces": {
				"east": {"uv": [1.125, 6.21875, 1.125, 6.21875], "texture": "#2"},
				"south": {"uv": [1.125, 6.21875, 1.125, 6.21875], "texture": "#2"},
				"west": {"uv": [1.125, 6.21875, 1.125, 6.21875], "texture": "#2"},
				"down": {"uv": [1.125, 6.21875, 1.125, 6.21875], "texture": "#2"}
			}
		},
		{
			"name": "X95R mag_44",
			"from": [7.69688, 3.46503, 9.53184],
			"to": [8.30313, 4.14749, 9.5508],
			"rotation": {"angle": 0, "axis": "y", "origin": [7.97266, 4.49347, 10.48445]},
			"faces": {
				"north": {"uv": [1.125, 6.21875, 1.125, 6.21875], "texture": "#2"},
				"east": {"uv": [1.125, 6.21875, 1.125, 6.21875], "texture": "#2"},
				"west": {"uv": [1.125, 6.21875, 1.125, 6.21875], "texture": "#2"},
				"up": {"uv": [1.125, 6.21875, 1.125, 6.21875], "texture": "#2"},
				"down": {"uv": [1.125, 6.21875, 1.125, 6.21875], "texture": "#2"}
			}
		},
		{
			"name": "X95R mag_45",
			"from": [7.69688, 3.48399, 9.51289],
			"to": [8.30313, 4.09062, 9.53184],
			"rotation": {"angle": 0, "axis": "y", "origin": [7.97266, 4.49347, 10.48445]},
			"faces": {
				"north": {"uv": [1.125, 6.21875, 1.125, 6.21875], "texture": "#2"},
				"east": {"uv": [1.125, 6.21875, 1.125, 6.21875], "texture": "#2"},
				"west": {"uv": [1.125, 6.21875, 1.125, 6.21875], "texture": "#2"},
				"up": {"uv": [1.125, 6.21875, 1.125, 6.21875], "texture": "#2"},
				"down": {"uv": [1.125, 6.21875, 1.125, 6.21875], "texture": "#2"}
			}
		},
		{
			"name": "X95R mag_46",
			"from": [7.69688, 3.48399, 9.49393],
			"to": [8.30313, 4.03375, 9.51289],
			"rotation": {"angle": 0, "axis": "y", "origin": [7.97266, 4.49347, 10.48445]},
			"faces": {
				"north": {"uv": [1.125, 6.21875, 1.125, 6.21875], "texture": "#2"},
				"east": {"uv": [1.125, 6.21875, 1.125, 6.21875], "texture": "#2"},
				"west": {"uv": [1.125, 6.21875, 1.125, 6.21875], "texture": "#2"},
				"up": {"uv": [1.125, 6.21875, 1.125, 6.21875], "texture": "#2"},
				"down": {"uv": [1.125, 6.21875, 1.125, 6.21875], "texture": "#2"}
			}
		},
		{
			"name": "X95R mag_47",
			"from": [7.69688, 3.90105, 11.14322],
			"to": [8.30313, 4.03375, 11.27592],
			"rotation": {"angle": 0, "axis": "y", "origin": [7.97266, 4.49347, 10.48445]},
			"faces": {
				"east": {"uv": [1.125, 6.21875, 1.125, 6.21875], "texture": "#2"},
				"south": {"uv": [1.125, 6.21875, 1.125, 6.21875], "texture": "#2"},
				"west": {"uv": [1.125, 6.21875, 1.125, 6.21875], "texture": "#2"},
				"down": {"uv": [1.125, 6.21875, 1.125, 6.21875], "texture": "#2"}
			}
		},
		{
			"name": "X95R mag_48",
			"from": [7.69688, 3.97688, 11.27592],
			"to": [8.30313, 4.03375, 11.29488],
			"rotation": {"angle": 0, "axis": "y", "origin": [7.97266, 4.49347, 10.48445]},
			"faces": {
				"east": {"uv": [1.125, 6.21875, 1.125, 6.21875], "texture": "#2"},
				"south": {"uv": [1.125, 6.21875, 1.125, 6.21875], "texture": "#2"},
				"west": {"uv": [1.125, 6.21875, 1.125, 6.21875], "texture": "#2"},
				"down": {"uv": [1.125, 6.21875, 1.125, 6.21875], "texture": "#2"}
			}
		},
		{
			"name": "X95R mag_49",
			"from": [7.69688, 3.48399, 9.47497],
			"to": [8.30313, 3.99584, 9.49393],
			"rotation": {"angle": 0, "axis": "y", "origin": [7.97266, 4.49347, 10.48445]},
			"faces": {
				"north": {"uv": [1.125, 6.21875, 1.125, 6.21875], "texture": "#2"},
				"east": {"uv": [1.125, 6.21875, 1.125, 6.21875], "texture": "#2"},
				"west": {"uv": [1.125, 6.21875, 1.125, 6.21875], "texture": "#2"},
				"up": {"uv": [1.125, 6.21875, 1.125, 6.21875], "texture": "#2"},
				"down": {"uv": [1.125, 6.21875, 1.125, 6.21875], "texture": "#2"}
			}
		},
		{
			"name": "X95R mag_50",
			"from": [7.69688, 3.48399, 9.45602],
			"to": [8.30313, 3.93896, 9.47497],
			"rotation": {"angle": 0, "axis": "y", "origin": [7.97266, 4.49347, 10.48445]},
			"faces": {
				"north": {"uv": [1.125, 6.21875, 1.125, 6.21875], "texture": "#2"},
				"east": {"uv": [1.125, 6.21875, 1.125, 6.21875], "texture": "#2"},
				"west": {"uv": [1.125, 6.21875, 1.125, 6.21875], "texture": "#2"},
				"up": {"uv": [1.125, 6.21875, 1.125, 6.21875], "texture": "#2"},
				"down": {"uv": [1.125, 6.21875, 1.125, 6.21875], "texture": "#2"}
			}
		},
		{
			"name": "X95R mag_51",
			"from": [7.69688, 3.80626, 11.14322],
			"to": [8.30313, 3.90105, 11.23801],
			"rotation": {"angle": 0, "axis": "y", "origin": [7.97266, 4.49347, 10.48445]},
			"faces": {
				"east": {"uv": [1.125, 6.21875, 1.125, 6.21875], "texture": "#2"},
				"south": {"uv": [1.125, 6.21875, 1.125, 6.21875], "texture": "#2"},
				"west": {"uv": [1.125, 6.21875, 1.125, 6.21875], "texture": "#2"},
				"down": {"uv": [1.125, 6.21875, 1.125, 6.21875], "texture": "#2"}
			}
		},
		{
			"name": "X95R mag_52",
			"from": [7.69688, 3.86313, 11.23801],
			"to": [8.30313, 3.90105, 11.25696],
			"rotation": {"angle": 0, "axis": "y", "origin": [7.97266, 4.49347, 10.48445]},
			"faces": {
				"east": {"uv": [1.125, 6.21875, 1.125, 6.21875], "texture": "#2"},
				"south": {"uv": [1.125, 6.21875, 1.125, 6.21875], "texture": "#2"},
				"west": {"uv": [1.125, 6.21875, 1.125, 6.21875], "texture": "#2"},
				"down": {"uv": [1.125, 6.21875, 1.125, 6.21875], "texture": "#2"}
			}
		},
		{
			"name": "X95R mag_53",
			"from": [7.69688, 3.50295, 9.43706],
			"to": [8.30313, 3.88209, 9.45602],
			"rotation": {"angle": 0, "axis": "y", "origin": [7.97266, 4.49347, 10.48445]},
			"faces": {
				"north": {"uv": [1.125, 6.21875, 1.125, 6.21875], "texture": "#2"},
				"east": {"uv": [1.125, 6.21875, 1.125, 6.21875], "texture": "#2"},
				"west": {"uv": [1.125, 6.21875, 1.125, 6.21875], "texture": "#2"},
				"up": {"uv": [1.125, 6.21875, 1.125, 6.21875], "texture": "#2"},
				"down": {"uv": [1.125, 6.21875, 1.125, 6.21875], "texture": "#2"}
			}
		},
		{
			"name": "X95R mag_54",
			"from": [7.69688, 3.5219, 9.4181],
			"to": [8.30313, 3.84418, 9.43706],
			"rotation": {"angle": 0, "axis": "y", "origin": [7.97266, 4.49347, 10.48445]},
			"faces": {
				"north": {"uv": [1.125, 6.21875, 1.125, 6.21875], "texture": "#2"},
				"east": {"uv": [1.125, 6.21875, 1.125, 6.21875], "texture": "#2"},
				"west": {"uv": [1.125, 6.21875, 1.125, 6.21875], "texture": "#2"},
				"up": {"uv": [1.125, 6.21875, 1.125, 6.21875], "texture": "#2"},
				"down": {"uv": [1.125, 6.21875, 1.125, 6.21875], "texture": "#2"}
			}
		},
		{
			"name": "X95R mag_55",
			"from": [7.69688, 3.74939, 11.14322],
			"to": [8.30313, 3.80626, 11.21905],
			"rotation": {"angle": 0, "axis": "y", "origin": [7.97266, 4.49347, 10.48445]},
			"faces": {
				"east": {"uv": [1.125, 6.21875, 1.125, 6.21875], "texture": "#2"},
				"south": {"uv": [1.125, 6.21875, 1.125, 6.21875], "texture": "#2"},
				"west": {"uv": [1.125, 6.21875, 1.125, 6.21875], "texture": "#2"},
				"down": {"uv": [1.125, 6.21875, 1.125, 6.21875], "texture": "#2"}
			}
		},
		{
			"name": "X95R mag_56",
			"from": [7.69688, 3.59773, 9.39914],
			"to": [8.30313, 3.78731, 9.4181],
			"rotation": {"angle": 0, "axis": "y", "origin": [7.97266, 4.49347, 10.48445]},
			"faces": {
				"north": {"uv": [1.125, 6.21875, 1.125, 6.21875], "texture": "#2"},
				"east": {"uv": [1.125, 6.21875, 1.125, 6.21875], "texture": "#2"},
				"west": {"uv": [1.125, 6.21875, 1.125, 6.21875], "texture": "#2"},
				"up": {"uv": [1.125, 6.21875, 1.125, 6.21875], "texture": "#2"},
				"down": {"uv": [1.125, 6.21875, 1.125, 6.21875], "texture": "#2"}
			}
		},
		{
			"name": "X95R mag_57",
			"from": [7.69688, 3.69252, 11.14322],
			"to": [8.30313, 3.74939, 11.20009],
			"rotation": {"angle": 0, "axis": "y", "origin": [7.97266, 4.49347, 10.48445]},
			"faces": {
				"east": {"uv": [1.125, 6.21875, 1.125, 6.21875], "texture": "#2"},
				"south": {"uv": [1.125, 6.21875, 1.125, 6.21875], "texture": "#2"},
				"west": {"uv": [1.125, 6.21875, 1.125, 6.21875], "texture": "#2"},
				"down": {"uv": [1.125, 6.21875, 1.125, 6.21875], "texture": "#2"}
			}
		},
		{
			"name": "X95R mag_58",
			"from": [7.69688, 3.6546, 9.38019],
			"to": [8.30313, 3.73043, 9.39914],
			"rotation": {"angle": 0, "axis": "y", "origin": [7.97266, 4.49347, 10.48445]},
			"faces": {
				"north": {"uv": [1.125, 6.21875, 1.125, 6.21875], "texture": "#2"},
				"east": {"uv": [1.125, 6.21875, 1.125, 6.21875], "texture": "#2"},
				"west": {"uv": [1.125, 6.21875, 1.125, 6.21875], "texture": "#2"},
				"up": {"uv": [1.125, 6.21875, 1.125, 6.21875], "texture": "#2"},
				"down": {"uv": [1.125, 6.21875, 1.125, 6.21875], "texture": "#2"}
			}
		},
		{
			"name": "X95R mag_59",
			"from": [7.69688, 3.6546, 11.14322],
			"to": [8.30313, 3.69252, 11.18113],
			"rotation": {"angle": 0, "axis": "y", "origin": [7.97266, 4.49347, 10.48445]},
			"faces": {
				"east": {"uv": [1.125, 6.21875, 1.125, 6.21875], "texture": "#2"},
				"south": {"uv": [1.125, 6.21875, 1.125, 6.21875], "texture": "#2"},
				"west": {"uv": [1.125, 6.21875, 1.125, 6.21875], "texture": "#2"},
				"down": {"uv": [1.125, 6.21875, 1.125, 6.21875], "texture": "#2"}
			}
		},
		{
			"name": "X95R mag_60",
			"from": [7.69688, 3.57877, 11.14322],
			"to": [8.30313, 3.6546, 11.16218],
			"rotation": {"angle": 0, "axis": "y", "origin": [7.97266, 4.49347, 10.48445]},
			"faces": {
				"east": {"uv": [1.125, 6.21875, 1.125, 6.21875], "texture": "#2"},
				"south": {"uv": [1.125, 6.21875, 1.125, 6.21875], "texture": "#2"},
				"west": {"uv": [1.125, 6.21875, 1.125, 6.21875], "texture": "#2"},
				"down": {"uv": [1.125, 6.21875, 1.125, 6.21875], "texture": "#2"}
			}
		},
		{
			"name": "X95R mag_61",
			"from": [7.69688, 3.35129, 10.00578],
			"to": [8.30313, 3.54086, 11.06739],
			"rotation": {"angle": 0, "axis": "y", "origin": [7.97266, 4.49347, 10.48445]},
			"faces": {
				"east": {"uv": [1.125, 6.21875, 1.125, 6.21875], "texture": "#2"},
				"south": {"uv": [1.125, 6.21875, 1.125, 6.21875], "texture": "#2"},
				"west": {"uv": [1.125, 6.21875, 1.125, 6.21875], "texture": "#2"},
				"down": {"uv": [1.125, 6.21875, 1.125, 6.21875], "texture": "#2"}
			}
		},
		{
			"name": "X95R mag_62",
			"from": [7.69688, 3.50295, 11.06739],
			"to": [8.30313, 3.54086, 11.12426],
			"rotation": {"angle": 0, "axis": "y", "origin": [7.97266, 4.49347, 10.48445]},
			"faces": {
				"east": {"uv": [1.125, 6.21875, 1.125, 6.21875], "texture": "#2"},
				"south": {"uv": [1.125, 6.21875, 1.125, 6.21875], "texture": "#2"},
				"west": {"uv": [1.125, 6.21875, 1.125, 6.21875], "texture": "#2"},
				"down": {"uv": [1.125, 6.21875, 1.125, 6.21875], "texture": "#2"}
			}
		},
		{
			"name": "X95R mag_63",
			"from": [7.69688, 3.42712, 11.06739],
			"to": [8.30313, 3.50295, 11.1053],
			"rotation": {"angle": 0, "axis": "y", "origin": [7.97266, 4.49347, 10.48445]},
			"faces": {
				"east": {"uv": [1.125, 6.21875, 1.125, 6.21875], "texture": "#2"},
				"south": {"uv": [1.125, 6.21875, 1.125, 6.21875], "texture": "#2"},
				"west": {"uv": [1.125, 6.21875, 1.125, 6.21875], "texture": "#2"},
				"down": {"uv": [1.125, 6.21875, 1.125, 6.21875], "texture": "#2"}
			}
		},
		{
			"name": "X95R mag_64",
			"from": [7.69688, 3.37024, 11.06739],
			"to": [8.30313, 3.42712, 11.08635],
			"rotation": {"angle": 0, "axis": "y", "origin": [7.97266, 4.49347, 10.48445]},
			"faces": {
				"east": {"uv": [1.125, 6.21875, 1.125, 6.21875], "texture": "#2"},
				"south": {"uv": [1.125, 6.21875, 1.125, 6.21875], "texture": "#2"},
				"west": {"uv": [1.125, 6.21875, 1.125, 6.21875], "texture": "#2"},
				"down": {"uv": [1.125, 6.21875, 1.125, 6.21875], "texture": "#2"}
			}
		},
		{
			"name": "X95R mag_65",
			"from": [7.69688, 3.33233, 10.04369],
			"to": [8.30313, 3.35129, 11.06739],
			"rotation": {"angle": 0, "axis": "y", "origin": [7.97266, 4.49347, 10.48445]},
			"faces": {
				"north": {"uv": [1.125, 6.21875, 1.125, 6.21875], "texture": "#2"},
				"east": {"uv": [1.125, 6.21875, 1.125, 6.21875], "texture": "#2"},
				"south": {"uv": [1.125, 6.21875, 1.125, 6.21875], "texture": "#2"},
				"west": {"uv": [1.125, 6.21875, 1.125, 6.21875], "texture": "#2"},
				"down": {"uv": [1.125, 6.21875, 1.125, 6.21875], "texture": "#2"}
			}
		},
		{
			"name": "X95R mag_66",
			"from": [7.69688, 3.31337, 10.11952],
			"to": [8.30313, 3.33233, 11.04843],
			"rotation": {"angle": 0, "axis": "y", "origin": [7.97266, 4.49347, 10.48445]},
			"faces": {
				"north": {"uv": [1.125, 6.21875, 1.125, 6.21875], "texture": "#2"},
				"east": {"uv": [1.125, 6.21875, 1.125, 6.21875], "texture": "#2"},
				"south": {"uv": [1.125, 6.21875, 1.125, 6.21875], "texture": "#2"},
				"west": {"uv": [1.125, 6.21875, 1.125, 6.21875], "texture": "#2"},
				"down": {"uv": [1.125, 6.21875, 1.125, 6.21875], "texture": "#2"}
			}
		},
		{
			"name": "X95R mag_67",
			"from": [7.69688, 3.29441, 10.17639],
			"to": [8.30313, 3.31337, 11.04843],
			"rotation": {"angle": 0, "axis": "y", "origin": [7.97266, 4.49347, 10.48445]},
			"faces": {
				"north": {"uv": [1.125, 6.21875, 1.125, 6.21875], "texture": "#2"},
				"east": {"uv": [1.125, 6.21875, 1.125, 6.21875], "texture": "#2"},
				"south": {"uv": [1.125, 6.21875, 1.125, 6.21875], "texture": "#2"},
				"west": {"uv": [1.125, 6.21875, 1.125, 6.21875], "texture": "#2"},
				"down": {"uv": [1.125, 6.21875, 1.125, 6.21875], "texture": "#2"}
			}
		},
		{
			"name": "X95R mag_68",
			"from": [7.69688, 3.27546, 10.25222],
			"to": [8.30313, 3.29441, 11.04843],
			"rotation": {"angle": 0, "axis": "y", "origin": [7.97266, 4.49347, 10.48445]},
			"faces": {
				"north": {"uv": [1.125, 6.21875, 1.125, 6.21875], "texture": "#2"},
				"east": {"uv": [1.125, 6.21875, 1.125, 6.21875], "texture": "#2"},
				"south": {"uv": [1.125, 6.21875, 1.125, 6.21875], "texture": "#2"},
				"west": {"uv": [1.125, 6.21875, 1.125, 6.21875], "texture": "#2"},
				"down": {"uv": [1.125, 6.21875, 1.125, 6.21875], "texture": "#2"}
			}
		},
		{
			"name": "X95R mag_69",
			"from": [7.69688, 3.2565, 10.32805],
			"to": [8.30313, 3.27546, 11.04843],
			"rotation": {"angle": 0, "axis": "y", "origin": [7.97266, 4.49347, 10.48445]},
			"faces": {
				"north": {"uv": [1.125, 6.21875, 1.125, 6.21875], "texture": "#2"},
				"east": {"uv": [1.125, 6.21875, 1.125, 6.21875], "texture": "#2"},
				"south": {"uv": [1.125, 6.21875, 1.125, 6.21875], "texture": "#2"},
				"west": {"uv": [1.125, 6.21875, 1.125, 6.21875], "texture": "#2"},
				"down": {"uv": [1.125, 6.21875, 1.125, 6.21875], "texture": "#2"}
			}
		},
		{
			"name": "X95R mag_70",
			"from": [7.69688, 3.23754, 10.40388],
			"to": [8.30313, 3.2565, 11.02947],
			"rotation": {"angle": 0, "axis": "y", "origin": [7.97266, 4.49347, 10.48445]},
			"faces": {
				"north": {"uv": [1.125, 6.21875, 1.125, 6.21875], "texture": "#2"},
				"east": {"uv": [1.125, 6.21875, 1.125, 6.21875], "texture": "#2"},
				"south": {"uv": [1.125, 6.21875, 1.125, 6.21875], "texture": "#2"},
				"west": {"uv": [1.125, 6.21875, 1.125, 6.21875], "texture": "#2"},
				"down": {"uv": [1.125, 6.21875, 1.125, 6.21875], "texture": "#2"}
			}
		},
		{
			"name": "X95R mag_71",
			"from": [7.69688, 3.21858, 10.47971],
			"to": [8.30313, 3.23754, 11.02947],
			"rotation": {"angle": 0, "axis": "y", "origin": [7.97266, 4.49347, 10.48445]},
			"faces": {
				"north": {"uv": [1.125, 6.21875, 1.125, 6.21875], "texture": "#2"},
				"east": {"uv": [1.125, 6.21875, 1.125, 6.21875], "texture": "#2"},
				"south": {"uv": [1.125, 6.21875, 1.125, 6.21875], "texture": "#2"},
				"west": {"uv": [1.125, 6.21875, 1.125, 6.21875], "texture": "#2"},
				"down": {"uv": [1.125, 6.21875, 1.125, 6.21875], "texture": "#2"}
			}
		},
		{
			"name": "X95R mag_72",
			"from": [7.69688, 3.19963, 10.55554],
			"to": [8.30313, 3.21858, 11.02947],
			"rotation": {"angle": 0, "axis": "y", "origin": [7.97266, 4.49347, 10.48445]},
			"faces": {
				"north": {"uv": [1.125, 6.21875, 1.125, 6.21875], "texture": "#2"},
				"east": {"uv": [1.125, 6.21875, 1.125, 6.21875], "texture": "#2"},
				"south": {"uv": [1.125, 6.21875, 1.125, 6.21875], "texture": "#2"},
				"west": {"uv": [1.125, 6.21875, 1.125, 6.21875], "texture": "#2"},
				"down": {"uv": [1.125, 6.21875, 1.125, 6.21875], "texture": "#2"}
			}
		},
		{
			"name": "X95R mag_73",
			"from": [7.69688, 3.18067, 10.63137],
			"to": [8.30313, 3.19963, 10.9726],
			"rotation": {"angle": 0, "axis": "y", "origin": [7.97266, 4.49347, 10.48445]},
			"faces": {
				"north": {"uv": [1.125, 6.21875, 1.125, 6.21875], "texture": "#2"},
				"east": {"uv": [1.125, 6.21875, 1.125, 6.21875], "texture": "#2"},
				"south": {"uv": [1.125, 6.21875, 1.125, 6.21875], "texture": "#2"},
				"west": {"uv": [1.125, 6.21875, 1.125, 6.21875], "texture": "#2"},
				"down": {"uv": [1.125, 6.21875, 1.125, 6.21875], "texture": "#2"}
			}
		},
		{
			"name": "X95R mag_74",
			"from": [7.69688, 3.16171, 10.72616],
			"to": [8.30313, 3.18067, 10.95365],
			"rotation": {"angle": 0, "axis": "y", "origin": [7.97266, 4.49347, 10.48445]},
			"faces": {
				"north": {"uv": [1.125, 6.21875, 1.125, 6.21875], "texture": "#2"},
				"east": {"uv": [1.125, 6.21875, 1.125, 6.21875], "texture": "#2"},
				"south": {"uv": [1.125, 6.21875, 1.125, 6.21875], "texture": "#2"},
				"west": {"uv": [1.125, 6.21875, 1.125, 6.21875], "texture": "#2"},
				"down": {"uv": [1.125, 6.21875, 1.125, 6.21875], "texture": "#2"}
			}
		},
		{
			"name": "X95R mag_75",
			"from": [7.69688, 3.14276, 10.76407],
			"to": [8.30313, 3.16171, 10.95365],
			"rotation": {"angle": 0, "axis": "y", "origin": [7.97266, 4.49347, 10.48445]},
			"faces": {
				"north": {"uv": [1.125, 6.21875, 1.125, 6.21875], "texture": "#2"},
				"east": {"uv": [1.125, 6.21875, 1.125, 6.21875], "texture": "#2"},
				"south": {"uv": [1.125, 6.21875, 1.125, 6.21875], "texture": "#2"},
				"west": {"uv": [1.125, 6.21875, 1.125, 6.21875], "texture": "#2"},
				"down": {"uv": [1.125, 6.21875, 1.125, 6.21875], "texture": "#2"}
			}
		},
		{
			"name": "X95R mag_76",
			"from": [7.69688, 3.1238, 10.8399],
			"to": [8.30313, 3.14276, 10.95365],
			"rotation": {"angle": 0, "axis": "y", "origin": [7.97266, 4.49347, 10.48445]},
			"faces": {
				"north": {"uv": [1.125, 6.21875, 1.125, 6.21875], "texture": "#2"},
				"east": {"uv": [1.125, 6.21875, 1.125, 6.21875], "texture": "#2"},
				"south": {"uv": [1.125, 6.21875, 1.125, 6.21875], "texture": "#2"},
				"west": {"uv": [1.125, 6.21875, 1.125, 6.21875], "texture": "#2"},
				"down": {"uv": [1.125, 6.21875, 1.125, 6.21875], "texture": "#2"}
			}
		}
	],
	"display": {
		"firstperson_righthand": {
			"rotation": [0, 9, 0],
			"translation": [-3.5, 1.75, 0.25],
			"scale": [2.5, 2.5, 1.5]
		}
	},
	"groups": [
		{
			"name": "X95R mag",
			"origin": [7.95313, 8, 8],
			"color": 0,
			"children": [
				0,
				1,
				2,
				3,
				4,
				5,
				6,
				7,
				8,
				9,
				10,
				11,
				12,
				13,
				14,
				15,
				16,
				17,
				18,
				19,
				20,
				21,
				22,
				23,
				24,
				25,
				26,
				27,
				28,
				29,
				30,
				31,
				32,
				33,
				34,
				35,
				36,
				37,
				38,
				39,
				40,
				41,
				42,
				43,
				44,
				45,
				46,
				47,
				48,
				49,
				50,
				51,
				52,
				53,
				54,
				55,
				56,
				57,
				58,
				59,
				60,
				61,
				62,
				63,
				64,
				65,
				66,
				67,
				68,
				69,
				70,
				71,
				72,
				73,
				74,
				75,
				76
			]
		}
	]
}