{
	"credit": "Made with Blockbench",
	"textures": {
		"0": "ava:item/gun_textures/palette_green",
		"1": "ava:block/rpg_box_top",
		"particle": "ava:item/gun_textures/palette_green"
	},
	"elements": [
		{
			"from": [1, 0, 15],
			"to": [15, 16, 16],
			"rotation": {"angle": 0, "axis": "y", "origin": [0.5, -8, 8]},
			"faces": {
				"north": {"uv": [0, 0, 1.96875, 1.96875], "texture": "#0"},
				"east": {"uv": [0, 0, 1.96875, 1.96875], "texture": "#0"},
				"south": {"uv": [0, 0, 1.96875, 1.96875], "texture": "#0"},
				"west": {"uv": [0, 0, 1.96875, 1.96875], "texture": "#0"},
				"up": {"uv": [0, 0, 1.96875, 1.96875], "texture": "#0"},
				"down": {"uv": [0, 0, 1.96875, 1.96875], "texture": "#0"}
			}
		},
		{
			"from": [0, 0, 0],
			"to": [1, 16, 16],
			"rotation": {"angle": 0, "axis": "y", "origin": [0.5, -8, 8]},
			"faces": {
				"north": {"uv": [0, 0, 1.96875, 1.96875], "texture": "#0"},
				"east": {"uv": [0, 0, 1.96875, 1.96875], "texture": "#0"},
				"south": {"uv": [0, 0, 1.96875, 1.96875], "texture": "#0"},
				"west": {"uv": [0, 0, 1.96875, 1.96875], "texture": "#0"},
				"up": {"uv": [0, 0, 1.96875, 1.96875], "texture": "#0"},
				"down": {"uv": [0, 0, 1.96875, 1.96875], "texture": "#0"}
			}
		},
		{
			"from": [15, 0, 0],
			"to": [16, 16, 16],
			"rotation": {"angle": 0, "axis": "y", "origin": [-0.5, -8, 8]},
			"faces": {
				"north": {"uv": [0, 0, 1.96875, 1.96875], "texture": "#0"},
				"east": {"uv": [0, 0, 1.96875, 1.96875], "texture": "#0"},
				"south": {"uv": [0, 0, 1.96875, 1.96875], "texture": "#0"},
				"west": {"uv": [0, 0, 1.96875, 1.96875], "texture": "#0"},
				"up": {"uv": [0, 0, 1.96875, 1.96875], "texture": "#0"},
				"down": {"uv": [0, 0, 1.96875, 1.96875], "texture": "#0"}
			}
		},
		{
			"from": [1, 15, 0],
			"to": [15, 16, 15],
			"rotation": {"angle": 0, "axis": "y", "origin": [8.5, -0.5, 7.5]},
			"faces": {
				"north": {"uv": [0, 0, 1.96875, 1.96875], "texture": "#0"},
				"east": {"uv": [0, 0, 1.96875, 1.96875], "texture": "#0"},
				"south": {"uv": [0, 0, 1.96875, 1.96875], "texture": "#0"},
				"west": {"uv": [0, 0, 1.96875, 1.96875], "texture": "#0"},
				"up": {"uv": [0, 0, 1.96875, 1.96875], "texture": "#0"},
				"down": {"uv": [0, 0, 1.96875, 1.96875], "texture": "#0"}
			}
		},
		{
			"from": [1, -0.635, 12.54891],
			"to": [15, 11.89625, 13.54891],
			"rotation": {"angle": 22.5, "axis": "x", "origin": [8.5, 5.39625, 13.04891]},
			"faces": {
				"north": {"uv": [4, 0, 5.96875, 1.96875], "texture": "#0"},
				"east": {"uv": [4, 0, 5.96875, 1.96875], "texture": "#0"},
				"south": {"uv": [4, 0, 5.96875, 1.96875], "texture": "#0"},
				"west": {"uv": [4, 0, 5.96875, 1.96875], "texture": "#0"},
				"up": {"uv": [4, 0, 5.96875, 1.96875], "texture": "#0"},
				"down": {"uv": [4, 0, 5.96875, 1.96875], "texture": "#0"}
			}
		},
		{
			"from": [1, 0, 0.25],
			"to": [15, 15, 1.25],
			"rotation": {"angle": 0, "axis": "y", "origin": [0.5, 8, 8.25]},
			"faces": {
				"north": {"uv": [0, 0, 16, 16], "texture": "#1"},
				"east": {"uv": [0, 0, 1.96875, 1.96875], "texture": "#0"},
				"south": {"uv": [0, 0, 1.96875, 1.96875], "texture": "#0"},
				"west": {"uv": [0, 0, 1.96875, 1.96875], "texture": "#0"},
				"up": {"uv": [0, 0, 1.96875, 1.96875], "texture": "#0"},
				"down": {"uv": [0, 0, 1.96875, 1.96875], "texture": "#0"}
			}
		}
	],
	"groups": [
		{
			"name": "group",
			"origin": [8.5, 15.5, 7.5],
			"color": 0,
			"children": [0, 1, 2, 3, 4]
		},
		5
	]
}