{
  "parent": "minecraft:block/inner_stairs",
  "textures": {
    "bottom": "ava:block/cobbled_sandstone_tile",
    "side": "ava:block/cobbled_sandstone_tile",
    "top": "ava:block/cobbled_sandstone_tile"
  }
}