{
	"credit": "Made with Blockbench",
	"textures": {
		"0": "ava:item/gun_textures/palette_black",
		"particle": "ava:item/gun_textures/palette_black"
	},
	"elements": [
		{
			"name": "hexadecagon",
			"from": [7.25511, -1.63945, 7.26083],
			"to": [8.79404, 7.54899, 8.72279],
			"rotation": {"angle": -22.5, "axis": "x", "origin": [7.99116, 5.29055, 8.22306]},
			"faces": {
				"north": {"uv": [6.3125, 0.125, 6.3125, 0.125], "rotation": 90, "texture": "#0"},
				"east": {"uv": [6.3125, 0.125, 6.3125, 0.125], "rotation": 90, "texture": "#0"},
				"south": {"uv": [6.3125, 0.125, 6.3125, 0.125], "rotation": 90, "texture": "#0"},
				"west": {"uv": [6.3125, 0.125, 6.3125, 0.125], "rotation": 90, "texture": "#0"},
				"up": {"uv": [6.3125, 0.125, 6.3125, 0.125], "rotation": 90, "texture": "#0"},
				"down": {"uv": [6.3125, 0.125, 6.3125, 0.125], "rotation": 90, "texture": "#0"}
			}
		}
	],
	"groups": [
		{
			"name": "magazine",
			"origin": [8, 9.17969, 7.35938],
			"color": 0,
			"children": [0]
		}
	]
}