{
	"credit": "Made with Blockbench",
	"textures": {
		"0": "ava:item/gun_textures/kriss_super_v_christmas",
		"particle": "ava:item/gun_textures/kriss_super_v_christmas"
	},
	"elements": [
		{
			"name": "hexadecagon",
			"from": [6.52647, 9.54624, 5.43243],
			"to": [7.52647, 9.62581, 5.83244],
			"rotation": {"angle": -45, "axis": "x", "origin": [7.02647, 9.58602, 5.63244]},
			"faces": {
				"north": {"uv": [3.25, 6.40625, 3.25, 6.40625], "texture": "#0"},
				"east": {"uv": [3.25, 6.40625, 3.25, 6.40625], "texture": "#0"},
				"south": {"uv": [3.25, 6.40625, 3.25, 6.40625], "texture": "#0"},
				"west": {"uv": [3.25, 6.40625, 3.25, 6.40625], "texture": "#0"},
				"up": {"uv": [3.25, 6.40625, 3.25, 6.40625], "texture": "#0"},
				"down": {"uv": [3.25, 6.40625, 3.25, 6.40625], "texture": "#0"}
			}
		},
		{
			"name": "hexadecagon",
			"from": [6.52647, 9.54624, 5.43243],
			"to": [7.52647, 9.62581, 5.83244],
			"rotation": {"angle": -22.5, "axis": "x", "origin": [7.02647, 9.58602, 5.63244]},
			"faces": {
				"north": {"uv": [3.25, 6.40625, 3.25, 6.40625], "texture": "#0"},
				"east": {"uv": [3.25, 6.40625, 3.25, 6.40625], "texture": "#0"},
				"south": {"uv": [3.25, 6.40625, 3.25, 6.40625], "texture": "#0"},
				"west": {"uv": [3.25, 6.40625, 3.25, 6.40625], "texture": "#0"},
				"up": {"uv": [3.25, 6.40625, 3.25, 6.40625], "texture": "#0"},
				"down": {"uv": [3.25, 6.40625, 3.25, 6.40625], "texture": "#0"}
			}
		},
		{
			"name": "hexadecagon",
			"from": [6.52647, 9.54624, 5.43243],
			"to": [7.52647, 9.62581, 5.83244],
			"rotation": {"angle": 0, "axis": "y", "origin": [7.02647, 9.58602, 5.63244]},
			"faces": {
				"north": {"uv": [3.25, 6.40625, 3.25, 6.40625], "texture": "#0"},
				"east": {"uv": [3.25, 6.40625, 3.25, 6.40625], "texture": "#0"},
				"south": {"uv": [3.25, 6.40625, 3.25, 6.40625], "texture": "#0"},
				"west": {"uv": [3.25, 6.40625, 3.25, 6.40625], "texture": "#0"},
				"up": {"uv": [3.25, 6.40625, 3.25, 6.40625], "texture": "#0"},
				"down": {"uv": [3.25, 6.40625, 3.25, 6.40625], "texture": "#0"}
			}
		},
		{
			"name": "hexadecagon",
			"from": [6.52647, 9.54624, 5.43243],
			"to": [7.52647, 9.62581, 5.83244],
			"rotation": {"angle": 22.5, "axis": "x", "origin": [7.02647, 9.58602, 5.63244]},
			"faces": {
				"north": {"uv": [3.25, 6.40625, 3.25, 6.40625], "texture": "#0"},
				"east": {"uv": [3.25, 6.40625, 3.25, 6.40625], "texture": "#0"},
				"south": {"uv": [3.25, 6.40625, 3.25, 6.40625], "texture": "#0"},
				"west": {"uv": [3.25, 6.40625, 3.25, 6.40625], "texture": "#0"},
				"up": {"uv": [3.25, 6.40625, 3.25, 6.40625], "texture": "#0"},
				"down": {"uv": [3.25, 6.40625, 3.25, 6.40625], "texture": "#0"}
			}
		},
		{
			"name": "hexadecagon",
			"from": [6.52647, 9.54624, 5.43243],
			"to": [7.52647, 9.62581, 5.83244],
			"rotation": {"angle": 45, "axis": "x", "origin": [7.02647, 9.58602, 5.63244]},
			"faces": {
				"north": {"uv": [9.5, 7.1875, 9.5, 7.1875], "texture": "#0"},
				"east": {"uv": [9.5, 7.1875, 9.5, 7.1875], "texture": "#0"},
				"south": {"uv": [9.5, 7.1875, 9.5, 7.1875], "texture": "#0"},
				"west": {"uv": [9.5, 7.1875, 9.5, 7.1875], "texture": "#0"},
				"up": {"uv": [9.5, 7.1875, 9.5, 7.1875], "texture": "#0"},
				"down": {"uv": [9.5, 7.1875, 9.5, 7.1875], "texture": "#0"}
			}
		},
		{
			"name": "hexadecagon",
			"from": [6.52647, 9.38602, 5.59265],
			"to": [7.52647, 9.78602, 5.67222],
			"rotation": {"angle": -22.5, "axis": "x", "origin": [7.02647, 9.58602, 5.63244]},
			"faces": {
				"north": {"uv": [9.5, 7.1875, 9.5, 7.1875], "texture": "#0"},
				"east": {"uv": [9.5, 7.1875, 9.5, 7.1875], "texture": "#0"},
				"south": {"uv": [9.5, 7.1875, 9.5, 7.1875], "texture": "#0"},
				"west": {"uv": [9.5, 7.1875, 9.5, 7.1875], "texture": "#0"},
				"up": {"uv": [9.5, 7.1875, 9.5, 7.1875], "texture": "#0"},
				"down": {"uv": [9.5, 7.1875, 9.5, 7.1875], "texture": "#0"}
			}
		},
		{
			"name": "hexadecagon",
			"from": [6.52647, 9.38602, 5.59265],
			"to": [7.52647, 9.78602, 5.67222],
			"rotation": {"angle": 0, "axis": "y", "origin": [7.02647, 9.58602, 5.63244]},
			"faces": {
				"north": {"uv": [9.5, 7.1875, 9.5, 7.1875], "texture": "#0"},
				"east": {"uv": [9.5, 7.1875, 9.5, 7.1875], "texture": "#0"},
				"south": {"uv": [9.5, 7.1875, 9.5, 7.1875], "texture": "#0"},
				"west": {"uv": [9.5, 7.1875, 9.5, 7.1875], "texture": "#0"},
				"up": {"uv": [9.5, 7.1875, 9.5, 7.1875], "texture": "#0"},
				"down": {"uv": [9.5, 7.1875, 9.5, 7.1875], "texture": "#0"}
			}
		},
		{
			"name": "hexadecagon",
			"from": [6.52647, 9.38602, 5.59265],
			"to": [7.52647, 9.78602, 5.67222],
			"rotation": {"angle": 22.5, "axis": "x", "origin": [7.02647, 9.58602, 5.63244]},
			"faces": {
				"north": {"uv": [9.5, 7.1875, 9.5, 7.1875], "texture": "#0"},
				"east": {"uv": [9.5, 7.1875, 9.5, 7.1875], "texture": "#0"},
				"south": {"uv": [9.5, 7.1875, 9.5, 7.1875], "texture": "#0"},
				"west": {"uv": [9.5, 7.1875, 9.5, 7.1875], "texture": "#0"},
				"up": {"uv": [9.5, 7.1875, 9.5, 7.1875], "texture": "#0"},
				"down": {"uv": [9.5, 7.1875, 9.5, 7.1875], "texture": "#0"}
			}
		}
	],
	"groups": [
		{
			"name": "slide",
			"origin": [8, 8, 8],
			"color": 0,
			"children": [0, 1, 2, 3, 4, 5, 6, 7]
		}
	]
}