{
	"credit": "Made with Blockbench",
	"textures": {
		"0": "ava:item/gun_textures/palette_black",
		"particle": "ava:item/gun_textures/palette_black"
	},
	"elements": [
		{
			"name": "hexadecagon",
			"from": [7.86738, 7.60658, -8.94178],
			"to": [8.18556, 8.16641, -2.16288],
			"rotation": {"angle": -45, "axis": "z", "origin": [8.02647, 8.40634, -2.10194]},
			"faces": {
				"north": {"uv": [6.25, 0.65625, 6.25, 0.65625], "texture": "#0"},
				"south": {"uv": [6.25, 0.65625, 6.25, 0.65625], "texture": "#0"},
				"up": {"uv": [6.25, 0.65625, 6.25, 0.65625], "texture": "#0"},
				"down": {"uv": [6.25, 0.65625, 6.25, 0.65625], "texture": "#0"}
			}
		},
		{
			"name": "hexadecagon",
			"from": [7.86738, 7.60658, -8.94178],
			"to": [8.18556, 8.16641, -2.16288],
			"rotation": {"angle": -22.5, "axis": "z", "origin": [8.02647, 8.40634, -2.10194]},
			"faces": {
				"north": {"uv": [6.25, 0.65625, 6.25, 0.65625], "texture": "#0"},
				"south": {"uv": [6.25, 0.65625, 6.25, 0.65625], "texture": "#0"},
				"up": {"uv": [6.25, 0.65625, 6.25, 0.65625], "texture": "#0"},
				"down": {"uv": [6.25, 0.65625, 6.25, 0.65625], "texture": "#0"}
			}
		},
		{
			"name": "hexadecagon",
			"from": [7.86738, 7.60658, -8.94178],
			"to": [8.18556, 8.16641, -2.16288],
			"rotation": {"angle": 0, "axis": "z", "origin": [8.02647, 8.40634, -2.10194]},
			"faces": {
				"north": {"uv": [6.25, 0.65625, 6.25, 0.65625], "texture": "#0"},
				"up": {"uv": [6.25, 0.65625, 6.25, 0.65625], "texture": "#0"},
				"down": {"uv": [6.25, 0.65625, 6.25, 0.65625], "texture": "#0"}
			}
		},
		{
			"name": "hexadecagon",
			"from": [7.86738, 7.60658, -8.94178],
			"to": [8.18556, 8.16641, -2.16288],
			"rotation": {"angle": 22.5, "axis": "z", "origin": [8.02647, 8.40634, -2.10194]},
			"faces": {
				"north": {"uv": [6.25, 0.65625, 6.25, 0.65625], "texture": "#0"},
				"south": {"uv": [6.25, 0.65625, 6.25, 0.65625], "texture": "#0"},
				"up": {"uv": [6.25, 0.65625, 6.25, 0.65625], "texture": "#0"},
				"down": {"uv": [6.25, 0.65625, 6.25, 0.65625], "texture": "#0"}
			}
		},
		{
			"name": "hexadecagon",
			"from": [7.86738, 7.60658, -8.94178],
			"to": [8.18556, 8.16641, -2.16288],
			"rotation": {"angle": 45, "axis": "z", "origin": [8.02647, 8.40634, -2.10194]},
			"faces": {
				"north": {"uv": [6.25, 0.65625, 6.25, 0.65625], "texture": "#0"},
				"south": {"uv": [6.25, 0.65625, 6.25, 0.65625], "texture": "#0"},
				"up": {"uv": [6.25, 0.65625, 6.25, 0.65625], "texture": "#0"},
				"down": {"uv": [6.25, 0.65625, 6.25, 0.65625], "texture": "#0"}
			}
		},
		{
			"name": "hexadecagon",
			"from": [7.86738, 8.64626, -8.94178],
			"to": [8.18556, 9.20609, -2.16288],
			"rotation": {"angle": -45, "axis": "z", "origin": [8.02647, 8.40634, -2.10194]},
			"faces": {
				"north": {"uv": [6.25, 0.65625, 6.25, 0.65625], "texture": "#0"},
				"south": {"uv": [6.25, 0.65625, 6.25, 0.65625], "texture": "#0"},
				"up": {"uv": [6.25, 0.65625, 6.25, 0.65625], "texture": "#0"},
				"down": {"uv": [6.25, 0.65625, 6.25, 0.65625], "texture": "#0"}
			}
		},
		{
			"name": "hexadecagon",
			"from": [7.86738, 8.64626, -8.94178],
			"to": [8.18556, 9.20609, -2.16288],
			"rotation": {"angle": -22.5, "axis": "z", "origin": [8.02647, 8.40634, -2.10194]},
			"faces": {
				"north": {"uv": [6.25, 0.65625, 6.25, 0.65625], "texture": "#0"},
				"south": {"uv": [6.25, 0.65625, 6.25, 0.65625], "texture": "#0"},
				"up": {"uv": [6.25, 0.65625, 6.25, 0.65625], "texture": "#0"},
				"down": {"uv": [6.25, 0.65625, 6.25, 0.65625], "texture": "#0"}
			}
		},
		{
			"name": "hexadecagon",
			"from": [7.86738, 8.64626, -8.94178],
			"to": [8.18556, 9.20609, -2.16288],
			"rotation": {"angle": 0, "axis": "z", "origin": [8.02647, 8.40634, -2.10194]},
			"faces": {
				"north": {"uv": [6.25, 0.65625, 6.25, 0.65625], "texture": "#0"},
				"up": {"uv": [6.25, 0.65625, 6.25, 0.65625], "texture": "#0"},
				"down": {"uv": [6.25, 0.65625, 6.25, 0.65625], "texture": "#0"}
			}
		},
		{
			"name": "hexadecagon",
			"from": [7.86738, 8.64626, -8.94178],
			"to": [8.18556, 9.20609, -2.16288],
			"rotation": {"angle": 22.5, "axis": "z", "origin": [8.02647, 8.40634, -2.10194]},
			"faces": {
				"north": {"uv": [6.25, 0.65625, 6.25, 0.65625], "texture": "#0"},
				"south": {"uv": [6.25, 0.65625, 6.25, 0.65625], "texture": "#0"},
				"up": {"uv": [6.25, 0.65625, 6.25, 0.65625], "texture": "#0"},
				"down": {"uv": [6.25, 0.65625, 6.25, 0.65625], "texture": "#0"}
			}
		},
		{
			"name": "hexadecagon",
			"from": [7.86738, 8.64626, -8.94178],
			"to": [8.18556, 9.20609, -2.16288],
			"rotation": {"angle": 45, "axis": "z", "origin": [8.02647, 8.40634, -2.10194]},
			"faces": {
				"north": {"uv": [6.25, 0.65625, 6.25, 0.65625], "texture": "#0"},
				"south": {"uv": [6.25, 0.65625, 6.25, 0.65625], "texture": "#0"},
				"up": {"uv": [6.25, 0.65625, 6.25, 0.65625], "texture": "#0"},
				"down": {"uv": [6.25, 0.65625, 6.25, 0.65625], "texture": "#0"}
			}
		},
		{
			"name": "hexadecagon",
			"from": [7.22671, 8.24726, -8.94178],
			"to": [7.78655, 8.56541, -2.16288],
			"rotation": {"angle": -22.5, "axis": "z", "origin": [8.02647, 8.40634, -2.10194]},
			"faces": {
				"north": {"uv": [6.25, 0.65625, 6.25, 0.65625], "texture": "#0"},
				"east": {"uv": [6.25, 0.65625, 6.25, 0.65625], "texture": "#0"},
				"south": {"uv": [6.25, 0.65625, 6.25, 0.65625], "texture": "#0"},
				"west": {"uv": [6.25, 0.65625, 6.25, 0.65625], "texture": "#0"},
				"up": {"uv": [6.25, 0.65625, 6.25, 0.65625], "texture": "#0"},
				"down": {"uv": [6.25, 0.65625, 6.25, 0.65625], "texture": "#0"}
			}
		},
		{
			"name": "hexadecagon",
			"from": [7.22671, 8.24726, -8.94178],
			"to": [7.78655, 8.56541, -2.16288],
			"rotation": {"angle": 0, "axis": "z", "origin": [8.02647, 8.40634, -2.10194]},
			"faces": {
				"north": {"uv": [6.25, 0.65625, 6.25, 0.65625], "texture": "#0"},
				"east": {"uv": [6.25, 0.65625, 6.25, 0.65625], "texture": "#0"},
				"west": {"uv": [6.25, 0.65625, 6.25, 0.65625], "texture": "#0"},
				"up": {"uv": [6.25, 0.65625, 6.25, 0.65625], "texture": "#0"},
				"down": {"uv": [6.25, 0.65625, 6.25, 0.65625], "texture": "#0"}
			}
		},
		{
			"name": "hexadecagon",
			"from": [7.22671, 8.24726, -8.94178],
			"to": [7.78655, 8.56541, -2.16288],
			"rotation": {"angle": 22.5, "axis": "z", "origin": [8.02647, 8.40634, -2.10194]},
			"faces": {
				"north": {"uv": [6.25, 0.65625, 6.25, 0.65625], "texture": "#0"},
				"east": {"uv": [6.25, 0.65625, 6.25, 0.65625], "texture": "#0"},
				"south": {"uv": [6.25, 0.65625, 6.25, 0.65625], "texture": "#0"},
				"west": {"uv": [6.25, 0.65625, 6.25, 0.65625], "texture": "#0"},
				"up": {"uv": [6.25, 0.65625, 6.25, 0.65625], "texture": "#0"}
			}
		},
		{
			"name": "hexadecagon",
			"from": [8.26639, 8.24726, -8.94178],
			"to": [8.82623, 8.56541, -2.16288],
			"rotation": {"angle": -22.5, "axis": "z", "origin": [8.02647, 8.40634, -2.10194]},
			"faces": {
				"north": {"uv": [6.25, 0.65625, 6.25, 0.65625], "texture": "#0"},
				"east": {"uv": [6.25, 0.65625, 6.25, 0.65625], "texture": "#0"},
				"south": {"uv": [6.25, 0.65625, 6.25, 0.65625], "texture": "#0"},
				"west": {"uv": [6.25, 0.65625, 6.25, 0.65625], "texture": "#0"},
				"up": {"uv": [6.25, 0.65625, 6.25, 0.65625], "texture": "#0"}
			}
		},
		{
			"name": "hexadecagon",
			"from": [8.26639, 8.24726, -8.94178],
			"to": [8.82623, 8.56541, -2.16288],
			"rotation": {"angle": 0, "axis": "z", "origin": [8.02647, 8.40634, -2.10194]},
			"faces": {
				"north": {"uv": [6.25, 0.65625, 6.25, 0.65625], "texture": "#0"},
				"east": {"uv": [6.25, 0.65625, 6.25, 0.65625], "texture": "#0"},
				"west": {"uv": [6.25, 0.65625, 6.25, 0.65625], "texture": "#0"},
				"up": {"uv": [6.25, 0.65625, 6.25, 0.65625], "texture": "#0"},
				"down": {"uv": [6.25, 0.65625, 6.25, 0.65625], "texture": "#0"}
			}
		},
		{
			"name": "hexadecagon",
			"from": [8.26639, 8.24726, -8.94178],
			"to": [8.82623, 8.56541, -2.16288],
			"rotation": {"angle": 22.5, "axis": "z", "origin": [8.02647, 8.40634, -2.10194]},
			"faces": {
				"north": {"uv": [6.25, 0.65625, 6.25, 0.65625], "texture": "#0"},
				"east": {"uv": [6.25, 0.65625, 6.25, 0.65625], "texture": "#0"},
				"south": {"uv": [6.25, 0.65625, 6.25, 0.65625], "texture": "#0"},
				"west": {"uv": [6.25, 0.65625, 6.25, 0.65625], "texture": "#0"},
				"up": {"uv": [6.25, 0.65625, 6.25, 0.65625], "texture": "#0"},
				"down": {"uv": [6.25, 0.65625, 6.25, 0.65625], "texture": "#0"}
			}
		},
		{
			"name": "hexadecagon",
			"from": [7.90716, 7.80652, -2.16678],
			"to": [8.14578, 8.22639, -1.81288],
			"rotation": {"angle": -45, "axis": "z", "origin": [8.02647, 8.40634, -2.10194]},
			"faces": {
				"north": {"uv": [6.25, 0.65625, 6.25, 0.65625], "texture": "#0"},
				"south": {"uv": [6.25, 0.65625, 6.25, 0.65625], "texture": "#0"},
				"up": {"uv": [6.25, 0.65625, 6.25, 0.65625], "texture": "#0"},
				"down": {"uv": [6.25, 0.65625, 6.25, 0.65625], "texture": "#0"}
			}
		},
		{
			"name": "hexadecagon",
			"from": [7.90716, 7.80652, -2.16678],
			"to": [8.14578, 8.22639, -1.81288],
			"rotation": {"angle": -22.5, "axis": "z", "origin": [8.02647, 8.40634, -2.10194]},
			"faces": {
				"north": {"uv": [6.25, 0.65625, 6.25, 0.65625], "texture": "#0"},
				"south": {"uv": [6.25, 0.65625, 6.25, 0.65625], "texture": "#0"},
				"up": {"uv": [6.25, 0.65625, 6.25, 0.65625], "texture": "#0"},
				"down": {"uv": [6.25, 0.65625, 6.25, 0.65625], "texture": "#0"}
			}
		},
		{
			"name": "hexadecagon",
			"from": [7.90716, 7.80652, -2.16678],
			"to": [8.14578, 8.22639, -1.81288],
			"rotation": {"angle": 0, "axis": "z", "origin": [8.02647, 8.40634, -2.10194]},
			"faces": {
				"north": {"uv": [6.25, 0.65625, 6.25, 0.65625], "texture": "#0"},
				"up": {"uv": [6.25, 0.65625, 6.25, 0.65625], "texture": "#0"},
				"down": {"uv": [6.25, 0.65625, 6.25, 0.65625], "texture": "#0"}
			}
		},
		{
			"name": "hexadecagon",
			"from": [7.90716, 7.80652, -2.16678],
			"to": [8.14578, 8.22639, -1.81288],
			"rotation": {"angle": 22.5, "axis": "z", "origin": [8.02647, 8.40634, -2.10194]},
			"faces": {
				"north": {"uv": [6.25, 0.65625, 6.25, 0.65625], "texture": "#0"},
				"south": {"uv": [6.25, 0.65625, 6.25, 0.65625], "texture": "#0"},
				"up": {"uv": [6.25, 0.65625, 6.25, 0.65625], "texture": "#0"},
				"down": {"uv": [6.25, 0.65625, 6.25, 0.65625], "texture": "#0"}
			}
		},
		{
			"name": "hexadecagon",
			"from": [7.90716, 7.80652, -2.16678],
			"to": [8.14578, 8.22639, -1.81288],
			"rotation": {"angle": 45, "axis": "z", "origin": [8.02647, 8.40634, -2.10194]},
			"faces": {
				"north": {"uv": [6.25, 0.65625, 6.25, 0.65625], "texture": "#0"},
				"south": {"uv": [6.25, 0.65625, 6.25, 0.65625], "texture": "#0"},
				"up": {"uv": [6.25, 0.65625, 6.25, 0.65625], "texture": "#0"},
				"down": {"uv": [6.25, 0.65625, 6.25, 0.65625], "texture": "#0"}
			}
		},
		{
			"name": "hexadecagon",
			"from": [7.90716, 8.58628, -2.16678],
			"to": [8.14578, 9.00615, -1.81288],
			"rotation": {"angle": -45, "axis": "z", "origin": [8.02647, 8.40634, -2.10194]},
			"faces": {
				"north": {"uv": [6.25, 0.65625, 6.25, 0.65625], "texture": "#0"},
				"south": {"uv": [6.25, 0.65625, 6.25, 0.65625], "texture": "#0"},
				"up": {"uv": [6.25, 0.65625, 6.25, 0.65625], "texture": "#0"},
				"down": {"uv": [6.25, 0.65625, 6.25, 0.65625], "texture": "#0"}
			}
		},
		{
			"name": "hexadecagon",
			"from": [7.90716, 8.58628, -2.16678],
			"to": [8.14578, 9.00615, -1.81288],
			"rotation": {"angle": -22.5, "axis": "z", "origin": [8.02647, 8.40634, -2.10194]},
			"faces": {
				"north": {"uv": [6.25, 0.65625, 6.25, 0.65625], "texture": "#0"},
				"south": {"uv": [6.25, 0.65625, 6.25, 0.65625], "texture": "#0"},
				"up": {"uv": [6.25, 0.65625, 6.25, 0.65625], "texture": "#0"},
				"down": {"uv": [6.25, 0.65625, 6.25, 0.65625], "texture": "#0"}
			}
		},
		{
			"name": "hexadecagon",
			"from": [7.90716, 8.58628, -2.16678],
			"to": [8.14578, 9.00615, -1.81288],
			"rotation": {"angle": 0, "axis": "z", "origin": [8.02647, 8.40634, -2.10194]},
			"faces": {
				"north": {"uv": [6.25, 0.65625, 6.25, 0.65625], "texture": "#0"},
				"up": {"uv": [6.25, 0.65625, 6.25, 0.65625], "texture": "#0"},
				"down": {"uv": [6.25, 0.65625, 6.25, 0.65625], "texture": "#0"}
			}
		},
		{
			"name": "hexadecagon",
			"from": [7.90716, 8.58628, -2.16678],
			"to": [8.14578, 9.00615, -1.81288],
			"rotation": {"angle": 22.5, "axis": "z", "origin": [8.02647, 8.40634, -2.10194]},
			"faces": {
				"north": {"uv": [6.25, 0.65625, 6.25, 0.65625], "texture": "#0"},
				"south": {"uv": [6.25, 0.65625, 6.25, 0.65625], "texture": "#0"},
				"up": {"uv": [6.25, 0.65625, 6.25, 0.65625], "texture": "#0"},
				"down": {"uv": [6.25, 0.65625, 6.25, 0.65625], "texture": "#0"}
			}
		},
		{
			"name": "hexadecagon",
			"from": [7.90716, 8.58628, -2.16678],
			"to": [8.14578, 9.00615, -1.81288],
			"rotation": {"angle": 45, "axis": "z", "origin": [8.02647, 8.40634, -2.10194]},
			"faces": {
				"north": {"uv": [6.25, 0.65625, 6.25, 0.65625], "texture": "#0"},
				"south": {"uv": [6.25, 0.65625, 6.25, 0.65625], "texture": "#0"},
				"up": {"uv": [6.25, 0.65625, 6.25, 0.65625], "texture": "#0"},
				"down": {"uv": [6.25, 0.65625, 6.25, 0.65625], "texture": "#0"}
			}
		},
		{
			"name": "hexadecagon",
			"from": [7.42665, 8.28703, -2.16678],
			"to": [7.84653, 8.52564, -1.81288],
			"rotation": {"angle": -22.5, "axis": "z", "origin": [8.02647, 8.40634, -2.10194]},
			"faces": {
				"north": {"uv": [6.25, 0.65625, 6.25, 0.65625], "texture": "#0"},
				"east": {"uv": [6.25, 0.65625, 6.25, 0.65625], "texture": "#0"},
				"south": {"uv": [6.25, 0.65625, 6.25, 0.65625], "texture": "#0"},
				"west": {"uv": [6.25, 0.65625, 6.25, 0.65625], "texture": "#0"},
				"up": {"uv": [6.25, 0.65625, 6.25, 0.65625], "texture": "#0"},
				"down": {"uv": [6.25, 0.65625, 6.25, 0.65625], "texture": "#0"}
			}
		},
		{
			"name": "hexadecagon",
			"from": [7.42665, 8.28703, -2.16678],
			"to": [7.84653, 8.52564, -1.81288],
			"rotation": {"angle": 0, "axis": "z", "origin": [8.02647, 8.40634, -2.10194]},
			"faces": {
				"north": {"uv": [6.25, 0.65625, 6.25, 0.65625], "texture": "#0"},
				"east": {"uv": [6.25, 0.65625, 6.25, 0.65625], "texture": "#0"},
				"west": {"uv": [6.25, 0.65625, 6.25, 0.65625], "texture": "#0"},
				"up": {"uv": [6.25, 0.65625, 6.25, 0.65625], "texture": "#0"},
				"down": {"uv": [6.25, 0.65625, 6.25, 0.65625], "texture": "#0"}
			}
		},
		{
			"name": "hexadecagon",
			"from": [7.42665, 8.28703, -2.16678],
			"to": [7.84653, 8.52564, -1.81288],
			"rotation": {"angle": 22.5, "axis": "z", "origin": [8.02647, 8.40634, -2.10194]},
			"faces": {
				"north": {"uv": [6.25, 0.65625, 6.25, 0.65625], "texture": "#0"},
				"east": {"uv": [6.25, 0.65625, 6.25, 0.65625], "texture": "#0"},
				"south": {"uv": [6.25, 0.65625, 6.25, 0.65625], "texture": "#0"},
				"west": {"uv": [6.25, 0.65625, 6.25, 0.65625], "texture": "#0"},
				"up": {"uv": [6.25, 0.65625, 6.25, 0.65625], "texture": "#0"}
			}
		},
		{
			"name": "hexadecagon",
			"from": [8.20641, 8.28703, -2.16678],
			"to": [8.62629, 8.52564, -1.81288],
			"rotation": {"angle": -22.5, "axis": "z", "origin": [8.02647, 8.40634, -2.10194]},
			"faces": {
				"north": {"uv": [6.25, 0.65625, 6.25, 0.65625], "texture": "#0"},
				"east": {"uv": [6.25, 0.65625, 6.25, 0.65625], "texture": "#0"},
				"south": {"uv": [6.25, 0.65625, 6.25, 0.65625], "texture": "#0"},
				"west": {"uv": [6.25, 0.65625, 6.25, 0.65625], "texture": "#0"},
				"up": {"uv": [6.25, 0.65625, 6.25, 0.65625], "texture": "#0"}
			}
		},
		{
			"name": "hexadecagon",
			"from": [8.20641, 8.28703, -2.16678],
			"to": [8.62629, 8.52564, -1.81288],
			"rotation": {"angle": 0, "axis": "z", "origin": [8.02647, 8.40634, -2.10194]},
			"faces": {
				"north": {"uv": [6.25, 0.65625, 6.25, 0.65625], "texture": "#0"},
				"east": {"uv": [6.25, 0.65625, 6.25, 0.65625], "texture": "#0"},
				"west": {"uv": [6.25, 0.65625, 6.25, 0.65625], "texture": "#0"},
				"up": {"uv": [6.25, 0.65625, 6.25, 0.65625], "texture": "#0"},
				"down": {"uv": [6.25, 0.65625, 6.25, 0.65625], "texture": "#0"}
			}
		},
		{
			"name": "hexadecagon",
			"from": [8.20641, 8.28703, -2.16678],
			"to": [8.62629, 8.52564, -1.81288],
			"rotation": {"angle": 22.5, "axis": "z", "origin": [8.02647, 8.40634, -2.10194]},
			"faces": {
				"north": {"uv": [6.25, 0.65625, 6.25, 0.65625], "texture": "#0"},
				"east": {"uv": [6.25, 0.65625, 6.25, 0.65625], "texture": "#0"},
				"south": {"uv": [6.25, 0.65625, 6.25, 0.65625], "texture": "#0"},
				"west": {"uv": [6.25, 0.65625, 6.25, 0.65625], "texture": "#0"},
				"up": {"uv": [6.25, 0.65625, 6.25, 0.65625], "texture": "#0"},
				"down": {"uv": [6.25, 0.65625, 6.25, 0.65625], "texture": "#0"}
			}
		}
	],
	"display": {
		"thirdperson_righthand": {
			"rotation": [70, 0, 0],
			"translation": [-2, 4, 4],
			"scale": [0.65, 0.65, 0.65]
		},
		"firstperson_righthand": {
			"rotation": [-2, 0, 0],
			"translation": [-2.25, -0.25, -1.5],
			"scale": [1, 1.25, 0.75]
		},
		"ground": {
			"rotation": [0, 0, -90],
			"translation": [0.75, -2.5, -4],
			"scale": [0.65, 0.65, 0.65]
		},
		"gui": {
			"rotation": [0, -90, 0],
			"translation": [3, 0.75, 0],
			"scale": [0.45, 0.45, 0.45]
		},
		"fixed": {
			"rotation": [0, -90, 0],
			"translation": [4.25, 1, -1],
			"scale": [0.65, 0.65, 0.65]
		}
	},
	"groups": [
		{
			"name": "hexadecagon",
			"origin": [8, 8, 8],
			"color": 0,
			"children": [0, 1, 2, 3, 4, 5, 6, 7, 8, 9, 10, 11, 12, 13, 14, 15]
		},
		{
			"name": "hexadecagon",
			"origin": [8, 8, 8],
			"color": 0,
			"children": [16, 17, 18, 19, 20, 21, 22, 23, 24, 25, 26, 27, 28, 29, 30, 31]
		}
	]
}