{
	"credit": "Made with Blockbench",
	"textures": {
		"0": "ava:item/gun_textures/palette_black",
		"particle": "ava:item/gun_textures/palette_black"
	},
	"elements": [
		{
			"name": "hexadecagon",
			"from": [7.475, -5.46746, 4.77385],
			"to": [8.525, 5.38254, 7.24885],
			"rotation": {"angle": 0, "axis": "x", "origin": [8.03696, 4.90754, 4.38635]},
			"faces": {
				"north": {"uv": [7.09375, 0.71875, 7.09375, 0.71875], "texture": "#0"},
				"east": {"uv": [7.09375, 0.71875, 7.09375, 0.71875], "texture": "#0"},
				"south": {"uv": [7.09375, 0.71875, 7.09375, 0.71875], "texture": "#0"},
				"west": {"uv": [7.09375, 0.71875, 7.09375, 0.71875], "texture": "#0"},
				"up": {"uv": [7.09375, 0.71875, 7.09375, 0.71875], "texture": "#0"}
			}
		},
		{
			"name": "hexadecagon",
			"from": [7.35, -5.71746, 4.52385],
			"to": [8.65, -5.46746, 7.49885],
			"rotation": {"angle": 0, "axis": "x", "origin": [8.16196, 4.90754, 4.38635]},
			"faces": {
				"north": {"uv": [7.09375, 0.71875, 7.09375, 0.71875], "texture": "#0"},
				"east": {"uv": [7.09375, 0.71875, 7.09375, 0.71875], "texture": "#0"},
				"south": {"uv": [7.09375, 0.71875, 7.09375, 0.71875], "texture": "#0"},
				"west": {"uv": [7.09375, 0.71875, 7.09375, 0.71875], "texture": "#0"},
				"up": {"uv": [7.09375, 0.71875, 7.09375, 0.71875], "texture": "#0"},
				"down": {"uv": [7.09375, 0.71875, 7.09375, 0.71875], "texture": "#0"}
			}
		}
	],
	"display": {
		"firstperson_righthand": {
			"rotation": [2, -6, 0],
			"translation": [-4, 4.75, 2.75],
			"scale": [1, 1, 0.45]
		}
	},
	"groups": [
		{
			"name": "mag",
			"origin": [8.41196, 4.90754, 7.45698],
			"color": 0,
			"children": [0, 1]
		}
	]
}