{
	"credit": "Made with Blockbench",
	"textures": {
		"0": "ava:item/gun_textures/valkyrie",
		"particle": "ava:item/gun_textures/valkyrie"
	},
	"elements": [
		{
			"name": "hexadecagon",
			"from": [7.675, 10.12902, 10.8869],
			"to": [7.9, 10.70402, 15.1119],
			"rotation": {"angle": 0, "axis": "y", "origin": [8.24946, 10.02902, 3.3369]},
			"faces": {
				"north": {"uv": [0, 0, 16, 16], "texture": "#0"},
				"east": {"uv": [0, 0, 16, 16], "texture": "#0"},
				"west": {"uv": [0, 0, 16, 16], "texture": "#0"},
				"up": {"uv": [0, 0, 16, 16], "texture": "#0"},
				"down": {"uv": [0, 0, 16, 16], "texture": "#0"}
			}
		},
		{
			"name": "hexadecagon",
			"from": [6.95, 9.90402, 15.1119],
			"to": [7.975, 10.92902, 15.4619],
			"rotation": {"angle": 0, "axis": "y", "origin": [8.32446, 9.90402, 4.0869]},
			"faces": {
				"north": {"uv": [0, 0, 16, 16], "texture": "#0"},
				"east": {"uv": [0, 0, 16, 16], "texture": "#0"},
				"south": {"uv": [0, 0, 16, 16], "texture": "#0"},
				"west": {"uv": [0, 0, 16, 16], "texture": "#0"},
				"up": {"uv": [0, 0, 16, 16], "texture": "#0"},
				"down": {"uv": [0, 0, 16, 16], "texture": "#0"}
			}
		},
		{
			"name": "hexadecagon",
			"from": [8.025, 9.90402, 15.1119],
			"to": [9.05, 10.92902, 15.4619],
			"rotation": {"angle": 0, "axis": "y", "origin": [8.94946, 9.90402, 4.0869]},
			"faces": {
				"north": {"uv": [0, 0, 16, 16], "texture": "#0"},
				"east": {"uv": [0, 0, 16, 16], "texture": "#0"},
				"south": {"uv": [0, 0, 16, 16], "texture": "#0"},
				"west": {"uv": [0, 0, 16, 16], "texture": "#0"},
				"up": {"uv": [0, 0, 16, 16], "texture": "#0"},
				"down": {"uv": [0, 0, 16, 16], "texture": "#0"}
			}
		},
		{
			"name": "hexadecagon",
			"from": [8.1, 10.12902, 10.8869],
			"to": [8.325, 10.70402, 15.1119],
			"rotation": {"angle": 0, "axis": "y", "origin": [7.75054, 10.02902, 3.3369]},
			"faces": {
				"north": {"uv": [0, 0, 16, 16], "texture": "#0"},
				"east": {"uv": [0, 0, 16, 16], "texture": "#0"},
				"west": {"uv": [0, 0, 16, 16], "texture": "#0"},
				"up": {"uv": [0, 0, 16, 16], "texture": "#0"},
				"down": {"uv": [0, 0, 16, 16], "texture": "#0"}
			}
		}
	],
	"display": {
		"firstperson_righthand": {
			"rotation": [2, -6, 0],
			"translation": [-4, 4.75, 2.75],
			"scale": [1, 1, 0.45]
		}
	},
	"groups": [
		{
			"name": "slide",
			"origin": [8.09946, 9.90402, 9.40754],
			"color": 0,
			"children": [0, 1, 2, 3]
		}
	]
}