{
	"credit": "Made with Blockbench",
	"textures": {
		"0": "ava:item/gun_textures/palette_black",
		"1": "ava:item/gun_textures/lens",
		"particle": "ava:item/gun_textures/palette_black"
	},
	"elements": [
		{
			"name": "hexadecagon",
			"from": [6.28966, 6.11086, -7.07507],
			"to": [6.40175, 6.51336, -1.47507],
			"rotation": {"angle": -45, "axis": "z", "origin": [8, 4.65781, 3.89462]},
			"faces": {
				"north": {"uv": [6.9375, 0.6875, 6.9375, 0.6875], "texture": "#0"},
				"east": {"uv": [6.9375, 0.6875, 6.9375, 0.6875], "texture": "#0"},
				"south": {"uv": [6.9375, 0.6875, 6.9375, 0.6875], "texture": "#0"},
				"west": {"uv": [6.9375, 0.6875, 6.9375, 0.6875], "texture": "#0"},
				"up": {"uv": [6.9375, 0.6875, 6.9375, 0.6875], "texture": "#0"},
				"down": {"uv": [6.9375, 0.6875, 6.9375, 0.6875], "texture": "#0"}
			}
		},
		{
			"name": "hexadecagon",
			"from": [7.04866, 6.53751, -7.07507],
			"to": [7.16074, 7.10101, -1.47507],
			"rotation": {"angle": -22.5, "axis": "z", "origin": [8, 4.65781, 3.89462]},
			"faces": {
				"north": {"uv": [6.9375, 0.6875, 6.9375, 0.6875], "texture": "#0"},
				"east": {"uv": [6.9375, 0.6875, 6.9375, 0.6875], "texture": "#0"},
				"south": {"uv": [6.9375, 0.6875, 6.9375, 0.6875], "texture": "#0"},
				"west": {"uv": [6.9375, 0.6875, 6.9375, 0.6875], "texture": "#0"},
				"up": {"uv": [6.9375, 0.6875, 6.9375, 0.6875], "texture": "#0"},
				"down": {"uv": [6.9375, 0.6875, 6.9375, 0.6875], "texture": "#0"}
			}
		},
		{
			"name": "hexadecagon",
			"from": [7.94396, 6.79609, -7.07507],
			"to": [8.05604, 7.19859, -1.47507],
			"rotation": {"angle": 0, "axis": "z", "origin": [8, 4.65781, 3.89462]},
			"faces": {
				"north": {"uv": [6.9375, 0.6875, 6.9375, 0.6875], "texture": "#0"},
				"east": {"uv": [6.9375, 0.6875, 6.9375, 0.6875], "texture": "#0"},
				"south": {"uv": [6.9375, 0.6875, 6.9375, 0.6875], "texture": "#0"},
				"west": {"uv": [6.9375, 0.6875, 6.9375, 0.6875], "texture": "#0"},
				"up": {"uv": [6.9375, 0.6875, 6.9375, 0.6875], "texture": "#0"},
				"down": {"uv": [6.9375, 0.6875, 6.9375, 0.6875], "texture": "#0"}
			}
		},
		{
			"name": "hexadecagon",
			"from": [8.83926, 6.53751, -7.07507],
			"to": [8.95134, 7.10101, -1.47507],
			"rotation": {"angle": 22.5, "axis": "z", "origin": [8, 4.65781, 3.89462]},
			"faces": {
				"north": {"uv": [6.9375, 0.6875, 6.9375, 0.6875], "texture": "#0"},
				"east": {"uv": [6.9375, 0.6875, 6.9375, 0.6875], "texture": "#0"},
				"south": {"uv": [6.9375, 0.6875, 6.9375, 0.6875], "texture": "#0"},
				"west": {"uv": [6.9375, 0.6875, 6.9375, 0.6875], "texture": "#0"},
				"up": {"uv": [6.9375, 0.6875, 6.9375, 0.6875], "texture": "#0"},
				"down": {"uv": [6.9375, 0.6875, 6.9375, 0.6875], "texture": "#0"}
			}
		},
		{
			"name": "hexadecagon",
			"from": [9.59825, 6.11086, -7.07507],
			"to": [9.71034, 6.51336, -1.47507],
			"rotation": {"angle": 45, "axis": "z", "origin": [8, 4.65781, 3.89462]},
			"faces": {
				"north": {"uv": [6.9375, 0.6875, 6.9375, 0.6875], "texture": "#0"},
				"east": {"uv": [6.9375, 0.6875, 6.9375, 0.6875], "texture": "#0"},
				"south": {"uv": [6.9375, 0.6875, 6.9375, 0.6875], "texture": "#0"},
				"west": {"uv": [6.9375, 0.6875, 6.9375, 0.6875], "texture": "#0"},
				"up": {"uv": [6.9375, 0.6875, 6.9375, 0.6875], "texture": "#0"},
				"down": {"uv": [6.9375, 0.6875, 6.9375, 0.6875], "texture": "#0"}
			}
		},
		{
			"name": "hexadecagon",
			"from": [6.82295, 6.76321, -7.07507],
			"to": [7.38645, 6.8753, -1.47507],
			"rotation": {"angle": -22.5, "axis": "z", "origin": [8, 4.65781, 3.89462]},
			"faces": {
				"north": {"uv": [6.9375, 0.6875, 6.9375, 0.6875], "texture": "#0"},
				"east": {"uv": [6.9375, 0.6875, 6.9375, 0.6875], "texture": "#0"},
				"south": {"uv": [6.9375, 0.6875, 6.9375, 0.6875], "texture": "#0"},
				"west": {"uv": [6.9375, 0.6875, 6.9375, 0.6875], "texture": "#0"},
				"up": {"uv": [6.9375, 0.6875, 6.9375, 0.6875], "texture": "#0"},
				"down": {"uv": [6.9375, 0.6875, 6.9375, 0.6875], "texture": "#0"}
			}
		},
		{
			"name": "hexadecagon",
			"from": [7.79875, 6.9413, -7.07507],
			"to": [8.20125, 7.05339, -1.47507],
			"rotation": {"angle": 0, "axis": "z", "origin": [8, 4.65781, 3.89462]},
			"faces": {
				"north": {"uv": [6.9375, 0.6875, 6.9375, 0.6875], "texture": "#0"},
				"east": {"uv": [6.9375, 0.6875, 6.9375, 0.6875], "texture": "#0"},
				"south": {"uv": [6.9375, 0.6875, 6.9375, 0.6875], "texture": "#0"},
				"west": {"uv": [6.9375, 0.6875, 6.9375, 0.6875], "texture": "#0"},
				"up": {"uv": [6.9375, 0.6875, 6.9375, 0.6875], "texture": "#0"},
				"down": {"uv": [6.9375, 0.6875, 6.9375, 0.6875], "texture": "#0"}
			}
		},
		{
			"name": "hexadecagon",
			"from": [8.61355, 6.76321, -7.07507],
			"to": [9.17705, 6.8753, -1.47507],
			"rotation": {"angle": 22.5, "axis": "z", "origin": [8, 4.65781, 3.89462]},
			"faces": {
				"north": {"uv": [6.9375, 0.6875, 6.9375, 0.6875], "texture": "#0"},
				"east": {"uv": [6.9375, 0.6875, 6.9375, 0.6875], "texture": "#0"},
				"south": {"uv": [6.9375, 0.6875, 6.9375, 0.6875], "texture": "#0"},
				"west": {"uv": [6.9375, 0.6875, 6.9375, 0.6875], "texture": "#0"},
				"up": {"uv": [6.9375, 0.6875, 6.9375, 0.6875], "texture": "#0"},
				"down": {"uv": [6.9375, 0.6875, 6.9375, 0.6875], "texture": "#0"}
			}
		},
		{
			"name": "hexadecagon",
			"from": [7.71825, 6.71559, -1.47507],
			"to": [8.28175, 7.27909, -0.77507],
			"rotation": {"angle": 0, "axis": "z", "origin": [7.77429, 4.65781, 3.89462]},
			"faces": {
				"north": {"uv": [6.9375, 0.6875, 6.9375, 0.6875], "texture": "#0"},
				"east": {"uv": [6.9375, 0.6875, 6.9375, 0.6875], "texture": "#0"},
				"south": {"uv": [6.9375, 0.6875, 6.9375, 0.6875], "texture": "#0"},
				"west": {"uv": [6.9375, 0.6875, 6.9375, 0.6875], "texture": "#0"},
				"up": {"uv": [6.9375, 0.6875, 6.9375, 0.6875], "texture": "#0"},
				"down": {"uv": [6.9375, 0.6875, 6.9375, 0.6875], "texture": "#0"}
			}
		},
		{
			"name": "hexadecagon",
			"from": [7.71825, 6.71559, -9.87507],
			"to": [8.28175, 7.27909, -7.07507],
			"rotation": {"angle": 0, "axis": "z", "origin": [7.77429, 4.65781, 3.89462]},
			"faces": {
				"north": {"uv": [6.9375, 0.6875, 6.9375, 0.6875], "texture": "#0"},
				"east": {"uv": [6.9375, 0.6875, 6.9375, 0.6875], "texture": "#0"},
				"south": {"uv": [6.9375, 0.6875, 6.9375, 0.6875], "texture": "#0"},
				"west": {"uv": [6.9375, 0.6875, 6.9375, 0.6875], "texture": "#0"},
				"up": {"uv": [6.9375, 0.6875, 6.9375, 0.6875], "texture": "#0"},
				"down": {"uv": [6.9375, 0.6875, 6.9375, 0.6875], "texture": "#0"}
			}
		},
		{
			"name": "hexadecagon",
			"from": [7.35627, 6.75234, -8.68507],
			"to": [8.64373, 7.24234, -8.54507],
			"rotation": {"angle": 0, "axis": "z", "origin": [8, 4.65781, 3.89462]},
			"faces": {
				"north": {"uv": [6.9375, 0.71875, 6.9375, 0.71875], "texture": "#0"},
				"east": {"uv": [6.9375, 0.71875, 6.9375, 0.71875], "texture": "#0"},
				"south": {"uv": [6.9375, 0.71875, 6.9375, 0.71875], "texture": "#0"},
				"west": {"uv": [6.9375, 0.71875, 6.9375, 0.71875], "texture": "#0"},
				"up": {"uv": [6.9375, 0.71875, 6.9375, 0.71875], "texture": "#0"},
				"down": {"uv": [6.9375, 0.71875, 6.9375, 0.71875], "texture": "#0"}
			}
		},
		{
			"name": "hexadecagon",
			"from": [7.35627, 6.75234, -9.31507],
			"to": [8.64373, 7.24234, -9.17507],
			"rotation": {"angle": 0, "axis": "z", "origin": [8, 4.65781, 3.89462]},
			"faces": {
				"north": {"uv": [6.9375, 0.71875, 6.9375, 0.71875], "texture": "#0"},
				"east": {"uv": [6.9375, 0.71875, 6.9375, 0.71875], "texture": "#0"},
				"south": {"uv": [6.9375, 0.71875, 6.9375, 0.71875], "texture": "#0"},
				"west": {"uv": [6.9375, 0.71875, 6.9375, 0.71875], "texture": "#0"},
				"up": {"uv": [6.9375, 0.71875, 6.9375, 0.71875], "texture": "#0"},
				"down": {"uv": [6.9375, 0.71875, 6.9375, 0.71875], "texture": "#0"}
			}
		},
		{
			"name": "hexadecagon",
			"from": [7.46869, 6.54234, -9.73202],
			"to": [8.53131, 7.45234, -9.29639],
			"rotation": {"angle": 0, "axis": "y", "origin": [8, 4.65781, 3.89462]},
			"faces": {
				"north": {"uv": [6.9375, 0.71875, 6.9375, 0.71875], "texture": "#0"},
				"east": {"uv": [6.9375, 0.71875, 6.9375, 0.71875], "texture": "#0"},
				"south": {"uv": [6.9375, 0.71875, 6.9375, 0.71875], "texture": "#0"},
				"west": {"uv": [6.9375, 0.71875, 6.9375, 0.71875], "texture": "#0"},
				"up": {"uv": [6.9375, 0.71875, 6.9375, 0.71875], "texture": "#0"},
				"down": {"uv": [6.9375, 0.71875, 6.9375, 0.71875], "texture": "#0"}
			}
		},
		{
			"name": "hexadecagon",
			"from": [7.35627, 6.75234, -8.05507],
			"to": [8.64373, 7.24234, -7.77507],
			"rotation": {"angle": 0, "axis": "z", "origin": [8, 4.65781, 3.89462]},
			"faces": {
				"north": {"uv": [6.9375, 0.71875, 6.9375, 0.71875], "texture": "#0"},
				"east": {"uv": [6.9375, 0.71875, 6.9375, 0.71875], "texture": "#0"},
				"south": {"uv": [6.9375, 0.71875, 6.9375, 0.71875], "texture": "#0"},
				"west": {"uv": [6.9375, 0.71875, 6.9375, 0.71875], "texture": "#0"},
				"up": {"uv": [6.9375, 0.71875, 6.9375, 0.71875], "texture": "#0"},
				"down": {"uv": [6.9375, 0.71875, 6.9375, 0.71875], "texture": "#0"}
			}
		},
		{
			"name": "hexadecagon",
			"from": [7.35627, 7.24234, -9.31507],
			"to": [8.64373, 7.45234, -7.84507],
			"rotation": {"angle": 0, "axis": "z", "origin": [8, 4.65781, 3.89462]},
			"faces": {
				"north": {"uv": [6.9375, 0.71875, 6.9375, 0.71875], "texture": "#0"},
				"east": {"uv": [6.9375, 0.71875, 6.9375, 0.71875], "texture": "#0"},
				"south": {"uv": [6.9375, 0.71875, 6.9375, 0.71875], "texture": "#0"},
				"west": {"uv": [6.9375, 0.71875, 6.9375, 0.71875], "texture": "#0"},
				"up": {"uv": [6.9375, 0.71875, 6.9375, 0.71875], "texture": "#0"},
				"down": {"uv": [6.9375, 0.71875, 6.9375, 0.71875], "texture": "#0"}
			}
		},
		{
			"name": "hexadecagon",
			"from": [7.35627, 6.54234, -9.31507],
			"to": [8.64373, 6.75234, -7.84507],
			"rotation": {"angle": 0, "axis": "z", "origin": [8, 4.65781, 3.89462]},
			"faces": {
				"north": {"uv": [6.9375, 0.71875, 6.9375, 0.71875], "texture": "#0"},
				"east": {"uv": [6.9375, 0.71875, 6.9375, 0.71875], "texture": "#0"},
				"south": {"uv": [6.9375, 0.71875, 6.9375, 0.71875], "texture": "#0"},
				"west": {"uv": [6.9375, 0.71875, 6.9375, 0.71875], "texture": "#0"},
				"up": {"uv": [6.9375, 0.71875, 6.9375, 0.71875], "texture": "#0"},
				"down": {"uv": [6.9375, 0.71875, 6.9375, 0.71875], "texture": "#0"}
			}
		},
		{
			"name": "hexadecagon",
			"from": [7.46127, 7.24234, -0.77507],
			"to": [8.53873, 7.59234, 26.02493],
			"rotation": {"angle": 0, "axis": "z", "origin": [8, 4.65781, 3.89462]},
			"faces": {
				"north": {"uv": [6.9375, 0.65625, 6.9375, 0.65625], "texture": "#0"},
				"east": {"uv": [6.9375, 0.65625, 6.9375, 0.65625], "texture": "#0"},
				"south": {"uv": [6.9375, 0.65625, 6.9375, 0.65625], "texture": "#0"},
				"west": {"uv": [6.9375, 0.65625, 6.9375, 0.65625], "texture": "#0"},
				"up": {"uv": [6.9375, 0.65625, 6.9375, 0.65625], "texture": "#0"},
				"down": {"uv": [6.9375, 0.65625, 6.9375, 0.65625], "texture": "#0"}
			}
		},
		{
			"name": "hexadecagon",
			"from": [7.59388, 7.58688, -0.77507],
			"to": [8.40612, 7.72906, 26.02493],
			"rotation": {"angle": 0, "axis": "z", "origin": [8, 4.65781, 3.89462]},
			"faces": {
				"north": {"uv": [6.9375, 0.65625, 6.9375, 0.65625], "texture": "#0"},
				"east": {"uv": [6.9375, 0.65625, 6.9375, 0.65625], "texture": "#0"},
				"south": {"uv": [6.9375, 0.65625, 6.9375, 0.65625], "texture": "#0"},
				"west": {"uv": [6.9375, 0.65625, 6.9375, 0.65625], "texture": "#0"},
				"up": {"uv": [6.9375, 0.65625, 6.9375, 0.65625], "texture": "#0"},
				"down": {"uv": [6.9375, 0.65625, 6.9375, 0.65625], "texture": "#0"}
			}
		},
		{
			"name": "hexadecagon",
			"from": [7.46127, 7.17234, -0.77507],
			"to": [8.53873, 7.24234, 0.20493],
			"rotation": {"angle": 0, "axis": "z", "origin": [8, 4.65781, 3.89462]},
			"faces": {
				"north": {"uv": [6.9375, 0.65625, 6.9375, 0.65625], "texture": "#0"},
				"east": {"uv": [6.9375, 0.65625, 6.9375, 0.65625], "texture": "#0"},
				"south": {"uv": [6.9375, 0.65625, 6.9375, 0.65625], "texture": "#0"},
				"west": {"uv": [6.9375, 0.65625, 6.9375, 0.65625], "texture": "#0"},
				"up": {"uv": [6.9375, 0.65625, 6.9375, 0.65625], "texture": "#0"},
				"down": {"uv": [6.9375, 0.65625, 6.9375, 0.65625], "texture": "#0"}
			}
		},
		{
			"name": "hexadecagon",
			"from": [7.46127, 7.17234, 0.69493],
			"to": [8.53873, 7.24234, 0.90493],
			"rotation": {"angle": 0, "axis": "z", "origin": [8, 4.65781, 3.89462]},
			"faces": {
				"north": {"uv": [6.9375, 0.65625, 6.9375, 0.65625], "texture": "#0"},
				"east": {"uv": [6.9375, 0.65625, 6.9375, 0.65625], "texture": "#0"},
				"south": {"uv": [6.9375, 0.65625, 6.9375, 0.65625], "texture": "#0"},
				"west": {"uv": [6.9375, 0.65625, 6.9375, 0.65625], "texture": "#0"},
				"up": {"uv": [6.9375, 0.65625, 6.9375, 0.65625], "texture": "#0"},
				"down": {"uv": [6.9375, 0.65625, 6.9375, 0.65625], "texture": "#0"}
			}
		},
		{
			"name": "hexadecagon",
			"from": [7.46127, 7.17234, 1.39493],
			"to": [8.53873, 7.24234, 1.60493],
			"rotation": {"angle": 0, "axis": "z", "origin": [8, 4.65781, 3.89462]},
			"faces": {
				"north": {"uv": [6.9375, 0.65625, 6.9375, 0.65625], "texture": "#0"},
				"east": {"uv": [6.9375, 0.65625, 6.9375, 0.65625], "texture": "#0"},
				"south": {"uv": [6.9375, 0.65625, 6.9375, 0.65625], "texture": "#0"},
				"west": {"uv": [6.9375, 0.65625, 6.9375, 0.65625], "texture": "#0"},
				"up": {"uv": [6.9375, 0.65625, 6.9375, 0.65625], "texture": "#0"},
				"down": {"uv": [6.9375, 0.65625, 6.9375, 0.65625], "texture": "#0"}
			}
		},
		{
			"name": "hexadecagon",
			"from": [7.46127, 7.17234, 2.09493],
			"to": [8.53873, 7.24234, 2.30493],
			"rotation": {"angle": 0, "axis": "z", "origin": [8, 4.65781, 3.89462]},
			"faces": {
				"north": {"uv": [6.9375, 0.65625, 6.9375, 0.65625], "texture": "#0"},
				"east": {"uv": [6.9375, 0.65625, 6.9375, 0.65625], "texture": "#0"},
				"south": {"uv": [6.9375, 0.65625, 6.9375, 0.65625], "texture": "#0"},
				"west": {"uv": [6.9375, 0.65625, 6.9375, 0.65625], "texture": "#0"},
				"up": {"uv": [6.9375, 0.65625, 6.9375, 0.65625], "texture": "#0"},
				"down": {"uv": [6.9375, 0.65625, 6.9375, 0.65625], "texture": "#0"}
			}
		},
		{
			"name": "hexadecagon",
			"from": [7.46127, 7.17234, 2.79493],
			"to": [8.53873, 7.24234, 3.00493],
			"rotation": {"angle": 0, "axis": "z", "origin": [8, 4.65781, 3.89462]},
			"faces": {
				"north": {"uv": [6.9375, 0.65625, 6.9375, 0.65625], "texture": "#0"},
				"east": {"uv": [6.9375, 0.65625, 6.9375, 0.65625], "texture": "#0"},
				"south": {"uv": [6.9375, 0.65625, 6.9375, 0.65625], "texture": "#0"},
				"west": {"uv": [6.9375, 0.65625, 6.9375, 0.65625], "texture": "#0"},
				"up": {"uv": [6.9375, 0.65625, 6.9375, 0.65625], "texture": "#0"},
				"down": {"uv": [6.9375, 0.65625, 6.9375, 0.65625], "texture": "#0"}
			}
		},
		{
			"name": "hexadecagon",
			"from": [7.46127, 7.17234, 3.49493],
			"to": [8.53873, 7.24234, 3.70493],
			"rotation": {"angle": 0, "axis": "z", "origin": [8, 4.65781, 3.89462]},
			"faces": {
				"north": {"uv": [6.9375, 0.65625, 6.9375, 0.65625], "texture": "#0"},
				"east": {"uv": [6.9375, 0.65625, 6.9375, 0.65625], "texture": "#0"},
				"south": {"uv": [6.9375, 0.65625, 6.9375, 0.65625], "texture": "#0"},
				"west": {"uv": [6.9375, 0.65625, 6.9375, 0.65625], "texture": "#0"},
				"up": {"uv": [6.9375, 0.65625, 6.9375, 0.65625], "texture": "#0"},
				"down": {"uv": [6.9375, 0.65625, 6.9375, 0.65625], "texture": "#0"}
			}
		},
		{
			"name": "hexadecagon",
			"from": [7.46127, 7.17234, 4.19493],
			"to": [8.53873, 7.24234, 4.40493],
			"rotation": {"angle": 0, "axis": "z", "origin": [8, 4.65781, 3.89462]},
			"faces": {
				"north": {"uv": [6.9375, 0.65625, 6.9375, 0.65625], "texture": "#0"},
				"east": {"uv": [6.9375, 0.65625, 6.9375, 0.65625], "texture": "#0"},
				"south": {"uv": [6.9375, 0.65625, 6.9375, 0.65625], "texture": "#0"},
				"west": {"uv": [6.9375, 0.65625, 6.9375, 0.65625], "texture": "#0"},
				"up": {"uv": [6.9375, 0.65625, 6.9375, 0.65625], "texture": "#0"},
				"down": {"uv": [6.9375, 0.65625, 6.9375, 0.65625], "texture": "#0"}
			}
		},
		{
			"name": "hexadecagon",
			"from": [7.46127, 7.17234, 4.89493],
			"to": [8.53873, 7.24234, 5.10493],
			"rotation": {"angle": 0, "axis": "z", "origin": [8, 4.65781, 3.89462]},
			"faces": {
				"north": {"uv": [6.9375, 0.65625, 6.9375, 0.65625], "texture": "#0"},
				"east": {"uv": [6.9375, 0.65625, 6.9375, 0.65625], "texture": "#0"},
				"south": {"uv": [6.9375, 0.65625, 6.9375, 0.65625], "texture": "#0"},
				"west": {"uv": [6.9375, 0.65625, 6.9375, 0.65625], "texture": "#0"},
				"up": {"uv": [6.9375, 0.65625, 6.9375, 0.65625], "texture": "#0"},
				"down": {"uv": [6.9375, 0.65625, 6.9375, 0.65625], "texture": "#0"}
			}
		},
		{
			"name": "hexadecagon",
			"from": [7.46127, 7.17234, 5.59493],
			"to": [8.53873, 7.24234, 5.80493],
			"rotation": {"angle": 0, "axis": "z", "origin": [8, 4.65781, 3.89462]},
			"faces": {
				"north": {"uv": [6.9375, 0.65625, 6.9375, 0.65625], "texture": "#0"},
				"east": {"uv": [6.9375, 0.65625, 6.9375, 0.65625], "texture": "#0"},
				"south": {"uv": [6.9375, 0.65625, 6.9375, 0.65625], "texture": "#0"},
				"west": {"uv": [6.9375, 0.65625, 6.9375, 0.65625], "texture": "#0"},
				"up": {"uv": [6.9375, 0.65625, 6.9375, 0.65625], "texture": "#0"},
				"down": {"uv": [6.9375, 0.65625, 6.9375, 0.65625], "texture": "#0"}
			}
		},
		{
			"name": "hexadecagon",
			"from": [7.46127, 7.17234, 6.29493],
			"to": [8.53873, 7.24234, 26.02493],
			"rotation": {"angle": 0, "axis": "z", "origin": [8, 7.20734, 15.60993]},
			"faces": {
				"north": {"uv": [6.9375, 0.65625, 6.9375, 0.65625], "texture": "#0"},
				"east": {"uv": [6.9375, 0.65625, 6.9375, 0.65625], "texture": "#0"},
				"south": {"uv": [6.9375, 0.65625, 6.9375, 0.65625], "texture": "#0"},
				"west": {"uv": [6.9375, 0.65625, 6.9375, 0.65625], "texture": "#0"},
				"up": {"uv": [6.9375, 0.65625, 6.9375, 0.65625], "texture": "#0"},
				"down": {"uv": [6.9375, 0.65625, 6.9375, 0.65625], "texture": "#0"}
			}
		},
		{
			"name": "hexadecagon",
			"from": [7.81439, 5.98234, 0.05836],
			"to": [8.18561, 6.12234, 6.36493],
			"rotation": {"angle": 0, "axis": "z", "origin": [7.8, 4.65781, 3.89462]},
			"faces": {
				"north": {"uv": [6.9375, 0.65625, 6.9375, 0.65625], "texture": "#0"},
				"east": {"uv": [6.9375, 0.65625, 6.9375, 0.65625], "texture": "#0"},
				"south": {"uv": [6.9375, 0.65625, 6.9375, 0.65625], "texture": "#0"},
				"west": {"uv": [6.9375, 0.65625, 6.9375, 0.65625], "texture": "#0"},
				"up": {"uv": [6.9375, 0.65625, 6.9375, 0.65625], "texture": "#0"},
				"down": {"uv": [6.9375, 0.65625, 6.9375, 0.65625], "texture": "#0"}
			}
		},
		{
			"name": "hexadecagon",
			"from": [7.61439, 5.98234, -0.78164],
			"to": [8.38561, 7.17234, 0.06493],
			"rotation": {"angle": 0, "axis": "z", "origin": [8, 4.65781, 3.89462]},
			"faces": {
				"north": {"uv": [6.9375, 0.65625, 6.9375, 0.65625], "texture": "#0"},
				"east": {"uv": [6.9375, 0.65625, 6.9375, 0.65625], "texture": "#0"},
				"south": {"uv": [6.9375, 0.65625, 6.9375, 0.65625], "texture": "#0"},
				"west": {"uv": [6.9375, 0.65625, 6.9375, 0.65625], "texture": "#0"},
				"up": {"uv": [6.9375, 0.65625, 6.9375, 0.65625], "texture": "#0"},
				"down": {"uv": [6.9375, 0.65625, 6.9375, 0.65625], "texture": "#0"}
			}
		},
		{
			"name": "hexadecagon",
			"from": [7.61439, 5.98234, 6.35836],
			"to": [8.38561, 7.17234, 24.92493],
			"rotation": {"angle": 0, "axis": "z", "origin": [8, 4.65781, 3.89462]},
			"faces": {
				"north": {"uv": [6.9375, 0.65625, 6.9375, 0.65625], "texture": "#0"},
				"east": {"uv": [6.9375, 0.65625, 6.9375, 0.65625], "texture": "#0"},
				"south": {"uv": [6.9375, 0.65625, 6.9375, 0.65625], "texture": "#0"},
				"west": {"uv": [6.9375, 0.65625, 6.9375, 0.65625], "texture": "#0"},
				"up": {"uv": [6.9375, 0.65625, 6.9375, 0.65625], "texture": "#0"},
				"down": {"uv": [6.9375, 0.65625, 6.9375, 0.65625], "texture": "#0"}
			}
		},
		{
			"name": "hexadecagon",
			"from": [7.81439, 5.68234, 6.65836],
			"to": [8.18561, 6.07234, 7.12493],
			"rotation": {"angle": 0, "axis": "z", "origin": [7.8, 4.35781, 4.19462]},
			"faces": {
				"north": {"uv": [6.9375, 0.65625, 6.9375, 0.65625], "texture": "#0"},
				"east": {"uv": [6.9375, 0.65625, 6.9375, 0.65625], "texture": "#0"},
				"south": {"uv": [6.9375, 0.65625, 6.9375, 0.65625], "texture": "#0"},
				"west": {"uv": [6.9375, 0.65625, 6.9375, 0.65625], "texture": "#0"},
				"up": {"uv": [6.9375, 0.65625, 6.9375, 0.65625], "texture": "#0"},
				"down": {"uv": [6.9375, 0.65625, 6.9375, 0.65625], "texture": "#0"}
			}
		},
		{
			"name": "hexadecagon",
			"from": [5.89917, 5.72304, -0.77507],
			"to": [6.44276, 6.2591, 24.92493],
			"rotation": {"angle": -45, "axis": "z", "origin": [8, 4.65781, 3.89462]},
			"faces": {
				"north": {"uv": [6.9375, 0.65625, 6.9375, 0.65625], "texture": "#0"},
				"east": {"uv": [6.9375, 0.65625, 6.9375, 0.65625], "texture": "#0"},
				"south": {"uv": [6.9375, 0.65625, 6.9375, 0.65625], "texture": "#0"},
				"west": {"uv": [6.9375, 0.65625, 6.9375, 0.65625], "texture": "#0"},
				"up": {"uv": [6.9375, 0.65625, 6.9375, 0.65625], "texture": "#0"},
				"down": {"uv": [6.9375, 0.65625, 6.9375, 0.65625], "texture": "#0"}
			}
		},
		{
			"name": "hexadecagon",
			"from": [8.35916, 6.24465, -0.77507],
			"to": [8.89522, 6.78824, 20.92493],
			"rotation": {"angle": 22.5, "axis": "z", "origin": [8, 4.65781, 3.89462]},
			"faces": {
				"north": {"uv": [6.9375, 0.65625, 6.9375, 0.65625], "texture": "#0"},
				"east": {"uv": [6.9375, 0.65625, 6.9375, 0.65625], "texture": "#0"},
				"south": {"uv": [6.9375, 0.65625, 6.9375, 0.65625], "texture": "#0"},
				"west": {"uv": [6.9375, 0.65625, 6.9375, 0.65625], "texture": "#0"},
				"up": {"uv": [6.9375, 0.65625, 6.9375, 0.65625], "texture": "#0"},
				"down": {"uv": [6.9375, 0.65625, 6.9375, 0.65625], "texture": "#0"}
			}
		},
		{
			"name": "hexadecagon",
			"from": [9.55724, 5.72304, -0.77507],
			"to": [10.10083, 6.2591, 24.92493],
			"rotation": {"angle": 45, "axis": "z", "origin": [8, 4.65781, 3.89462]},
			"faces": {
				"north": {"uv": [6.9375, 0.65625, 6.9375, 0.65625], "texture": "#0"},
				"east": {"uv": [6.9375, 0.65625, 6.9375, 0.65625], "texture": "#0"},
				"south": {"uv": [6.9375, 0.65625, 6.9375, 0.65625], "texture": "#0"},
				"west": {"uv": [6.9375, 0.65625, 6.9375, 0.65625], "texture": "#0"},
				"up": {"uv": [6.9375, 0.65625, 6.9375, 0.65625], "texture": "#0"},
				"down": {"uv": [6.9375, 0.65625, 6.9375, 0.65625], "texture": "#0"}
			}
		},
		{
			"name": "hexadecagon",
			"from": [7.10478, 6.24465, -0.77507],
			"to": [7.64084, 6.78824, 24.92493],
			"rotation": {"angle": -22.5, "axis": "z", "origin": [8, 4.65781, 3.89462]},
			"faces": {
				"north": {"uv": [6.9375, 0.65625, 6.9375, 0.65625], "texture": "#0"},
				"east": {"uv": [6.9375, 0.65625, 6.9375, 0.65625], "texture": "#0"},
				"south": {"uv": [6.9375, 0.65625, 6.9375, 0.65625], "texture": "#0"},
				"west": {"uv": [6.9375, 0.65625, 6.9375, 0.65625], "texture": "#0"},
				"up": {"uv": [6.9375, 0.65625, 6.9375, 0.65625], "texture": "#0"},
				"down": {"uv": [6.9375, 0.65625, 6.9375, 0.65625], "texture": "#0"}
			}
		},
		{
			"name": "hexadecagon",
			"from": [8.35916, 6.24465, -0.77507],
			"to": [8.89522, 6.78824, 24.92493],
			"rotation": {"angle": 22.5, "axis": "z", "origin": [8, 4.65781, 3.89462]},
			"faces": {
				"north": {"uv": [6.9375, 0.65625, 6.9375, 0.65625], "texture": "#0"},
				"east": {"uv": [6.9375, 0.65625, 6.9375, 0.65625], "texture": "#0"},
				"south": {"uv": [6.9375, 0.65625, 6.9375, 0.65625], "texture": "#0"},
				"west": {"uv": [6.9375, 0.65625, 6.9375, 0.65625], "texture": "#0"},
				"up": {"uv": [6.9375, 0.65625, 6.9375, 0.65625], "texture": "#0"},
				"down": {"uv": [6.9375, 0.65625, 6.9375, 0.65625], "texture": "#0"}
			}
		},
		{
			"name": "hexadecagon",
			"from": [7.61439, 7.44819, 11.41854],
			"to": [8.38561, 7.65819, 13.03511],
			"rotation": {"angle": 22.5, "axis": "x", "origin": [8, 4.65781, 4.19462]},
			"faces": {
				"north": {"uv": [6.9375, 0.65625, 6.9375, 0.65625], "texture": "#0"},
				"east": {"uv": [6.9375, 0.65625, 6.9375, 0.65625], "texture": "#0"},
				"south": {"uv": [6.9375, 0.65625, 6.9375, 0.65625], "texture": "#0"},
				"west": {"uv": [6.9375, 0.65625, 6.9375, 0.65625], "texture": "#0"},
				"up": {"uv": [6.9375, 0.65625, 6.9375, 0.65625], "texture": "#0"},
				"down": {"uv": [6.9375, 0.65625, 6.9375, 0.65625], "texture": "#0"}
			}
		},
		{
			"name": "hexadecagon",
			"from": [7.61439, 4.38471, 8.54562],
			"to": [8.38561, 5.99471, 12.56219],
			"rotation": {"angle": 0, "axis": "x", "origin": [8, 4.65781, 4.19462]},
			"faces": {
				"north": {"uv": [6.9375, 0.65625, 6.9375, 0.65625], "texture": "#0"},
				"east": {"uv": [6.9375, 0.65625, 6.9375, 0.65625], "texture": "#0"},
				"south": {"uv": [6.9375, 0.65625, 6.9375, 0.65625], "texture": "#0"},
				"west": {"uv": [6.9375, 0.65625, 6.9375, 0.65625], "texture": "#0"},
				"up": {"uv": [6.9375, 0.65625, 6.9375, 0.65625], "texture": "#0"},
				"down": {"uv": [6.9375, 0.65625, 6.9375, 0.65625], "texture": "#0"}
			}
		},
		{
			"name": "hexadecagon",
			"from": [7.61439, 3.85698, 13.43335],
			"to": [8.38561, 5.98706, 13.51867],
			"rotation": {"angle": 0, "axis": "x", "origin": [8, 4.65781, 4.19462]},
			"faces": {
				"north": {"uv": [6.9375, 0.65625, 6.9375, 0.65625], "texture": "#0"},
				"east": {"uv": [6.9375, 0.65625, 6.9375, 0.65625], "texture": "#0"},
				"south": {"uv": [6.9375, 0.65625, 6.9375, 0.65625], "texture": "#0"},
				"west": {"uv": [6.9375, 0.65625, 6.9375, 0.65625], "texture": "#0"},
				"up": {"uv": [6.9375, 0.65625, 6.9375, 0.65625], "texture": "#0"},
				"down": {"uv": [6.9375, 0.65625, 6.9375, 0.65625], "texture": "#0"}
			}
		},
		{
			"name": "hexadecagon",
			"from": [7.61439, 4.0812, 12.91656],
			"to": [8.38561, 5.98706, 13.44484],
			"rotation": {"angle": 0, "axis": "x", "origin": [8, 4.65781, 4.19462]},
			"faces": {
				"north": {"uv": [6.9375, 0.65625, 6.9375, 0.65625], "texture": "#0"},
				"east": {"uv": [6.9375, 0.65625, 6.9375, 0.65625], "texture": "#0"},
				"south": {"uv": [6.9375, 0.65625, 6.9375, 0.65625], "texture": "#0"},
				"west": {"uv": [6.9375, 0.65625, 6.9375, 0.65625], "texture": "#0"},
				"up": {"uv": [6.9375, 0.65625, 6.9375, 0.65625], "texture": "#0"},
				"down": {"uv": [6.9375, 0.65625, 6.9375, 0.65625], "texture": "#0"}
			}
		},
		{
			"name": "hexadecagon",
			"from": [7.92939, 4.7112, 14.08906],
			"to": [8.07061, 5.00706, 14.21484],
			"rotation": {"angle": 0, "axis": "x", "origin": [8, 4.65781, 4.19462]},
			"faces": {
				"north": {"uv": [6.9375, 0.65625, 6.9375, 0.65625], "texture": "#0"},
				"east": {"uv": [6.9375, 0.65625, 6.9375, 0.65625], "texture": "#0"},
				"south": {"uv": [6.9375, 0.65625, 6.9375, 0.65625], "texture": "#0"},
				"west": {"uv": [6.9375, 0.65625, 6.9375, 0.65625], "texture": "#0"},
				"up": {"uv": [6.9375, 0.65625, 6.9375, 0.65625], "texture": "#0"},
				"down": {"uv": [6.9375, 0.65625, 6.9375, 0.65625], "texture": "#0"}
			}
		},
		{
			"name": "hexadecagon",
			"from": [7.92939, 8.24398, 13.30652],
			"to": [8.07061, 8.53984, 13.4323],
			"rotation": {"angle": 22.5, "axis": "x", "origin": [8, 4.65781, 4.19462]},
			"faces": {
				"north": {"uv": [6.9375, 0.65625, 6.9375, 0.65625], "texture": "#0"},
				"east": {"uv": [6.9375, 0.65625, 6.9375, 0.65625], "texture": "#0"},
				"south": {"uv": [6.9375, 0.65625, 6.9375, 0.65625], "texture": "#0"},
				"west": {"uv": [6.9375, 0.65625, 6.9375, 0.65625], "texture": "#0"},
				"up": {"uv": [6.9375, 0.65625, 6.9375, 0.65625], "texture": "#0"},
				"down": {"uv": [6.9375, 0.65625, 6.9375, 0.65625], "texture": "#0"}
			}
		},
		{
			"name": "hexadecagon",
			"from": [7.92939, 11.33106, 11.22555],
			"to": [8.07061, 11.52302, 11.35134],
			"rotation": {"angle": 45, "axis": "x", "origin": [8, 4.65781, 4.19462]},
			"faces": {
				"north": {"uv": [6.9375, 0.65625, 6.9375, 0.65625], "texture": "#0"},
				"east": {"uv": [6.9375, 0.65625, 6.9375, 0.65625], "texture": "#0"},
				"south": {"uv": [6.9375, 0.65625, 6.9375, 0.65625], "texture": "#0"},
				"west": {"uv": [6.9375, 0.65625, 6.9375, 0.65625], "texture": "#0"},
				"up": {"uv": [6.9375, 0.65625, 6.9375, 0.65625], "texture": "#0"},
				"down": {"uv": [6.9375, 0.65625, 6.9375, 0.65625], "texture": "#0"}
			}
		},
		{
			"name": "hexadecagon",
			"from": [7.65439, 4.9912, 13.52906],
			"to": [8.34561, 5.98706, 16.31484],
			"rotation": {"angle": 0, "axis": "x", "origin": [8.1, 4.65781, 4.19462]},
			"faces": {
				"north": {"uv": [6.9375, 0.65625, 6.9375, 0.65625], "texture": "#0"},
				"east": {"uv": [6.9375, 0.65625, 6.9375, 0.65625], "texture": "#0"},
				"south": {"uv": [6.9375, 0.65625, 6.9375, 0.65625], "texture": "#0"},
				"west": {"uv": [6.9375, 0.65625, 6.9375, 0.65625], "texture": "#0"},
				"up": {"uv": [6.9375, 0.65625, 6.9375, 0.65625], "texture": "#0"},
				"down": {"uv": [6.9375, 0.65625, 6.9375, 0.65625], "texture": "#0"}
			}
		},
		{
			"name": "hexadecagon",
			"from": [7.85939, 3.92605, 13.45567],
			"to": [8.14061, 4.0119, 15.28145],
			"rotation": {"angle": 0, "axis": "x", "origin": [8, 3.96897, 13.86856]},
			"faces": {
				"north": {"uv": [6.9375, 0.65625, 6.9375, 0.65625], "texture": "#0"},
				"east": {"uv": [6.9375, 0.65625, 6.9375, 0.65625], "texture": "#0"},
				"south": {"uv": [6.9375, 0.65625, 6.9375, 0.65625], "texture": "#0"},
				"west": {"uv": [6.9375, 0.65625, 6.9375, 0.65625], "texture": "#0"},
				"up": {"uv": [6.9375, 0.65625, 6.9375, 0.65625], "texture": "#0"},
				"down": {"uv": [6.9375, 0.65625, 6.9375, 0.65625], "texture": "#0"}
			}
		},
		{
			"name": "hexadecagon",
			"from": [7.65439, -3.67099, 12.99224],
			"to": [8.34561, -2.67513, 14.41904],
			"rotation": {"angle": -45, "axis": "x", "origin": [8.1, 4.65781, 4.19462]},
			"faces": {
				"north": {"uv": [6.9375, 0.65625, 6.9375, 0.65625], "texture": "#0"},
				"east": {"uv": [6.9375, 0.65625, 6.9375, 0.65625], "texture": "#0"},
				"south": {"uv": [6.9375, 0.65625, 6.9375, 0.65625], "texture": "#0"},
				"west": {"uv": [6.9375, 0.65625, 6.9375, 0.65625], "texture": "#0"},
				"up": {"uv": [6.9375, 0.65625, 6.9375, 0.65625], "texture": "#0"},
				"down": {"uv": [6.9375, 0.65625, 6.9375, 0.65625], "texture": "#0"}
			}
		},
		{
			"name": "hexadecagon",
			"from": [7.61439, 4.29448, 12.55835],
			"to": [8.38561, 5.98706, 12.92258],
			"rotation": {"angle": 0, "axis": "x", "origin": [8, 4.65781, 4.19462]},
			"faces": {
				"north": {"uv": [6.9375, 0.65625, 6.9375, 0.65625], "texture": "#0"},
				"east": {"uv": [6.9375, 0.65625, 6.9375, 0.65625], "texture": "#0"},
				"south": {"uv": [6.9375, 0.65625, 6.9375, 0.65625], "texture": "#0"},
				"west": {"uv": [6.9375, 0.65625, 6.9375, 0.65625], "texture": "#0"},
				"up": {"uv": [6.9375, 0.65625, 6.9375, 0.65625], "texture": "#0"},
				"down": {"uv": [6.9375, 0.65625, 6.9375, 0.65625], "texture": "#0"}
			}
		},
		{
			"name": "aaa_0",
			"from": [7.66125, 1.59891, 15.44469],
			"to": [8.33875, 5.29141, 17.00469],
			"rotation": {"angle": -22.5, "axis": "x", "origin": [8, 3.54516, 15.77469]},
			"faces": {
				"north": {"uv": [6.9375, 0.65625, 6.9375, 0.65625], "texture": "#0"},
				"east": {"uv": [6.9375, 0.65625, 6.9375, 0.65625], "texture": "#0"},
				"south": {"uv": [6.9375, 0.65625, 6.9375, 0.65625], "texture": "#0"},
				"west": {"uv": [6.9375, 0.65625, 6.9375, 0.65625], "texture": "#0"},
				"up": {"uv": [6.9375, 0.65625, 6.9375, 0.65625], "texture": "#0"},
				"down": {"uv": [6.9375, 0.65625, 6.9375, 0.65625], "texture": "#0"}
			}
		},
		{
			"name": "hexadecagon",
			"from": [7.79388, 7.72985, 2.22493],
			"to": [8.20612, 7.87203, 26.02493],
			"rotation": {"angle": 0, "axis": "z", "origin": [7.8, 4.80078, 3.89462]},
			"faces": {
				"north": {"uv": [6.9375, 0.65625, 6.9375, 0.65625], "texture": "#0"},
				"east": {"uv": [6.9375, 0.65625, 6.9375, 0.65625], "texture": "#0"},
				"south": {"uv": [6.9375, 0.65625, 6.9375, 0.65625], "texture": "#0"},
				"west": {"uv": [6.9375, 0.65625, 6.9375, 0.65625], "texture": "#0"},
				"up": {"uv": [6.9375, 0.65625, 6.9375, 0.65625], "texture": "#0"},
				"down": {"uv": [6.9375, 0.65625, 6.9375, 0.65625], "texture": "#0"}
			}
		},
		{
			"name": "hexadecagon",
			"from": [7.69388, 7.66656, -0.27507],
			"to": [8.30612, 7.98765, 1.87024],
			"rotation": {"angle": 0, "axis": "z", "origin": [8.1, 7.93766, -0.22507]},
			"faces": {
				"north": {"uv": [6.9375, 0.65625, 6.9375, 0.65625], "texture": "#0"},
				"east": {"uv": [6.9375, 0.65625, 6.9375, 0.65625], "texture": "#0"},
				"south": {"uv": [6.9375, 0.65625, 6.9375, 0.65625], "texture": "#0"},
				"west": {"uv": [6.9375, 0.65625, 6.9375, 0.65625], "texture": "#0"},
				"up": {"uv": [6.9375, 0.65625, 6.9375, 0.65625], "texture": "#0"},
				"down": {"uv": [6.9375, 0.65625, 6.9375, 0.65625], "texture": "#0"}
			}
		},
		{
			"name": "hexadecagon",
			"from": [7.76322, 5.18234, 2.21305],
			"to": [8.23678, 5.42234, 2.81806],
			"rotation": {"angle": 0, "axis": "z", "origin": [7.95117, 5.85234, 2.46165]},
			"faces": {
				"north": {"uv": [6.9375, 0.71875, 6.9375, 0.71875], "texture": "#0"},
				"east": {"uv": [6.9375, 0.71875, 6.9375, 0.71875], "texture": "#0"},
				"south": {"uv": [6.9375, 0.71875, 6.9375, 0.71875], "texture": "#0"},
				"west": {"uv": [6.9375, 0.71875, 6.9375, 0.71875], "texture": "#0"},
				"up": {"uv": [6.9375, 0.71875, 6.9375, 0.71875], "texture": "#0"},
				"down": {"uv": [6.9375, 0.71875, 6.9375, 0.71875], "texture": "#0"}
			}
		},
		{
			"name": "hexadecagon",
			"from": [7.71439, 5.68234, 2.15836],
			"to": [8.28561, 6.22234, 2.86493],
			"rotation": {"angle": 0, "axis": "z", "origin": [8, 6.65234, 2.46165]},
			"faces": {
				"north": {"uv": [6.9375, 0.71875, 6.9375, 0.71875], "texture": "#0"},
				"east": {"uv": [6.9375, 0.71875, 6.9375, 0.71875], "texture": "#0"},
				"south": {"uv": [6.9375, 0.71875, 6.9375, 0.71875], "texture": "#0"},
				"west": {"uv": [6.9375, 0.71875, 6.9375, 0.71875], "texture": "#0"},
				"up": {"uv": [6.9375, 0.71875, 6.9375, 0.71875], "texture": "#0"},
				"down": {"uv": [6.9375, 0.71875, 6.9375, 0.71875], "texture": "#0"}
			}
		},
		{
			"name": "hexadecagon",
			"from": [7.81439, 5.4214, 2.25836],
			"to": [8.18561, 5.68406, 2.76493],
			"rotation": {"angle": 0, "axis": "z", "origin": [8, 6.35234, 2.46165]},
			"faces": {
				"north": {"uv": [6.9375, 0.71875, 6.9375, 0.71875], "texture": "#0"},
				"east": {"uv": [6.9375, 0.71875, 6.9375, 0.71875], "texture": "#0"},
				"south": {"uv": [6.9375, 0.71875, 6.9375, 0.71875], "texture": "#0"},
				"west": {"uv": [6.9375, 0.71875, 6.9375, 0.71875], "texture": "#0"},
				"up": {"uv": [6.9375, 0.71875, 6.9375, 0.71875], "texture": "#0"},
				"down": {"uv": [6.9375, 0.71875, 6.9375, 0.71875], "texture": "#0"}
			}
		},
		{
			"name": "hexadecagon",
			"from": [7.47611, -1.09422, 2.15836],
			"to": [7.54733, 5.14578, 2.86493],
			"rotation": {"angle": -22.5, "axis": "z", "origin": [7.76172, 4.47578, 2.51165]},
			"faces": {
				"north": {"uv": [6.9375, 0.71875, 6.9375, 0.71875], "texture": "#0"},
				"east": {"uv": [6.9375, 0.71875, 6.9375, 0.71875], "texture": "#0"},
				"south": {"uv": [6.9375, 0.71875, 6.9375, 0.71875], "texture": "#0"},
				"west": {"uv": [6.9375, 0.71875, 6.9375, 0.71875], "texture": "#0"},
				"up": {"uv": [6.9375, 0.71875, 6.9375, 0.71875], "texture": "#0"},
				"down": {"uv": [6.9375, 0.71875, 6.9375, 0.71875], "texture": "#0"}
			}
		},
		{
			"name": "hexadecagon",
			"from": [7.37611, -1.39422, 2.45836],
			"to": [7.64733, 5.14578, 2.56493],
			"rotation": {"angle": -22.5, "axis": "z", "origin": [7.76172, 4.47578, 2.51165]},
			"faces": {
				"north": {"uv": [6.9375, 0.71875, 6.9375, 0.71875], "texture": "#0"},
				"east": {"uv": [6.9375, 0.71875, 6.9375, 0.71875], "texture": "#0"},
				"south": {"uv": [6.9375, 0.71875, 6.9375, 0.71875], "texture": "#0"},
				"west": {"uv": [6.9375, 0.71875, 6.9375, 0.71875], "texture": "#0"},
				"up": {"uv": [6.9375, 0.71875, 6.9375, 0.71875], "texture": "#0"},
				"down": {"uv": [6.9375, 0.71875, 6.9375, 0.71875], "texture": "#0"}
			}
		},
		{
			"name": "hexadecagon",
			"from": [4.90016, -0.90064, 1.95836],
			"to": [5.77138, -0.76064, 3.06493],
			"rotation": {"angle": 0, "axis": "z", "origin": [6.53577, 2.36936, 2.51165]},
			"faces": {
				"north": {"uv": [6.9375, 0.71875, 6.9375, 0.71875], "texture": "#0"},
				"east": {"uv": [6.9375, 0.71875, 6.9375, 0.71875], "texture": "#0"},
				"south": {"uv": [6.9375, 0.71875, 6.9375, 0.71875], "texture": "#0"},
				"west": {"uv": [6.9375, 0.71875, 6.9375, 0.71875], "texture": "#0"},
				"up": {"uv": [6.9375, 0.71875, 6.9375, 0.71875], "texture": "#0"},
				"down": {"uv": [6.9375, 0.71875, 6.9375, 0.71875], "texture": "#0"}
			}
		},
		{
			"name": "hexadecagon",
			"from": [8.45267, -1.09422, 2.15836],
			"to": [8.52389, 5.14578, 2.86493],
			"rotation": {"angle": 22.5, "axis": "z", "origin": [8.23828, 4.47578, 2.51165]},
			"faces": {
				"north": {"uv": [6.9375, 0.71875, 6.9375, 0.71875], "texture": "#0"},
				"east": {"uv": [6.9375, 0.71875, 6.9375, 0.71875], "texture": "#0"},
				"south": {"uv": [6.9375, 0.71875, 6.9375, 0.71875], "texture": "#0"},
				"west": {"uv": [6.9375, 0.71875, 6.9375, 0.71875], "texture": "#0"},
				"up": {"uv": [6.9375, 0.71875, 6.9375, 0.71875], "texture": "#0"},
				"down": {"uv": [6.9375, 0.71875, 6.9375, 0.71875], "texture": "#0"}
			}
		},
		{
			"name": "hexadecagon",
			"from": [8.35267, -1.39422, 2.45836],
			"to": [8.62389, 5.14578, 2.56493],
			"rotation": {"angle": 22.5, "axis": "z", "origin": [8.23828, 4.47578, 2.51165]},
			"faces": {
				"north": {"uv": [6.9375, 0.71875, 6.9375, 0.71875], "texture": "#0"},
				"east": {"uv": [6.9375, 0.71875, 6.9375, 0.71875], "texture": "#0"},
				"south": {"uv": [6.9375, 0.71875, 6.9375, 0.71875], "texture": "#0"},
				"west": {"uv": [6.9375, 0.71875, 6.9375, 0.71875], "texture": "#0"},
				"up": {"uv": [6.9375, 0.71875, 6.9375, 0.71875], "texture": "#0"},
				"down": {"uv": [6.9375, 0.71875, 6.9375, 0.71875], "texture": "#0"}
			}
		},
		{
			"name": "hexadecagon",
			"from": [10.22862, -0.90064, 1.95836],
			"to": [11.09984, -0.76064, 3.06493],
			"rotation": {"angle": 0, "axis": "z", "origin": [9.46423, 2.36936, 2.51165]},
			"faces": {
				"north": {"uv": [6.9375, 0.71875, 6.9375, 0.71875], "texture": "#0"},
				"east": {"uv": [6.9375, 0.71875, 6.9375, 0.71875], "texture": "#0"},
				"south": {"uv": [6.9375, 0.71875, 6.9375, 0.71875], "texture": "#0"},
				"west": {"uv": [6.9375, 0.71875, 6.9375, 0.71875], "texture": "#0"},
				"up": {"uv": [6.9375, 0.71875, 6.9375, 0.71875], "texture": "#0"},
				"down": {"uv": [6.9375, 0.71875, 6.9375, 0.71875], "texture": "#0"}
			}
		},
		{
			"name": "hexadecagon",
			"from": [7.81205, 3.78234, 24.35836],
			"to": [8.18795, 5.97234, 24.92493],
			"rotation": {"angle": 0, "axis": "z", "origin": [7.80234, 3.45781, 3.89462]},
			"faces": {
				"north": {"uv": [6.9375, 0.71875, 6.9375, 0.71875], "texture": "#0"},
				"east": {"uv": [6.9375, 0.71875, 6.9375, 0.71875], "texture": "#0"},
				"south": {"uv": [6.9375, 0.71875, 6.9375, 0.71875], "texture": "#0"},
				"west": {"uv": [6.9375, 0.71875, 6.9375, 0.71875], "texture": "#0"},
				"up": {"uv": [6.9375, 0.71875, 6.9375, 0.71875], "texture": "#0"},
				"down": {"uv": [6.9375, 0.71875, 6.9375, 0.71875], "texture": "#0"}
			}
		},
		{
			"name": "hexadecagon",
			"from": [7.61205, 3.58234, 24.92086],
			"to": [8.38795, 6.57234, 25.48743],
			"rotation": {"angle": 0, "axis": "z", "origin": [7.90234, 3.45781, 4.45712]},
			"faces": {
				"north": {"uv": [6.9375, 0.71875, 6.9375, 0.71875], "texture": "#0"},
				"east": {"uv": [6.9375, 0.71875, 6.9375, 0.71875], "texture": "#0"},
				"south": {"uv": [6.9375, 0.71875, 6.9375, 0.71875], "texture": "#0"},
				"west": {"uv": [6.9375, 0.71875, 6.9375, 0.71875], "texture": "#0"},
				"up": {"uv": [6.9375, 0.71875, 6.9375, 0.71875], "texture": "#0"},
				"down": {"uv": [6.9375, 0.71875, 6.9375, 0.71875], "texture": "#0"}
			}
		},
		{
			"name": "hexadecagon",
			"from": [7.61205, 3.57843, 24.89196],
			"to": [8.38795, 4.67859, 25.34524],
			"rotation": {"angle": -22.5, "axis": "x", "origin": [8, 5.07343, 25.17524]},
			"faces": {
				"north": {"uv": [6.9375, 0.71875, 6.9375, 0.71875], "texture": "#0"},
				"east": {"uv": [6.9375, 0.71875, 6.9375, 0.71875], "texture": "#0"},
				"south": {"uv": [6.9375, 0.71875, 6.9375, 0.71875], "texture": "#0"},
				"west": {"uv": [6.9375, 0.71875, 6.9375, 0.71875], "texture": "#0"},
				"up": {"uv": [6.9375, 0.71875, 6.9375, 0.71875], "texture": "#0"},
				"down": {"uv": [6.9375, 0.71875, 6.9375, 0.71875], "texture": "#0"}
			}
		},
		{
			"name": "hexadecagon",
			"from": [7.61205, 5.13894, 25.19616],
			"to": [8.38795, 6.6391, 25.76273],
			"rotation": {"angle": 22.5, "axis": "x", "origin": [8, 5.83902, 25.47944]},
			"faces": {
				"north": {"uv": [6.9375, 0.71875, 6.9375, 0.71875], "texture": "#0"},
				"east": {"uv": [6.9375, 0.71875, 6.9375, 0.71875], "texture": "#0"},
				"south": {"uv": [6.9375, 0.71875, 6.9375, 0.71875], "texture": "#0"},
				"west": {"uv": [6.9375, 0.71875, 6.9375, 0.71875], "texture": "#0"},
				"up": {"uv": [6.9375, 0.71875, 6.9375, 0.71875], "texture": "#0"},
				"down": {"uv": [6.9375, 0.71875, 6.9375, 0.71875], "texture": "#0"}
			}
		},
		{
			"name": "hexadecagon",
			"from": [7.46166, 6.47889, 25.48092],
			"to": [8.53834, 7.14311, 26.04749],
			"rotation": {"angle": 0, "axis": "x", "origin": [7.99805, 6.38912, 25.7642]},
			"faces": {
				"north": {"uv": [6.9375, 0.71875, 6.9375, 0.71875], "texture": "#0"},
				"east": {"uv": [6.9375, 0.71875, 6.9375, 0.71875], "texture": "#0"},
				"south": {"uv": [6.9375, 0.71875, 6.9375, 0.71875], "texture": "#0"},
				"west": {"uv": [6.9375, 0.71875, 6.9375, 0.71875], "texture": "#0"},
				"up": {"uv": [6.9375, 0.71875, 6.9375, 0.71875], "texture": "#0"},
				"down": {"uv": [6.9375, 0.71875, 6.9375, 0.71875], "texture": "#0"}
			}
		},
		{
			"name": "hexadecagon",
			"from": [7.66205, 4.28234, 20.55836],
			"to": [8.33795, 6.17234, 20.99993],
			"rotation": {"angle": -22.5, "axis": "x", "origin": [8.1, 5.22734, 20.84165]},
			"faces": {
				"north": {"uv": [6.9375, 0.71875, 6.9375, 0.71875], "texture": "#0"},
				"east": {"uv": [6.9375, 0.71875, 6.9375, 0.71875], "texture": "#0"},
				"south": {"uv": [6.9375, 0.71875, 6.9375, 0.71875], "texture": "#0"},
				"west": {"uv": [6.9375, 0.71875, 6.9375, 0.71875], "texture": "#0"},
				"up": {"uv": [6.9375, 0.71875, 6.9375, 0.71875], "texture": "#0"},
				"down": {"uv": [6.9375, 0.71875, 6.9375, 0.71875], "texture": "#0"}
			}
		},
		{
			"name": "hexadecagon",
			"from": [7.66205, 4.03577, 20.68812],
			"to": [8.33795, 4.92577, 21.12969],
			"rotation": {"angle": 22.5, "axis": "x", "origin": [8, 3.98077, 20.9089]},
			"faces": {
				"north": {"uv": [6.9375, 0.71875, 6.9375, 0.71875], "texture": "#0"},
				"east": {"uv": [6.9375, 0.71875, 6.9375, 0.71875], "texture": "#0"},
				"south": {"uv": [6.9375, 0.71875, 6.9375, 0.71875], "texture": "#0"},
				"west": {"uv": [6.9375, 0.71875, 6.9375, 0.71875], "texture": "#0"},
				"up": {"uv": [6.9375, 0.71875, 6.9375, 0.71875], "texture": "#0"},
				"down": {"uv": [6.9375, 0.71875, 6.9375, 0.71875], "texture": "#0"}
			}
		},
		{
			"name": "hexadecagon",
			"from": [7.71205, 3.72404, 22.20844],
			"to": [8.28795, 4.45936, 24.92969],
			"rotation": {"angle": 22.5, "axis": "x", "origin": [7.85, 4.04483, 23.58469]},
			"faces": {
				"north": {"uv": [6.9375, 0.71875, 6.9375, 0.71875], "texture": "#0"},
				"east": {"uv": [6.9375, 0.71875, 6.9375, 0.71875], "texture": "#0"},
				"south": {"uv": [6.9375, 0.71875, 6.9375, 0.71875], "texture": "#0"},
				"west": {"uv": [6.9375, 0.71875, 6.9375, 0.71875], "texture": "#0"},
				"up": {"uv": [6.9375, 0.71875, 6.9375, 0.71875], "texture": "#0"},
				"down": {"uv": [6.9375, 0.71875, 6.9375, 0.71875], "texture": "#0"}
			}
		},
		{
			"name": "hexadecagon",
			"from": [7.81205, 3.82404, 24.93187],
			"to": [8.18795, 4.32811, 25.02969],
			"rotation": {"angle": 22.5, "axis": "x", "origin": [7.85, 4.04483, 23.58469]},
			"faces": {
				"north": {"uv": [6.9375, 0.71875, 6.9375, 0.71875], "texture": "#0"},
				"east": {"uv": [6.9375, 0.71875, 6.9375, 0.71875], "texture": "#0"},
				"south": {"uv": [6.9375, 0.71875, 6.9375, 0.71875], "texture": "#0"},
				"west": {"uv": [6.9375, 0.71875, 6.9375, 0.71875], "texture": "#0"},
				"up": {"uv": [6.9375, 0.71875, 6.9375, 0.71875], "texture": "#0"},
				"down": {"uv": [6.9375, 0.71875, 6.9375, 0.71875], "texture": "#0"}
			}
		},
		{
			"name": "hexadecagon",
			"from": [7.71205, 4.24056, 20.9848],
			"to": [8.28795, 4.95479, 22.47324],
			"rotation": {"angle": 0, "axis": "x", "origin": [8, 4.61135, 21.1298]},
			"faces": {
				"north": {"uv": [6.9375, 0.71875, 6.9375, 0.71875], "texture": "#0"},
				"east": {"uv": [6.9375, 0.71875, 6.9375, 0.71875], "texture": "#0"},
				"south": {"uv": [6.9375, 0.71875, 6.9375, 0.71875], "texture": "#0"},
				"west": {"uv": [6.9375, 0.71875, 6.9375, 0.71875], "texture": "#0"},
				"up": {"uv": [6.9375, 0.71875, 6.9375, 0.71875], "texture": "#0"},
				"down": {"uv": [6.9375, 0.71875, 6.9375, 0.71875], "texture": "#0"}
			}
		},
		{
			"name": "hexadecagon",
			"from": [5.89917, 5.72304, 24.92493],
			"to": [6.44276, 6.2591, 25.70462],
			"rotation": {"angle": -45, "axis": "z", "origin": [8, 4.65781, 23.59462]},
			"faces": {
				"north": {"uv": [6.9375, 0.65625, 6.9375, 0.65625], "texture": "#0"},
				"east": {"uv": [6.9375, 0.65625, 6.9375, 0.65625], "texture": "#0"},
				"south": {"uv": [6.9375, 0.65625, 6.9375, 0.65625], "texture": "#0"},
				"west": {"uv": [6.9375, 0.65625, 6.9375, 0.65625], "texture": "#0"},
				"up": {"uv": [6.9375, 0.65625, 6.9375, 0.65625], "texture": "#0"},
				"down": {"uv": [6.9375, 0.65625, 6.9375, 0.65625], "texture": "#0"}
			}
		},
		{
			"name": "hexadecagon",
			"from": [9.55724, 5.72304, 24.92493],
			"to": [10.10083, 6.2591, 25.70462],
			"rotation": {"angle": 45, "axis": "z", "origin": [8, 4.65781, 23.59462]},
			"faces": {
				"north": {"uv": [6.9375, 0.65625, 6.9375, 0.65625], "texture": "#0"},
				"east": {"uv": [6.9375, 0.65625, 6.9375, 0.65625], "texture": "#0"},
				"south": {"uv": [6.9375, 0.65625, 6.9375, 0.65625], "texture": "#0"},
				"west": {"uv": [6.9375, 0.65625, 6.9375, 0.65625], "texture": "#0"},
				"up": {"uv": [6.9375, 0.65625, 6.9375, 0.65625], "texture": "#0"},
				"down": {"uv": [6.9375, 0.65625, 6.9375, 0.65625], "texture": "#0"}
			}
		},
		{
			"name": "hexadecagon",
			"from": [7.10478, 6.24465, 24.92493],
			"to": [7.64084, 6.78824, 25.87649],
			"rotation": {"angle": -22.5, "axis": "z", "origin": [8, 4.65781, 23.59462]},
			"faces": {
				"north": {"uv": [6.9375, 0.65625, 6.9375, 0.65625], "texture": "#0"},
				"east": {"uv": [6.9375, 0.65625, 6.9375, 0.65625], "texture": "#0"},
				"south": {"uv": [6.9375, 0.65625, 6.9375, 0.65625], "texture": "#0"},
				"west": {"uv": [6.9375, 0.65625, 6.9375, 0.65625], "texture": "#0"},
				"up": {"uv": [6.9375, 0.65625, 6.9375, 0.65625], "texture": "#0"},
				"down": {"uv": [6.9375, 0.65625, 6.9375, 0.65625], "texture": "#0"}
			}
		},
		{
			"name": "hexadecagon",
			"from": [8.35916, 6.24465, 24.92493],
			"to": [8.89522, 6.78824, 25.87649],
			"rotation": {"angle": 22.5, "axis": "z", "origin": [8, 4.65781, 23.59462]},
			"faces": {
				"north": {"uv": [6.9375, 0.65625, 6.9375, 0.65625], "texture": "#0"},
				"east": {"uv": [6.9375, 0.65625, 6.9375, 0.65625], "texture": "#0"},
				"south": {"uv": [6.9375, 0.65625, 6.9375, 0.65625], "texture": "#0"},
				"west": {"uv": [6.9375, 0.65625, 6.9375, 0.65625], "texture": "#0"},
				"up": {"uv": [6.9375, 0.65625, 6.9375, 0.65625], "texture": "#0"},
				"down": {"uv": [6.9375, 0.65625, 6.9375, 0.65625], "texture": "#0"}
			}
		},
		{
			"name": "hexadecagon",
			"from": [7.64388, 7.66656, 9.92336],
			"to": [8.35612, 8.38765, 12.96868],
			"rotation": {"angle": 0, "axis": "z", "origin": [7.85, 7.93766, 11.27336]},
			"faces": {
				"north": {"uv": [6.96875, 0.625, 6.96875, 0.625], "texture": "#0"},
				"east": {"uv": [6.96875, 0.625, 6.96875, 0.625], "texture": "#0"},
				"south": {"uv": [6.96875, 0.625, 6.96875, 0.625], "texture": "#0"},
				"west": {"uv": [6.96875, 0.625, 6.96875, 0.625], "texture": "#0"},
				"up": {"uv": [6.96875, 0.625, 6.96875, 0.625], "texture": "#0"},
				"down": {"uv": [6.96875, 0.625, 6.96875, 0.625], "texture": "#0"}
			}
		},
		{
			"name": "hexadecagon",
			"from": [7.55, 7.80641, 11.98598],
			"to": [8.45, 8.32641, 12.48941],
			"rotation": {"angle": 0, "axis": "x", "origin": [8, 8.06641, 12.23769]},
			"faces": {
				"north": {"uv": [6.9375, 0.71875, 6.9375, 0.71875], "texture": "#0"},
				"east": {"uv": [6.9375, 0.71875, 6.9375, 0.71875], "texture": "#0"},
				"south": {"uv": [6.9375, 0.71875, 6.9375, 0.71875], "texture": "#0"},
				"west": {"uv": [6.9375, 0.71875, 6.9375, 0.71875], "texture": "#0"},
				"up": {"uv": [6.9375, 0.71875, 6.9375, 0.71875], "texture": "#0"},
				"down": {"uv": [6.9375, 0.71875, 6.9375, 0.71875], "texture": "#0"}
			}
		},
		{
			"name": "hexadecagon",
			"from": [7.55, 7.80641, 10.18598],
			"to": [8.45, 8.32641, 10.68941],
			"rotation": {"angle": 0, "axis": "x", "origin": [8, 8.06641, 10.43769]},
			"faces": {
				"north": {"uv": [6.9375, 0.71875, 6.9375, 0.71875], "texture": "#0"},
				"east": {"uv": [6.9375, 0.71875, 6.9375, 0.71875], "texture": "#0"},
				"south": {"uv": [6.9375, 0.71875, 6.9375, 0.71875], "texture": "#0"},
				"west": {"uv": [6.9375, 0.71875, 6.9375, 0.71875], "texture": "#0"},
				"up": {"uv": [6.9375, 0.71875, 6.9375, 0.71875], "texture": "#0"},
				"down": {"uv": [6.9375, 0.71875, 6.9375, 0.71875], "texture": "#0"}
			}
		},
		{
			"name": "hexadecagon",
			"from": [7.44246, 8.308, 10.02363],
			"to": [8.55754, 8.5456, 11.82363],
			"rotation": {"angle": 0, "axis": "z", "origin": [8, 9.1, 10.92363]},
			"faces": {
				"north": {"uv": [6.9375, 0.625, 6.9375, 0.625], "texture": "#0"},
				"east": {"uv": [6.9375, 0.625, 6.9375, 0.625], "texture": "#0"},
				"south": {"uv": [6.9375, 0.625, 6.9375, 0.625], "texture": "#0"},
				"west": {"uv": [6.9375, 0.625, 6.9375, 0.625], "texture": "#0"},
				"up": {"uv": [6.9375, 0.625, 6.9375, 0.625], "texture": "#0"},
				"down": {"uv": [6.9375, 0.625, 6.9375, 0.625], "texture": "#0"}
			}
		},
		{
			"name": "hexadecagon",
			"from": [7.44246, 9.6544, 10.02363],
			"to": [8.55754, 9.892, 11.82363],
			"rotation": {"angle": 0, "axis": "z", "origin": [8, 9.1, 10.92363]},
			"faces": {
				"north": {"uv": [6.9375, 0.625, 6.9375, 0.625], "texture": "#0"},
				"east": {"uv": [6.9375, 0.625, 6.9375, 0.625], "texture": "#0"},
				"south": {"uv": [6.9375, 0.625, 6.9375, 0.625], "texture": "#0"},
				"west": {"uv": [6.9375, 0.625, 6.9375, 0.625], "texture": "#0"},
				"up": {"uv": [6.9375, 0.625, 6.9375, 0.625], "texture": "#0"},
				"down": {"uv": [6.9375, 0.625, 6.9375, 0.625], "texture": "#0"}
			}
		},
		{
			"name": "hexadecagon",
			"from": [7.64246, 9.6544, 10.92363],
			"to": [8.35754, 10.192, 11.72363],
			"rotation": {"angle": 0, "axis": "z", "origin": [8, 9.1, 10.92363]},
			"faces": {
				"north": {"uv": [6.9375, 0.625, 6.9375, 0.625], "texture": "#0"},
				"east": {"uv": [6.9375, 0.625, 6.9375, 0.625], "texture": "#0"},
				"south": {"uv": [6.9375, 0.625, 6.9375, 0.625], "texture": "#0"},
				"west": {"uv": [6.9375, 0.625, 6.9375, 0.625], "texture": "#0"},
				"up": {"uv": [6.9375, 0.625, 6.9375, 0.625], "texture": "#0"},
				"down": {"uv": [6.9375, 0.625, 6.9375, 0.625], "texture": "#0"}
			}
		},
		{
			"name": "hexadecagon",
			"from": [7.79246, 9.5544, 11.62363],
			"to": [8.20754, 9.992, 12.92363],
			"rotation": {"angle": 0, "axis": "z", "origin": [7.85, 9, 10.92363]},
			"faces": {
				"north": {"uv": [6.9375, 0.625, 6.9375, 0.625], "texture": "#0"},
				"east": {"uv": [6.9375, 0.625, 6.9375, 0.625], "texture": "#0"},
				"south": {"uv": [6.9375, 0.625, 6.9375, 0.625], "texture": "#0"},
				"west": {"uv": [6.9375, 0.625, 6.9375, 0.625], "texture": "#0"},
				"up": {"uv": [6.9375, 0.625, 6.9375, 0.625], "texture": "#0"},
				"down": {"uv": [6.9375, 0.625, 6.9375, 0.625], "texture": "#0"}
			}
		},
		{
			"name": "hexadecagon",
			"from": [7.69246, 9.5544, 12.92363],
			"to": [8.30754, 9.992, 13.22363],
			"rotation": {"angle": 0, "axis": "z", "origin": [7.85, 9, 11.22363]},
			"faces": {
				"north": {"uv": [6.9375, 0.625, 6.9375, 0.625], "texture": "#0"},
				"east": {"uv": [6.9375, 0.625, 6.9375, 0.625], "texture": "#0"},
				"south": {"uv": [6.9375, 0.625, 6.9375, 0.625], "texture": "#0"},
				"west": {"uv": [6.9375, 0.625, 6.9375, 0.625], "texture": "#0"},
				"up": {"uv": [6.9375, 0.625, 6.9375, 0.625], "texture": "#0"},
				"down": {"uv": [6.9375, 0.625, 6.9375, 0.625], "texture": "#0"}
			}
		},
		{
			"name": "hexadecagon",
			"from": [7.82762, 9.9919, 12.92363],
			"to": [8.16848, 10.1295, 13.22363],
			"rotation": {"angle": 0, "axis": "z", "origin": [7.85, 9.4375, 11.22363]},
			"faces": {
				"north": {"uv": [6.9375, 0.625, 6.9375, 0.625], "texture": "#0"},
				"east": {"uv": [6.9375, 0.625, 6.9375, 0.625], "texture": "#0"},
				"south": {"uv": [6.9375, 0.625, 6.9375, 0.625], "texture": "#0"},
				"west": {"uv": [6.9375, 0.625, 6.9375, 0.625], "texture": "#0"},
				"up": {"uv": [6.9375, 0.625, 6.9375, 0.625], "texture": "#0"},
				"down": {"uv": [6.9375, 0.625, 6.9375, 0.625], "texture": "#0"}
			}
		},
		{
			"name": "hexadecagon",
			"from": [7.77957, 9.8919, 12.72363],
			"to": [8.22043, 10.167, 13.02363],
			"rotation": {"angle": 0, "axis": "z", "origin": [7.90195, 9.4375, 11.02363]},
			"faces": {
				"north": {"uv": [6.9375, 0.625, 6.9375, 0.625], "texture": "#0"},
				"east": {"uv": [6.9375, 0.625, 6.9375, 0.625], "texture": "#0"},
				"south": {"uv": [6.9375, 0.625, 6.9375, 0.625], "texture": "#0"},
				"west": {"uv": [6.9375, 0.625, 6.9375, 0.625], "texture": "#0"},
				"up": {"uv": [6.9375, 0.625, 6.9375, 0.625], "texture": "#0"},
				"down": {"uv": [6.9375, 0.625, 6.9375, 0.625], "texture": "#0"}
			}
		},
		{
			"name": "hexadecagon",
			"from": [7.208, 8.54246, 10.02363],
			"to": [7.4456, 9.65754, 11.82363],
			"rotation": {"angle": 0, "axis": "z", "origin": [8, 9.1, 10.92363]},
			"faces": {
				"north": {"uv": [6.9375, 0.625, 6.9375, 0.625], "texture": "#0"},
				"east": {"uv": [6.9375, 0.625, 6.9375, 0.625], "texture": "#0"},
				"south": {"uv": [6.9375, 0.625, 6.9375, 0.625], "texture": "#0"},
				"west": {"uv": [6.9375, 0.625, 6.9375, 0.625], "texture": "#0"},
				"up": {"uv": [6.9375, 0.625, 6.9375, 0.625], "texture": "#0"},
				"down": {"uv": [6.9375, 0.625, 6.9375, 0.625], "texture": "#0"}
			}
		},
		{
			"name": "hexadecagon",
			"from": [8.5544, 8.54246, 10.02363],
			"to": [8.792, 9.65754, 11.82363],
			"rotation": {"angle": 0, "axis": "z", "origin": [8, 9.1, 10.92363]},
			"faces": {
				"north": {"uv": [6.9375, 0.625, 6.9375, 0.625], "texture": "#0"},
				"east": {"uv": [6.9375, 0.625, 6.9375, 0.625], "texture": "#0"},
				"south": {"uv": [6.9375, 0.625, 6.9375, 0.625], "texture": "#0"},
				"west": {"uv": [6.9375, 0.625, 6.9375, 0.625], "texture": "#0"},
				"up": {"uv": [6.9375, 0.625, 6.9375, 0.625], "texture": "#0"},
				"down": {"uv": [6.9375, 0.625, 6.9375, 0.625], "texture": "#0"}
			}
		},
		{
			"name": "hexadecagon",
			"from": [7.31568, 8.17336, 8.12363],
			"to": [8.68432, 8.45135, 9.32363],
			"rotation": {"angle": 0, "axis": "z", "origin": [8, 9.1, 8.72363]},
			"faces": {
				"north": {"uv": [6.9375, 0.53125, 6.9375, 0.53125], "texture": "#0"},
				"east": {"uv": [6.9375, 0.53125, 6.9375, 0.53125], "texture": "#0"},
				"south": {"uv": [6.9375, 0.53125, 6.9375, 0.53125], "texture": "#0"},
				"west": {"uv": [6.9375, 0.53125, 6.9375, 0.53125], "texture": "#0"},
				"up": {"uv": [6.9375, 0.53125, 6.9375, 0.53125], "texture": "#0"},
				"down": {"uv": [6.9375, 0.53125, 6.9375, 0.53125], "texture": "#0"}
			}
		},
		{
			"name": "hexadecagon",
			"from": [7.31568, 9.74865, 8.12363],
			"to": [8.68432, 10.02664, 9.32363],
			"rotation": {"angle": 0, "axis": "z", "origin": [8, 9.1, 8.72363]},
			"faces": {
				"north": {"uv": [6.9375, 0.53125, 6.9375, 0.53125], "texture": "#0"},
				"east": {"uv": [6.9375, 0.53125, 6.9375, 0.53125], "texture": "#0"},
				"south": {"uv": [6.9375, 0.53125, 6.9375, 0.53125], "texture": "#0"},
				"west": {"uv": [6.9375, 0.53125, 6.9375, 0.53125], "texture": "#0"},
				"up": {"uv": [6.9375, 0.53125, 6.9375, 0.53125], "texture": "#0"},
				"down": {"uv": [6.9375, 0.53125, 6.9375, 0.53125], "texture": "#0"}
			}
		},
		{
			"name": "hexadecagon",
			"from": [7.07336, 8.41568, 8.12363],
			"to": [7.35135, 9.78432, 9.32363],
			"rotation": {"angle": 0, "axis": "z", "origin": [8, 9.1, 8.72363]},
			"faces": {
				"north": {"uv": [6.9375, 0.53125, 6.9375, 0.53125], "texture": "#0"},
				"east": {"uv": [6.9375, 0.53125, 6.9375, 0.53125], "texture": "#0"},
				"south": {"uv": [6.9375, 0.53125, 6.9375, 0.53125], "texture": "#0"},
				"west": {"uv": [6.9375, 0.53125, 6.9375, 0.53125], "texture": "#0"},
				"up": {"uv": [6.9375, 0.53125, 6.9375, 0.53125], "texture": "#0"},
				"down": {"uv": [6.9375, 0.53125, 6.9375, 0.53125], "texture": "#0"}
			}
		},
		{
			"name": "hexadecagon",
			"from": [8.64865, 8.41568, 8.12363],
			"to": [8.92664, 9.78432, 9.32363],
			"rotation": {"angle": 0, "axis": "z", "origin": [8, 9.1, 8.72363]},
			"faces": {
				"north": {"uv": [6.9375, 0.53125, 6.9375, 0.53125], "texture": "#0"},
				"east": {"uv": [6.9375, 0.53125, 6.9375, 0.53125], "texture": "#0"},
				"south": {"uv": [6.9375, 0.53125, 6.9375, 0.53125], "texture": "#0"},
				"west": {"uv": [6.9375, 0.53125, 6.9375, 0.53125], "texture": "#0"},
				"up": {"uv": [6.9375, 0.53125, 6.9375, 0.53125], "texture": "#0"},
				"down": {"uv": [6.9375, 0.53125, 6.9375, 0.53125], "texture": "#0"}
			}
		},
		{
			"name": "hexadecagon",
			"from": [7.35506, 8.37136, 9.31816],
			"to": [8.64494, 8.58995, 10.02363],
			"rotation": {"angle": 0, "axis": "z", "origin": [8, 9.1, 9.67676]},
			"faces": {
				"north": {"uv": [6.9375, 0.59375, 6.9375, 0.59375], "texture": "#0"},
				"east": {"uv": [6.9375, 0.59375, 6.9375, 0.59375], "texture": "#0"},
				"south": {"uv": [6.9375, 0.59375, 6.9375, 0.59375], "texture": "#0"},
				"west": {"uv": [6.9375, 0.59375, 6.9375, 0.59375], "texture": "#0"},
				"up": {"uv": [6.9375, 0.59375, 6.9375, 0.59375], "texture": "#0"},
				"down": {"uv": [6.9375, 0.59375, 6.9375, 0.59375], "texture": "#0"}
			}
		},
		{
			"name": "hexadecagon",
			"from": [7.35506, 9.61005, 9.31816],
			"to": [8.64494, 9.82864, 10.02363],
			"rotation": {"angle": 0, "axis": "z", "origin": [8, 9.1, 9.67676]},
			"faces": {
				"north": {"uv": [6.9375, 0.59375, 6.9375, 0.59375], "texture": "#0"},
				"east": {"uv": [6.9375, 0.59375, 6.9375, 0.59375], "texture": "#0"},
				"south": {"uv": [6.9375, 0.59375, 6.9375, 0.59375], "texture": "#0"},
				"west": {"uv": [6.9375, 0.59375, 6.9375, 0.59375], "texture": "#0"},
				"up": {"uv": [6.9375, 0.59375, 6.9375, 0.59375], "texture": "#0"},
				"down": {"uv": [6.9375, 0.59375, 6.9375, 0.59375], "texture": "#0"}
			}
		},
		{
			"name": "hexadecagon",
			"from": [7.27136, 8.55506, 9.31816],
			"to": [7.48995, 9.64494, 10.02363],
			"rotation": {"angle": 0, "axis": "z", "origin": [8, 9.1, 9.67676]},
			"faces": {
				"north": {"uv": [6.9375, 0.59375, 6.9375, 0.59375], "texture": "#0"},
				"east": {"uv": [6.9375, 0.59375, 6.9375, 0.59375], "texture": "#0"},
				"south": {"uv": [6.9375, 0.59375, 6.9375, 0.59375], "texture": "#0"},
				"west": {"uv": [6.9375, 0.59375, 6.9375, 0.59375], "texture": "#0"},
				"up": {"uv": [6.9375, 0.59375, 6.9375, 0.59375], "texture": "#0"},
				"down": {"uv": [6.9375, 0.59375, 6.9375, 0.59375], "texture": "#0"}
			}
		},
		{
			"name": "hexadecagon",
			"from": [8.51005, 8.55506, 9.31816],
			"to": [8.72864, 9.64494, 10.02363],
			"rotation": {"angle": 0, "axis": "z", "origin": [8, 9.1, 9.67676]},
			"faces": {
				"north": {"uv": [6.9375, 0.59375, 6.9375, 0.59375], "texture": "#0"},
				"east": {"uv": [6.9375, 0.59375, 6.9375, 0.59375], "texture": "#0"},
				"south": {"uv": [6.9375, 0.59375, 6.9375, 0.59375], "texture": "#0"},
				"west": {"uv": [6.9375, 0.59375, 6.9375, 0.59375], "texture": "#0"},
				"up": {"uv": [6.9375, 0.59375, 6.9375, 0.59375], "texture": "#0"},
				"down": {"uv": [6.9375, 0.59375, 6.9375, 0.59375], "texture": "#0"}
			}
		},
		{
			"name": "hexadecagon",
			"from": [7.58563, 8.525, 11.82363],
			"to": [8.41437, 8.6975, 13.82363],
			"rotation": {"angle": 0, "axis": "z", "origin": [8, 9.1, 12.82363]},
			"faces": {
				"north": {"uv": [6.9375, 0.59375, 6.9375, 0.59375], "texture": "#0"},
				"east": {"uv": [6.9375, 0.59375, 6.9375, 0.59375], "texture": "#0"},
				"south": {"uv": [6.9375, 0.59375, 6.9375, 0.59375], "texture": "#0"},
				"west": {"uv": [6.9375, 0.59375, 6.9375, 0.59375], "texture": "#0"},
				"up": {"uv": [6.9375, 0.59375, 6.9375, 0.59375], "texture": "#0"},
				"down": {"uv": [6.9375, 0.59375, 6.9375, 0.59375], "texture": "#0"}
			}
		},
		{
			"name": "hexadecagon",
			"from": [7.58563, 9.5025, 11.82363],
			"to": [8.41437, 9.675, 13.82363],
			"rotation": {"angle": 0, "axis": "z", "origin": [8, 9.1, 12.82363]},
			"faces": {
				"north": {"uv": [6.9375, 0.59375, 6.9375, 0.59375], "texture": "#0"},
				"east": {"uv": [6.9375, 0.59375, 6.9375, 0.59375], "texture": "#0"},
				"south": {"uv": [6.9375, 0.59375, 6.9375, 0.59375], "texture": "#0"},
				"west": {"uv": [6.9375, 0.59375, 6.9375, 0.59375], "texture": "#0"},
				"up": {"uv": [6.9375, 0.59375, 6.9375, 0.59375], "texture": "#0"},
				"down": {"uv": [6.9375, 0.59375, 6.9375, 0.59375], "texture": "#0"}
			}
		},
		{
			"name": "hexadecagon",
			"from": [7.425, 8.68563, 11.82363],
			"to": [7.5975, 9.51437, 13.82363],
			"rotation": {"angle": 0, "axis": "z", "origin": [8, 9.1, 12.82363]},
			"faces": {
				"north": {"uv": [6.9375, 0.59375, 6.9375, 0.59375], "texture": "#0"},
				"east": {"uv": [6.9375, 0.59375, 6.9375, 0.59375], "texture": "#0"},
				"south": {"uv": [6.9375, 0.59375, 6.9375, 0.59375], "texture": "#0"},
				"west": {"uv": [6.9375, 0.59375, 6.9375, 0.59375], "texture": "#0"},
				"up": {"uv": [6.9375, 0.59375, 6.9375, 0.59375], "texture": "#0"},
				"down": {"uv": [6.9375, 0.59375, 6.9375, 0.59375], "texture": "#0"}
			}
		},
		{
			"name": "hexadecagon",
			"from": [7.26016, 8.88563, 12.32363],
			"to": [7.48031, 9.31437, 13.32363],
			"rotation": {"angle": 0, "axis": "z", "origin": [8, 9.1, 12.82363]},
			"faces": {
				"north": {"uv": [6.9375, 0.65625, 6.9375, 0.65625], "texture": "#0"},
				"east": {"uv": [6.9375, 0.65625, 6.9375, 0.65625], "texture": "#0"},
				"south": {"uv": [6.9375, 0.65625, 6.9375, 0.65625], "texture": "#0"},
				"west": {"uv": [6.9375, 0.65625, 6.9375, 0.65625], "texture": "#0"},
				"up": {"uv": [6.9375, 0.65625, 6.9375, 0.65625], "texture": "#0"},
				"down": {"uv": [6.9375, 0.65625, 6.9375, 0.65625], "texture": "#0"}
			}
		},
		{
			"name": "hexadecagon",
			"from": [8.4025, 8.68563, 11.82363],
			"to": [8.575, 9.51437, 13.82363],
			"rotation": {"angle": 0, "axis": "z", "origin": [8, 9.1, 12.82363]},
			"faces": {
				"north": {"uv": [6.9375, 0.59375, 6.9375, 0.59375], "texture": "#0"},
				"east": {"uv": [6.9375, 0.59375, 6.9375, 0.59375], "texture": "#0"},
				"south": {"uv": [6.9375, 0.59375, 6.9375, 0.59375], "texture": "#0"},
				"west": {"uv": [6.9375, 0.59375, 6.9375, 0.59375], "texture": "#0"},
				"up": {"uv": [6.9375, 0.59375, 6.9375, 0.59375], "texture": "#0"},
				"down": {"uv": [6.9375, 0.59375, 6.9375, 0.59375], "texture": "#0"}
			}
		},
		{
			"name": "hexadecagon",
			"from": [7.46762, 8.4345, 13.82363],
			"to": [8.53238, 8.63415, 14.92363],
			"rotation": {"angle": 0, "axis": "z", "origin": [8, 9.1, 14.37363]},
			"faces": {
				"north": {"uv": [6.9375, 0.65625, 6.9375, 0.65625], "texture": "#0"},
				"east": {"uv": [6.9375, 0.65625, 6.9375, 0.65625], "texture": "#0"},
				"south": {"uv": [6.9375, 0.65625, 6.9375, 0.65625], "texture": "#0"},
				"west": {"uv": [6.9375, 0.65625, 6.9375, 0.65625], "texture": "#0"},
				"up": {"uv": [6.9375, 0.65625, 6.9375, 0.65625], "texture": "#0"},
				"down": {"uv": [6.9375, 0.65625, 6.9375, 0.65625], "texture": "#0"}
			}
		},
		{
			"name": "hexadecagon",
			"from": [7.46762, 9.56585, 13.82363],
			"to": [8.53238, 9.7655, 14.92363],
			"rotation": {"angle": 0, "axis": "z", "origin": [8, 9.1, 14.37363]},
			"faces": {
				"north": {"uv": [6.9375, 0.65625, 6.9375, 0.65625], "texture": "#0"},
				"east": {"uv": [6.9375, 0.65625, 6.9375, 0.65625], "texture": "#0"},
				"south": {"uv": [6.9375, 0.65625, 6.9375, 0.65625], "texture": "#0"},
				"west": {"uv": [6.9375, 0.65625, 6.9375, 0.65625], "texture": "#0"},
				"up": {"uv": [6.9375, 0.65625, 6.9375, 0.65625], "texture": "#0"},
				"down": {"uv": [6.9375, 0.65625, 6.9375, 0.65625], "texture": "#0"}
			}
		},
		{
			"name": "hexadecagon",
			"from": [7.3345, 8.66762, 13.82363],
			"to": [7.53415, 9.63238, 14.92363],
			"rotation": {"angle": 0, "axis": "z", "origin": [8, 9.1, 14.37363]},
			"faces": {
				"north": {"uv": [6.9375, 0.65625, 6.9375, 0.65625], "texture": "#0"},
				"east": {"uv": [6.9375, 0.65625, 6.9375, 0.65625], "texture": "#0"},
				"south": {"uv": [6.9375, 0.65625, 6.9375, 0.65625], "texture": "#0"},
				"west": {"uv": [6.9375, 0.65625, 6.9375, 0.65625], "texture": "#0"},
				"up": {"uv": [6.9375, 0.65625, 6.9375, 0.65625], "texture": "#0"},
				"down": {"uv": [6.9375, 0.65625, 6.9375, 0.65625], "texture": "#0"}
			}
		},
		{
			"name": "hexadecagon",
			"from": [8.46585, 8.66762, 13.82363],
			"to": [8.6655, 9.63238, 14.92363],
			"rotation": {"angle": 0, "axis": "z", "origin": [8, 9.1, 14.37363]},
			"faces": {
				"north": {"uv": [6.9375, 0.65625, 6.9375, 0.65625], "texture": "#0"},
				"east": {"uv": [6.9375, 0.65625, 6.9375, 0.65625], "texture": "#0"},
				"south": {"uv": [6.9375, 0.65625, 6.9375, 0.65625], "texture": "#0"},
				"west": {"uv": [6.9375, 0.65625, 6.9375, 0.65625], "texture": "#0"},
				"up": {"uv": [6.9375, 0.65625, 6.9375, 0.65625], "texture": "#0"},
				"down": {"uv": [6.9375, 0.65625, 6.9375, 0.65625], "texture": "#0"}
			}
		},
		{
			"name": "hexadecagon",
			"from": [7.57966, 8.495, 14.92363],
			"to": [8.42034, 8.6765, 16.42363],
			"rotation": {"angle": 0, "axis": "z", "origin": [8, 9.1, 15.72363]},
			"faces": {
				"north": {"uv": [6.9375, 0.6875, 6.9375, 0.6875], "texture": "#0"},
				"east": {"uv": [6.9375, 0.6875, 6.9375, 0.6875], "texture": "#0"},
				"south": {"uv": [6.9375, 0.6875, 6.9375, 0.6875], "texture": "#0"},
				"west": {"uv": [6.9375, 0.6875, 6.9375, 0.6875], "texture": "#0"},
				"up": {"uv": [6.9375, 0.6875, 6.9375, 0.6875], "texture": "#0"},
				"down": {"uv": [6.9375, 0.6875, 6.9375, 0.6875], "texture": "#0"}
			}
		},
		{
			"name": "hexadecagon",
			"from": [7.57966, 9.5235, 14.92363],
			"to": [8.42034, 9.705, 16.42363],
			"rotation": {"angle": 0, "axis": "z", "origin": [8, 9.1, 15.72363]},
			"faces": {
				"north": {"uv": [6.9375, 0.6875, 6.9375, 0.6875], "texture": "#0"},
				"east": {"uv": [6.9375, 0.6875, 6.9375, 0.6875], "texture": "#0"},
				"south": {"uv": [6.9375, 0.6875, 6.9375, 0.6875], "texture": "#0"},
				"west": {"uv": [6.9375, 0.6875, 6.9375, 0.6875], "texture": "#0"},
				"up": {"uv": [6.9375, 0.6875, 6.9375, 0.6875], "texture": "#0"},
				"down": {"uv": [6.9375, 0.6875, 6.9375, 0.6875], "texture": "#0"}
			}
		},
		{
			"name": "hexadecagon",
			"from": [7.395, 8.67966, 14.92363],
			"to": [7.5765, 9.52034, 16.42363],
			"rotation": {"angle": 0, "axis": "z", "origin": [8, 9.1, 15.72363]},
			"faces": {
				"north": {"uv": [6.9375, 0.6875, 6.9375, 0.6875], "texture": "#0"},
				"east": {"uv": [6.9375, 0.6875, 6.9375, 0.6875], "texture": "#0"},
				"south": {"uv": [6.9375, 0.6875, 6.9375, 0.6875], "texture": "#0"},
				"west": {"uv": [6.9375, 0.6875, 6.9375, 0.6875], "texture": "#0"},
				"up": {"uv": [6.9375, 0.6875, 6.9375, 0.6875], "texture": "#0"},
				"down": {"uv": [6.9375, 0.6875, 6.9375, 0.6875], "texture": "#0"}
			}
		},
		{
			"name": "hexadecagon",
			"from": [8.4235, 8.67966, 14.92363],
			"to": [8.605, 9.52034, 16.42363],
			"rotation": {"angle": 0, "axis": "z", "origin": [8, 9.1, 15.72363]},
			"faces": {
				"north": {"uv": [6.9375, 0.6875, 6.9375, 0.6875], "texture": "#0"},
				"east": {"uv": [6.9375, 0.6875, 6.9375, 0.6875], "texture": "#0"},
				"south": {"uv": [6.9375, 0.6875, 6.9375, 0.6875], "texture": "#0"},
				"west": {"uv": [6.9375, 0.6875, 6.9375, 0.6875], "texture": "#0"},
				"up": {"uv": [6.9375, 0.6875, 6.9375, 0.6875], "texture": "#0"},
				"down": {"uv": [6.9375, 0.6875, 6.9375, 0.6875], "texture": "#0"}
			}
		},
		{
			"name": "hexadecagon",
			"from": [7.7, 9.7, 14.06504],
			"to": [8.3, 10.1, 14.66504],
			"rotation": {"angle": 0, "axis": "y", "origin": [7.75967, 8, 14.36504]},
			"faces": {
				"north": {"uv": [6.9375, 0.6875, 6.9375, 0.6875], "texture": "#0"},
				"east": {"uv": [6.9375, 0.6875, 6.9375, 0.6875], "texture": "#0"},
				"south": {"uv": [6.9375, 0.6875, 6.9375, 0.6875], "texture": "#0"},
				"west": {"uv": [6.9375, 0.6875, 6.9375, 0.6875], "texture": "#0"},
				"up": {"uv": [6.9375, 0.6875, 6.9375, 0.6875], "texture": "#0"},
				"down": {"uv": [6.9375, 0.6875, 6.9375, 0.6875], "texture": "#0"}
			}
		},
		{
			"name": "hexadecagon",
			"from": [7.66263, 7.66656, 15.33821],
			"to": [7.79544, 8.28765, 15.68352],
			"rotation": {"angle": 0, "axis": "z", "origin": [7.9, 7.93766, 15.28821]},
			"faces": {
				"north": {"uv": [6.9375, 0.71875, 6.9375, 0.71875], "texture": "#0"},
				"east": {"uv": [6.9375, 0.71875, 6.9375, 0.71875], "texture": "#0"},
				"south": {"uv": [6.9375, 0.71875, 6.9375, 0.71875], "texture": "#0"},
				"west": {"uv": [6.9375, 0.71875, 6.9375, 0.71875], "texture": "#0"},
				"up": {"uv": [6.9375, 0.71875, 6.9375, 0.71875], "texture": "#0"},
				"down": {"uv": [6.9375, 0.71875, 6.9375, 0.71875], "texture": "#0"}
			}
		},
		{
			"name": "hexadecagon",
			"from": [7.66263, 7.66656, 14.43821],
			"to": [7.79544, 8.28765, 15.18352],
			"rotation": {"angle": 0, "axis": "z", "origin": [7.9, 7.93766, 14.38821]},
			"faces": {
				"north": {"uv": [6.9375, 0.71875, 6.9375, 0.71875], "texture": "#0"},
				"east": {"uv": [6.9375, 0.71875, 6.9375, 0.71875], "texture": "#0"},
				"south": {"uv": [6.9375, 0.71875, 6.9375, 0.71875], "texture": "#0"},
				"west": {"uv": [6.9375, 0.71875, 6.9375, 0.71875], "texture": "#0"},
				"up": {"uv": [6.9375, 0.71875, 6.9375, 0.71875], "texture": "#0"},
				"down": {"uv": [6.9375, 0.71875, 6.9375, 0.71875], "texture": "#0"}
			}
		},
		{
			"name": "hexadecagon",
			"from": [8.20456, 7.66656, 14.43821],
			"to": [8.33737, 8.28765, 15.18352],
			"rotation": {"angle": 0, "axis": "z", "origin": [8.1, 7.93766, 14.38821]},
			"faces": {
				"north": {"uv": [6.9375, 0.71875, 6.9375, 0.71875], "texture": "#0"},
				"east": {"uv": [6.9375, 0.71875, 6.9375, 0.71875], "texture": "#0"},
				"south": {"uv": [6.9375, 0.71875, 6.9375, 0.71875], "texture": "#0"},
				"west": {"uv": [6.9375, 0.71875, 6.9375, 0.71875], "texture": "#0"},
				"up": {"uv": [6.9375, 0.71875, 6.9375, 0.71875], "texture": "#0"},
				"down": {"uv": [6.9375, 0.71875, 6.9375, 0.71875], "texture": "#0"}
			}
		},
		{
			"name": "hexadecagon",
			"from": [7.79284, 8.16656, 14.43821],
			"to": [7.93737, 8.28765, 15.68352],
			"rotation": {"angle": 0, "axis": "z", "origin": [8.1, 7.93766, 14.38821]},
			"faces": {
				"north": {"uv": [6.9375, 0.71875, 6.9375, 0.71875], "texture": "#0"},
				"east": {"uv": [6.9375, 0.71875, 6.9375, 0.71875], "texture": "#0"},
				"south": {"uv": [6.9375, 0.71875, 6.9375, 0.71875], "texture": "#0"},
				"west": {"uv": [6.9375, 0.71875, 6.9375, 0.71875], "texture": "#0"},
				"up": {"uv": [6.9375, 0.71875, 6.9375, 0.71875], "texture": "#0"},
				"down": {"uv": [6.9375, 0.71875, 6.9375, 0.71875], "texture": "#0"}
			}
		},
		{
			"name": "hexadecagon",
			"from": [8.06263, 8.16656, 14.43821],
			"to": [8.20716, 8.28765, 15.68352],
			"rotation": {"angle": 0, "axis": "z", "origin": [7.9, 7.93766, 14.38821]},
			"faces": {
				"north": {"uv": [6.9375, 0.71875, 6.9375, 0.71875], "texture": "#0"},
				"east": {"uv": [6.9375, 0.71875, 6.9375, 0.71875], "texture": "#0"},
				"south": {"uv": [6.9375, 0.71875, 6.9375, 0.71875], "texture": "#0"},
				"west": {"uv": [6.9375, 0.71875, 6.9375, 0.71875], "texture": "#0"},
				"up": {"uv": [6.9375, 0.71875, 6.9375, 0.71875], "texture": "#0"},
				"down": {"uv": [6.9375, 0.71875, 6.9375, 0.71875], "texture": "#0"}
			}
		},
		{
			"name": "hexadecagon",
			"from": [7.93359, 8.16656, 14.43821],
			"to": [8.06641, 8.28765, 14.88352],
			"rotation": {"angle": 0, "axis": "z", "origin": [7.77096, 7.93766, 14.38821]},
			"faces": {
				"north": {"uv": [6.9375, 0.71875, 6.9375, 0.71875], "texture": "#0"},
				"east": {"uv": [6.9375, 0.71875, 6.9375, 0.71875], "texture": "#0"},
				"south": {"uv": [6.9375, 0.71875, 6.9375, 0.71875], "texture": "#0"},
				"west": {"uv": [6.9375, 0.71875, 6.9375, 0.71875], "texture": "#0"},
				"up": {"uv": [6.9375, 0.71875, 6.9375, 0.71875], "texture": "#0"},
				"down": {"uv": [6.9375, 0.71875, 6.9375, 0.71875], "texture": "#0"}
			}
		},
		{
			"name": "hexadecagon",
			"from": [7.93359, 8.16656, 15.23821],
			"to": [8.06641, 8.28765, 15.68352],
			"rotation": {"angle": 0, "axis": "z", "origin": [7.77096, 7.93766, 15.18821]},
			"faces": {
				"north": {"uv": [6.9375, 0.71875, 6.9375, 0.71875], "texture": "#0"},
				"east": {"uv": [6.9375, 0.71875, 6.9375, 0.71875], "texture": "#0"},
				"south": {"uv": [6.9375, 0.71875, 6.9375, 0.71875], "texture": "#0"},
				"west": {"uv": [6.9375, 0.71875, 6.9375, 0.71875], "texture": "#0"},
				"up": {"uv": [6.9375, 0.71875, 6.9375, 0.71875], "texture": "#0"},
				"down": {"uv": [6.9375, 0.71875, 6.9375, 0.71875], "texture": "#0"}
			}
		},
		{
			"name": "hexadecagon",
			"from": [8.20456, 7.66656, 15.33821],
			"to": [8.33737, 8.28765, 15.68352],
			"rotation": {"angle": 0, "axis": "z", "origin": [8.1, 7.93766, 15.28821]},
			"faces": {
				"north": {"uv": [6.9375, 0.71875, 6.9375, 0.71875], "texture": "#0"},
				"east": {"uv": [6.9375, 0.71875, 6.9375, 0.71875], "texture": "#0"},
				"south": {"uv": [6.9375, 0.71875, 6.9375, 0.71875], "texture": "#0"},
				"west": {"uv": [6.9375, 0.71875, 6.9375, 0.71875], "texture": "#0"},
				"up": {"uv": [6.9375, 0.71875, 6.9375, 0.71875], "texture": "#0"},
				"down": {"uv": [6.9375, 0.71875, 6.9375, 0.71875], "texture": "#0"}
			}
		},
		{
			"name": "hexadecagon",
			"from": [7.83359, 7.66656, 15.33821],
			"to": [8.16641, 7.92828, 15.64055],
			"rotation": {"angle": 0, "axis": "z", "origin": [7.72904, 7.93766, 15.28821]},
			"faces": {
				"north": {"uv": [6.9375, 0.71875, 6.9375, 0.71875], "texture": "#0"},
				"east": {"uv": [6.9375, 0.71875, 6.9375, 0.71875], "texture": "#0"},
				"south": {"uv": [6.9375, 0.71875, 6.9375, 0.71875], "texture": "#0"},
				"west": {"uv": [6.9375, 0.71875, 6.9375, 0.71875], "texture": "#0"},
				"up": {"uv": [6.9375, 0.71875, 6.9375, 0.71875], "texture": "#0"},
				"down": {"uv": [6.9375, 0.71875, 6.9375, 0.71875], "texture": "#0"}
			}
		},
		{
			"name": "hexadecagon",
			"from": [7.55, 8.08926, 15.37151],
			"to": [8.45, 8.14511, 15.65231],
			"rotation": {"angle": -45, "axis": "x", "origin": [8, 8.11719, 15.51191]},
			"faces": {
				"north": {"uv": [6.9375, 0.71875, 6.9375, 0.71875], "texture": "#0"},
				"east": {"uv": [6.9375, 0.71875, 6.9375, 0.71875], "texture": "#0"},
				"south": {"uv": [6.9375, 0.71875, 6.9375, 0.71875], "texture": "#0"},
				"west": {"uv": [6.9375, 0.71875, 6.9375, 0.71875], "texture": "#0"},
				"up": {"uv": [6.9375, 0.71875, 6.9375, 0.71875], "texture": "#0"},
				"down": {"uv": [6.9375, 0.71875, 6.9375, 0.71875], "texture": "#0"}
			}
		},
		{
			"name": "hexadecagon",
			"from": [7.55, 8.08926, 15.37151],
			"to": [8.45, 8.14511, 15.65231],
			"rotation": {"angle": -22.5, "axis": "x", "origin": [8, 8.11719, 15.51191]},
			"faces": {
				"north": {"uv": [6.9375, 0.71875, 6.9375, 0.71875], "texture": "#0"},
				"east": {"uv": [6.9375, 0.71875, 6.9375, 0.71875], "texture": "#0"},
				"south": {"uv": [6.9375, 0.71875, 6.9375, 0.71875], "texture": "#0"},
				"west": {"uv": [6.9375, 0.71875, 6.9375, 0.71875], "texture": "#0"},
				"up": {"uv": [6.9375, 0.71875, 6.9375, 0.71875], "texture": "#0"},
				"down": {"uv": [6.9375, 0.71875, 6.9375, 0.71875], "texture": "#0"}
			}
		},
		{
			"name": "hexadecagon",
			"from": [7.55, 8.08926, 15.37151],
			"to": [8.45, 8.14511, 15.65231],
			"rotation": {"angle": 0, "axis": "x", "origin": [8, 8.11719, 15.51191]},
			"faces": {
				"north": {"uv": [6.9375, 0.71875, 6.9375, 0.71875], "texture": "#0"},
				"east": {"uv": [6.9375, 0.71875, 6.9375, 0.71875], "texture": "#0"},
				"south": {"uv": [6.9375, 0.71875, 6.9375, 0.71875], "texture": "#0"},
				"west": {"uv": [6.9375, 0.71875, 6.9375, 0.71875], "texture": "#0"},
				"up": {"uv": [6.9375, 0.71875, 6.9375, 0.71875], "texture": "#0"},
				"down": {"uv": [6.9375, 0.71875, 6.9375, 0.71875], "texture": "#0"}
			}
		},
		{
			"name": "hexadecagon",
			"from": [7.55, 8.08926, 15.37151],
			"to": [8.45, 8.14511, 15.65231],
			"rotation": {"angle": 22.5, "axis": "x", "origin": [8, 8.11719, 15.51191]},
			"faces": {
				"north": {"uv": [6.9375, 0.71875, 6.9375, 0.71875], "texture": "#0"},
				"east": {"uv": [6.9375, 0.71875, 6.9375, 0.71875], "texture": "#0"},
				"south": {"uv": [6.9375, 0.71875, 6.9375, 0.71875], "texture": "#0"},
				"west": {"uv": [6.9375, 0.71875, 6.9375, 0.71875], "texture": "#0"},
				"up": {"uv": [6.9375, 0.71875, 6.9375, 0.71875], "texture": "#0"},
				"down": {"uv": [6.9375, 0.71875, 6.9375, 0.71875], "texture": "#0"}
			}
		},
		{
			"name": "hexadecagon",
			"from": [7.55, 8.08926, 15.37151],
			"to": [8.45, 8.14511, 15.65231],
			"rotation": {"angle": 45, "axis": "x", "origin": [8, 8.11719, 15.51191]},
			"faces": {
				"north": {"uv": [6.9375, 0.71875, 6.9375, 0.71875], "texture": "#0"},
				"east": {"uv": [6.9375, 0.71875, 6.9375, 0.71875], "texture": "#0"},
				"south": {"uv": [6.9375, 0.71875, 6.9375, 0.71875], "texture": "#0"},
				"west": {"uv": [6.9375, 0.71875, 6.9375, 0.71875], "texture": "#0"},
				"up": {"uv": [6.9375, 0.71875, 6.9375, 0.71875], "texture": "#0"},
				"down": {"uv": [6.9375, 0.71875, 6.9375, 0.71875], "texture": "#0"}
			}
		},
		{
			"name": "hexadecagon",
			"from": [7.55, 7.97679, 15.48399],
			"to": [8.45, 8.25759, 15.53984],
			"rotation": {"angle": -22.5, "axis": "x", "origin": [8, 8.11719, 15.51191]},
			"faces": {
				"north": {"uv": [6.9375, 0.71875, 6.9375, 0.71875], "texture": "#0"},
				"east": {"uv": [6.9375, 0.71875, 6.9375, 0.71875], "texture": "#0"},
				"south": {"uv": [6.9375, 0.71875, 6.9375, 0.71875], "texture": "#0"},
				"west": {"uv": [6.9375, 0.71875, 6.9375, 0.71875], "texture": "#0"},
				"up": {"uv": [6.9375, 0.71875, 6.9375, 0.71875], "texture": "#0"},
				"down": {"uv": [6.9375, 0.71875, 6.9375, 0.71875], "texture": "#0"}
			}
		},
		{
			"name": "hexadecagon",
			"from": [7.55, 7.97679, 15.48399],
			"to": [8.45, 8.25759, 15.53984],
			"rotation": {"angle": 0, "axis": "x", "origin": [8, 8.11719, 15.51191]},
			"faces": {
				"north": {"uv": [6.9375, 0.71875, 6.9375, 0.71875], "texture": "#0"},
				"east": {"uv": [6.9375, 0.71875, 6.9375, 0.71875], "texture": "#0"},
				"south": {"uv": [6.9375, 0.71875, 6.9375, 0.71875], "texture": "#0"},
				"west": {"uv": [6.9375, 0.71875, 6.9375, 0.71875], "texture": "#0"},
				"up": {"uv": [6.9375, 0.71875, 6.9375, 0.71875], "texture": "#0"},
				"down": {"uv": [6.9375, 0.71875, 6.9375, 0.71875], "texture": "#0"}
			}
		},
		{
			"name": "hexadecagon",
			"from": [7.55, 7.97679, 15.48399],
			"to": [8.45, 8.25759, 15.53984],
			"rotation": {"angle": 22.5, "axis": "x", "origin": [8, 8.11719, 15.51191]},
			"faces": {
				"north": {"uv": [6.9375, 0.71875, 6.9375, 0.71875], "texture": "#0"},
				"east": {"uv": [6.9375, 0.71875, 6.9375, 0.71875], "texture": "#0"},
				"south": {"uv": [6.9375, 0.71875, 6.9375, 0.71875], "texture": "#0"},
				"west": {"uv": [6.9375, 0.71875, 6.9375, 0.71875], "texture": "#0"},
				"up": {"uv": [6.9375, 0.71875, 6.9375, 0.71875], "texture": "#0"},
				"down": {"uv": [6.9375, 0.71875, 6.9375, 0.71875], "texture": "#0"}
			}
		},
		{
			"name": "hexadecagon",
			"from": [7.57888, 8.67156, 15.92363],
			"to": [8.42112, 9.52103, 16.36894],
			"rotation": {"angle": 0, "axis": "y", "origin": [8, 9.28047, 15.72363]},
			"faces": {
				"north": {"uv": [6.9375, 0.65625, 6.9375, 0.65625], "texture": "#1"},
				"south": {"uv": [6.9375, 0.65625, 6.9375, 0.65625], "texture": "#1"}
			}
		},
		{
			"name": "hexadecagon",
			"from": [7.35622, 8.445, 8.16113],
			"to": [8.64378, 9.74837, 8.60644],
			"rotation": {"angle": 0, "axis": "y", "origin": [8.01172, 9.0963, 8.38379]},
			"faces": {
				"north": {"uv": [6.9375, 0.65625, 6.9375, 0.65625], "texture": "#1"},
				"south": {"uv": [6.9375, 0.65625, 6.9375, 0.65625], "texture": "#1"}
			}
		}
	],
	"groups": [
		{
			"name": "hexadecagon",
			"origin": [8, 8, 8],
			"color": 0,
			"children": [0, 1, 2, 3, 4, 5, 6, 7]
		},
		{
			"name": "hexadecagon",
			"origin": [8, 8, 8],
			"color": 0,
			"children": [8]
		},
		{
			"name": "hexadecagon",
			"origin": [8, 8, 8],
			"color": 0,
			"children": [9]
		},
		{
			"name": "group",
			"origin": [7.75, 8, -14.5],
			"color": 0,
			"children": [10, 11, 12, 13, 14, 15]
		},
		{
			"name": "group",
			"origin": [8, 8, -5.5],
			"color": 0,
			"children": [
				16,
				17,
				18,
				19,
				20,
				21,
				22,
				23,
				24,
				25,
				26,
				27,
				{
					"name": "group",
					"origin": [7.95, 7, 3.6],
					"color": 0,
					"children": [28, 29, 30, 31]
				},
				{
					"name": "group",
					"origin": [7.27877, 7.64836, 8],
					"color": 0,
					"children": [32, 33]
				},
				{
					"name": "group",
					"origin": [7.27877, 7.64836, 8],
					"color": 0,
					"children": [34, 35, 36]
				}
			]
		},
		{
			"name": "group",
			"origin": [8.1, 7.4, 17.59531],
			"color": 0,
			"children": [
				37,
				38,
				39,
				40,
				{
					"name": "group",
					"origin": [8.1, 4.36376, 14.9309],
					"color": 0,
					"children": [41, 42, 43, 44, 45, 46]
				},
				47
			]
		},
		{
			"name": "aaa",
			"origin": [8, 8, 8],
			"color": 0,
			"children": [48]
		},
		{
			"name": "group",
			"origin": [8, 4.65781, 1.67099],
			"color": 0,
			"children": [49, 50]
		},
		{
			"name": "group",
			"origin": [8, 4.65781, 1.67099],
			"color": 0,
			"children": [
				51,
				52,
				53,
				{
					"name": "group",
					"origin": [6.53577, 2.36936, 0.28802],
					"color": 0,
					"children": [54, 55, 56]
				},
				{
					"name": "group",
					"origin": [6.53577, 2.36936, 0.28802],
					"color": 0,
					"children": [57, 58, 59]
				}
			]
		},
		{
			"name": "group",
			"origin": [7.90234, 4.65781, 1.67099],
			"color": 0,
			"children": [60, 61, 62, 63, 64, 65, 66, 67, 68, 69]
		},
		{
			"name": "group",
			"origin": [8, 4.65781, 1.67099],
			"color": 0,
			"children": [70, 71, 72, 73]
		},
		{
			"name": "group",
			"origin": [8, 8.06641, 9.61406],
			"color": 0,
			"children": [
				74,
				{
					"name": "hexadecagon",
					"origin": [7.45, 8, 8],
					"color": 0,
					"children": [75]
				},
				{
					"name": "hexadecagon",
					"origin": [7.45, 8, 8],
					"color": 0,
					"children": [76]
				}
			]
		},
		{
			"name": "scope",
			"origin": [8, 8, 8],
			"color": 0,
			"children": [
				{
					"name": "hexadecagon",
					"origin": [8, 8, 8],
					"color": 0,
					"children": [77, 78, 79, 80, 81, 82, 83, 84, 85]
				},
				{
					"name": "hexadecagon",
					"origin": [8, 8, 8],
					"color": 0,
					"children": [86, 87, 88, 89]
				},
				{
					"name": "hexadecagon",
					"origin": [8, 8, 8],
					"color": 0,
					"children": [90, 91, 92, 93]
				},
				{
					"name": "hexadecagon",
					"origin": [8, 8, 8],
					"color": 0,
					"children": [94, 95, 96, 97, 98]
				},
				{
					"name": "hexadecagon",
					"origin": [8, 8, 8],
					"color": 0,
					"children": [99, 100, 101, 102]
				},
				{
					"name": "hexadecagon",
					"origin": [8, 8, 8],
					"color": 0,
					"children": [103, 104, 105, 106]
				},
				{
					"name": "hexadecagon",
					"origin": [8, 8, 8],
					"color": 0,
					"children": [107]
				}
			]
		},
		{
			"name": "group",
			"origin": [8, 7.93766, 11.86458],
			"color": 0,
			"children": [
				108,
				109,
				110,
				111,
				112,
				113,
				114,
				115,
				116,
				{
					"name": "hexadecagon",
					"origin": [7.45, 8, 8],
					"color": 0,
					"children": [117, 118, 119, 120, 121, 122, 123, 124]
				}
			]
		},
		{
			"name": "lens",
			"origin": [8, 9.1, 13.5],
			"color": 0,
			"children": [125, 126]
		}
	]
}