{
	"credit": "Made with Blockbench",
	"textures": {
		"0": "ava:item/gun_textures/palette_black",
		"1": "ava:item/gun_effects/neon/cyan/neon_cyan",
		"2": "ava:item/gun_textures/web",
		"particle": "ava:item/gun_textures/palette_black"
	},
	"elements": [
		{
			"name": "B0005_0",
			"from": [7.425, 1.38003, 13.09764],
			"to": [8.555, 6.12243, 13.37124],
			"rotation": {"angle": 0, "axis": "y", "origin": [7.58333, 2.708, 14.00204]},
			"faces": {
				"north": {"uv": [4.71875, 0.25, 5.09375, 0.625], "texture": "#0"},
				"east": {"uv": [4.71875, 0.25, 5.09375, 0.625], "texture": "#0"},
				"west": {"uv": [4.71875, 0.25, 5.09375, 0.625], "texture": "#0"},
				"up": {"uv": [4.71875, 0.25, 5.09375, 0.625], "texture": "#0"},
				"down": {"uv": [4.71875, 0.25, 5.09375, 0.625], "texture": "#0"}
			}
		},
		{
			"name": "B0005_1",
			"from": [7.425, 1.33443, 13.37124],
			"to": [8.555, 6.07683, 13.73604],
			"rotation": {"angle": 0, "axis": "y", "origin": [7.58333, 2.708, 14.00204]},
			"faces": {
				"east": {"uv": [4.71875, 0.25, 5.09375, 0.625], "texture": "#0"},
				"west": {"uv": [4.71875, 0.25, 5.09375, 0.625], "texture": "#0"},
				"down": {"uv": [4.71875, 0.25, 5.09375, 0.625], "texture": "#0"}
			}
		},
		{
			"name": "B0005_2",
			"from": [7.425, 1.28883, 13.73604],
			"to": [8.555, 6.03123, 13.87284],
			"rotation": {"angle": 0, "axis": "y", "origin": [7.58333, 2.708, 14.00204]},
			"faces": {
				"east": {"uv": [4.71875, 0.25, 5.09375, 0.625], "texture": "#0"},
				"west": {"uv": [4.71875, 0.25, 5.09375, 0.625], "texture": "#0"},
				"down": {"uv": [4.71875, 0.25, 5.09375, 0.625], "texture": "#0"}
			}
		},
		{
			"name": "B0005_3",
			"from": [7.425, 1.28883, 13.87284],
			"to": [8.555, 5.98563, 14.19204],
			"rotation": {"angle": 0, "axis": "y", "origin": [7.58333, 2.708, 14.00204]},
			"faces": {
				"east": {"uv": [4.71875, 0.25, 5.09375, 0.625], "texture": "#0"},
				"west": {"uv": [4.71875, 0.25, 5.09375, 0.625], "texture": "#0"},
				"down": {"uv": [4.71875, 0.25, 5.09375, 0.625], "texture": "#0"}
			}
		},
		{
			"name": "B0005_4",
			"from": [7.425, 1.24323, 14.19204],
			"to": [8.555, 5.94003, 14.37444],
			"rotation": {"angle": 0, "axis": "y", "origin": [7.58333, 2.708, 14.00204]},
			"faces": {
				"east": {"uv": [4.71875, 0.25, 5.09375, 0.625], "texture": "#0"},
				"west": {"uv": [4.71875, 0.25, 5.09375, 0.625], "texture": "#0"},
				"down": {"uv": [4.71875, 0.25, 5.09375, 0.625], "texture": "#0"}
			}
		},
		{
			"name": "B0005_5",
			"from": [7.425, 1.19763, 14.37444],
			"to": [8.555, 5.89443, 14.73924],
			"rotation": {"angle": 0, "axis": "y", "origin": [7.58333, 2.708, 14.00204]},
			"faces": {
				"east": {"uv": [4.71875, 0.25, 5.09375, 0.625], "texture": "#0"},
				"west": {"uv": [4.71875, 0.25, 5.09375, 0.625], "texture": "#0"},
				"down": {"uv": [4.71875, 0.25, 5.09375, 0.625], "texture": "#0"}
			}
		},
		{
			"name": "B0005_6",
			"from": [7.425, 1.38003, 13.05204],
			"to": [8.555, 5.84883, 13.09764],
			"rotation": {"angle": 0, "axis": "y", "origin": [7.58333, 2.708, 14.00204]},
			"faces": {
				"north": {"uv": [4.71875, 0.25, 5.09375, 0.625], "texture": "#0"},
				"east": {"uv": [4.71875, 0.25, 5.09375, 0.625], "texture": "#0"},
				"west": {"uv": [4.71875, 0.25, 5.09375, 0.625], "texture": "#0"},
				"up": {"uv": [4.71875, 0.25, 5.09375, 0.625], "texture": "#0"},
				"down": {"uv": [4.71875, 0.25, 5.09375, 0.625], "texture": "#0"}
			}
		},
		{
			"name": "B0005_7",
			"from": [7.425, 1.06083, 14.73924],
			"to": [8.555, 5.84883, 14.92164],
			"rotation": {"angle": 0, "axis": "y", "origin": [7.58333, 2.708, 14.00204]},
			"faces": {
				"east": {"uv": [4.71875, 0.25, 5.09375, 0.625], "texture": "#0"},
				"west": {"uv": [4.71875, 0.25, 5.09375, 0.625], "texture": "#0"},
				"down": {"uv": [4.71875, 0.25, 5.09375, 0.625], "texture": "#0"}
			}
		},
		{
			"name": "B0005_8",
			"from": [7.425, 2.56563, 14.92164],
			"to": [8.555, 5.80323, 15.28644],
			"rotation": {"angle": 0, "axis": "y", "origin": [7.58333, 2.708, 14.00204]},
			"faces": {
				"east": {"uv": [4.71875, 0.25, 5.09375, 0.625], "texture": "#0"},
				"south": {"uv": [4.71875, 0.25, 5.09375, 0.625], "texture": "#0"},
				"west": {"uv": [4.71875, 0.25, 5.09375, 0.625], "texture": "#0"},
				"down": {"uv": [4.71875, 0.25, 5.09375, 0.625], "texture": "#0"}
			}
		},
		{
			"name": "B0005_9",
			"from": [7.425, 3.56883, 15.28644],
			"to": [8.555, 5.75763, 15.42324],
			"rotation": {"angle": 0, "axis": "y", "origin": [7.58333, 2.708, 14.00204]},
			"faces": {
				"east": {"uv": [4.71875, 0.25, 5.09375, 0.625], "texture": "#0"},
				"south": {"uv": [4.71875, 0.25, 5.09375, 0.625], "texture": "#0"},
				"west": {"uv": [4.71875, 0.25, 5.09375, 0.625], "texture": "#0"},
				"down": {"uv": [4.71875, 0.25, 5.09375, 0.625], "texture": "#0"}
			}
		},
		{
			"name": "B0005_11",
			"from": [7.425, 1.38003, 13.00644],
			"to": [8.555, 5.25603, 13.05204],
			"rotation": {"angle": 0, "axis": "y", "origin": [7.58333, 2.708, 14.00204]},
			"faces": {
				"north": {"uv": [4.71875, 0.25, 5.09375, 0.625], "texture": "#0"},
				"east": {"uv": [4.71875, 0.25, 5.09375, 0.625], "texture": "#0"},
				"west": {"uv": [4.71875, 0.25, 5.09375, 0.625], "texture": "#0"},
				"up": {"uv": [4.71875, 0.25, 5.09375, 0.625], "texture": "#0"},
				"down": {"uv": [4.71875, 0.25, 5.09375, 0.625], "texture": "#0"}
			}
		},
		{
			"name": "B0005_13",
			"from": [7.425, 1.38003, 12.96084],
			"to": [8.555, 4.98243, 13.00644],
			"rotation": {"angle": 0, "axis": "y", "origin": [7.58333, 2.708, 14.00204]},
			"faces": {
				"north": {"uv": [4.71875, 0.25, 5.09375, 0.625], "texture": "#0"},
				"east": {"uv": [4.71875, 0.25, 5.09375, 0.625], "texture": "#0"},
				"west": {"uv": [4.71875, 0.25, 5.09375, 0.625], "texture": "#0"},
				"up": {"uv": [4.71875, 0.25, 5.09375, 0.625], "texture": "#0"},
				"down": {"uv": [4.71875, 0.25, 5.09375, 0.625], "texture": "#0"}
			}
		},
		{
			"name": "B0005_14",
			"from": [7.425, 4.61763, 15.42324],
			"to": [8.555, 4.89123, 15.56004],
			"rotation": {"angle": 0, "axis": "y", "origin": [7.58333, 2.708, 14.00204]},
			"faces": {
				"east": {"uv": [4.71875, 0.25, 5.09375, 0.625], "texture": "#0"},
				"south": {"uv": [4.71875, 0.25, 5.09375, 0.625], "texture": "#0"},
				"west": {"uv": [4.71875, 0.25, 5.09375, 0.625], "texture": "#0"},
				"down": {"uv": [4.71875, 0.25, 5.09375, 0.625], "texture": "#0"}
			}
		},
		{
			"name": "B0005_15",
			"from": [7.425, 1.38003, 12.91524],
			"to": [8.555, 4.61763, 12.96084],
			"rotation": {"angle": 0, "axis": "y", "origin": [7.58333, 2.708, 14.00204]},
			"faces": {
				"north": {"uv": [4.71875, 0.25, 5.09375, 0.625], "texture": "#0"},
				"east": {"uv": [4.71875, 0.25, 5.09375, 0.625], "texture": "#0"},
				"west": {"uv": [4.71875, 0.25, 5.09375, 0.625], "texture": "#0"},
				"up": {"uv": [4.71875, 0.25, 5.09375, 0.625], "texture": "#0"},
				"down": {"uv": [4.71875, 0.25, 5.09375, 0.625], "texture": "#0"}
			}
		},
		{
			"name": "B0005_16",
			"from": [7.425, 4.43523, 15.42324],
			"to": [8.555, 4.61763, 15.51444],
			"rotation": {"angle": 0, "axis": "y", "origin": [7.58333, 2.708, 14.00204]},
			"faces": {
				"east": {"uv": [4.71875, 0.25, 5.09375, 0.625], "texture": "#0"},
				"south": {"uv": [4.71875, 0.25, 5.09375, 0.625], "texture": "#0"},
				"west": {"uv": [4.71875, 0.25, 5.09375, 0.625], "texture": "#0"},
				"down": {"uv": [4.71875, 0.25, 5.09375, 0.625], "texture": "#0"}
			}
		},
		{
			"name": "B0005_17",
			"from": [7.425, 3.79683, 15.42324],
			"to": [8.555, 4.43523, 15.46884],
			"rotation": {"angle": 0, "axis": "y", "origin": [7.58333, 2.708, 14.00204]},
			"faces": {
				"east": {"uv": [4.71875, 0.25, 5.09375, 0.625], "texture": "#0"},
				"south": {"uv": [4.71875, 0.25, 5.09375, 0.625], "texture": "#0"},
				"west": {"uv": [4.71875, 0.25, 5.09375, 0.625], "texture": "#0"},
				"down": {"uv": [4.71875, 0.25, 5.09375, 0.625], "texture": "#0"}
			}
		},
		{
			"name": "B0005_18",
			"from": [7.425, 1.42563, 12.86964],
			"to": [8.555, 4.34403, 12.91524],
			"rotation": {"angle": 0, "axis": "y", "origin": [7.58333, 2.708, 14.00204]},
			"faces": {
				"north": {"uv": [4.71875, 0.25, 5.09375, 0.625], "texture": "#0"},
				"east": {"uv": [4.71875, 0.25, 5.09375, 0.625], "texture": "#0"},
				"west": {"uv": [4.71875, 0.25, 5.09375, 0.625], "texture": "#0"},
				"up": {"uv": [4.71875, 0.25, 5.09375, 0.625], "texture": "#0"},
				"down": {"uv": [4.71875, 0.25, 5.09375, 0.625], "texture": "#0"}
			}
		},
		{
			"name": "B0005_19",
			"from": [7.425, 1.42563, 12.82404],
			"to": [8.555, 4.02483, 12.86964],
			"rotation": {"angle": 0, "axis": "y", "origin": [7.58333, 2.708, 14.00204]},
			"faces": {
				"north": {"uv": [4.71875, 0.25, 5.09375, 0.625], "texture": "#0"},
				"east": {"uv": [4.71875, 0.25, 5.09375, 0.625], "texture": "#0"},
				"west": {"uv": [4.71875, 0.25, 5.09375, 0.625], "texture": "#0"},
				"up": {"uv": [4.71875, 0.25, 5.09375, 0.625], "texture": "#0"},
				"down": {"uv": [4.71875, 0.25, 5.09375, 0.625], "texture": "#0"}
			}
		},
		{
			"name": "B0005_20",
			"from": [7.425, 1.42563, 12.77844],
			"to": [8.555, 3.84243, 12.82404],
			"rotation": {"angle": 0, "axis": "y", "origin": [7.58333, 2.708, 14.00204]},
			"faces": {
				"north": {"uv": [4.71875, 0.25, 5.09375, 0.625], "texture": "#0"},
				"east": {"uv": [4.71875, 0.25, 5.09375, 0.625], "texture": "#0"},
				"west": {"uv": [4.71875, 0.25, 5.09375, 0.625], "texture": "#0"},
				"up": {"uv": [4.71875, 0.25, 5.09375, 0.625], "texture": "#0"},
				"down": {"uv": [4.71875, 0.25, 5.09375, 0.625], "texture": "#0"}
			}
		},
		{
			"name": "B0005_21",
			"from": [7.425, 1.42563, 12.73284],
			"to": [8.555, 3.66003, 12.77844],
			"rotation": {"angle": 0, "axis": "y", "origin": [7.58333, 2.708, 14.00204]},
			"faces": {
				"north": {"uv": [4.71875, 0.25, 5.09375, 0.625], "texture": "#0"},
				"east": {"uv": [4.71875, 0.25, 5.09375, 0.625], "texture": "#0"},
				"west": {"uv": [4.71875, 0.25, 5.09375, 0.625], "texture": "#0"},
				"up": {"uv": [4.71875, 0.25, 5.09375, 0.625], "texture": "#0"},
				"down": {"uv": [4.71875, 0.25, 5.09375, 0.625], "texture": "#0"}
			}
		},
		{
			"name": "B0005_22",
			"from": [7.425, 3.06723, 15.28644],
			"to": [8.555, 3.56883, 15.37764],
			"rotation": {"angle": 0, "axis": "y", "origin": [7.58333, 2.708, 14.00204]},
			"faces": {
				"east": {"uv": [4.71875, 0.25, 5.09375, 0.625], "texture": "#0"},
				"south": {"uv": [4.71875, 0.25, 5.09375, 0.625], "texture": "#0"},
				"west": {"uv": [4.71875, 0.25, 5.09375, 0.625], "texture": "#0"},
				"down": {"uv": [4.71875, 0.25, 5.09375, 0.625], "texture": "#0"}
			}
		},
		{
			"name": "B0005_23",
			"from": [7.425, 1.42563, 12.68724],
			"to": [8.555, 3.24963, 12.73284],
			"rotation": {"angle": 0, "axis": "y", "origin": [7.58333, 2.708, 14.00204]},
			"faces": {
				"north": {"uv": [4.71875, 0.25, 5.09375, 0.625], "texture": "#0"},
				"east": {"uv": [4.71875, 0.25, 5.09375, 0.625], "texture": "#0"},
				"west": {"uv": [4.71875, 0.25, 5.09375, 0.625], "texture": "#0"},
				"up": {"uv": [4.71875, 0.25, 5.09375, 0.625], "texture": "#0"},
				"down": {"uv": [4.71875, 0.25, 5.09375, 0.625], "texture": "#0"}
			}
		},
		{
			"name": "B0005_24",
			"from": [7.425, 2.65683, 15.28644],
			"to": [8.555, 3.06723, 15.33204],
			"rotation": {"angle": 0, "axis": "y", "origin": [7.58333, 2.708, 14.00204]},
			"faces": {
				"east": {"uv": [4.71875, 0.25, 5.09375, 0.625], "texture": "#0"},
				"south": {"uv": [4.71875, 0.25, 5.09375, 0.625], "texture": "#0"},
				"west": {"uv": [4.71875, 0.25, 5.09375, 0.625], "texture": "#0"},
				"down": {"uv": [4.71875, 0.25, 5.09375, 0.625], "texture": "#0"}
			}
		},
		{
			"name": "B0005_25",
			"from": [7.425, 1.47123, 12.64164],
			"to": [8.555, 2.97603, 12.68724],
			"rotation": {"angle": 0, "axis": "y", "origin": [7.58333, 2.708, 14.00204]},
			"faces": {
				"north": {"uv": [4.71875, 0.25, 5.09375, 0.625], "texture": "#0"},
				"east": {"uv": [4.71875, 0.25, 5.09375, 0.625], "texture": "#0"},
				"west": {"uv": [4.71875, 0.25, 5.09375, 0.625], "texture": "#0"},
				"up": {"uv": [4.71875, 0.25, 5.09375, 0.625], "texture": "#0"},
				"down": {"uv": [4.71875, 0.25, 5.09375, 0.625], "texture": "#0"}
			}
		},
		{
			"name": "B0005_26",
			"from": [7.425, 1.47123, 12.59604],
			"to": [8.555, 2.79363, 12.64164],
			"rotation": {"angle": 0, "axis": "y", "origin": [7.58333, 2.708, 14.00204]},
			"faces": {
				"north": {"uv": [4.71875, 0.25, 5.09375, 0.625], "texture": "#0"},
				"east": {"uv": [4.71875, 0.25, 5.09375, 0.625], "texture": "#0"},
				"west": {"uv": [4.71875, 0.25, 5.09375, 0.625], "texture": "#0"},
				"up": {"uv": [4.71875, 0.25, 5.09375, 0.625], "texture": "#0"},
				"down": {"uv": [4.71875, 0.25, 5.09375, 0.625], "texture": "#0"}
			}
		},
		{
			"name": "B0005_27",
			"from": [7.425, 2.10963, 14.92164],
			"to": [8.555, 2.56563, 15.24084],
			"rotation": {"angle": 0, "axis": "y", "origin": [7.58333, 2.708, 14.00204]},
			"faces": {
				"east": {"uv": [4.71875, 0.25, 5.09375, 0.625], "texture": "#0"},
				"south": {"uv": [4.71875, 0.25, 5.09375, 0.625], "texture": "#0"},
				"west": {"uv": [4.71875, 0.25, 5.09375, 0.625], "texture": "#0"},
				"down": {"uv": [4.71875, 0.25, 5.09375, 0.625], "texture": "#0"}
			}
		},
		{
			"name": "B0005_28",
			"from": [7.425, 1.47123, 12.55044],
			"to": [8.555, 2.29203, 12.59604],
			"rotation": {"angle": 0, "axis": "y", "origin": [7.58333, 2.708, 14.00204]},
			"faces": {
				"north": {"uv": [4.71875, 0.25, 5.09375, 0.625], "texture": "#0"},
				"east": {"uv": [4.71875, 0.25, 5.09375, 0.625], "texture": "#0"},
				"west": {"uv": [4.71875, 0.25, 5.09375, 0.625], "texture": "#0"},
				"up": {"uv": [4.71875, 0.25, 5.09375, 0.625], "texture": "#0"},
				"down": {"uv": [4.71875, 0.25, 5.09375, 0.625], "texture": "#0"}
			}
		},
		{
			"name": "B0005_29",
			"from": [7.425, 1.47123, 12.50484],
			"to": [8.555, 2.10963, 12.55044],
			"rotation": {"angle": 0, "axis": "y", "origin": [7.58333, 2.708, 14.00204]},
			"faces": {
				"north": {"uv": [4.71875, 0.25, 5.09375, 0.625], "texture": "#0"},
				"east": {"uv": [4.71875, 0.25, 5.09375, 0.625], "texture": "#0"},
				"west": {"uv": [4.71875, 0.25, 5.09375, 0.625], "texture": "#0"},
				"up": {"uv": [4.71875, 0.25, 5.09375, 0.625], "texture": "#0"},
				"down": {"uv": [4.71875, 0.25, 5.09375, 0.625], "texture": "#0"}
			}
		},
		{
			"name": "B0005_30",
			"from": [7.425, 1.88163, 14.92164],
			"to": [8.555, 2.10963, 15.19524],
			"rotation": {"angle": 0, "axis": "y", "origin": [7.58333, 2.708, 14.00204]},
			"faces": {
				"east": {"uv": [4.71875, 0.25, 5.09375, 0.625], "texture": "#0"},
				"south": {"uv": [4.71875, 0.25, 5.09375, 0.625], "texture": "#0"},
				"west": {"uv": [4.71875, 0.25, 5.09375, 0.625], "texture": "#0"},
				"down": {"uv": [4.71875, 0.25, 5.09375, 0.625], "texture": "#0"}
			}
		},
		{
			"name": "B0005_31",
			"from": [7.425, 1.47123, 12.45924],
			"to": [8.555, 1.92723, 12.50484],
			"rotation": {"angle": 0, "axis": "y", "origin": [7.58333, 2.708, 14.00204]},
			"faces": {
				"north": {"uv": [4.71875, 0.25, 5.09375, 0.625], "texture": "#0"},
				"east": {"uv": [4.71875, 0.25, 5.09375, 0.625], "texture": "#0"},
				"west": {"uv": [4.71875, 0.25, 5.09375, 0.625], "texture": "#0"},
				"up": {"uv": [4.71875, 0.25, 5.09375, 0.625], "texture": "#0"},
				"down": {"uv": [4.71875, 0.25, 5.09375, 0.625], "texture": "#0"}
			}
		},
		{
			"name": "B0005_32",
			"from": [7.425, 1.51683, 14.92164],
			"to": [8.555, 1.88163, 15.14964],
			"rotation": {"angle": 0, "axis": "y", "origin": [7.58333, 2.708, 14.00204]},
			"faces": {
				"east": {"uv": [4.71875, 0.25, 5.09375, 0.625], "texture": "#0"},
				"south": {"uv": [4.71875, 0.25, 5.09375, 0.625], "texture": "#0"},
				"west": {"uv": [4.71875, 0.25, 5.09375, 0.625], "texture": "#0"},
				"down": {"uv": [4.71875, 0.25, 5.09375, 0.625], "texture": "#0"}
			}
		},
		{
			"name": "B0005_33",
			"from": [7.425, 1.47123, 12.41364],
			"to": [8.555, 1.83603, 12.45924],
			"rotation": {"angle": 0, "axis": "y", "origin": [7.58333, 2.708, 14.00204]},
			"faces": {
				"north": {"uv": [4.71875, 0.25, 5.09375, 0.625], "texture": "#0"},
				"east": {"uv": [4.71875, 0.25, 5.09375, 0.625], "texture": "#0"},
				"west": {"uv": [4.71875, 0.25, 5.09375, 0.625], "texture": "#0"},
				"up": {"uv": [4.71875, 0.25, 5.09375, 0.625], "texture": "#0"},
				"down": {"uv": [4.71875, 0.25, 5.09375, 0.625], "texture": "#0"}
			}
		},
		{
			"name": "B0005_34",
			"from": [7.425, 1.56243, 12.36804],
			"to": [8.555, 1.74483, 12.41364],
			"rotation": {"angle": 0, "axis": "y", "origin": [7.58333, 2.708, 14.00204]},
			"faces": {
				"north": {"uv": [4.71875, 0.25, 5.09375, 0.625], "texture": "#0"},
				"east": {"uv": [4.71875, 0.25, 5.09375, 0.625], "texture": "#0"},
				"west": {"uv": [4.71875, 0.25, 5.09375, 0.625], "texture": "#0"},
				"up": {"uv": [4.71875, 0.25, 5.09375, 0.625], "texture": "#0"},
				"down": {"uv": [4.71875, 0.25, 5.09375, 0.625], "texture": "#0"}
			}
		},
		{
			"name": "B0005_35",
			"from": [7.425, 1.33443, 14.92164],
			"to": [8.555, 1.51683, 15.10404],
			"rotation": {"angle": 0, "axis": "y", "origin": [7.58333, 2.708, 14.00204]},
			"faces": {
				"east": {"uv": [4.71875, 0.25, 5.09375, 0.625], "texture": "#0"},
				"south": {"uv": [4.71875, 0.25, 5.09375, 0.625], "texture": "#0"},
				"west": {"uv": [4.71875, 0.25, 5.09375, 0.625], "texture": "#0"},
				"down": {"uv": [4.71875, 0.25, 5.09375, 0.625], "texture": "#0"}
			}
		},
		{
			"name": "B0005_36",
			"from": [7.425, 1.33443, 13.14324],
			"to": [8.555, 1.38003, 13.37124],
			"rotation": {"angle": 0, "axis": "y", "origin": [7.58333, 2.708, 14.00204]},
			"faces": {
				"north": {"uv": [4.71875, 0.25, 5.09375, 0.625], "texture": "#0"},
				"east": {"uv": [4.71875, 0.25, 5.09375, 0.625], "texture": "#0"},
				"west": {"uv": [4.71875, 0.25, 5.09375, 0.625], "texture": "#0"},
				"down": {"uv": [4.71875, 0.25, 5.09375, 0.625], "texture": "#0"}
			}
		},
		{
			"name": "B0005_37",
			"from": [7.425, 1.28883, 13.69044],
			"to": [8.555, 1.33443, 13.73604],
			"rotation": {"angle": 0, "axis": "y", "origin": [7.58333, 2.708, 14.00204]},
			"faces": {
				"north": {"uv": [4.71875, 0.25, 5.09375, 0.625], "texture": "#0"},
				"east": {"uv": [4.71875, 0.25, 5.09375, 0.625], "texture": "#0"},
				"west": {"uv": [4.71875, 0.25, 5.09375, 0.625], "texture": "#0"},
				"down": {"uv": [4.71875, 0.25, 5.09375, 0.625], "texture": "#0"}
			}
		},
		{
			"name": "B0005_38",
			"from": [7.425, 1.10643, 14.92164],
			"to": [8.555, 1.33443, 15.05844],
			"rotation": {"angle": 0, "axis": "y", "origin": [7.58333, 2.708, 14.00204]},
			"faces": {
				"east": {"uv": [4.71875, 0.25, 5.09375, 0.625], "texture": "#0"},
				"south": {"uv": [4.71875, 0.25, 5.09375, 0.625], "texture": "#0"},
				"west": {"uv": [4.71875, 0.25, 5.09375, 0.625], "texture": "#0"},
				"down": {"uv": [4.71875, 0.25, 5.09375, 0.625], "texture": "#0"}
			}
		},
		{
			"name": "B0005_39",
			"from": [7.425, 1.24323, 13.96404],
			"to": [8.555, 1.28883, 14.19204],
			"rotation": {"angle": 0, "axis": "y", "origin": [7.58333, 2.708, 14.00204]},
			"faces": {
				"north": {"uv": [4.71875, 0.25, 5.09375, 0.625], "texture": "#0"},
				"east": {"uv": [4.71875, 0.25, 5.09375, 0.625], "texture": "#0"},
				"west": {"uv": [4.71875, 0.25, 5.09375, 0.625], "texture": "#0"},
				"down": {"uv": [4.71875, 0.25, 5.09375, 0.625], "texture": "#0"}
			}
		},
		{
			"name": "B0005_40",
			"from": [7.425, 1.19763, 14.32884],
			"to": [8.555, 1.24323, 14.37444],
			"rotation": {"angle": 0, "axis": "y", "origin": [7.58333, 2.708, 14.00204]},
			"faces": {
				"north": {"uv": [4.71875, 0.25, 5.09375, 0.625], "texture": "#0"},
				"east": {"uv": [4.71875, 0.25, 5.09375, 0.625], "texture": "#0"},
				"west": {"uv": [4.71875, 0.25, 5.09375, 0.625], "texture": "#0"},
				"down": {"uv": [4.71875, 0.25, 5.09375, 0.625], "texture": "#0"}
			}
		},
		{
			"name": "B0005_41",
			"from": [7.425, 1.15203, 14.46564],
			"to": [8.555, 1.19763, 14.73924],
			"rotation": {"angle": 0, "axis": "y", "origin": [7.58333, 2.708, 14.00204]},
			"faces": {
				"north": {"uv": [4.71875, 0.25, 5.09375, 0.625], "texture": "#0"},
				"east": {"uv": [4.71875, 0.25, 5.09375, 0.625], "texture": "#0"},
				"west": {"uv": [4.71875, 0.25, 5.09375, 0.625], "texture": "#0"},
				"down": {"uv": [4.71875, 0.25, 5.09375, 0.625], "texture": "#0"}
			}
		},
		{
			"name": "B0005_42",
			"from": [7.425, 1.10643, 14.55684],
			"to": [8.555, 1.15203, 14.73924],
			"rotation": {"angle": 0, "axis": "y", "origin": [7.58333, 2.708, 14.00204]},
			"faces": {
				"north": {"uv": [4.71875, 0.25, 5.09375, 0.625], "texture": "#0"},
				"east": {"uv": [4.71875, 0.25, 5.09375, 0.625], "texture": "#0"},
				"west": {"uv": [4.71875, 0.25, 5.09375, 0.625], "texture": "#0"},
				"down": {"uv": [4.71875, 0.25, 5.09375, 0.625], "texture": "#0"}
			}
		},
		{
			"name": "B0005_43",
			"from": [7.425, 1.06083, 14.69364],
			"to": [8.555, 1.10643, 14.73924],
			"rotation": {"angle": 0, "axis": "y", "origin": [7.58333, 2.708, 14.00204]},
			"faces": {
				"north": {"uv": [4.71875, 0.25, 5.09375, 0.625], "texture": "#0"},
				"east": {"uv": [4.71875, 0.25, 5.09375, 0.625], "texture": "#0"},
				"west": {"uv": [4.71875, 0.25, 5.09375, 0.625], "texture": "#0"},
				"down": {"uv": [4.71875, 0.25, 5.09375, 0.625], "texture": "#0"}
			}
		},
		{
			"name": "B0005_44",
			"from": [7.425, 1.06083, 14.92164],
			"to": [8.555, 1.10643, 15.01284],
			"rotation": {"angle": 0, "axis": "y", "origin": [7.58333, 2.708, 14.00204]},
			"faces": {
				"east": {"uv": [4.71875, 0.25, 5.09375, 0.625], "texture": "#0"},
				"south": {"uv": [4.71875, 0.25, 5.09375, 0.625], "texture": "#0"},
				"west": {"uv": [4.71875, 0.25, 5.09375, 0.625], "texture": "#0"},
				"down": {"uv": [4.71875, 0.25, 5.09375, 0.625], "texture": "#0"}
			}
		},
		{
			"from": [7.425, 5.7, 13.1],
			"to": [8.555, 7.425, 15.65],
			"rotation": {"angle": 0, "axis": "y", "origin": [6.925, 5.75, 14]},
			"faces": {
				"north": {"uv": [4.71875, 0.25, 5.09375, 0.625], "texture": "#0"},
				"east": {"uv": [4.71875, 0.25, 5.09375, 0.625], "texture": "#0"},
				"west": {"uv": [4.71875, 0.25, 5.09375, 0.625], "texture": "#0"},
				"up": {"uv": [4.71875, 0.25, 5.09375, 0.625], "texture": "#0"}
			}
		},
		{
			"from": [7.4, 4.85, 13.575],
			"to": [8.575, 7.425, 15.675],
			"rotation": {"angle": 0, "axis": "y", "origin": [6.925, 5.75, 14]},
			"faces": {
				"north": {"uv": [3, 0, 3.375, 0.375], "texture": "#2"},
				"east": {"uv": [0, 0, 11.5, 16], "rotation": 180, "texture": "#2"},
				"south": {"uv": [4, 0, 12, 16], "texture": "#2"},
				"west": {"uv": [0, 0, 11.5, 16], "texture": "#2"},
				"up": {"uv": [3, 0, 3.375, 0.375], "texture": "#2"},
				"down": {"uv": [3, 0, 3.375, 0.375], "texture": "#2"}
			}
		},
		{
			"from": [7.2326, 3.10732, 13.93044],
			"to": [7.3418, 3.46768, 14.24712],
			"rotation": {"angle": 0, "axis": "y", "origin": [4.175, -0.125, 7.575]},
			"faces": {
				"north": {"uv": [6.90625, 0.375, 6.90625, 0.375], "texture": "#0"},
				"east": {"uv": [6.90625, 0.375, 6.90625, 0.375], "texture": "#0"},
				"south": {"uv": [6.90625, 0.375, 6.90625, 0.375], "texture": "#0"},
				"west": {"uv": [6.90625, 0.375, 6.90625, 0.375], "texture": "#0"},
				"up": {"uv": [6.90625, 0.375, 6.90625, 0.375], "texture": "#0"},
				"down": {"uv": [6.90625, 0.375, 6.90625, 0.375], "texture": "#0"}
			}
		},
		{
			"from": [7.22168, 3.17284, 14.00688],
			"to": [7.2326, 3.40216, 14.1816],
			"rotation": {"angle": 0, "axis": "y", "origin": [4.16408, -0.125, 7.575]},
			"faces": {
				"north": {"uv": [0, 0, 16, 16], "texture": "#1"},
				"south": {"uv": [0, 0, 16, 16], "texture": "#1"},
				"west": {"uv": [0, 0, 16, 16], "texture": "#1"},
				"up": {"uv": [0, 0, 16, 16], "texture": "#1"},
				"down": {"uv": [0, 0, 16, 16], "texture": "#1"}
			}
		},
		{
			"from": [7.27628, 3.46768, 14.02872],
			"to": [7.3418, 3.54412, 14.14884],
			"rotation": {"angle": 0, "axis": "y", "origin": [4.175, -0.10316, 7.575]},
			"faces": {
				"north": {"uv": [6.90625, 0.375, 6.90625, 0.375], "texture": "#0"},
				"east": {"uv": [6.90625, 0.375, 6.90625, 0.375], "texture": "#0"},
				"south": {"uv": [6.90625, 0.375, 6.90625, 0.375], "texture": "#0"},
				"west": {"uv": [6.90625, 0.375, 6.90625, 0.375], "texture": "#0"}
			}
		},
		{
			"from": [7.2326, 3.54412, 13.97412],
			"to": [7.3418, 3.76252, 14.20344],
			"rotation": {"angle": 0, "axis": "y", "origin": [4.175, -0.10316, 7.575]},
			"faces": {
				"north": {"uv": [6.90625, 0.375, 6.90625, 0.375], "texture": "#0"},
				"east": {"uv": [6.90625, 0.375, 6.90625, 0.375], "texture": "#0"},
				"south": {"uv": [6.90625, 0.375, 6.90625, 0.375], "texture": "#0"},
				"west": {"uv": [6.90625, 0.375, 6.90625, 0.375], "texture": "#0"},
				"up": {"uv": [6.90625, 0.375, 6.90625, 0.375], "texture": "#0"},
				"down": {"uv": [6.90625, 0.375, 6.90625, 0.375], "texture": "#0"}
			}
		},
		{
			"from": [7.30904, 3.66424, 13.89768],
			"to": [7.35272, 3.88264, 13.94136],
			"rotation": {"angle": -45, "axis": "x", "origin": [7.33088, 3.78436, 13.91952]},
			"faces": {
				"north": {"uv": [6.90625, 0.375, 6.90625, 0.375], "texture": "#0"},
				"east": {"uv": [6.90625, 0.375, 6.90625, 0.375], "texture": "#0"},
				"south": {"uv": [6.90625, 0.375, 6.90625, 0.375], "texture": "#0"},
				"west": {"uv": [6.90625, 0.375, 6.90625, 0.375], "texture": "#0"},
				"up": {"uv": [6.90625, 0.375, 6.90625, 0.375], "texture": "#0"},
				"down": {"uv": [6.90625, 0.375, 6.90625, 0.375], "texture": "#0"}
			}
		},
		{
			"from": [7.2664, 3.66424, 13.80125],
			"to": [7.31008, 3.70792, 14.01965],
			"rotation": {"angle": -22.5, "axis": "y", "origin": [7.38548, 3.67563, 14.08813]},
			"faces": {
				"north": {"uv": [6.90625, 0.375, 6.90625, 0.375], "rotation": 270, "texture": "#0"},
				"east": {"uv": [6.90625, 0.375, 6.90625, 0.375], "rotation": 270, "texture": "#0"},
				"south": {"uv": [6.90625, 0.375, 6.90625, 0.375], "rotation": 270, "texture": "#0"},
				"west": {"uv": [6.90625, 0.375, 6.90625, 0.375], "rotation": 270, "texture": "#0"},
				"up": {"uv": [6.90625, 0.375, 6.90625, 0.375], "rotation": 270, "texture": "#0"},
				"down": {"uv": [6.90625, 0.375, 6.90625, 0.375], "rotation": 270, "texture": "#0"}
			}
		},
		{
			"from": [7.38548, 3.77394, 13.71618],
			"to": [7.42916, 3.81762, 13.82538],
			"rotation": {"angle": -22.5, "axis": "x", "origin": [7.38548, 3.67563, 14.08813]},
			"faces": {
				"north": {"uv": [6.90625, 0.375, 6.90625, 0.375], "rotation": 270, "texture": "#0"},
				"east": {"uv": [6.90625, 0.375, 6.90625, 0.375], "rotation": 270, "texture": "#0"},
				"south": {"uv": [6.90625, 0.375, 6.90625, 0.375], "rotation": 270, "texture": "#0"},
				"west": {"uv": [6.90625, 0.375, 6.90625, 0.375], "rotation": 270, "texture": "#0"},
				"up": {"uv": [6.90625, 0.375, 6.90625, 0.375], "rotation": 270, "texture": "#0"},
				"down": {"uv": [6.90625, 0.375, 6.90625, 0.375], "rotation": 270, "texture": "#0"}
			}
		},
		{
			"from": [7.38548, 3.77344, 14.34968],
			"to": [7.42916, 3.81712, 14.45888],
			"rotation": {"angle": 22.5, "axis": "x", "origin": [7.38548, 3.67563, 14.08813]},
			"faces": {
				"north": {"uv": [6.90625, 0.375, 6.90625, 0.375], "rotation": 270, "texture": "#0"},
				"east": {"uv": [6.90625, 0.375, 6.90625, 0.375], "rotation": 270, "texture": "#0"},
				"south": {"uv": [6.90625, 0.375, 6.90625, 0.375], "rotation": 270, "texture": "#0"},
				"west": {"uv": [6.90625, 0.375, 6.90625, 0.375], "rotation": 270, "texture": "#0"},
				"up": {"uv": [6.90625, 0.375, 6.90625, 0.375], "rotation": 270, "texture": "#0"},
				"down": {"uv": [6.90625, 0.375, 6.90625, 0.375], "rotation": 270, "texture": "#0"}
			}
		},
		{
			"from": [7.2659, 3.66424, 14.15781],
			"to": [7.30958, 3.70792, 14.37621],
			"rotation": {"angle": 22.5, "axis": "y", "origin": [7.38548, 3.67563, 14.08813]},
			"faces": {
				"north": {"uv": [6.90625, 0.375, 6.90625, 0.375], "rotation": 270, "texture": "#0"},
				"east": {"uv": [6.90625, 0.375, 6.90625, 0.375], "rotation": 270, "texture": "#0"},
				"south": {"uv": [6.90625, 0.375, 6.90625, 0.375], "rotation": 270, "texture": "#0"},
				"west": {"uv": [6.90625, 0.375, 6.90625, 0.375], "rotation": 270, "texture": "#0"},
				"up": {"uv": [6.90625, 0.375, 6.90625, 0.375], "rotation": 270, "texture": "#0"},
				"down": {"uv": [6.90625, 0.375, 6.90625, 0.375], "rotation": 270, "texture": "#0"}
			}
		},
		{
			"from": [7.35272, 3.82804, 13.83216],
			"to": [7.3964, 4.04644, 13.87584],
			"rotation": {"angle": -22.5, "axis": "z", "origin": [7.37456, 3.94816, 13.854]},
			"faces": {
				"north": {"uv": [6.90625, 0.375, 6.90625, 0.375], "texture": "#0"},
				"east": {"uv": [6.90625, 0.375, 6.90625, 0.375], "texture": "#0"},
				"south": {"uv": [6.90625, 0.375, 6.90625, 0.375], "texture": "#0"},
				"west": {"uv": [6.90625, 0.375, 6.90625, 0.375], "texture": "#0"},
				"up": {"uv": [6.90625, 0.375, 6.90625, 0.375], "texture": "#0"},
				"down": {"uv": [6.90625, 0.375, 6.90625, 0.375], "texture": "#0"}
			}
		},
		{
			"from": [7.35272, 3.82804, 14.30172],
			"to": [7.3964, 4.04644, 14.3454],
			"rotation": {"angle": -22.5, "axis": "z", "origin": [7.37456, 3.94816, 14.32356]},
			"faces": {
				"north": {"uv": [6.90625, 0.375, 6.90625, 0.375], "texture": "#0"},
				"east": {"uv": [6.90625, 0.375, 6.90625, 0.375], "texture": "#0"},
				"south": {"uv": [6.90625, 0.375, 6.90625, 0.375], "texture": "#0"},
				"west": {"uv": [6.90625, 0.375, 6.90625, 0.375], "texture": "#0"},
				"up": {"uv": [6.90625, 0.375, 6.90625, 0.375], "texture": "#0"},
				"down": {"uv": [6.90625, 0.375, 6.90625, 0.375], "texture": "#0"}
			}
		},
		{
			"from": [7.30904, 3.66744, 14.233],
			"to": [7.35272, 3.88584, 14.27668],
			"rotation": {"angle": 45, "axis": "x", "origin": [7.33088, 3.77664, 14.25484]},
			"faces": {
				"north": {"uv": [6.90625, 0.375, 6.90625, 0.375], "texture": "#0"},
				"east": {"uv": [6.90625, 0.375, 6.90625, 0.375], "texture": "#0"},
				"south": {"uv": [6.90625, 0.375, 6.90625, 0.375], "texture": "#0"},
				"west": {"uv": [6.90625, 0.375, 6.90625, 0.375], "texture": "#0"},
				"up": {"uv": [6.90625, 0.375, 6.90625, 0.375], "texture": "#0"},
				"down": {"uv": [6.90625, 0.375, 6.90625, 0.375], "texture": "#0"}
			}
		},
		{
			"from": [7.2326, 2.9872, 13.9632],
			"to": [7.3418, 3.10732, 14.20344],
			"rotation": {"angle": 0, "axis": "y", "origin": [4.175, -0.15776, 7.575]},
			"faces": {
				"north": {"uv": [6.90625, 0.375, 6.90625, 0.375], "texture": "#0"},
				"east": {"uv": [6.90625, 0.375, 6.90625, 0.375], "texture": "#0"},
				"south": {"uv": [6.90625, 0.375, 6.90625, 0.375], "texture": "#0"},
				"west": {"uv": [6.90625, 0.375, 6.90625, 0.375], "texture": "#0"},
				"down": {"uv": [6.90625, 0.375, 6.90625, 0.375], "texture": "#0"}
			}
		},
		{
			"from": [7.20038, 3.59872, 14.15781],
			"to": [7.24406, 3.6424, 14.43081],
			"rotation": {"angle": 22.5, "axis": "y", "origin": [7.31996, 3.61011, 14.08813]},
			"faces": {
				"east": {"uv": [6.90625, 0.375, 6.90625, 0.375], "rotation": 270, "texture": "#0"},
				"south": {"uv": [6.90625, 0.375, 6.90625, 0.375], "rotation": 270, "texture": "#0"},
				"west": {"uv": [6.90625, 0.375, 6.90625, 0.375], "rotation": 270, "texture": "#0"},
				"up": {"uv": [6.90625, 0.375, 6.90625, 0.375], "rotation": 270, "texture": "#0"},
				"down": {"uv": [6.90625, 0.375, 6.90625, 0.375], "rotation": 270, "texture": "#0"}
			}
		},
		{
			"from": [7.33088, 3.70792, 14.40428],
			"to": [7.37456, 3.7516, 14.61176],
			"rotation": {"angle": 22.5, "axis": "x", "origin": [7.33088, 3.61011, 14.14273]},
			"faces": {
				"north": {"uv": [6.90625, 0.375, 6.90625, 0.375], "texture": "#0"},
				"east": {"uv": [6.90625, 0.375, 6.90625, 0.375], "texture": "#0"},
				"south": {"uv": [6.90625, 0.375, 6.90625, 0.375], "texture": "#0"},
				"west": {"uv": [6.90625, 0.375, 6.90625, 0.375], "texture": "#0"},
				"up": {"uv": [6.90625, 0.375, 6.90625, 0.375], "texture": "#0"},
				"down": {"uv": [6.90625, 0.375, 6.90625, 0.375], "texture": "#0"}
			}
		},
		{
			"from": [7.33088, 3.70842, 13.58514],
			"to": [7.37456, 3.7521, 13.7817],
			"rotation": {"angle": -22.5, "axis": "x", "origin": [7.33088, 3.61011, 14.04445]},
			"faces": {
				"north": {"uv": [6.90625, 0.375, 6.90625, 0.375], "texture": "#0"},
				"east": {"uv": [6.90625, 0.375, 6.90625, 0.375], "texture": "#0"},
				"south": {"uv": [6.90625, 0.375, 6.90625, 0.375], "texture": "#0"},
				"west": {"uv": [6.90625, 0.375, 6.90625, 0.375], "texture": "#0"},
				"up": {"uv": [6.90625, 0.375, 6.90625, 0.375], "texture": "#0"},
				"down": {"uv": [6.90625, 0.375, 6.90625, 0.375], "texture": "#0"}
			}
		},
		{
			"from": [7.20088, 3.59872, 13.74665],
			"to": [7.24456, 3.6424, 14.01965],
			"rotation": {"angle": -22.5, "axis": "y", "origin": [7.31996, 3.61011, 14.08813]},
			"faces": {
				"north": {"uv": [6.90625, 0.375, 6.90625, 0.375], "rotation": 270, "texture": "#0"},
				"east": {"uv": [6.90625, 0.375, 6.90625, 0.375], "rotation": 270, "texture": "#0"},
				"west": {"uv": [6.90625, 0.375, 6.90625, 0.375], "rotation": 270, "texture": "#0"},
				"up": {"uv": [6.90625, 0.375, 6.90625, 0.375], "rotation": 270, "texture": "#0"},
				"down": {"uv": [6.90625, 0.375, 6.90625, 0.375], "rotation": 270, "texture": "#0"}
			}
		},
		{
			"from": [7.25437, 3.50044, 13.74234],
			"to": [7.29805, 3.54412, 14.01534],
			"rotation": {"angle": -22.5, "axis": "x", "origin": [7.27621, 3.52228, 13.87884]},
			"faces": {
				"north": {"uv": [6.90625, 0.375, 6.90625, 0.375], "rotation": 270, "texture": "#0"},
				"east": {"uv": [6.90625, 0.375, 6.90625, 0.375], "rotation": 270, "texture": "#0"},
				"west": {"uv": [6.90625, 0.375, 6.90625, 0.375], "rotation": 270, "texture": "#0"},
				"up": {"uv": [6.90625, 0.375, 6.90625, 0.375], "rotation": 270, "texture": "#0"},
				"down": {"uv": [6.90625, 0.375, 6.90625, 0.375], "rotation": 270, "texture": "#0"}
			}
		},
		{
			"from": [7.30904, 3.08063, 13.69768],
			"to": [7.35272, 3.48467, 13.74136],
			"rotation": {"angle": 22.5, "axis": "x", "origin": [7.33088, 3.38639, 13.71952]},
			"faces": {
				"north": {"uv": [6.90625, 0.375, 6.90625, 0.375], "texture": "#0"},
				"east": {"uv": [6.90625, 0.375, 6.90625, 0.375], "texture": "#0"},
				"south": {"uv": [6.90625, 0.375, 6.90625, 0.375], "texture": "#0"},
				"west": {"uv": [6.90625, 0.375, 6.90625, 0.375], "texture": "#0"},
				"up": {"uv": [6.90625, 0.375, 6.90625, 0.375], "texture": "#0"},
				"down": {"uv": [6.90625, 0.375, 6.90625, 0.375], "texture": "#0"}
			}
		},
		{
			"from": [7.30904, 3.07308, 14.43864],
			"to": [7.35272, 3.48804, 14.48232],
			"rotation": {"angle": -22.5, "axis": "x", "origin": [7.33088, 3.3843, 14.46048]},
			"faces": {
				"north": {"uv": [6.90625, 0.375, 6.90625, 0.375], "texture": "#0"},
				"east": {"uv": [6.90625, 0.375, 6.90625, 0.375], "texture": "#0"},
				"south": {"uv": [6.90625, 0.375, 6.90625, 0.375], "texture": "#0"},
				"west": {"uv": [6.90625, 0.375, 6.90625, 0.375], "texture": "#0"},
				"up": {"uv": [6.90625, 0.375, 6.90625, 0.375], "texture": "#0"},
				"down": {"uv": [6.90625, 0.375, 6.90625, 0.375], "texture": "#0"}
			}
		},
		{
			"from": [7.25437, 3.50044, 14.16222],
			"to": [7.29805, 3.54412, 14.43522],
			"rotation": {"angle": 22.5, "axis": "x", "origin": [7.27621, 3.52228, 14.29872]},
			"faces": {
				"east": {"uv": [6.90625, 0.375, 6.90625, 0.375], "rotation": 270, "texture": "#0"},
				"south": {"uv": [6.90625, 0.375, 6.90625, 0.375], "rotation": 270, "texture": "#0"},
				"west": {"uv": [6.90625, 0.375, 6.90625, 0.375], "rotation": 270, "texture": "#0"},
				"up": {"uv": [6.90625, 0.375, 6.90625, 0.375], "rotation": 270, "texture": "#0"},
				"down": {"uv": [6.90625, 0.375, 6.90625, 0.375], "rotation": 270, "texture": "#0"}
			}
		},
		{
			"from": [7.32926, 3.88846, 14.1212],
			"to": [7.37294, 3.97582, 14.16488],
			"rotation": {"angle": -22.5, "axis": "x", "origin": [7.3511, 3.93214, 14.14304]},
			"faces": {
				"north": {"uv": [6.90625, 0.375, 6.90625, 0.375], "texture": "#0"},
				"east": {"uv": [6.90625, 0.375, 6.90625, 0.375], "texture": "#0"},
				"south": {"uv": [6.90625, 0.375, 6.90625, 0.375], "texture": "#0"},
				"west": {"uv": [6.90625, 0.375, 6.90625, 0.375], "texture": "#0"},
				"up": {"uv": [6.90625, 0.375, 6.90625, 0.375], "texture": "#0"},
				"down": {"uv": [6.90625, 0.375, 6.90625, 0.375], "texture": "#0"}
			}
		},
		{
			"from": [7.32926, 3.88513, 14.02872],
			"to": [7.37294, 3.97249, 14.0724],
			"rotation": {"angle": 22.5, "axis": "x", "origin": [7.3511, 3.97249, 14.05056]},
			"faces": {
				"north": {"uv": [6.90625, 0.375, 6.90625, 0.375], "texture": "#0"},
				"east": {"uv": [6.90625, 0.375, 6.90625, 0.375], "texture": "#0"},
				"south": {"uv": [6.90625, 0.375, 6.90625, 0.375], "texture": "#0"},
				"west": {"uv": [6.90625, 0.375, 6.90625, 0.375], "texture": "#0"},
				"up": {"uv": [6.90625, 0.375, 6.90625, 0.375], "texture": "#0"},
				"down": {"uv": [6.90625, 0.375, 6.90625, 0.375], "texture": "#0"}
			}
		},
		{
			"from": [7.30904, 3.72976, 13.99596],
			"to": [7.35272, 3.90448, 14.03964],
			"rotation": {"angle": -22.5, "axis": "z", "origin": [7.33088, 3.84988, 14.0178]},
			"faces": {
				"north": {"uv": [6.90625, 0.375, 6.90625, 0.375], "texture": "#0"},
				"east": {"uv": [6.90625, 0.375, 6.90625, 0.375], "texture": "#0"},
				"south": {"uv": [6.90625, 0.375, 6.90625, 0.375], "texture": "#0"},
				"west": {"uv": [6.90625, 0.375, 6.90625, 0.375], "texture": "#0"},
				"up": {"uv": [6.90625, 0.375, 6.90625, 0.375], "texture": "#0"}
			}
		},
		{
			"from": [7.30904, 3.72976, 14.13792],
			"to": [7.35272, 3.90448, 14.1816],
			"rotation": {"angle": -22.5, "axis": "z", "origin": [7.33088, 3.84988, 14.15976]},
			"faces": {
				"north": {"uv": [6.90625, 0.375, 6.90625, 0.375], "texture": "#0"},
				"east": {"uv": [6.90625, 0.375, 6.90625, 0.375], "texture": "#0"},
				"south": {"uv": [6.90625, 0.375, 6.90625, 0.375], "texture": "#0"},
				"west": {"uv": [6.90625, 0.375, 6.90625, 0.375], "texture": "#0"},
				"up": {"uv": [6.90625, 0.375, 6.90625, 0.375], "texture": "#0"}
			}
		}
	],
	"groups": [
		{
			"name": "mag",
			"origin": [8, 8, 8],
			"color": 0,
			"children": [0, 1, 2, 3, 4, 5, 6, 7, 8, 9, 10, 11, 12, 13, 14, 15, 16, 17, 18, 19, 20, 21, 22, 23, 24, 25, 26, 27, 28, 29, 30, 31, 32, 33, 34, 35, 36, 37, 38, 39, 40, 41, 42, 43, 44]
		},
		{
			"name": "spider",
			"origin": [8, 8, 8],
			"color": 0,
			"children": [45, 46, 47, 48, 49, 50, 51, 52, 53, 54, 55, 56, 57, 58, 59, 60, 61, 62, 63, 64, 65, 66, 67, 68, 69]
		}
	]
}