{
	"credit": "Made with Blockbench",
	"textures": {
		"0": "ava:item/gun_textures/palette_black",
		"particle": "ava:item/gun_textures/palette_black"
	},
	"elements": [
		{
			"name": "hexadecagon",
			"from": [7.4496, 7.95, -9],
			"to": [8.5504, 9.05078, -7],
			"rotation": {"angle": 0, "axis": "z", "origin": [7.559, 8.5, -8]},
			"faces": {
				"north": {"uv": [6.59375, 0.75, 6.59375, 0.75], "texture": "#0"},
				"east": {"uv": [6.59375, 0.75, 6.59375, 0.75], "texture": "#0"},
				"south": {"uv": [6.59375, 0.75, 6.59375, 0.75], "texture": "#0"},
				"west": {"uv": [6.59375, 0.75, 6.59375, 0.75], "texture": "#0"},
				"up": {"uv": [6.59375, 0.75, 6.59375, 0.75], "texture": "#0"},
				"down": {"uv": [6.59375, 0.75, 6.59375, 0.75], "texture": "#0"}
			}
		},
		{
			"name": "hexadecagon",
			"from": [7.5597, 8.06, -7],
			"to": [8.4403, 8.94063, -1],
			"rotation": {"angle": 0, "axis": "z", "origin": [7.64722, 8.5, -6]},
			"faces": {
				"east": {"uv": [6.59375, 0.71875, 6.59375, 0.71875], "texture": "#0"},
				"south": {"uv": [6.59375, 0.71875, 6.59375, 0.71875], "texture": "#0"},
				"west": {"uv": [6.59375, 0.71875, 6.59375, 0.71875], "texture": "#0"},
				"up": {"uv": [6.59375, 0.71875, 6.59375, 0.71875], "texture": "#0"},
				"down": {"uv": [6.59375, 0.71875, 6.59375, 0.71875], "texture": "#0"}
			}
		},
		{
			"name": "hexadecagon",
			"from": [7.4496, 7.95, -6.5],
			"to": [8.5504, 9.05078, -5.5],
			"rotation": {"angle": 0, "axis": "z", "origin": [7.559, 8.5, -5.5]},
			"faces": {
				"north": {"uv": [6.5625, 0.6875, 6.5625, 0.6875], "texture": "#0"},
				"east": {"uv": [6.5625, 0.6875, 6.5625, 0.6875], "texture": "#0"},
				"south": {"uv": [6.5625, 0.6875, 6.5625, 0.6875], "texture": "#0"},
				"west": {"uv": [6.5625, 0.6875, 6.5625, 0.6875], "texture": "#0"},
				"up": {"uv": [6.5625, 0.6875, 6.5625, 0.6875], "texture": "#0"},
				"down": {"uv": [6.5625, 0.6875, 6.5625, 0.6875], "texture": "#0"}
			}
		},
		{
			"name": "hexadecagon",
			"from": [7.87239, 7.85848, -2],
			"to": [8.12761, 8.2084, 8],
			"rotation": {"angle": -45, "axis": "z", "origin": [8, 8.5, -1]},
			"faces": {
				"north": {"uv": [6.6875, 0.65625, 6.6875, 0.65625], "texture": "#0"},
				"south": {"uv": [6.6875, 0.65625, 6.6875, 0.65625], "texture": "#0"},
				"down": {"uv": [6.6875, 0.65625, 6.6875, 0.65625], "texture": "#0"}
			}
		},
		{
			"name": "hexadecagon",
			"from": [7.87239, 7.85848, -2],
			"to": [8.12761, 8.2084, 8],
			"rotation": {"angle": -22.5, "axis": "z", "origin": [8, 8.5, -1]},
			"faces": {
				"north": {"uv": [6.6875, 0.65625, 6.6875, 0.65625], "texture": "#0"},
				"south": {"uv": [6.6875, 0.65625, 6.6875, 0.65625], "texture": "#0"},
				"down": {"uv": [6.6875, 0.65625, 6.6875, 0.65625], "texture": "#0"}
			}
		},
		{
			"name": "hexadecagon",
			"from": [7.87239, 7.85848, -2],
			"to": [8.12761, 8.2084, 8],
			"rotation": {"angle": 0, "axis": "z", "origin": [8, 8.5, -1]},
			"faces": {
				"north": {"uv": [6.6875, 0.65625, 6.6875, 0.65625], "texture": "#0"},
				"down": {"uv": [6.6875, 0.65625, 6.6875, 0.65625], "texture": "#0"}
			}
		},
		{
			"name": "hexadecagon",
			"from": [7.87239, 7.85848, -2],
			"to": [8.12761, 8.2084, 8],
			"rotation": {"angle": 22.5, "axis": "z", "origin": [8, 8.5, -1]},
			"faces": {
				"north": {"uv": [6.6875, 0.65625, 6.6875, 0.65625], "texture": "#0"},
				"south": {"uv": [6.6875, 0.65625, 6.6875, 0.65625], "texture": "#0"},
				"down": {"uv": [6.6875, 0.65625, 6.6875, 0.65625], "texture": "#0"}
			}
		},
		{
			"name": "hexadecagon",
			"from": [7.87239, 7.85848, -2],
			"to": [8.12761, 8.2084, 8],
			"rotation": {"angle": 45, "axis": "z", "origin": [8, 8.5, -1]},
			"faces": {
				"north": {"uv": [6.6875, 0.65625, 6.6875, 0.65625], "texture": "#0"},
				"south": {"uv": [6.6875, 0.65625, 6.6875, 0.65625], "texture": "#0"},
				"down": {"uv": [6.6875, 0.65625, 6.6875, 0.65625], "texture": "#0"}
			}
		},
		{
			"name": "hexadecagon",
			"from": [7.87239, 8.7916, -2],
			"to": [8.12761, 9.14152, 8],
			"rotation": {"angle": -45, "axis": "z", "origin": [8, 8.5, -1]},
			"faces": {
				"north": {"uv": [6.6875, 0.65625, 6.6875, 0.65625], "texture": "#0"},
				"south": {"uv": [6.6875, 0.65625, 6.6875, 0.65625], "texture": "#0"},
				"up": {"uv": [6.6875, 0.65625, 6.6875, 0.65625], "texture": "#0"}
			}
		},
		{
			"name": "hexadecagon",
			"from": [7.87239, 8.7916, -2],
			"to": [8.12761, 9.14152, 8],
			"rotation": {"angle": -22.5, "axis": "z", "origin": [8, 8.5, -1]},
			"faces": {
				"north": {"uv": [6.6875, 0.65625, 6.6875, 0.65625], "texture": "#0"},
				"south": {"uv": [6.6875, 0.65625, 6.6875, 0.65625], "texture": "#0"},
				"up": {"uv": [6.6875, 0.65625, 6.6875, 0.65625], "texture": "#0"}
			}
		},
		{
			"name": "hexadecagon",
			"from": [7.87239, 8.7916, -2],
			"to": [8.12761, 9.14152, 8],
			"rotation": {"angle": 0, "axis": "z", "origin": [8, 8.5, -1]},
			"faces": {
				"north": {"uv": [6.6875, 0.65625, 6.6875, 0.65625], "texture": "#0"},
				"up": {"uv": [6.6875, 0.65625, 6.6875, 0.65625], "texture": "#0"}
			}
		},
		{
			"name": "hexadecagon",
			"from": [7.87239, 8.7916, -2],
			"to": [8.12761, 9.14152, 8],
			"rotation": {"angle": 22.5, "axis": "z", "origin": [8, 8.5, -1]},
			"faces": {
				"north": {"uv": [6.6875, 0.65625, 6.6875, 0.65625], "texture": "#0"},
				"south": {"uv": [6.6875, 0.65625, 6.6875, 0.65625], "texture": "#0"},
				"up": {"uv": [6.6875, 0.65625, 6.6875, 0.65625], "texture": "#0"}
			}
		},
		{
			"name": "hexadecagon",
			"from": [7.87239, 8.7916, -2],
			"to": [8.12761, 9.14152, 8],
			"rotation": {"angle": 45, "axis": "z", "origin": [8, 8.5, -1]},
			"faces": {
				"north": {"uv": [6.6875, 0.65625, 6.6875, 0.65625], "texture": "#0"},
				"south": {"uv": [6.6875, 0.65625, 6.6875, 0.65625], "texture": "#0"},
				"up": {"uv": [6.6875, 0.65625, 6.6875, 0.65625], "texture": "#0"}
			}
		},
		{
			"name": "hexadecagon",
			"from": [7.35848, 8.37239, -2],
			"to": [7.7084, 8.62761, 8],
			"rotation": {"angle": -22.5, "axis": "z", "origin": [8, 8.5, -1]},
			"faces": {
				"north": {"uv": [6.6875, 0.65625, 6.6875, 0.65625], "texture": "#0"},
				"south": {"uv": [6.6875, 0.65625, 6.6875, 0.65625], "texture": "#0"},
				"west": {"uv": [6.6875, 0.65625, 6.6875, 0.65625], "texture": "#0"}
			}
		},
		{
			"name": "hexadecagon",
			"from": [7.35848, 8.37239, -2],
			"to": [7.7084, 8.62761, 8],
			"rotation": {"angle": 0, "axis": "z", "origin": [8, 8.5, -1]},
			"faces": {
				"north": {"uv": [6.6875, 0.65625, 6.6875, 0.65625], "texture": "#0"},
				"west": {"uv": [6.6875, 0.65625, 6.6875, 0.65625], "texture": "#0"}
			}
		},
		{
			"name": "hexadecagon",
			"from": [7.35848, 8.37239, -2],
			"to": [7.7084, 8.62761, 8],
			"rotation": {"angle": 22.5, "axis": "z", "origin": [8, 8.5, -1]},
			"faces": {
				"north": {"uv": [6.6875, 0.65625, 6.6875, 0.65625], "texture": "#0"},
				"south": {"uv": [6.6875, 0.65625, 6.6875, 0.65625], "texture": "#0"},
				"west": {"uv": [6.6875, 0.65625, 6.6875, 0.65625], "texture": "#0"}
			}
		},
		{
			"name": "hexadecagon",
			"from": [8.2916, 8.37239, -2],
			"to": [8.64152, 8.62761, 8],
			"rotation": {"angle": -22.5, "axis": "z", "origin": [8, 8.5, -1]},
			"faces": {
				"north": {"uv": [6.6875, 0.65625, 6.6875, 0.65625], "texture": "#0"},
				"east": {"uv": [6.6875, 0.65625, 6.6875, 0.65625], "texture": "#0"},
				"south": {"uv": [6.6875, 0.65625, 6.6875, 0.65625], "texture": "#0"}
			}
		},
		{
			"name": "hexadecagon",
			"from": [8.2916, 8.37239, -2],
			"to": [8.64152, 8.62761, 8],
			"rotation": {"angle": 0, "axis": "z", "origin": [8, 8.5, -1]},
			"faces": {
				"north": {"uv": [6.6875, 0.65625, 6.6875, 0.65625], "texture": "#0"},
				"east": {"uv": [6.6875, 0.65625, 6.6875, 0.65625], "texture": "#0"}
			}
		},
		{
			"name": "hexadecagon",
			"from": [8.2916, 8.37239, -2],
			"to": [8.64152, 8.62761, 8],
			"rotation": {"angle": 22.5, "axis": "z", "origin": [8, 8.5, -1]},
			"faces": {
				"north": {"uv": [6.6875, 0.65625, 6.6875, 0.65625], "texture": "#0"},
				"east": {"uv": [6.6875, 0.65625, 6.6875, 0.65625], "texture": "#0"},
				"south": {"uv": [6.6875, 0.65625, 6.6875, 0.65625], "texture": "#0"}
			}
		},
		{
			"name": "hexadecagon",
			"from": [7.75, 7.5, -1],
			"to": [8.25, 7.9, 7],
			"rotation": {"angle": 0, "axis": "z", "origin": [7.95, 8.15, 0]},
			"faces": {
				"north": {"uv": [6.59375, 0.5, 6.59375, 0.5], "texture": "#0"},
				"east": {"uv": [6.59375, 0.5, 6.59375, 0.5], "texture": "#0"},
				"west": {"uv": [6.59375, 0.5, 6.59375, 0.5], "texture": "#0"},
				"up": {"uv": [6.59375, 0.5, 6.59375, 0.5], "texture": "#0"},
				"down": {"uv": [6.59375, 0.5, 6.59375, 0.5], "texture": "#0"}
			}
		},
		{
			"name": "hexadecagon",
			"from": [7.1, 7.725, 2.5],
			"to": [8.9, 8.75, 7],
			"rotation": {"angle": 0, "axis": "z", "origin": [7.3, 8.275, 4]},
			"faces": {
				"north": {"uv": [6.625, 0.6875, 6.625, 0.6875], "texture": "#0"},
				"east": {"uv": [6.625, 0.6875, 6.625, 0.6875], "texture": "#0"},
				"south": {"uv": [6.625, 0.6875, 6.625, 0.6875], "texture": "#0"},
				"west": {"uv": [6.625, 0.6875, 6.625, 0.6875], "texture": "#0"},
				"up": {"uv": [6.625, 0.6875, 6.625, 0.6875], "texture": "#0"},
				"down": {"uv": [6.625, 0.6875, 6.625, 0.6875], "texture": "#0"}
			}
		},
		{
			"name": "hexadecagon",
			"from": [7.25, 8.2, -1],
			"to": [8.75, 8.9, 8],
			"rotation": {"angle": 0, "axis": "y", "origin": [7.95, 8.375, 0]},
			"faces": {
				"north": {"uv": [6.59375, 0.5, 6.59375, 0.5], "texture": "#0"},
				"east": {"uv": [6.59375, 0.5, 6.59375, 0.5], "texture": "#0"},
				"south": {"uv": [6.59375, 0.5, 6.59375, 0.5], "texture": "#0"},
				"west": {"uv": [6.59375, 0.5, 6.59375, 0.5], "texture": "#0"},
				"up": {"uv": [6.59375, 0.5, 6.59375, 0.5], "texture": "#0"},
				"down": {"uv": [6.59375, 0.5, 6.59375, 0.5], "texture": "#0"}
			}
		},
		{
			"name": "hexadecagon",
			"from": [7.25, 7.2, 8],
			"to": [8.75, 8.7, 16],
			"rotation": {"angle": 0, "axis": "y", "origin": [7.95, 7.375, 9]},
			"faces": {
				"north": {"uv": [6.625, 0.65625, 6.625, 0.65625], "texture": "#0"},
				"east": {"uv": [6.625, 0.65625, 6.625, 0.65625], "texture": "#0"},
				"south": {"uv": [6.625, 0.65625, 6.625, 0.65625], "texture": "#0"},
				"west": {"uv": [6.625, 0.65625, 6.625, 0.65625], "texture": "#0"},
				"up": {"uv": [6.625, 0.65625, 6.625, 0.65625], "texture": "#0"},
				"down": {"uv": [6.625, 0.65625, 6.625, 0.65625], "texture": "#0"}
			}
		},
		{
			"name": "hexadecagon",
			"from": [7.5, 6.85, 7.25],
			"to": [8.5, 7.6, 8],
			"rotation": {"angle": 0, "axis": "y", "origin": [8.2, 7.025, 8.25]},
			"faces": {
				"north": {"uv": [6.625, 0.59375, 6.625, 0.59375], "texture": "#0"},
				"east": {"uv": [6.625, 0.59375, 6.625, 0.59375], "texture": "#0"},
				"west": {"uv": [6.625, 0.59375, 6.625, 0.59375], "texture": "#0"},
				"up": {"uv": [6.625, 0.59375, 6.625, 0.59375], "texture": "#0"},
				"down": {"uv": [6.625, 0.59375, 6.625, 0.59375], "texture": "#0"}
			}
		},
		{
			"name": "hexadecagon",
			"from": [7.25, 6.45, 8],
			"to": [8.75, 7.2, 14],
			"rotation": {"angle": 0, "axis": "y", "origin": [7.95, 6.625, 9]},
			"faces": {
				"north": {"uv": [6.625, 0.65625, 6.625, 0.65625], "texture": "#0"},
				"east": {"uv": [6.625, 0.65625, 6.625, 0.65625], "texture": "#0"},
				"west": {"uv": [6.625, 0.65625, 6.625, 0.65625], "texture": "#0"},
				"down": {"uv": [6.625, 0.65625, 6.625, 0.65625], "texture": "#0"}
			}
		},
		{
			"name": "hexadecagon",
			"from": [7.25, 6.45, 13.225],
			"to": [8.75, 7.45, 14.225],
			"rotation": {"angle": 22.5, "axis": "x", "origin": [8, 6.95, 13.725]},
			"faces": {
				"east": {"uv": [6.625, 0.65625, 6.625, 0.65625], "texture": "#0"},
				"south": {"uv": [6.625, 0.65625, 6.625, 0.65625], "texture": "#0"},
				"west": {"uv": [6.625, 0.65625, 6.625, 0.65625], "texture": "#0"},
				"down": {"uv": [6.625, 0.65625, 6.625, 0.65625], "texture": "#0"}
			}
		},
		{
			"name": "hexadecagon",
			"from": [7.15, 5.55, 10.225],
			"to": [8.85, 7.3, 10.625],
			"rotation": {"angle": 0, "axis": "y", "origin": [7.85, 5.725, 11.225]},
			"faces": {
				"north": {"uv": [6.625, 0.625, 6.625, 0.625], "texture": "#0"},
				"east": {"uv": [6.625, 0.625, 6.625, 0.625], "texture": "#0"},
				"south": {"uv": [6.625, 0.625, 6.625, 0.625], "texture": "#0"},
				"west": {"uv": [6.625, 0.625, 6.625, 0.625], "texture": "#0"},
				"down": {"uv": [6.625, 0.625, 6.625, 0.625], "texture": "#0"}
			}
		},
		{
			"name": "hexadecagon",
			"from": [7.15, 7.3, 8],
			"to": [8.85, 7.65, 16],
			"rotation": {"angle": 0, "axis": "y", "origin": [7.85, 7.475, 9]},
			"faces": {
				"north": {"uv": [6.625, 0.625, 6.625, 0.625], "texture": "#0"},
				"east": {"uv": [6.625, 0.625, 6.625, 0.625], "texture": "#0"},
				"south": {"uv": [6.625, 0.625, 6.625, 0.625], "texture": "#0"},
				"west": {"uv": [6.625, 0.625, 6.625, 0.625], "texture": "#0"},
				"up": {"uv": [6.625, 0.625, 6.625, 0.625], "texture": "#0"},
				"down": {"uv": [6.625, 0.625, 6.625, 0.625], "texture": "#0"}
			}
		},
		{
			"name": "hexadecagon",
			"from": [7.25, 5.75, 8.025],
			"to": [8.75, 6.5, 11.025],
			"rotation": {"angle": 22.5, "axis": "x", "origin": [8, 6.125, 9.775]},
			"faces": {
				"north": {"uv": [6.625, 0.65625, 6.625, 0.65625], "texture": "#0"},
				"east": {"uv": [6.625, 0.65625, 6.625, 0.65625], "texture": "#0"},
				"west": {"uv": [6.625, 0.65625, 6.625, 0.65625], "texture": "#0"},
				"up": {"uv": [6.625, 0.65625, 6.625, 0.65625], "texture": "#0"},
				"down": {"uv": [6.625, 0.65625, 6.625, 0.65625], "texture": "#0"}
			}
		},
		{
			"name": "hexadecagon",
			"from": [7.25, 5.7, 9.975],
			"to": [8.75, 6.45, 11.075],
			"rotation": {"angle": 0, "axis": "x", "origin": [8, 6.075, 11.725]},
			"faces": {
				"north": {"uv": [6.625, 0.65625, 6.625, 0.65625], "texture": "#0"},
				"east": {"uv": [6.625, 0.65625, 6.625, 0.65625], "texture": "#0"},
				"south": {"uv": [6.625, 0.65625, 6.625, 0.65625], "texture": "#0"},
				"west": {"uv": [6.625, 0.65625, 6.625, 0.65625], "texture": "#0"}
			}
		},
		{
			"name": "hexadecagon",
			"from": [7.25, 5.3, 10.775],
			"to": [8.75, 5.7, 11.075],
			"rotation": {"angle": 0, "axis": "x", "origin": [8, 5.675, 12.525]},
			"faces": {
				"north": {"uv": [6.625, 0.65625, 6.625, 0.65625], "texture": "#0"},
				"east": {"uv": [6.625, 0.65625, 6.625, 0.65625], "texture": "#0"},
				"south": {"uv": [6.625, 0.65625, 6.625, 0.65625], "texture": "#0"},
				"west": {"uv": [6.625, 0.65625, 6.625, 0.65625], "texture": "#0"},
				"down": {"uv": [6.625, 0.65625, 6.625, 0.65625], "texture": "#0"}
			}
		},
		{
			"name": "hexadecagon",
			"from": [7.5, 5.3, 11.075],
			"to": [8.5, 5.5, 12.825],
			"rotation": {"angle": 0, "axis": "x", "origin": [8.25, 5.675, 12.825]},
			"faces": {
				"east": {"uv": [6.625, 0.65625, 6.625, 0.65625], "texture": "#0"},
				"west": {"uv": [6.625, 0.65625, 6.625, 0.65625], "texture": "#0"},
				"up": {"uv": [6.625, 0.65625, 6.625, 0.65625], "texture": "#0"},
				"down": {"uv": [6.625, 0.65625, 6.625, 0.65625], "texture": "#0"}
			}
		},
		{
			"name": "hexadecagon",
			"from": [7.5, 5.3, 12.625],
			"to": [8.5, 6.55, 12.825],
			"rotation": {"angle": 0, "axis": "x", "origin": [8.25, 5.675, 14.375]},
			"faces": {
				"north": {"uv": [6.625, 0.65625, 6.625, 0.65625], "texture": "#0"},
				"east": {"uv": [6.625, 0.65625, 6.625, 0.65625], "texture": "#0"},
				"south": {"uv": [6.625, 0.65625, 6.625, 0.65625], "texture": "#0"},
				"west": {"uv": [6.625, 0.65625, 6.625, 0.65625], "texture": "#0"}
			}
		},
		{
			"name": "hexadecagon",
			"from": [7.75, 8.9, -1],
			"to": [8.25, 9.4, 8],
			"rotation": {"angle": 0, "axis": "z", "origin": [7.95, 8.625, 0]},
			"faces": {
				"north": {"uv": [6.59375, 0.5, 6.59375, 0.5], "texture": "#0"},
				"east": {"uv": [6.59375, 0.5, 6.59375, 0.5], "texture": "#0"},
				"south": {"uv": [6.59375, 0.5, 6.59375, 0.5], "texture": "#0"},
				"west": {"uv": [6.59375, 0.5, 6.59375, 0.5], "texture": "#0"}
			}
		},
		{
			"name": "hexadecagon",
			"from": [7.75, 9.4, -1],
			"to": [8.25, 9.55, 15],
			"rotation": {"angle": 0, "axis": "z", "origin": [7.95, 9.125, 0]},
			"faces": {
				"north": {"uv": [6.59375, 0.5, 6.59375, 0.5], "texture": "#0"},
				"east": {"uv": [6.59375, 0.5, 6.59375, 0.5], "texture": "#0"},
				"west": {"uv": [6.59375, 0.5, 6.59375, 0.5], "texture": "#0"},
				"up": {"uv": [6.59375, 0.5, 6.59375, 0.5], "texture": "#0"},
				"down": {"uv": [6.59375, 0.5, 6.59375, 0.5], "texture": "#0"}
			}
		},
		{
			"name": "hexadecagon",
			"from": [7.6, 9.4, 14.5],
			"to": [8.4, 9.7, 15],
			"rotation": {"angle": 0, "axis": "z", "origin": [7.8, 9.125, 15.5]},
			"faces": {
				"north": {"uv": [6.625, 0.59375, 6.625, 0.59375], "texture": "#0"},
				"east": {"uv": [6.625, 0.59375, 6.625, 0.59375], "texture": "#0"},
				"south": {"uv": [6.625, 0.59375, 6.625, 0.59375], "texture": "#0"},
				"west": {"uv": [6.625, 0.59375, 6.625, 0.59375], "texture": "#0"},
				"up": {"uv": [6.625, 0.59375, 6.625, 0.59375], "texture": "#0"},
				"down": {"uv": [6.625, 0.59375, 6.625, 0.59375], "texture": "#0"}
			}
		},
		{
			"name": "hexadecagon",
			"from": [7.525, 8.65625, 8],
			"to": [8.475, 9.395, 15.5],
			"rotation": {"angle": 0, "axis": "z", "origin": [7.725, 8.85, 9]},
			"faces": {
				"north": {"uv": [6.625, 0.65625, 6.625, 0.65625], "texture": "#0"},
				"east": {"uv": [6.625, 0.65625, 6.625, 0.65625], "texture": "#0"},
				"south": {"uv": [6.625, 0.65625, 6.625, 0.65625], "texture": "#0"},
				"west": {"uv": [6.625, 0.65625, 6.625, 0.65625], "texture": "#0"},
				"up": {"uv": [6.625, 0.65625, 6.625, 0.65625], "texture": "#0"}
			}
		},
		{
			"name": "hexadecagon",
			"from": [7.525, 8.7, 15.49766],
			"to": [8.475, 9, 16.025],
			"rotation": {"angle": 0, "axis": "x", "origin": [8, 8.835, 15.775]},
			"faces": {
				"east": {"uv": [6.625, 0.65625, 6.625, 0.65625], "texture": "#0"},
				"south": {"uv": [6.625, 0.65625, 6.625, 0.65625], "texture": "#0"},
				"west": {"uv": [6.625, 0.65625, 6.625, 0.65625], "texture": "#0"},
				"up": {"uv": [6.625, 0.65625, 6.625, 0.65625], "texture": "#0"},
				"down": {"uv": [6.625, 0.65625, 6.625, 0.65625], "texture": "#0"}
			}
		},
		{
			"name": "hexadecagon",
			"from": [7.78999, 7.26921, 2.5],
			"to": [8.21001, 8.13304, 7],
			"rotation": {"angle": -45, "axis": "z", "origin": [8, 8.325, 3.05]},
			"faces": {
				"north": {"uv": [6.625, 0.6875, 6.625, 0.6875], "texture": "#0"},
				"east": {"uv": [6.625, 0.6875, 6.625, 0.6875], "texture": "#0"},
				"south": {"uv": [6.625, 0.6875, 6.625, 0.6875], "texture": "#0"},
				"down": {"uv": [6.625, 0.6875, 6.625, 0.6875], "texture": "#0"}
			}
		},
		{
			"name": "hexadecagon",
			"from": [7.40522, 7.26921, 2.5],
			"to": [8.59478, 8.13304, 7],
			"rotation": {"angle": 0, "axis": "z", "origin": [7.99805, 8.325, 3.05]},
			"faces": {
				"north": {"uv": [6.625, 0.6875, 6.625, 0.6875], "texture": "#0"},
				"east": {"uv": [6.625, 0.6875, 6.625, 0.6875], "texture": "#0"},
				"south": {"uv": [6.625, 0.6875, 6.625, 0.6875], "texture": "#0"},
				"west": {"uv": [6.625, 0.6875, 6.625, 0.6875], "texture": "#0"},
				"down": {"uv": [6.625, 0.6875, 6.625, 0.6875], "texture": "#0"}
			}
		},
		{
			"name": "hexadecagon",
			"from": [7.78999, 7.26921, 2.5],
			"to": [8.21001, 8.13304, 7],
			"rotation": {"angle": 45, "axis": "z", "origin": [8, 8.325, 3.05]},
			"faces": {
				"north": {"uv": [6.625, 0.6875, 6.625, 0.6875], "texture": "#0"},
				"south": {"uv": [6.625, 0.6875, 6.625, 0.6875], "texture": "#0"},
				"west": {"uv": [6.625, 0.6875, 6.625, 0.6875], "texture": "#0"},
				"down": {"uv": [6.625, 0.6875, 6.625, 0.6875], "texture": "#0"}
			}
		},
		{
			"name": "sr25 grip_0",
			"from": [7.475, 5.30689, 12.83029],
			"to": [8.475, 6.45689, 14.07214],
			"rotation": {"angle": 0, "axis": "y", "origin": [7.66929, 4.183, 14.37881]},
			"faces": {
				"north": {"uv": [6.625, 0.75, 6.625, 0.75], "texture": "#0"},
				"east": {"uv": [6.625, 0.75, 6.625, 0.75], "texture": "#0"},
				"south": {"uv": [6.625, 0.75, 6.625, 0.75], "texture": "#0"},
				"west": {"uv": [6.625, 0.75, 6.625, 0.75], "texture": "#0"},
				"up": {"uv": [6.625, 0.75, 6.625, 0.75], "texture": "#0"},
				"down": {"uv": [6.625, 0.75, 6.625, 0.75], "texture": "#0"}
			}
		},
		{
			"name": "sr25 grip_1",
			"from": [7.50586, 2.6858, 13.4006],
			"to": [8.49414, 6.75377, 15.11511],
			"rotation": {"angle": -22.5, "axis": "x", "origin": [7.99414, 4.65142, 14.35161]},
			"faces": {
				"north": {"uv": [6.625, 0.75, 6.625, 0.75], "texture": "#0"},
				"east": {"uv": [6.625, 0.75, 6.625, 0.75], "texture": "#0"},
				"south": {"uv": [6.625, 0.75, 6.625, 0.75], "texture": "#0"},
				"west": {"uv": [6.625, 0.75, 6.625, 0.75], "texture": "#0"},
				"up": {"uv": [6.625, 0.75, 6.625, 0.75], "texture": "#0"},
				"down": {"uv": [6.625, 0.75, 6.625, 0.75], "texture": "#0"}
			}
		},
		{
			"name": "cube21",
			"from": [7.5, 7.225, 16],
			"to": [8.5, 8.575, 24.55],
			"rotation": {"angle": 0, "axis": "y", "origin": [15, 15.6, 24.75]},
			"faces": {
				"east": {"uv": [5.3125, 0.15625, 5.46875, 0.3125], "texture": "#0"},
				"south": {"uv": [5.3125, 0.15625, 5.46875, 0.3125], "texture": "#0"},
				"west": {"uv": [5.3125, 0.15625, 5.46875, 0.3125], "texture": "#0"},
				"up": {"uv": [5.3125, 0.15625, 5.46875, 0.3125], "texture": "#0"},
				"down": {"uv": [5.3125, 0.15625, 5.46875, 0.3125], "texture": "#0"}
			}
		},
		{
			"name": "cube22",
			"from": [7.5, 3.05, 18.55],
			"to": [8.5, 4.05, 25.8],
			"rotation": {"angle": 22.5, "axis": "x", "origin": [15, 11.8, 27.8]},
			"faces": {
				"east": {"uv": [5.3125, 0.15625, 5.46875, 0.3125], "texture": "#0"},
				"west": {"uv": [5.3125, 0.15625, 5.46875, 0.3125], "texture": "#0"},
				"down": {"uv": [5.3125, 0.15625, 5.46875, 0.3125], "texture": "#0"}
			}
		},
		{
			"name": "cube23",
			"from": [7.5, 5.575, 20.5],
			"to": [8.5, 7.225, 24],
			"rotation": {"angle": 0, "axis": "x", "origin": [15, 15.575, 30.75]},
			"faces": {
				"east": {"uv": [5.3125, 0.15625, 5.46875, 0.3125], "texture": "#0"},
				"west": {"uv": [5.3125, 0.15625, 5.46875, 0.3125], "texture": "#0"}
			}
		},
		{
			"name": "cube24",
			"from": [7.5, 4.475, 22.575],
			"to": [8.5, 5.575, 24.075],
			"rotation": {"angle": 0, "axis": "x", "origin": [15, 14.475, 32.825]},
			"faces": {
				"north": {"uv": [5.3125, 0.15625, 5.46875, 0.3125], "texture": "#0"},
				"east": {"uv": [5.3125, 0.15625, 5.46875, 0.3125], "texture": "#0"},
				"west": {"uv": [5.3125, 0.15625, 5.46875, 0.3125], "texture": "#0"},
				"down": {"uv": [5.3125, 0.15625, 5.46875, 0.3125], "texture": "#0"}
			}
		},
		{
			"name": "cube24",
			"from": [7.4, 4.425, 24],
			"to": [8.6, 8.675, 24.5],
			"rotation": {"angle": 0, "axis": "x", "origin": [14.9, 14.425, 32.75]},
			"faces": {
				"north": {"uv": [5.3125, 0.15625, 5.46875, 0.3125], "texture": "#0"},
				"east": {"uv": [5.3125, 0.15625, 5.46875, 0.3125], "texture": "#0"},
				"south": {"uv": [5.3125, 0.15625, 5.46875, 0.3125], "texture": "#0"},
				"west": {"uv": [5.3125, 0.15625, 5.46875, 0.3125], "texture": "#0"},
				"up": {"uv": [5.3125, 0.15625, 5.46875, 0.3125], "texture": "#0"},
				"down": {"uv": [5.3125, 0.15625, 5.46875, 0.3125], "texture": "#0"}
			}
		},
		{
			"name": "cube24",
			"from": [7.5, 6.225, 18.575],
			"to": [8.5, 7.225, 21.075],
			"rotation": {"angle": 0, "axis": "x", "origin": [15, 15.225, 28.575]},
			"faces": {
				"east": {"uv": [5.3125, 0.15625, 5.46875, 0.3125], "texture": "#0"},
				"west": {"uv": [5.3125, 0.15625, 5.46875, 0.3125], "texture": "#0"}
			}
		},
		{
			"name": "hexadecagon",
			"from": [7.90027, 8.56616, 16],
			"to": [8.09973, 8.97638, 24],
			"rotation": {"angle": -45, "axis": "z", "origin": [8, 8.475, 16.55]},
			"faces": {
				"north": {"uv": [5.3125, 0.15625, 5.46875, 0.3125], "texture": "#0"},
				"south": {"uv": [5.3125, 0.15625, 5.46875, 0.3125], "texture": "#0"},
				"west": {"uv": [5.3125, 0.15625, 5.46875, 0.3125], "texture": "#0"},
				"up": {"uv": [5.3125, 0.15625, 5.46875, 0.3125], "texture": "#0"}
			}
		},
		{
			"name": "hexadecagon",
			"from": [7.7284, 8.56616, 16],
			"to": [8.2716, 8.97638, 24],
			"rotation": {"angle": 0, "axis": "z", "origin": [8.01563, 8.475, 16.55]},
			"faces": {
				"east": {"uv": [5.3125, 0.15625, 5.46875, 0.3125], "texture": "#0"},
				"south": {"uv": [5.3125, 0.15625, 5.46875, 0.3125], "texture": "#0"},
				"west": {"uv": [5.3125, 0.15625, 5.46875, 0.3125], "texture": "#0"},
				"up": {"uv": [5.3125, 0.15625, 5.46875, 0.3125], "texture": "#0"}
			}
		},
		{
			"name": "hexadecagon",
			"from": [7.90027, 8.56616, 16],
			"to": [8.09973, 8.97638, 24],
			"rotation": {"angle": 45, "axis": "z", "origin": [8, 8.475, 16.55]},
			"faces": {
				"north": {"uv": [5.3125, 0.15625, 5.46875, 0.3125], "texture": "#0"},
				"east": {"uv": [5.3125, 0.15625, 5.46875, 0.3125], "texture": "#0"},
				"south": {"uv": [5.3125, 0.15625, 5.46875, 0.3125], "texture": "#0"},
				"up": {"uv": [5.3125, 0.15625, 5.46875, 0.3125], "texture": "#0"}
			}
		},
		{
			"name": "hexadecagon",
			"from": [7.49862, 8.37527, 16],
			"to": [7.90884, 8.57473, 24],
			"rotation": {"angle": -22.5, "axis": "z", "origin": [8, 8.475, 16.55]},
			"faces": {
				"north": {"uv": [5.3125, 0.15625, 5.46875, 0.3125], "texture": "#0"},
				"south": {"uv": [5.3125, 0.15625, 5.46875, 0.3125], "texture": "#0"},
				"west": {"uv": [5.3125, 0.15625, 5.46875, 0.3125], "texture": "#0"},
				"down": {"uv": [5.3125, 0.15625, 5.46875, 0.3125], "texture": "#0"}
			}
		},
		{
			"name": "hexadecagon",
			"from": [8.09116, 8.37527, 16],
			"to": [8.50138, 8.57473, 24],
			"rotation": {"angle": 22.5, "axis": "z", "origin": [8, 8.475, 16.55]},
			"faces": {
				"north": {"uv": [5.3125, 0.15625, 5.46875, 0.3125], "texture": "#0"},
				"east": {"uv": [5.3125, 0.15625, 5.46875, 0.3125], "texture": "#0"},
				"south": {"uv": [5.3125, 0.15625, 5.46875, 0.3125], "texture": "#0"},
				"down": {"uv": [5.3125, 0.15625, 5.46875, 0.3125], "texture": "#0"}
			}
		},
		{
			"name": "hexadecagon",
			"from": [7.65, 9.5, 8.075],
			"to": [8.35, 9.75, 8.725],
			"rotation": {"angle": 0, "axis": "z", "origin": [7.85, 9.225, 9.075]},
			"faces": {
				"north": {"uv": [6.625, 0.6875, 6.625, 0.6875], "texture": "#0"},
				"east": {"uv": [6.625, 0.6875, 6.625, 0.6875], "texture": "#0"},
				"south": {"uv": [6.625, 0.6875, 6.625, 0.6875], "texture": "#0"},
				"west": {"uv": [6.625, 0.6875, 6.625, 0.6875], "texture": "#0"},
				"up": {"uv": [6.625, 0.6875, 6.625, 0.6875], "texture": "#0"},
				"down": {"uv": [6.625, 0.6875, 6.625, 0.6875], "texture": "#0"}
			}
		},
		{
			"name": "hexadecagon",
			"from": [7.65, 9.5, 11.1],
			"to": [8.35, 9.75, 11.75],
			"rotation": {"angle": 0, "axis": "z", "origin": [7.85, 9.225, 12.1]},
			"faces": {
				"north": {"uv": [6.625, 0.6875, 6.625, 0.6875], "texture": "#0"},
				"east": {"uv": [6.625, 0.6875, 6.625, 0.6875], "texture": "#0"},
				"south": {"uv": [6.625, 0.6875, 6.625, 0.6875], "texture": "#0"},
				"west": {"uv": [6.625, 0.6875, 6.625, 0.6875], "texture": "#0"},
				"up": {"uv": [6.625, 0.6875, 6.625, 0.6875], "texture": "#0"},
				"down": {"uv": [6.625, 0.6875, 6.625, 0.6875], "texture": "#0"}
			}
		},
		{
			"name": "hexadecagon",
			"from": [7.65, 9.75, 8.225],
			"to": [8.35, 10.1, 8.575],
			"rotation": {"angle": 0, "axis": "z", "origin": [7.85, 9.475, 9.225]},
			"faces": {
				"north": {"uv": [6.625, 0.6875, 6.625, 0.6875], "texture": "#0"},
				"east": {"uv": [6.625, 0.6875, 6.625, 0.6875], "texture": "#0"},
				"south": {"uv": [6.625, 0.6875, 6.625, 0.6875], "texture": "#0"},
				"west": {"uv": [6.625, 0.6875, 6.625, 0.6875], "texture": "#0"}
			}
		},
		{
			"name": "hexadecagon",
			"from": [7.65, 9.75, 11.25],
			"to": [8.35, 10.1, 11.6],
			"rotation": {"angle": 0, "axis": "z", "origin": [7.85, 9.475, 12.25]},
			"faces": {
				"north": {"uv": [6.625, 0.6875, 6.625, 0.6875], "texture": "#0"},
				"east": {"uv": [6.625, 0.6875, 6.625, 0.6875], "texture": "#0"},
				"south": {"uv": [6.625, 0.6875, 6.625, 0.6875], "texture": "#0"},
				"west": {"uv": [6.625, 0.6875, 6.625, 0.6875], "texture": "#0"}
			}
		},
		{
			"name": "hexadecagon",
			"from": [7.8906, 10.175, 7.525],
			"to": [8.1094, 10.375, 12.275],
			"rotation": {"angle": -45, "axis": "z", "origin": [8, 10.725, 8.075]},
			"faces": {
				"north": {"uv": [6.625, 0.71875, 6.625, 0.71875], "texture": "#0"},
				"south": {"uv": [6.625, 0.71875, 6.625, 0.71875], "texture": "#0"},
				"up": {"uv": [6.625, 0.71875, 6.625, 0.71875], "texture": "#0"},
				"down": {"uv": [6.625, 0.71875, 6.625, 0.71875], "texture": "#0"}
			}
		},
		{
			"name": "hexadecagon",
			"from": [7.8906, 10.175, 7.525],
			"to": [8.1094, 10.375, 12.275],
			"rotation": {"angle": -22.5, "axis": "z", "origin": [8, 10.725, 8.075]},
			"faces": {
				"north": {"uv": [6.625, 0.71875, 6.625, 0.71875], "texture": "#0"},
				"south": {"uv": [6.625, 0.71875, 6.625, 0.71875], "texture": "#0"},
				"up": {"uv": [6.625, 0.71875, 6.625, 0.71875], "texture": "#0"},
				"down": {"uv": [6.625, 0.71875, 6.625, 0.71875], "texture": "#0"}
			}
		},
		{
			"name": "hexadecagon",
			"from": [7.8906, 10.175, 7.525],
			"to": [8.1094, 10.375, 12.275],
			"rotation": {"angle": 0, "axis": "z", "origin": [8, 10.725, 8.075]},
			"faces": {
				"north": {"uv": [6.625, 0.71875, 6.625, 0.71875], "texture": "#0"},
				"south": {"uv": [6.625, 0.71875, 6.625, 0.71875], "texture": "#0"},
				"up": {"uv": [6.625, 0.71875, 6.625, 0.71875], "texture": "#0"},
				"down": {"uv": [6.625, 0.71875, 6.625, 0.71875], "texture": "#0"}
			}
		},
		{
			"name": "hexadecagon",
			"from": [7.8906, 10.175, 7.525],
			"to": [8.1094, 10.375, 12.275],
			"rotation": {"angle": 22.5, "axis": "z", "origin": [8, 10.725, 8.075]},
			"faces": {
				"north": {"uv": [6.625, 0.71875, 6.625, 0.71875], "texture": "#0"},
				"south": {"uv": [6.625, 0.71875, 6.625, 0.71875], "texture": "#0"},
				"up": {"uv": [6.625, 0.71875, 6.625, 0.71875], "texture": "#0"},
				"down": {"uv": [6.625, 0.71875, 6.625, 0.71875], "texture": "#0"}
			}
		},
		{
			"name": "hexadecagon",
			"from": [7.8906, 10.175, 7.525],
			"to": [8.1094, 10.375, 12.275],
			"rotation": {"angle": 45, "axis": "z", "origin": [8, 10.725, 8.075]},
			"faces": {
				"north": {"uv": [6.625, 0.71875, 6.625, 0.71875], "texture": "#0"},
				"south": {"uv": [6.625, 0.71875, 6.625, 0.71875], "texture": "#0"},
				"up": {"uv": [6.625, 0.71875, 6.625, 0.71875], "texture": "#0"},
				"down": {"uv": [6.625, 0.71875, 6.625, 0.71875], "texture": "#0"}
			}
		},
		{
			"name": "hexadecagon",
			"from": [7.8906, 11.075, 7.525],
			"to": [8.1094, 11.275, 12.275],
			"rotation": {"angle": -45, "axis": "z", "origin": [8, 10.725, 8.075]},
			"faces": {
				"north": {"uv": [6.625, 0.71875, 6.625, 0.71875], "texture": "#0"},
				"south": {"uv": [6.625, 0.71875, 6.625, 0.71875], "texture": "#0"},
				"up": {"uv": [6.625, 0.71875, 6.625, 0.71875], "texture": "#0"},
				"down": {"uv": [6.625, 0.71875, 6.625, 0.71875], "texture": "#0"}
			}
		},
		{
			"name": "hexadecagon",
			"from": [7.8906, 11.075, 7.525],
			"to": [8.1094, 11.275, 12.275],
			"rotation": {"angle": -22.5, "axis": "z", "origin": [8, 10.725, 8.075]},
			"faces": {
				"north": {"uv": [6.625, 0.71875, 6.625, 0.71875], "texture": "#0"},
				"south": {"uv": [6.625, 0.71875, 6.625, 0.71875], "texture": "#0"},
				"up": {"uv": [6.625, 0.71875, 6.625, 0.71875], "texture": "#0"},
				"down": {"uv": [6.625, 0.71875, 6.625, 0.71875], "texture": "#0"}
			}
		},
		{
			"name": "hexadecagon",
			"from": [7.8906, 11.075, 7.525],
			"to": [8.1094, 11.275, 12.275],
			"rotation": {"angle": 0, "axis": "z", "origin": [8, 10.725, 8.075]},
			"faces": {
				"north": {"uv": [6.625, 0.71875, 6.625, 0.71875], "texture": "#0"},
				"south": {"uv": [6.625, 0.71875, 6.625, 0.71875], "texture": "#0"},
				"up": {"uv": [6.625, 0.71875, 6.625, 0.71875], "texture": "#0"},
				"down": {"uv": [6.625, 0.71875, 6.625, 0.71875], "texture": "#0"}
			}
		},
		{
			"name": "hexadecagon",
			"from": [7.8906, 11.075, 7.525],
			"to": [8.1094, 11.275, 12.275],
			"rotation": {"angle": 22.5, "axis": "z", "origin": [8, 10.725, 8.075]},
			"faces": {
				"north": {"uv": [6.625, 0.71875, 6.625, 0.71875], "texture": "#0"},
				"south": {"uv": [6.625, 0.71875, 6.625, 0.71875], "texture": "#0"},
				"up": {"uv": [6.625, 0.71875, 6.625, 0.71875], "texture": "#0"},
				"down": {"uv": [6.625, 0.71875, 6.625, 0.71875], "texture": "#0"}
			}
		},
		{
			"name": "hexadecagon",
			"from": [7.8906, 11.075, 7.525],
			"to": [8.1094, 11.275, 12.275],
			"rotation": {"angle": 45, "axis": "z", "origin": [8, 10.725, 8.075]},
			"faces": {
				"north": {"uv": [6.625, 0.71875, 6.625, 0.71875], "texture": "#0"},
				"south": {"uv": [6.625, 0.71875, 6.625, 0.71875], "texture": "#0"},
				"up": {"uv": [6.625, 0.71875, 6.625, 0.71875], "texture": "#0"},
				"down": {"uv": [6.625, 0.71875, 6.625, 0.71875], "texture": "#0"}
			}
		},
		{
			"name": "hexadecagon",
			"from": [7.45, 10.6156, 7.525],
			"to": [7.65, 10.8344, 12.275],
			"rotation": {"angle": -22.5, "axis": "z", "origin": [8, 10.725, 8.075]},
			"faces": {
				"north": {"uv": [6.625, 0.71875, 6.625, 0.71875], "texture": "#0"},
				"east": {"uv": [6.625, 0.71875, 6.625, 0.71875], "texture": "#0"},
				"south": {"uv": [6.625, 0.71875, 6.625, 0.71875], "texture": "#0"},
				"west": {"uv": [6.625, 0.71875, 6.625, 0.71875], "texture": "#0"}
			}
		},
		{
			"name": "hexadecagon",
			"from": [7.45, 10.6156, 7.525],
			"to": [7.65, 10.8344, 12.275],
			"rotation": {"angle": 0, "axis": "z", "origin": [8, 10.725, 8.075]},
			"faces": {
				"north": {"uv": [6.625, 0.71875, 6.625, 0.71875], "texture": "#0"},
				"east": {"uv": [6.625, 0.71875, 6.625, 0.71875], "texture": "#0"},
				"south": {"uv": [6.625, 0.71875, 6.625, 0.71875], "texture": "#0"},
				"west": {"uv": [6.625, 0.71875, 6.625, 0.71875], "texture": "#0"}
			}
		},
		{
			"name": "hexadecagon",
			"from": [7.425, 10.2406, 9.775],
			"to": [7.7, 11.2406, 10.775],
			"rotation": {"angle": 0, "axis": "z", "origin": [8, 10.35, 10.325]},
			"faces": {
				"north": {"uv": [6.625, 0.71875, 6.625, 0.71875], "texture": "#0"},
				"east": {"uv": [6.625, 0.71875, 6.625, 0.71875], "texture": "#0"},
				"south": {"uv": [6.625, 0.71875, 6.625, 0.71875], "texture": "#0"},
				"west": {"uv": [6.625, 0.71875, 6.625, 0.71875], "texture": "#0"},
				"up": {"uv": [6.625, 0.71875, 6.625, 0.71875], "texture": "#0"},
				"down": {"uv": [6.625, 0.71875, 6.625, 0.71875], "texture": "#0"}
			}
		},
		{
			"name": "hexadecagon",
			"from": [7.45, 11.1156, 9.775],
			"to": [8.45, 11.3656, 10.775],
			"rotation": {"angle": 0, "axis": "z", "origin": [8, 11.225, 10.325]},
			"faces": {
				"north": {"uv": [6.625, 0.71875, 6.625, 0.71875], "texture": "#0"},
				"east": {"uv": [6.625, 0.71875, 6.625, 0.71875], "texture": "#0"},
				"south": {"uv": [6.625, 0.71875, 6.625, 0.71875], "texture": "#0"},
				"west": {"uv": [6.625, 0.71875, 6.625, 0.71875], "texture": "#0"},
				"up": {"uv": [6.625, 0.71875, 6.625, 0.71875], "texture": "#0"},
				"down": {"uv": [6.625, 0.71875, 6.625, 0.71875], "texture": "#0"}
			}
		},
		{
			"name": "hexadecagon",
			"from": [7.45, 10.6156, 7.525],
			"to": [7.65, 10.8344, 12.275],
			"rotation": {"angle": 22.5, "axis": "z", "origin": [8, 10.725, 8.075]},
			"faces": {
				"north": {"uv": [6.625, 0.71875, 6.625, 0.71875], "texture": "#0"},
				"east": {"uv": [6.625, 0.71875, 6.625, 0.71875], "texture": "#0"},
				"south": {"uv": [6.625, 0.71875, 6.625, 0.71875], "texture": "#0"},
				"west": {"uv": [6.625, 0.71875, 6.625, 0.71875], "texture": "#0"}
			}
		},
		{
			"name": "hexadecagon",
			"from": [8.35, 10.6156, 7.525],
			"to": [8.55, 10.8344, 12.275],
			"rotation": {"angle": -22.5, "axis": "z", "origin": [8, 10.725, 8.075]},
			"faces": {
				"north": {"uv": [6.625, 0.71875, 6.625, 0.71875], "texture": "#0"},
				"east": {"uv": [6.625, 0.71875, 6.625, 0.71875], "texture": "#0"},
				"south": {"uv": [6.625, 0.71875, 6.625, 0.71875], "texture": "#0"},
				"west": {"uv": [6.625, 0.71875, 6.625, 0.71875], "texture": "#0"}
			}
		},
		{
			"name": "hexadecagon",
			"from": [8.35, 10.6156, 7.525],
			"to": [8.55, 10.8344, 12.275],
			"rotation": {"angle": 0, "axis": "z", "origin": [8, 10.725, 8.075]},
			"faces": {
				"north": {"uv": [6.625, 0.71875, 6.625, 0.71875], "texture": "#0"},
				"east": {"uv": [6.625, 0.71875, 6.625, 0.71875], "texture": "#0"},
				"south": {"uv": [6.625, 0.71875, 6.625, 0.71875], "texture": "#0"},
				"west": {"uv": [6.625, 0.71875, 6.625, 0.71875], "texture": "#0"}
			}
		},
		{
			"name": "hexadecagon",
			"from": [8.35, 10.6156, 7.525],
			"to": [8.55, 10.8344, 12.275],
			"rotation": {"angle": 22.5, "axis": "z", "origin": [8, 10.725, 8.075]},
			"faces": {
				"north": {"uv": [6.625, 0.71875, 6.625, 0.71875], "texture": "#0"},
				"east": {"uv": [6.625, 0.71875, 6.625, 0.71875], "texture": "#0"},
				"south": {"uv": [6.625, 0.71875, 6.625, 0.71875], "texture": "#0"},
				"west": {"uv": [6.625, 0.71875, 6.625, 0.71875], "texture": "#0"}
			}
		},
		{
			"name": "hexadecagon",
			"from": [7.34095, 10.06688, 8.15],
			"to": [8.65905, 11.385, 8.65],
			"rotation": {"angle": 0, "axis": "z", "origin": [7.47223, 10.725, 8.7]},
			"faces": {
				"north": {"uv": [6.625, 0.6875, 6.625, 0.6875], "texture": "#0"},
				"east": {"uv": [6.625, 0.6875, 6.625, 0.6875], "texture": "#0"},
				"south": {"uv": [6.625, 0.6875, 6.625, 0.6875], "texture": "#0"},
				"west": {"uv": [6.625, 0.6875, 6.625, 0.6875], "texture": "#0"},
				"up": {"uv": [6.625, 0.6875, 6.625, 0.6875], "texture": "#0"},
				"down": {"uv": [6.625, 0.6875, 6.625, 0.6875], "texture": "#0"}
			}
		},
		{
			"name": "hexadecagon",
			"from": [7.34095, 10.06688, 11.18125],
			"to": [8.65905, 11.385, 11.68125],
			"rotation": {"angle": 0, "axis": "z", "origin": [7.47223, 10.725, 11.73125]},
			"faces": {
				"north": {"uv": [6.625, 0.6875, 6.625, 0.6875], "texture": "#0"},
				"east": {"uv": [6.625, 0.6875, 6.625, 0.6875], "texture": "#0"},
				"south": {"uv": [6.625, 0.6875, 6.625, 0.6875], "texture": "#0"},
				"west": {"uv": [6.625, 0.6875, 6.625, 0.6875], "texture": "#0"},
				"up": {"uv": [6.625, 0.6875, 6.625, 0.6875], "texture": "#0"},
				"down": {"uv": [6.625, 0.6875, 6.625, 0.6875], "texture": "#0"}
			}
		},
		{
			"name": "hexadecagon",
			"from": [7.86872, 10.065, 12.275],
			"to": [8.13128, 10.305, 12.425],
			"rotation": {"angle": -45, "axis": "z", "origin": [8, 10.725, 12.825]},
			"faces": {
				"north": {"uv": [6.625, 0.625, 6.625, 0.625], "texture": "#0"},
				"east": {"uv": [6.625, 0.625, 6.625, 0.625], "texture": "#0"},
				"south": {"uv": [6.625, 0.625, 6.625, 0.625], "texture": "#0"},
				"west": {"uv": [6.625, 0.625, 6.625, 0.625], "texture": "#0"},
				"up": {"uv": [6.625, 0.625, 6.625, 0.625], "texture": "#0"},
				"down": {"uv": [6.625, 0.625, 6.625, 0.625], "texture": "#0"}
			}
		},
		{
			"name": "hexadecagon",
			"from": [7.86872, 10.065, 12.275],
			"to": [8.13128, 10.305, 12.425],
			"rotation": {"angle": -22.5, "axis": "z", "origin": [8, 10.725, 12.825]},
			"faces": {
				"north": {"uv": [6.625, 0.625, 6.625, 0.625], "texture": "#0"},
				"east": {"uv": [6.625, 0.625, 6.625, 0.625], "texture": "#0"},
				"south": {"uv": [6.625, 0.625, 6.625, 0.625], "texture": "#0"},
				"west": {"uv": [6.625, 0.625, 6.625, 0.625], "texture": "#0"},
				"up": {"uv": [6.625, 0.625, 6.625, 0.625], "texture": "#0"},
				"down": {"uv": [6.625, 0.625, 6.625, 0.625], "texture": "#0"}
			}
		},
		{
			"name": "hexadecagon",
			"from": [7.86872, 10.065, 12.275],
			"to": [8.13128, 10.305, 12.425],
			"rotation": {"angle": 0, "axis": "z", "origin": [8, 10.725, 12.825]},
			"faces": {
				"north": {"uv": [6.625, 0.625, 6.625, 0.625], "texture": "#0"},
				"east": {"uv": [6.625, 0.625, 6.625, 0.625], "texture": "#0"},
				"south": {"uv": [6.625, 0.625, 6.625, 0.625], "texture": "#0"},
				"west": {"uv": [6.625, 0.625, 6.625, 0.625], "texture": "#0"},
				"up": {"uv": [6.625, 0.625, 6.625, 0.625], "texture": "#0"},
				"down": {"uv": [6.625, 0.625, 6.625, 0.625], "texture": "#0"}
			}
		},
		{
			"name": "hexadecagon",
			"from": [7.86872, 10.065, 12.275],
			"to": [8.13128, 10.305, 12.425],
			"rotation": {"angle": 22.5, "axis": "z", "origin": [8, 10.725, 12.825]},
			"faces": {
				"north": {"uv": [6.625, 0.625, 6.625, 0.625], "texture": "#0"},
				"east": {"uv": [6.625, 0.625, 6.625, 0.625], "texture": "#0"},
				"south": {"uv": [6.625, 0.625, 6.625, 0.625], "texture": "#0"},
				"west": {"uv": [6.625, 0.625, 6.625, 0.625], "texture": "#0"},
				"up": {"uv": [6.625, 0.625, 6.625, 0.625], "texture": "#0"},
				"down": {"uv": [6.625, 0.625, 6.625, 0.625], "texture": "#0"}
			}
		},
		{
			"name": "hexadecagon",
			"from": [7.86872, 10.065, 12.275],
			"to": [8.13128, 10.305, 12.425],
			"rotation": {"angle": 45, "axis": "z", "origin": [8, 10.725, 12.825]},
			"faces": {
				"north": {"uv": [6.625, 0.625, 6.625, 0.625], "texture": "#0"},
				"east": {"uv": [6.625, 0.625, 6.625, 0.625], "texture": "#0"},
				"south": {"uv": [6.625, 0.625, 6.625, 0.625], "texture": "#0"},
				"west": {"uv": [6.625, 0.625, 6.625, 0.625], "texture": "#0"},
				"up": {"uv": [6.625, 0.625, 6.625, 0.625], "texture": "#0"},
				"down": {"uv": [6.625, 0.625, 6.625, 0.625], "texture": "#0"}
			}
		},
		{
			"name": "hexadecagon",
			"from": [7.86872, 11.145, 12.275],
			"to": [8.13128, 11.385, 12.425],
			"rotation": {"angle": -45, "axis": "z", "origin": [8, 10.725, 12.825]},
			"faces": {
				"north": {"uv": [6.625, 0.625, 6.625, 0.625], "texture": "#0"},
				"east": {"uv": [6.625, 0.625, 6.625, 0.625], "texture": "#0"},
				"south": {"uv": [6.625, 0.625, 6.625, 0.625], "texture": "#0"},
				"west": {"uv": [6.625, 0.625, 6.625, 0.625], "texture": "#0"},
				"up": {"uv": [6.625, 0.625, 6.625, 0.625], "texture": "#0"},
				"down": {"uv": [6.625, 0.625, 6.625, 0.625], "texture": "#0"}
			}
		},
		{
			"name": "hexadecagon",
			"from": [7.86872, 11.145, 12.275],
			"to": [8.13128, 11.385, 12.425],
			"rotation": {"angle": -22.5, "axis": "z", "origin": [8, 10.725, 12.825]},
			"faces": {
				"north": {"uv": [6.625, 0.625, 6.625, 0.625], "texture": "#0"},
				"east": {"uv": [6.625, 0.625, 6.625, 0.625], "texture": "#0"},
				"south": {"uv": [6.625, 0.625, 6.625, 0.625], "texture": "#0"},
				"west": {"uv": [6.625, 0.625, 6.625, 0.625], "texture": "#0"},
				"up": {"uv": [6.625, 0.625, 6.625, 0.625], "texture": "#0"},
				"down": {"uv": [6.625, 0.625, 6.625, 0.625], "texture": "#0"}
			}
		},
		{
			"name": "hexadecagon",
			"from": [7.86872, 11.145, 12.275],
			"to": [8.13128, 11.385, 12.425],
			"rotation": {"angle": 0, "axis": "z", "origin": [8, 10.725, 12.825]},
			"faces": {
				"north": {"uv": [6.625, 0.625, 6.625, 0.625], "texture": "#0"},
				"east": {"uv": [6.625, 0.625, 6.625, 0.625], "texture": "#0"},
				"south": {"uv": [6.625, 0.625, 6.625, 0.625], "texture": "#0"},
				"west": {"uv": [6.625, 0.625, 6.625, 0.625], "texture": "#0"},
				"up": {"uv": [6.625, 0.625, 6.625, 0.625], "texture": "#0"},
				"down": {"uv": [6.625, 0.625, 6.625, 0.625], "texture": "#0"}
			}
		},
		{
			"name": "hexadecagon",
			"from": [7.86872, 11.145, 12.275],
			"to": [8.13128, 11.385, 12.425],
			"rotation": {"angle": 22.5, "axis": "z", "origin": [8, 10.725, 12.825]},
			"faces": {
				"north": {"uv": [6.625, 0.625, 6.625, 0.625], "texture": "#0"},
				"east": {"uv": [6.625, 0.625, 6.625, 0.625], "texture": "#0"},
				"south": {"uv": [6.625, 0.625, 6.625, 0.625], "texture": "#0"},
				"west": {"uv": [6.625, 0.625, 6.625, 0.625], "texture": "#0"},
				"up": {"uv": [6.625, 0.625, 6.625, 0.625], "texture": "#0"},
				"down": {"uv": [6.625, 0.625, 6.625, 0.625], "texture": "#0"}
			}
		},
		{
			"name": "hexadecagon",
			"from": [7.86872, 11.145, 12.275],
			"to": [8.13128, 11.385, 12.425],
			"rotation": {"angle": 45, "axis": "z", "origin": [8, 10.725, 12.825]},
			"faces": {
				"north": {"uv": [6.625, 0.625, 6.625, 0.625], "texture": "#0"},
				"east": {"uv": [6.625, 0.625, 6.625, 0.625], "texture": "#0"},
				"south": {"uv": [6.625, 0.625, 6.625, 0.625], "texture": "#0"},
				"west": {"uv": [6.625, 0.625, 6.625, 0.625], "texture": "#0"},
				"up": {"uv": [6.625, 0.625, 6.625, 0.625], "texture": "#0"},
				"down": {"uv": [6.625, 0.625, 6.625, 0.625], "texture": "#0"}
			}
		},
		{
			"name": "hexadecagon",
			"from": [7.34, 10.59372, 12.275],
			"to": [7.58, 10.85628, 12.425],
			"rotation": {"angle": -22.5, "axis": "z", "origin": [8, 10.725, 12.825]},
			"faces": {
				"north": {"uv": [6.625, 0.625, 6.625, 0.625], "texture": "#0"},
				"east": {"uv": [6.625, 0.625, 6.625, 0.625], "texture": "#0"},
				"south": {"uv": [6.625, 0.625, 6.625, 0.625], "texture": "#0"},
				"west": {"uv": [6.625, 0.625, 6.625, 0.625], "texture": "#0"},
				"up": {"uv": [6.625, 0.625, 6.625, 0.625], "texture": "#0"},
				"down": {"uv": [6.625, 0.625, 6.625, 0.625], "texture": "#0"}
			}
		},
		{
			"name": "hexadecagon",
			"from": [7.34, 10.59372, 12.275],
			"to": [7.58, 10.85628, 12.425],
			"rotation": {"angle": 0, "axis": "z", "origin": [8, 10.725, 12.825]},
			"faces": {
				"north": {"uv": [6.625, 0.625, 6.625, 0.625], "texture": "#0"},
				"east": {"uv": [6.625, 0.625, 6.625, 0.625], "texture": "#0"},
				"south": {"uv": [6.625, 0.625, 6.625, 0.625], "texture": "#0"},
				"west": {"uv": [6.625, 0.625, 6.625, 0.625], "texture": "#0"},
				"up": {"uv": [6.625, 0.625, 6.625, 0.625], "texture": "#0"},
				"down": {"uv": [6.625, 0.625, 6.625, 0.625], "texture": "#0"}
			}
		},
		{
			"name": "hexadecagon",
			"from": [7.34, 10.59372, 12.275],
			"to": [7.58, 10.85628, 12.425],
			"rotation": {"angle": 22.5, "axis": "z", "origin": [8, 10.725, 12.825]},
			"faces": {
				"north": {"uv": [6.625, 0.625, 6.625, 0.625], "texture": "#0"},
				"east": {"uv": [6.625, 0.625, 6.625, 0.625], "texture": "#0"},
				"south": {"uv": [6.625, 0.625, 6.625, 0.625], "texture": "#0"},
				"west": {"uv": [6.625, 0.625, 6.625, 0.625], "texture": "#0"},
				"up": {"uv": [6.625, 0.625, 6.625, 0.625], "texture": "#0"},
				"down": {"uv": [6.625, 0.625, 6.625, 0.625], "texture": "#0"}
			}
		},
		{
			"name": "hexadecagon",
			"from": [8.42, 10.59372, 12.275],
			"to": [8.66, 10.85628, 12.425],
			"rotation": {"angle": -22.5, "axis": "z", "origin": [8, 10.725, 12.825]},
			"faces": {
				"north": {"uv": [6.625, 0.625, 6.625, 0.625], "texture": "#0"},
				"east": {"uv": [6.625, 0.625, 6.625, 0.625], "texture": "#0"},
				"south": {"uv": [6.625, 0.625, 6.625, 0.625], "texture": "#0"},
				"west": {"uv": [6.625, 0.625, 6.625, 0.625], "texture": "#0"},
				"up": {"uv": [6.625, 0.625, 6.625, 0.625], "texture": "#0"},
				"down": {"uv": [6.625, 0.625, 6.625, 0.625], "texture": "#0"}
			}
		},
		{
			"name": "hexadecagon",
			"from": [8.42, 10.59372, 12.275],
			"to": [8.66, 10.85628, 12.425],
			"rotation": {"angle": 0, "axis": "z", "origin": [8, 10.725, 12.825]},
			"faces": {
				"north": {"uv": [6.625, 0.625, 6.625, 0.625], "texture": "#0"},
				"east": {"uv": [6.625, 0.625, 6.625, 0.625], "texture": "#0"},
				"south": {"uv": [6.625, 0.625, 6.625, 0.625], "texture": "#0"},
				"west": {"uv": [6.625, 0.625, 6.625, 0.625], "texture": "#0"},
				"up": {"uv": [6.625, 0.625, 6.625, 0.625], "texture": "#0"},
				"down": {"uv": [6.625, 0.625, 6.625, 0.625], "texture": "#0"}
			}
		},
		{
			"name": "hexadecagon",
			"from": [8.42, 10.59372, 12.275],
			"to": [8.66, 10.85628, 12.425],
			"rotation": {"angle": 22.5, "axis": "z", "origin": [8, 10.725, 12.825]},
			"faces": {
				"north": {"uv": [6.625, 0.625, 6.625, 0.625], "texture": "#0"},
				"east": {"uv": [6.625, 0.625, 6.625, 0.625], "texture": "#0"},
				"south": {"uv": [6.625, 0.625, 6.625, 0.625], "texture": "#0"},
				"west": {"uv": [6.625, 0.625, 6.625, 0.625], "texture": "#0"},
				"up": {"uv": [6.625, 0.625, 6.625, 0.625], "texture": "#0"},
				"down": {"uv": [6.625, 0.625, 6.625, 0.625], "texture": "#0"}
			}
		},
		{
			"name": "hexadecagon",
			"from": [7.84246, 9.933, 12.425],
			"to": [8.15754, 10.221, 15.175],
			"rotation": {"angle": -45, "axis": "z", "origin": [8, 10.725, 12.975]},
			"faces": {
				"north": {"uv": [6.625, 0.625, 6.625, 0.625], "texture": "#0"},
				"south": {"uv": [6.625, 0.625, 6.625, 0.625], "texture": "#0"},
				"up": {"uv": [6.625, 0.625, 6.625, 0.625], "texture": "#0"},
				"down": {"uv": [6.625, 0.625, 6.625, 0.625], "texture": "#0"}
			}
		},
		{
			"name": "hexadecagon",
			"from": [7.84246, 9.933, 12.425],
			"to": [8.15754, 10.221, 15.175],
			"rotation": {"angle": -22.5, "axis": "z", "origin": [8, 10.725, 12.975]},
			"faces": {
				"north": {"uv": [6.625, 0.625, 6.625, 0.625], "texture": "#0"},
				"south": {"uv": [6.625, 0.625, 6.625, 0.625], "texture": "#0"},
				"up": {"uv": [6.625, 0.625, 6.625, 0.625], "texture": "#0"},
				"down": {"uv": [6.625, 0.625, 6.625, 0.625], "texture": "#0"}
			}
		},
		{
			"name": "hexadecagon",
			"from": [7.84246, 9.933, 12.425],
			"to": [8.15754, 10.221, 15.175],
			"rotation": {"angle": 0, "axis": "z", "origin": [8, 10.725, 12.975]},
			"faces": {
				"north": {"uv": [6.625, 0.625, 6.625, 0.625], "texture": "#0"},
				"south": {"uv": [6.625, 0.625, 6.625, 0.625], "texture": "#0"},
				"up": {"uv": [6.625, 0.625, 6.625, 0.625], "texture": "#0"},
				"down": {"uv": [6.625, 0.625, 6.625, 0.625], "texture": "#0"}
			}
		},
		{
			"name": "hexadecagon",
			"from": [7.84246, 9.933, 12.425],
			"to": [8.15754, 10.221, 15.175],
			"rotation": {"angle": 22.5, "axis": "z", "origin": [8, 10.725, 12.975]},
			"faces": {
				"north": {"uv": [6.625, 0.625, 6.625, 0.625], "texture": "#0"},
				"south": {"uv": [6.625, 0.625, 6.625, 0.625], "texture": "#0"},
				"up": {"uv": [6.625, 0.625, 6.625, 0.625], "texture": "#0"},
				"down": {"uv": [6.625, 0.625, 6.625, 0.625], "texture": "#0"}
			}
		},
		{
			"name": "hexadecagon",
			"from": [7.84246, 9.933, 12.425],
			"to": [8.15754, 10.221, 15.175],
			"rotation": {"angle": 45, "axis": "z", "origin": [8, 10.725, 12.975]},
			"faces": {
				"north": {"uv": [6.625, 0.625, 6.625, 0.625], "texture": "#0"},
				"south": {"uv": [6.625, 0.625, 6.625, 0.625], "texture": "#0"},
				"up": {"uv": [6.625, 0.625, 6.625, 0.625], "texture": "#0"},
				"down": {"uv": [6.625, 0.625, 6.625, 0.625], "texture": "#0"}
			}
		},
		{
			"name": "hexadecagon",
			"from": [7.84246, 11.229, 12.425],
			"to": [8.15754, 11.517, 15.175],
			"rotation": {"angle": -45, "axis": "z", "origin": [8, 10.725, 12.975]},
			"faces": {
				"north": {"uv": [6.625, 0.625, 6.625, 0.625], "texture": "#0"},
				"south": {"uv": [6.625, 0.625, 6.625, 0.625], "texture": "#0"},
				"up": {"uv": [6.625, 0.625, 6.625, 0.625], "texture": "#0"},
				"down": {"uv": [6.625, 0.625, 6.625, 0.625], "texture": "#0"}
			}
		},
		{
			"name": "hexadecagon",
			"from": [7.84246, 11.229, 12.425],
			"to": [8.15754, 11.517, 15.175],
			"rotation": {"angle": -22.5, "axis": "z", "origin": [8, 10.725, 12.975]},
			"faces": {
				"north": {"uv": [6.625, 0.625, 6.625, 0.625], "texture": "#0"},
				"south": {"uv": [6.625, 0.625, 6.625, 0.625], "texture": "#0"},
				"up": {"uv": [6.625, 0.625, 6.625, 0.625], "texture": "#0"},
				"down": {"uv": [6.625, 0.625, 6.625, 0.625], "texture": "#0"}
			}
		},
		{
			"name": "hexadecagon",
			"from": [7.84246, 11.229, 12.425],
			"to": [8.15754, 11.517, 15.175],
			"rotation": {"angle": 0, "axis": "z", "origin": [8, 10.725, 12.975]},
			"faces": {
				"north": {"uv": [6.625, 0.625, 6.625, 0.625], "texture": "#0"},
				"south": {"uv": [6.625, 0.625, 6.625, 0.625], "texture": "#0"},
				"up": {"uv": [6.625, 0.625, 6.625, 0.625], "texture": "#0"},
				"down": {"uv": [6.625, 0.625, 6.625, 0.625], "texture": "#0"}
			}
		},
		{
			"name": "hexadecagon",
			"from": [7.84246, 11.229, 12.425],
			"to": [8.15754, 11.517, 15.175],
			"rotation": {"angle": 22.5, "axis": "z", "origin": [8, 10.725, 12.975]},
			"faces": {
				"north": {"uv": [6.625, 0.625, 6.625, 0.625], "texture": "#0"},
				"south": {"uv": [6.625, 0.625, 6.625, 0.625], "texture": "#0"},
				"up": {"uv": [6.625, 0.625, 6.625, 0.625], "texture": "#0"},
				"down": {"uv": [6.625, 0.625, 6.625, 0.625], "texture": "#0"}
			}
		},
		{
			"name": "hexadecagon",
			"from": [7.84246, 11.229, 12.425],
			"to": [8.15754, 11.517, 15.175],
			"rotation": {"angle": 45, "axis": "z", "origin": [8, 10.725, 12.975]},
			"faces": {
				"north": {"uv": [6.625, 0.625, 6.625, 0.625], "texture": "#0"},
				"south": {"uv": [6.625, 0.625, 6.625, 0.625], "texture": "#0"},
				"up": {"uv": [6.625, 0.625, 6.625, 0.625], "texture": "#0"},
				"down": {"uv": [6.625, 0.625, 6.625, 0.625], "texture": "#0"}
			}
		},
		{
			"name": "hexadecagon",
			"from": [7.208, 10.56746, 12.425],
			"to": [7.496, 10.88254, 15.175],
			"rotation": {"angle": -22.5, "axis": "z", "origin": [8, 10.725, 12.975]},
			"faces": {
				"north": {"uv": [6.625, 0.625, 6.625, 0.625], "texture": "#0"},
				"east": {"uv": [6.625, 0.625, 6.625, 0.625], "texture": "#0"},
				"south": {"uv": [6.625, 0.625, 6.625, 0.625], "texture": "#0"},
				"west": {"uv": [6.625, 0.625, 6.625, 0.625], "texture": "#0"}
			}
		},
		{
			"name": "hexadecagon",
			"from": [7.208, 10.56746, 12.425],
			"to": [7.496, 10.88254, 15.175],
			"rotation": {"angle": 0, "axis": "z", "origin": [8, 10.725, 12.975]},
			"faces": {
				"north": {"uv": [6.625, 0.625, 6.625, 0.625], "texture": "#0"},
				"east": {"uv": [6.625, 0.625, 6.625, 0.625], "texture": "#0"},
				"south": {"uv": [6.625, 0.625, 6.625, 0.625], "texture": "#0"},
				"west": {"uv": [6.625, 0.625, 6.625, 0.625], "texture": "#0"}
			}
		},
		{
			"name": "hexadecagon",
			"from": [7.208, 10.56746, 12.425],
			"to": [7.496, 10.88254, 15.175],
			"rotation": {"angle": 22.5, "axis": "z", "origin": [8, 10.725, 12.975]},
			"faces": {
				"north": {"uv": [6.625, 0.625, 6.625, 0.625], "texture": "#0"},
				"east": {"uv": [6.625, 0.625, 6.625, 0.625], "texture": "#0"},
				"south": {"uv": [6.625, 0.625, 6.625, 0.625], "texture": "#0"},
				"west": {"uv": [6.625, 0.625, 6.625, 0.625], "texture": "#0"}
			}
		},
		{
			"name": "hexadecagon",
			"from": [8.504, 10.56746, 12.425],
			"to": [8.792, 10.88254, 15.175],
			"rotation": {"angle": -22.5, "axis": "z", "origin": [8, 10.725, 12.975]},
			"faces": {
				"north": {"uv": [6.625, 0.625, 6.625, 0.625], "texture": "#0"},
				"east": {"uv": [6.625, 0.625, 6.625, 0.625], "texture": "#0"},
				"south": {"uv": [6.625, 0.625, 6.625, 0.625], "texture": "#0"},
				"west": {"uv": [6.625, 0.625, 6.625, 0.625], "texture": "#0"}
			}
		},
		{
			"name": "hexadecagon",
			"from": [8.504, 10.56746, 12.425],
			"to": [8.792, 10.88254, 15.175],
			"rotation": {"angle": 0, "axis": "z", "origin": [8, 10.725, 12.975]},
			"faces": {
				"north": {"uv": [6.625, 0.625, 6.625, 0.625], "texture": "#0"},
				"east": {"uv": [6.625, 0.625, 6.625, 0.625], "texture": "#0"},
				"south": {"uv": [6.625, 0.625, 6.625, 0.625], "texture": "#0"},
				"west": {"uv": [6.625, 0.625, 6.625, 0.625], "texture": "#0"}
			}
		},
		{
			"name": "hexadecagon",
			"from": [8.504, 10.56746, 12.425],
			"to": [8.792, 10.88254, 15.175],
			"rotation": {"angle": 22.5, "axis": "z", "origin": [8, 10.725, 12.975]},
			"faces": {
				"north": {"uv": [6.625, 0.625, 6.625, 0.625], "texture": "#0"},
				"east": {"uv": [6.625, 0.625, 6.625, 0.625], "texture": "#0"},
				"south": {"uv": [6.625, 0.625, 6.625, 0.625], "texture": "#0"},
				"west": {"uv": [6.625, 0.625, 6.625, 0.625], "texture": "#0"}
			}
		},
		{
			"name": "hexadecagon",
			"from": [7.88185, 10.131, 7.54766],
			"to": [8.11815, 10.347, 7.85],
			"rotation": {"angle": -45, "axis": "z", "origin": [8, 10.725, 8.25]},
			"faces": {
				"north": {"uv": [6.625, 0.625, 6.625, 0.625], "texture": "#0"},
				"east": {"uv": [6.625, 0.625, 6.625, 0.625], "texture": "#0"},
				"south": {"uv": [6.625, 0.625, 6.625, 0.625], "texture": "#0"},
				"west": {"uv": [6.625, 0.625, 6.625, 0.625], "texture": "#0"},
				"down": {"uv": [6.625, 0.625, 6.625, 0.625], "texture": "#0"}
			}
		},
		{
			"name": "hexadecagon",
			"from": [7.88185, 10.131, 7.54766],
			"to": [8.11815, 10.347, 7.85],
			"rotation": {"angle": -22.5, "axis": "z", "origin": [8, 10.725, 8.25]},
			"faces": {
				"north": {"uv": [6.625, 0.625, 6.625, 0.625], "texture": "#0"},
				"east": {"uv": [6.625, 0.625, 6.625, 0.625], "texture": "#0"},
				"south": {"uv": [6.625, 0.625, 6.625, 0.625], "texture": "#0"},
				"west": {"uv": [6.625, 0.625, 6.625, 0.625], "texture": "#0"},
				"down": {"uv": [6.625, 0.625, 6.625, 0.625], "texture": "#0"}
			}
		},
		{
			"name": "hexadecagon",
			"from": [7.88185, 10.131, 7.54766],
			"to": [8.11815, 10.347, 7.85],
			"rotation": {"angle": 0, "axis": "z", "origin": [8, 10.725, 8.25]},
			"faces": {
				"north": {"uv": [6.625, 0.625, 6.625, 0.625], "texture": "#0"},
				"east": {"uv": [6.625, 0.625, 6.625, 0.625], "texture": "#0"},
				"south": {"uv": [6.625, 0.625, 6.625, 0.625], "texture": "#0"},
				"west": {"uv": [6.625, 0.625, 6.625, 0.625], "texture": "#0"},
				"down": {"uv": [6.625, 0.625, 6.625, 0.625], "texture": "#0"}
			}
		},
		{
			"name": "hexadecagon",
			"from": [7.88185, 10.131, 7.54766],
			"to": [8.11815, 10.347, 7.85],
			"rotation": {"angle": 22.5, "axis": "z", "origin": [8, 10.725, 8.25]},
			"faces": {
				"north": {"uv": [6.625, 0.625, 6.625, 0.625], "texture": "#0"},
				"east": {"uv": [6.625, 0.625, 6.625, 0.625], "texture": "#0"},
				"south": {"uv": [6.625, 0.625, 6.625, 0.625], "texture": "#0"},
				"west": {"uv": [6.625, 0.625, 6.625, 0.625], "texture": "#0"},
				"down": {"uv": [6.625, 0.625, 6.625, 0.625], "texture": "#0"}
			}
		},
		{
			"name": "hexadecagon",
			"from": [7.88185, 10.131, 7.54766],
			"to": [8.11815, 10.347, 7.85],
			"rotation": {"angle": 45, "axis": "z", "origin": [8, 10.725, 8.25]},
			"faces": {
				"north": {"uv": [6.625, 0.625, 6.625, 0.625], "texture": "#0"},
				"east": {"uv": [6.625, 0.625, 6.625, 0.625], "texture": "#0"},
				"south": {"uv": [6.625, 0.625, 6.625, 0.625], "texture": "#0"},
				"west": {"uv": [6.625, 0.625, 6.625, 0.625], "texture": "#0"},
				"down": {"uv": [6.625, 0.625, 6.625, 0.625], "texture": "#0"}
			}
		},
		{
			"name": "hexadecagon",
			"from": [7.88185, 11.103, 7.54766],
			"to": [8.11815, 11.319, 7.85],
			"rotation": {"angle": -45, "axis": "z", "origin": [8, 10.725, 8.25]},
			"faces": {
				"north": {"uv": [6.625, 0.625, 6.625, 0.625], "texture": "#0"},
				"east": {"uv": [6.625, 0.625, 6.625, 0.625], "texture": "#0"},
				"south": {"uv": [6.625, 0.625, 6.625, 0.625], "texture": "#0"},
				"west": {"uv": [6.625, 0.625, 6.625, 0.625], "texture": "#0"},
				"up": {"uv": [6.625, 0.625, 6.625, 0.625], "texture": "#0"}
			}
		},
		{
			"name": "hexadecagon",
			"from": [7.88185, 11.103, 7.54766],
			"to": [8.11815, 11.319, 7.85],
			"rotation": {"angle": -22.5, "axis": "z", "origin": [8, 10.725, 8.25]},
			"faces": {
				"north": {"uv": [6.625, 0.625, 6.625, 0.625], "texture": "#0"},
				"east": {"uv": [6.625, 0.625, 6.625, 0.625], "texture": "#0"},
				"south": {"uv": [6.625, 0.625, 6.625, 0.625], "texture": "#0"},
				"west": {"uv": [6.625, 0.625, 6.625, 0.625], "texture": "#0"},
				"up": {"uv": [6.625, 0.625, 6.625, 0.625], "texture": "#0"}
			}
		},
		{
			"name": "hexadecagon",
			"from": [7.88185, 11.103, 7.54766],
			"to": [8.11815, 11.319, 7.85],
			"rotation": {"angle": 0, "axis": "z", "origin": [8, 10.725, 8.25]},
			"faces": {
				"north": {"uv": [6.625, 0.625, 6.625, 0.625], "texture": "#0"},
				"east": {"uv": [6.625, 0.625, 6.625, 0.625], "texture": "#0"},
				"south": {"uv": [6.625, 0.625, 6.625, 0.625], "texture": "#0"},
				"west": {"uv": [6.625, 0.625, 6.625, 0.625], "texture": "#0"},
				"up": {"uv": [6.625, 0.625, 6.625, 0.625], "texture": "#0"}
			}
		},
		{
			"name": "hexadecagon",
			"from": [7.88185, 11.103, 7.54766],
			"to": [8.11815, 11.319, 7.85],
			"rotation": {"angle": 22.5, "axis": "z", "origin": [8, 10.725, 8.25]},
			"faces": {
				"north": {"uv": [6.625, 0.625, 6.625, 0.625], "texture": "#0"},
				"east": {"uv": [6.625, 0.625, 6.625, 0.625], "texture": "#0"},
				"south": {"uv": [6.625, 0.625, 6.625, 0.625], "texture": "#0"},
				"west": {"uv": [6.625, 0.625, 6.625, 0.625], "texture": "#0"},
				"up": {"uv": [6.625, 0.625, 6.625, 0.625], "texture": "#0"}
			}
		},
		{
			"name": "hexadecagon",
			"from": [7.88185, 11.103, 7.54766],
			"to": [8.11815, 11.319, 7.85],
			"rotation": {"angle": 45, "axis": "z", "origin": [8, 10.725, 8.25]},
			"faces": {
				"north": {"uv": [6.625, 0.625, 6.625, 0.625], "texture": "#0"},
				"east": {"uv": [6.625, 0.625, 6.625, 0.625], "texture": "#0"},
				"south": {"uv": [6.625, 0.625, 6.625, 0.625], "texture": "#0"},
				"west": {"uv": [6.625, 0.625, 6.625, 0.625], "texture": "#0"},
				"up": {"uv": [6.625, 0.625, 6.625, 0.625], "texture": "#0"}
			}
		},
		{
			"name": "hexadecagon",
			"from": [7.406, 10.60685, 7.54766],
			"to": [7.622, 10.84315, 7.85],
			"rotation": {"angle": -22.5, "axis": "z", "origin": [8, 10.725, 8.25]},
			"faces": {
				"north": {"uv": [6.625, 0.625, 6.625, 0.625], "texture": "#0"},
				"south": {"uv": [6.625, 0.625, 6.625, 0.625], "texture": "#0"},
				"west": {"uv": [6.625, 0.625, 6.625, 0.625], "texture": "#0"},
				"up": {"uv": [6.625, 0.625, 6.625, 0.625], "texture": "#0"},
				"down": {"uv": [6.625, 0.625, 6.625, 0.625], "texture": "#0"}
			}
		},
		{
			"name": "hexadecagon",
			"from": [7.406, 10.60685, 7.54766],
			"to": [7.622, 10.84315, 7.85],
			"rotation": {"angle": 0, "axis": "z", "origin": [8, 10.725, 8.25]},
			"faces": {
				"north": {"uv": [6.625, 0.625, 6.625, 0.625], "texture": "#0"},
				"south": {"uv": [6.625, 0.625, 6.625, 0.625], "texture": "#0"},
				"west": {"uv": [6.625, 0.625, 6.625, 0.625], "texture": "#0"},
				"up": {"uv": [6.625, 0.625, 6.625, 0.625], "texture": "#0"},
				"down": {"uv": [6.625, 0.625, 6.625, 0.625], "texture": "#0"}
			}
		},
		{
			"name": "hexadecagon",
			"from": [7.406, 10.60685, 7.54766],
			"to": [7.622, 10.84315, 7.85],
			"rotation": {"angle": 22.5, "axis": "z", "origin": [8, 10.725, 8.25]},
			"faces": {
				"north": {"uv": [6.625, 0.625, 6.625, 0.625], "texture": "#0"},
				"south": {"uv": [6.625, 0.625, 6.625, 0.625], "texture": "#0"},
				"west": {"uv": [6.625, 0.625, 6.625, 0.625], "texture": "#0"},
				"up": {"uv": [6.625, 0.625, 6.625, 0.625], "texture": "#0"},
				"down": {"uv": [6.625, 0.625, 6.625, 0.625], "texture": "#0"}
			}
		},
		{
			"name": "hexadecagon",
			"from": [8.378, 10.60685, 7.54766],
			"to": [8.594, 10.84315, 7.85],
			"rotation": {"angle": -22.5, "axis": "z", "origin": [8, 10.725, 8.25]},
			"faces": {
				"north": {"uv": [6.625, 0.625, 6.625, 0.625], "texture": "#0"},
				"east": {"uv": [6.625, 0.625, 6.625, 0.625], "texture": "#0"},
				"south": {"uv": [6.625, 0.625, 6.625, 0.625], "texture": "#0"},
				"up": {"uv": [6.625, 0.625, 6.625, 0.625], "texture": "#0"},
				"down": {"uv": [6.625, 0.625, 6.625, 0.625], "texture": "#0"}
			}
		},
		{
			"name": "hexadecagon",
			"from": [8.378, 10.60685, 7.54766],
			"to": [8.594, 10.84315, 7.85],
			"rotation": {"angle": 0, "axis": "z", "origin": [8, 10.725, 8.25]},
			"faces": {
				"north": {"uv": [6.625, 0.625, 6.625, 0.625], "texture": "#0"},
				"east": {"uv": [6.625, 0.625, 6.625, 0.625], "texture": "#0"},
				"south": {"uv": [6.625, 0.625, 6.625, 0.625], "texture": "#0"},
				"up": {"uv": [6.625, 0.625, 6.625, 0.625], "texture": "#0"},
				"down": {"uv": [6.625, 0.625, 6.625, 0.625], "texture": "#0"}
			}
		},
		{
			"name": "hexadecagon",
			"from": [8.378, 10.60685, 7.54766],
			"to": [8.594, 10.84315, 7.85],
			"rotation": {"angle": 22.5, "axis": "z", "origin": [8, 10.725, 8.25]},
			"faces": {
				"north": {"uv": [6.625, 0.625, 6.625, 0.625], "texture": "#0"},
				"east": {"uv": [6.625, 0.625, 6.625, 0.625], "texture": "#0"},
				"south": {"uv": [6.625, 0.625, 6.625, 0.625], "texture": "#0"},
				"up": {"uv": [6.625, 0.625, 6.625, 0.625], "texture": "#0"},
				"down": {"uv": [6.625, 0.625, 6.625, 0.625], "texture": "#0"}
			}
		},
		{
			"name": "hexadecagon",
			"from": [7.86219, 10.03216, 7.24766],
			"to": [8.13781, 10.2841, 7.55],
			"rotation": {"angle": -45, "axis": "z", "origin": [8, 10.725, 7.95]},
			"faces": {
				"north": {"uv": [6.625, 0.625, 6.625, 0.625], "texture": "#0"},
				"east": {"uv": [6.625, 0.625, 6.625, 0.625], "texture": "#0"},
				"south": {"uv": [6.625, 0.625, 6.625, 0.625], "texture": "#0"},
				"west": {"uv": [6.625, 0.625, 6.625, 0.625], "texture": "#0"},
				"up": {"uv": [6.625, 0.625, 6.625, 0.625], "texture": "#0"},
				"down": {"uv": [6.625, 0.625, 6.625, 0.625], "texture": "#0"}
			}
		},
		{
			"name": "hexadecagon",
			"from": [7.86219, 10.03216, 7.24766],
			"to": [8.13781, 10.2841, 7.55],
			"rotation": {"angle": -22.5, "axis": "z", "origin": [8, 10.725, 7.95]},
			"faces": {
				"north": {"uv": [6.625, 0.625, 6.625, 0.625], "texture": "#0"},
				"east": {"uv": [6.625, 0.625, 6.625, 0.625], "texture": "#0"},
				"south": {"uv": [6.625, 0.625, 6.625, 0.625], "texture": "#0"},
				"west": {"uv": [6.625, 0.625, 6.625, 0.625], "texture": "#0"},
				"up": {"uv": [6.625, 0.625, 6.625, 0.625], "texture": "#0"},
				"down": {"uv": [6.625, 0.625, 6.625, 0.625], "texture": "#0"}
			}
		},
		{
			"name": "hexadecagon",
			"from": [7.86219, 10.03216, 7.24766],
			"to": [8.13781, 10.2841, 7.55],
			"rotation": {"angle": 0, "axis": "z", "origin": [8, 10.725, 7.95]},
			"faces": {
				"north": {"uv": [6.625, 0.625, 6.625, 0.625], "texture": "#0"},
				"east": {"uv": [6.625, 0.625, 6.625, 0.625], "texture": "#0"},
				"south": {"uv": [6.625, 0.625, 6.625, 0.625], "texture": "#0"},
				"west": {"uv": [6.625, 0.625, 6.625, 0.625], "texture": "#0"},
				"up": {"uv": [6.625, 0.625, 6.625, 0.625], "texture": "#0"},
				"down": {"uv": [6.625, 0.625, 6.625, 0.625], "texture": "#0"}
			}
		},
		{
			"name": "hexadecagon",
			"from": [7.86219, 10.03216, 7.24766],
			"to": [8.13781, 10.2841, 7.55],
			"rotation": {"angle": 22.5, "axis": "z", "origin": [8, 10.725, 7.95]},
			"faces": {
				"north": {"uv": [6.625, 0.625, 6.625, 0.625], "texture": "#0"},
				"east": {"uv": [6.625, 0.625, 6.625, 0.625], "texture": "#0"},
				"south": {"uv": [6.625, 0.625, 6.625, 0.625], "texture": "#0"},
				"west": {"uv": [6.625, 0.625, 6.625, 0.625], "texture": "#0"},
				"up": {"uv": [6.625, 0.625, 6.625, 0.625], "texture": "#0"},
				"down": {"uv": [6.625, 0.625, 6.625, 0.625], "texture": "#0"}
			}
		},
		{
			"name": "hexadecagon",
			"from": [7.86219, 10.03216, 7.24766],
			"to": [8.13781, 10.2841, 7.55],
			"rotation": {"angle": 45, "axis": "z", "origin": [8, 10.725, 7.95]},
			"faces": {
				"north": {"uv": [6.625, 0.625, 6.625, 0.625], "texture": "#0"},
				"east": {"uv": [6.625, 0.625, 6.625, 0.625], "texture": "#0"},
				"south": {"uv": [6.625, 0.625, 6.625, 0.625], "texture": "#0"},
				"west": {"uv": [6.625, 0.625, 6.625, 0.625], "texture": "#0"},
				"up": {"uv": [6.625, 0.625, 6.625, 0.625], "texture": "#0"},
				"down": {"uv": [6.625, 0.625, 6.625, 0.625], "texture": "#0"}
			}
		},
		{
			"name": "hexadecagon",
			"from": [7.86219, 11.1659, 7.24766],
			"to": [8.13781, 11.41784, 7.55],
			"rotation": {"angle": -45, "axis": "z", "origin": [8, 10.725, 7.95]},
			"faces": {
				"north": {"uv": [6.625, 0.625, 6.625, 0.625], "texture": "#0"},
				"east": {"uv": [6.625, 0.625, 6.625, 0.625], "texture": "#0"},
				"south": {"uv": [6.625, 0.625, 6.625, 0.625], "texture": "#0"},
				"west": {"uv": [6.625, 0.625, 6.625, 0.625], "texture": "#0"},
				"up": {"uv": [6.625, 0.625, 6.625, 0.625], "texture": "#0"},
				"down": {"uv": [6.625, 0.625, 6.625, 0.625], "texture": "#0"}
			}
		},
		{
			"name": "hexadecagon",
			"from": [7.86219, 11.1659, 7.24766],
			"to": [8.13781, 11.41784, 7.55],
			"rotation": {"angle": -22.5, "axis": "z", "origin": [8, 10.725, 7.95]},
			"faces": {
				"north": {"uv": [6.625, 0.625, 6.625, 0.625], "texture": "#0"},
				"east": {"uv": [6.625, 0.625, 6.625, 0.625], "texture": "#0"},
				"south": {"uv": [6.625, 0.625, 6.625, 0.625], "texture": "#0"},
				"west": {"uv": [6.625, 0.625, 6.625, 0.625], "texture": "#0"},
				"up": {"uv": [6.625, 0.625, 6.625, 0.625], "texture": "#0"},
				"down": {"uv": [6.625, 0.625, 6.625, 0.625], "texture": "#0"}
			}
		},
		{
			"name": "hexadecagon",
			"from": [7.86219, 11.1659, 7.24766],
			"to": [8.13781, 11.41784, 7.55],
			"rotation": {"angle": 0, "axis": "z", "origin": [8, 10.725, 7.95]},
			"faces": {
				"north": {"uv": [6.625, 0.625, 6.625, 0.625], "texture": "#0"},
				"east": {"uv": [6.625, 0.625, 6.625, 0.625], "texture": "#0"},
				"south": {"uv": [6.625, 0.625, 6.625, 0.625], "texture": "#0"},
				"west": {"uv": [6.625, 0.625, 6.625, 0.625], "texture": "#0"},
				"up": {"uv": [6.625, 0.625, 6.625, 0.625], "texture": "#0"},
				"down": {"uv": [6.625, 0.625, 6.625, 0.625], "texture": "#0"}
			}
		},
		{
			"name": "hexadecagon",
			"from": [7.86219, 11.1659, 7.24766],
			"to": [8.13781, 11.41784, 7.55],
			"rotation": {"angle": 22.5, "axis": "z", "origin": [8, 10.725, 7.95]},
			"faces": {
				"north": {"uv": [6.625, 0.625, 6.625, 0.625], "texture": "#0"},
				"east": {"uv": [6.625, 0.625, 6.625, 0.625], "texture": "#0"},
				"south": {"uv": [6.625, 0.625, 6.625, 0.625], "texture": "#0"},
				"west": {"uv": [6.625, 0.625, 6.625, 0.625], "texture": "#0"},
				"up": {"uv": [6.625, 0.625, 6.625, 0.625], "texture": "#0"},
				"down": {"uv": [6.625, 0.625, 6.625, 0.625], "texture": "#0"}
			}
		},
		{
			"name": "hexadecagon",
			"from": [7.86219, 11.1659, 7.24766],
			"to": [8.13781, 11.41784, 7.55],
			"rotation": {"angle": 45, "axis": "z", "origin": [8, 10.725, 7.95]},
			"faces": {
				"north": {"uv": [6.625, 0.625, 6.625, 0.625], "texture": "#0"},
				"east": {"uv": [6.625, 0.625, 6.625, 0.625], "texture": "#0"},
				"south": {"uv": [6.625, 0.625, 6.625, 0.625], "texture": "#0"},
				"west": {"uv": [6.625, 0.625, 6.625, 0.625], "texture": "#0"},
				"up": {"uv": [6.625, 0.625, 6.625, 0.625], "texture": "#0"},
				"down": {"uv": [6.625, 0.625, 6.625, 0.625], "texture": "#0"}
			}
		},
		{
			"name": "hexadecagon",
			"from": [7.30716, 10.58719, 7.24766],
			"to": [7.5591, 10.86281, 7.55],
			"rotation": {"angle": -22.5, "axis": "z", "origin": [8, 10.725, 7.95]},
			"faces": {
				"north": {"uv": [6.625, 0.625, 6.625, 0.625], "texture": "#0"},
				"east": {"uv": [6.625, 0.625, 6.625, 0.625], "texture": "#0"},
				"south": {"uv": [6.625, 0.625, 6.625, 0.625], "texture": "#0"},
				"west": {"uv": [6.625, 0.625, 6.625, 0.625], "texture": "#0"},
				"up": {"uv": [6.625, 0.625, 6.625, 0.625], "texture": "#0"},
				"down": {"uv": [6.625, 0.625, 6.625, 0.625], "texture": "#0"}
			}
		},
		{
			"name": "hexadecagon",
			"from": [7.30716, 10.58719, 7.24766],
			"to": [7.5591, 10.86281, 7.55],
			"rotation": {"angle": 0, "axis": "z", "origin": [8, 10.725, 7.95]},
			"faces": {
				"north": {"uv": [6.625, 0.625, 6.625, 0.625], "texture": "#0"},
				"east": {"uv": [6.625, 0.625, 6.625, 0.625], "texture": "#0"},
				"south": {"uv": [6.625, 0.625, 6.625, 0.625], "texture": "#0"},
				"west": {"uv": [6.625, 0.625, 6.625, 0.625], "texture": "#0"},
				"up": {"uv": [6.625, 0.625, 6.625, 0.625], "texture": "#0"},
				"down": {"uv": [6.625, 0.625, 6.625, 0.625], "texture": "#0"}
			}
		},
		{
			"name": "hexadecagon",
			"from": [7.30716, 10.58719, 7.24766],
			"to": [7.5591, 10.86281, 7.55],
			"rotation": {"angle": 22.5, "axis": "z", "origin": [8, 10.725, 7.95]},
			"faces": {
				"north": {"uv": [6.625, 0.625, 6.625, 0.625], "texture": "#0"},
				"east": {"uv": [6.625, 0.625, 6.625, 0.625], "texture": "#0"},
				"south": {"uv": [6.625, 0.625, 6.625, 0.625], "texture": "#0"},
				"west": {"uv": [6.625, 0.625, 6.625, 0.625], "texture": "#0"},
				"up": {"uv": [6.625, 0.625, 6.625, 0.625], "texture": "#0"},
				"down": {"uv": [6.625, 0.625, 6.625, 0.625], "texture": "#0"}
			}
		},
		{
			"name": "hexadecagon",
			"from": [8.4409, 10.58719, 7.24766],
			"to": [8.69284, 10.86281, 7.55],
			"rotation": {"angle": -22.5, "axis": "z", "origin": [8, 10.725, 7.95]},
			"faces": {
				"north": {"uv": [6.625, 0.625, 6.625, 0.625], "texture": "#0"},
				"east": {"uv": [6.625, 0.625, 6.625, 0.625], "texture": "#0"},
				"south": {"uv": [6.625, 0.625, 6.625, 0.625], "texture": "#0"},
				"west": {"uv": [6.625, 0.625, 6.625, 0.625], "texture": "#0"},
				"up": {"uv": [6.625, 0.625, 6.625, 0.625], "texture": "#0"},
				"down": {"uv": [6.625, 0.625, 6.625, 0.625], "texture": "#0"}
			}
		},
		{
			"name": "hexadecagon",
			"from": [8.4409, 10.58719, 7.24766],
			"to": [8.69284, 10.86281, 7.55],
			"rotation": {"angle": 0, "axis": "z", "origin": [8, 10.725, 7.95]},
			"faces": {
				"north": {"uv": [6.625, 0.625, 6.625, 0.625], "texture": "#0"},
				"east": {"uv": [6.625, 0.625, 6.625, 0.625], "texture": "#0"},
				"south": {"uv": [6.625, 0.625, 6.625, 0.625], "texture": "#0"},
				"west": {"uv": [6.625, 0.625, 6.625, 0.625], "texture": "#0"},
				"up": {"uv": [6.625, 0.625, 6.625, 0.625], "texture": "#0"},
				"down": {"uv": [6.625, 0.625, 6.625, 0.625], "texture": "#0"}
			}
		},
		{
			"name": "hexadecagon",
			"from": [8.4409, 10.58719, 7.24766],
			"to": [8.69284, 10.86281, 7.55],
			"rotation": {"angle": 22.5, "axis": "z", "origin": [8, 10.725, 7.95]},
			"faces": {
				"north": {"uv": [6.625, 0.625, 6.625, 0.625], "texture": "#0"},
				"east": {"uv": [6.625, 0.625, 6.625, 0.625], "texture": "#0"},
				"south": {"uv": [6.625, 0.625, 6.625, 0.625], "texture": "#0"},
				"west": {"uv": [6.625, 0.625, 6.625, 0.625], "texture": "#0"},
				"up": {"uv": [6.625, 0.625, 6.625, 0.625], "texture": "#0"},
				"down": {"uv": [6.625, 0.625, 6.625, 0.625], "texture": "#0"}
			}
		},
		{
			"name": "hexadecagon",
			"from": [7.83925, 9.91687, 6.94766],
			"to": [8.16075, 10.21074, 7.25],
			"rotation": {"angle": -45, "axis": "z", "origin": [8, 10.725, 7.65]},
			"faces": {
				"north": {"uv": [6.625, 0.625, 6.625, 0.625], "texture": "#0"},
				"south": {"uv": [6.625, 0.625, 6.625, 0.625], "texture": "#0"},
				"up": {"uv": [6.625, 0.625, 6.625, 0.625], "texture": "#0"},
				"down": {"uv": [6.625, 0.625, 6.625, 0.625], "texture": "#0"}
			}
		},
		{
			"name": "hexadecagon",
			"from": [7.83925, 9.91687, 6.94766],
			"to": [8.16075, 10.21074, 7.25],
			"rotation": {"angle": -22.5, "axis": "z", "origin": [8, 10.725, 7.65]},
			"faces": {
				"north": {"uv": [6.625, 0.625, 6.625, 0.625], "texture": "#0"},
				"south": {"uv": [6.625, 0.625, 6.625, 0.625], "texture": "#0"},
				"up": {"uv": [6.625, 0.625, 6.625, 0.625], "texture": "#0"},
				"down": {"uv": [6.625, 0.625, 6.625, 0.625], "texture": "#0"}
			}
		},
		{
			"name": "hexadecagon",
			"from": [7.83925, 9.91687, 6.94766],
			"to": [8.16075, 10.21074, 7.25],
			"rotation": {"angle": 0, "axis": "z", "origin": [8, 10.725, 7.65]},
			"faces": {
				"north": {"uv": [6.625, 0.625, 6.625, 0.625], "texture": "#0"},
				"south": {"uv": [6.625, 0.625, 6.625, 0.625], "texture": "#0"},
				"up": {"uv": [6.625, 0.625, 6.625, 0.625], "texture": "#0"},
				"down": {"uv": [6.625, 0.625, 6.625, 0.625], "texture": "#0"}
			}
		},
		{
			"name": "hexadecagon",
			"from": [7.83925, 9.91687, 6.94766],
			"to": [8.16075, 10.21074, 7.25],
			"rotation": {"angle": 22.5, "axis": "z", "origin": [8, 10.725, 7.65]},
			"faces": {
				"north": {"uv": [6.625, 0.625, 6.625, 0.625], "texture": "#0"},
				"south": {"uv": [6.625, 0.625, 6.625, 0.625], "texture": "#0"},
				"up": {"uv": [6.625, 0.625, 6.625, 0.625], "texture": "#0"},
				"down": {"uv": [6.625, 0.625, 6.625, 0.625], "texture": "#0"}
			}
		},
		{
			"name": "hexadecagon",
			"from": [7.83925, 9.91687, 6.94766],
			"to": [8.16075, 10.21074, 7.25],
			"rotation": {"angle": 45, "axis": "z", "origin": [8, 10.725, 7.65]},
			"faces": {
				"north": {"uv": [6.625, 0.625, 6.625, 0.625], "texture": "#0"},
				"south": {"uv": [6.625, 0.625, 6.625, 0.625], "texture": "#0"},
				"up": {"uv": [6.625, 0.625, 6.625, 0.625], "texture": "#0"},
				"down": {"uv": [6.625, 0.625, 6.625, 0.625], "texture": "#0"}
			}
		},
		{
			"name": "hexadecagon",
			"from": [7.83925, 11.23926, 6.94766],
			"to": [8.16075, 11.53313, 7.25],
			"rotation": {"angle": -45, "axis": "z", "origin": [8, 10.725, 7.65]},
			"faces": {
				"north": {"uv": [6.625, 0.625, 6.625, 0.625], "texture": "#0"},
				"south": {"uv": [6.625, 0.625, 6.625, 0.625], "texture": "#0"},
				"up": {"uv": [6.625, 0.625, 6.625, 0.625], "texture": "#0"},
				"down": {"uv": [6.625, 0.625, 6.625, 0.625], "texture": "#0"}
			}
		},
		{
			"name": "hexadecagon",
			"from": [7.83925, 11.23926, 6.94766],
			"to": [8.16075, 11.53313, 7.25],
			"rotation": {"angle": -22.5, "axis": "z", "origin": [8, 10.725, 7.65]},
			"faces": {
				"north": {"uv": [6.625, 0.625, 6.625, 0.625], "texture": "#0"},
				"south": {"uv": [6.625, 0.625, 6.625, 0.625], "texture": "#0"},
				"up": {"uv": [6.625, 0.625, 6.625, 0.625], "texture": "#0"},
				"down": {"uv": [6.625, 0.625, 6.625, 0.625], "texture": "#0"}
			}
		},
		{
			"name": "hexadecagon",
			"from": [7.83925, 11.23926, 6.94766],
			"to": [8.16075, 11.53313, 7.25],
			"rotation": {"angle": 0, "axis": "z", "origin": [8, 10.725, 7.65]},
			"faces": {
				"north": {"uv": [6.625, 0.625, 6.625, 0.625], "texture": "#0"},
				"south": {"uv": [6.625, 0.625, 6.625, 0.625], "texture": "#0"},
				"up": {"uv": [6.625, 0.625, 6.625, 0.625], "texture": "#0"},
				"down": {"uv": [6.625, 0.625, 6.625, 0.625], "texture": "#0"}
			}
		},
		{
			"name": "hexadecagon",
			"from": [7.83925, 11.23926, 6.94766],
			"to": [8.16075, 11.53313, 7.25],
			"rotation": {"angle": 22.5, "axis": "z", "origin": [8, 10.725, 7.65]},
			"faces": {
				"north": {"uv": [6.625, 0.625, 6.625, 0.625], "texture": "#0"},
				"south": {"uv": [6.625, 0.625, 6.625, 0.625], "texture": "#0"},
				"up": {"uv": [6.625, 0.625, 6.625, 0.625], "texture": "#0"},
				"down": {"uv": [6.625, 0.625, 6.625, 0.625], "texture": "#0"}
			}
		},
		{
			"name": "hexadecagon",
			"from": [7.83925, 11.23926, 6.94766],
			"to": [8.16075, 11.53313, 7.25],
			"rotation": {"angle": 45, "axis": "z", "origin": [8, 10.725, 7.65]},
			"faces": {
				"north": {"uv": [6.625, 0.625, 6.625, 0.625], "texture": "#0"},
				"south": {"uv": [6.625, 0.625, 6.625, 0.625], "texture": "#0"},
				"up": {"uv": [6.625, 0.625, 6.625, 0.625], "texture": "#0"},
				"down": {"uv": [6.625, 0.625, 6.625, 0.625], "texture": "#0"}
			}
		},
		{
			"name": "hexadecagon",
			"from": [7.19187, 10.56425, 6.94766],
			"to": [7.48574, 10.88575, 7.25],
			"rotation": {"angle": -22.5, "axis": "z", "origin": [8, 10.725, 7.65]},
			"faces": {
				"north": {"uv": [6.625, 0.625, 6.625, 0.625], "texture": "#0"},
				"east": {"uv": [6.625, 0.625, 6.625, 0.625], "texture": "#0"},
				"south": {"uv": [6.625, 0.625, 6.625, 0.625], "texture": "#0"},
				"west": {"uv": [6.625, 0.625, 6.625, 0.625], "texture": "#0"}
			}
		},
		{
			"name": "hexadecagon",
			"from": [7.19187, 10.56425, 6.94766],
			"to": [7.48574, 10.88575, 7.25],
			"rotation": {"angle": 0, "axis": "z", "origin": [8, 10.725, 7.65]},
			"faces": {
				"north": {"uv": [6.625, 0.625, 6.625, 0.625], "texture": "#0"},
				"east": {"uv": [6.625, 0.625, 6.625, 0.625], "texture": "#0"},
				"south": {"uv": [6.625, 0.625, 6.625, 0.625], "texture": "#0"},
				"west": {"uv": [6.625, 0.625, 6.625, 0.625], "texture": "#0"}
			}
		},
		{
			"name": "hexadecagon",
			"from": [7.19187, 10.56425, 6.94766],
			"to": [7.48574, 10.88575, 7.25],
			"rotation": {"angle": 22.5, "axis": "z", "origin": [8, 10.725, 7.65]},
			"faces": {
				"north": {"uv": [6.625, 0.625, 6.625, 0.625], "texture": "#0"},
				"east": {"uv": [6.625, 0.625, 6.625, 0.625], "texture": "#0"},
				"south": {"uv": [6.625, 0.625, 6.625, 0.625], "texture": "#0"},
				"west": {"uv": [6.625, 0.625, 6.625, 0.625], "texture": "#0"}
			}
		},
		{
			"name": "hexadecagon",
			"from": [8.51426, 10.56425, 6.94766],
			"to": [8.80813, 10.88575, 7.25],
			"rotation": {"angle": -22.5, "axis": "z", "origin": [8, 10.725, 7.65]},
			"faces": {
				"north": {"uv": [6.625, 0.625, 6.625, 0.625], "texture": "#0"},
				"east": {"uv": [6.625, 0.625, 6.625, 0.625], "texture": "#0"},
				"south": {"uv": [6.625, 0.625, 6.625, 0.625], "texture": "#0"},
				"west": {"uv": [6.625, 0.625, 6.625, 0.625], "texture": "#0"}
			}
		},
		{
			"name": "hexadecagon",
			"from": [8.51426, 10.56425, 6.94766],
			"to": [8.80813, 10.88575, 7.25],
			"rotation": {"angle": 0, "axis": "z", "origin": [8, 10.725, 7.65]},
			"faces": {
				"north": {"uv": [6.625, 0.625, 6.625, 0.625], "texture": "#0"},
				"east": {"uv": [6.625, 0.625, 6.625, 0.625], "texture": "#0"},
				"south": {"uv": [6.625, 0.625, 6.625, 0.625], "texture": "#0"},
				"west": {"uv": [6.625, 0.625, 6.625, 0.625], "texture": "#0"}
			}
		},
		{
			"name": "hexadecagon",
			"from": [8.51426, 10.56425, 6.94766],
			"to": [8.80813, 10.88575, 7.25],
			"rotation": {"angle": 22.5, "axis": "z", "origin": [8, 10.725, 7.65]},
			"faces": {
				"north": {"uv": [6.625, 0.625, 6.625, 0.625], "texture": "#0"},
				"east": {"uv": [6.625, 0.625, 6.625, 0.625], "texture": "#0"},
				"south": {"uv": [6.625, 0.625, 6.625, 0.625], "texture": "#0"},
				"west": {"uv": [6.625, 0.625, 6.625, 0.625], "texture": "#0"}
			}
		},
		{
			"name": "hexadecagon",
			"from": [7.8125, 9.7824, 4.95],
			"to": [8.1875, 10.12516, 6.95],
			"rotation": {"angle": -45, "axis": "z", "origin": [8, 10.725, 5.5]},
			"faces": {
				"north": {"uv": [6.625, 0.625, 6.625, 0.625], "texture": "#0"},
				"south": {"uv": [6.625, 0.625, 6.625, 0.625], "texture": "#0"},
				"up": {"uv": [6.625, 0.625, 6.625, 0.625], "texture": "#0"},
				"down": {"uv": [6.625, 0.625, 6.625, 0.625], "texture": "#0"}
			}
		},
		{
			"name": "hexadecagon",
			"from": [7.8125, 9.7824, 4.95],
			"to": [8.1875, 10.12516, 6.95],
			"rotation": {"angle": -22.5, "axis": "z", "origin": [8, 10.725, 5.5]},
			"faces": {
				"north": {"uv": [6.625, 0.625, 6.625, 0.625], "texture": "#0"},
				"south": {"uv": [6.625, 0.625, 6.625, 0.625], "texture": "#0"},
				"up": {"uv": [6.625, 0.625, 6.625, 0.625], "texture": "#0"},
				"down": {"uv": [6.625, 0.625, 6.625, 0.625], "texture": "#0"}
			}
		},
		{
			"name": "hexadecagon",
			"from": [7.8125, 9.7824, 4.95],
			"to": [8.1875, 10.12516, 6.95],
			"rotation": {"angle": 0, "axis": "z", "origin": [8, 10.725, 5.5]},
			"faces": {
				"north": {"uv": [6.625, 0.625, 6.625, 0.625], "texture": "#0"},
				"south": {"uv": [6.625, 0.625, 6.625, 0.625], "texture": "#0"},
				"up": {"uv": [6.625, 0.625, 6.625, 0.625], "texture": "#0"},
				"down": {"uv": [6.625, 0.625, 6.625, 0.625], "texture": "#0"}
			}
		},
		{
			"name": "hexadecagon",
			"from": [7.8125, 9.7824, 4.95],
			"to": [8.1875, 10.12516, 6.95],
			"rotation": {"angle": 22.5, "axis": "z", "origin": [8, 10.725, 5.5]},
			"faces": {
				"north": {"uv": [6.625, 0.625, 6.625, 0.625], "texture": "#0"},
				"south": {"uv": [6.625, 0.625, 6.625, 0.625], "texture": "#0"},
				"up": {"uv": [6.625, 0.625, 6.625, 0.625], "texture": "#0"},
				"down": {"uv": [6.625, 0.625, 6.625, 0.625], "texture": "#0"}
			}
		},
		{
			"name": "hexadecagon",
			"from": [7.8125, 9.7824, 4.95],
			"to": [8.1875, 10.12516, 6.95],
			"rotation": {"angle": 45, "axis": "z", "origin": [8, 10.725, 5.5]},
			"faces": {
				"north": {"uv": [6.625, 0.625, 6.625, 0.625], "texture": "#0"},
				"south": {"uv": [6.625, 0.625, 6.625, 0.625], "texture": "#0"},
				"up": {"uv": [6.625, 0.625, 6.625, 0.625], "texture": "#0"},
				"down": {"uv": [6.625, 0.625, 6.625, 0.625], "texture": "#0"}
			}
		},
		{
			"name": "hexadecagon",
			"from": [7.8125, 11.32484, 4.95],
			"to": [8.1875, 11.6676, 6.95],
			"rotation": {"angle": -45, "axis": "z", "origin": [8, 10.725, 5.5]},
			"faces": {
				"north": {"uv": [6.625, 0.625, 6.625, 0.625], "texture": "#0"},
				"south": {"uv": [6.625, 0.625, 6.625, 0.625], "texture": "#0"},
				"up": {"uv": [6.625, 0.625, 6.625, 0.625], "texture": "#0"},
				"down": {"uv": [6.625, 0.625, 6.625, 0.625], "texture": "#0"}
			}
		},
		{
			"name": "hexadecagon",
			"from": [7.8125, 11.32484, 4.95],
			"to": [8.1875, 11.6676, 6.95],
			"rotation": {"angle": -22.5, "axis": "z", "origin": [8, 10.725, 5.5]},
			"faces": {
				"north": {"uv": [6.625, 0.625, 6.625, 0.625], "texture": "#0"},
				"south": {"uv": [6.625, 0.625, 6.625, 0.625], "texture": "#0"},
				"up": {"uv": [6.625, 0.625, 6.625, 0.625], "texture": "#0"},
				"down": {"uv": [6.625, 0.625, 6.625, 0.625], "texture": "#0"}
			}
		},
		{
			"name": "hexadecagon",
			"from": [7.8125, 11.32484, 4.95],
			"to": [8.1875, 11.6676, 6.95],
			"rotation": {"angle": 0, "axis": "z", "origin": [8, 10.725, 5.5]},
			"faces": {
				"north": {"uv": [6.625, 0.625, 6.625, 0.625], "texture": "#0"},
				"south": {"uv": [6.625, 0.625, 6.625, 0.625], "texture": "#0"},
				"up": {"uv": [6.625, 0.625, 6.625, 0.625], "texture": "#0"},
				"down": {"uv": [6.625, 0.625, 6.625, 0.625], "texture": "#0"}
			}
		},
		{
			"name": "hexadecagon",
			"from": [7.8125, 11.32484, 4.95],
			"to": [8.1875, 11.6676, 6.95],
			"rotation": {"angle": 22.5, "axis": "z", "origin": [8, 10.725, 5.5]},
			"faces": {
				"north": {"uv": [6.625, 0.625, 6.625, 0.625], "texture": "#0"},
				"south": {"uv": [6.625, 0.625, 6.625, 0.625], "texture": "#0"},
				"up": {"uv": [6.625, 0.625, 6.625, 0.625], "texture": "#0"},
				"down": {"uv": [6.625, 0.625, 6.625, 0.625], "texture": "#0"}
			}
		},
		{
			"name": "hexadecagon",
			"from": [7.8125, 11.32484, 4.95],
			"to": [8.1875, 11.6676, 6.95],
			"rotation": {"angle": 45, "axis": "z", "origin": [8, 10.725, 5.5]},
			"faces": {
				"north": {"uv": [6.625, 0.625, 6.625, 0.625], "texture": "#0"},
				"south": {"uv": [6.625, 0.625, 6.625, 0.625], "texture": "#0"},
				"up": {"uv": [6.625, 0.625, 6.625, 0.625], "texture": "#0"},
				"down": {"uv": [6.625, 0.625, 6.625, 0.625], "texture": "#0"}
			}
		},
		{
			"name": "hexadecagon",
			"from": [7.0574, 10.5375, 4.95],
			"to": [7.40016, 10.9125, 6.95],
			"rotation": {"angle": -22.5, "axis": "z", "origin": [8, 10.725, 5.5]},
			"faces": {
				"north": {"uv": [6.625, 0.625, 6.625, 0.625], "texture": "#0"},
				"east": {"uv": [6.625, 0.625, 6.625, 0.625], "texture": "#0"},
				"south": {"uv": [6.625, 0.625, 6.625, 0.625], "texture": "#0"},
				"west": {"uv": [6.625, 0.625, 6.625, 0.625], "texture": "#0"}
			}
		},
		{
			"name": "hexadecagon",
			"from": [7.0574, 10.5375, 4.95],
			"to": [7.40016, 10.9125, 6.95],
			"rotation": {"angle": 0, "axis": "z", "origin": [8, 10.725, 5.5]},
			"faces": {
				"north": {"uv": [6.625, 0.625, 6.625, 0.625], "texture": "#0"},
				"east": {"uv": [6.625, 0.625, 6.625, 0.625], "texture": "#0"},
				"south": {"uv": [6.625, 0.625, 6.625, 0.625], "texture": "#0"},
				"west": {"uv": [6.625, 0.625, 6.625, 0.625], "texture": "#0"}
			}
		},
		{
			"name": "hexadecagon",
			"from": [7.0574, 10.5375, 4.95],
			"to": [7.40016, 10.9125, 6.95],
			"rotation": {"angle": 22.5, "axis": "z", "origin": [8, 10.725, 5.5]},
			"faces": {
				"north": {"uv": [6.625, 0.625, 6.625, 0.625], "texture": "#0"},
				"east": {"uv": [6.625, 0.625, 6.625, 0.625], "texture": "#0"},
				"south": {"uv": [6.625, 0.625, 6.625, 0.625], "texture": "#0"},
				"west": {"uv": [6.625, 0.625, 6.625, 0.625], "texture": "#0"}
			}
		},
		{
			"name": "hexadecagon",
			"from": [8.59984, 10.5375, 4.95],
			"to": [8.9426, 10.9125, 6.95],
			"rotation": {"angle": -22.5, "axis": "z", "origin": [8, 10.725, 5.5]},
			"faces": {
				"north": {"uv": [6.625, 0.625, 6.625, 0.625], "texture": "#0"},
				"east": {"uv": [6.625, 0.625, 6.625, 0.625], "texture": "#0"},
				"south": {"uv": [6.625, 0.625, 6.625, 0.625], "texture": "#0"},
				"west": {"uv": [6.625, 0.625, 6.625, 0.625], "texture": "#0"}
			}
		},
		{
			"name": "hexadecagon",
			"from": [8.59984, 10.5375, 4.95],
			"to": [8.9426, 10.9125, 6.95],
			"rotation": {"angle": 0, "axis": "z", "origin": [8, 10.725, 5.5]},
			"faces": {
				"north": {"uv": [6.625, 0.625, 6.625, 0.625], "texture": "#0"},
				"east": {"uv": [6.625, 0.625, 6.625, 0.625], "texture": "#0"},
				"south": {"uv": [6.625, 0.625, 6.625, 0.625], "texture": "#0"},
				"west": {"uv": [6.625, 0.625, 6.625, 0.625], "texture": "#0"}
			}
		},
		{
			"name": "hexadecagon",
			"from": [8.59984, 10.5375, 4.95],
			"to": [8.9426, 10.9125, 6.95],
			"rotation": {"angle": 22.5, "axis": "z", "origin": [8, 10.725, 5.5]},
			"faces": {
				"north": {"uv": [6.625, 0.625, 6.625, 0.625], "texture": "#0"},
				"east": {"uv": [6.625, 0.625, 6.625, 0.625], "texture": "#0"},
				"south": {"uv": [6.625, 0.625, 6.625, 0.625], "texture": "#0"},
				"west": {"uv": [6.625, 0.625, 6.625, 0.625], "texture": "#0"}
			}
		},
		{
			"name": "hexadecagon",
			"from": [7.6656, 11.375, 9.9406],
			"to": [8.3344, 11.625, 10.6094],
			"rotation": {"angle": 0, "axis": "y", "origin": [7.73212, 11.925, 10.275]},
			"faces": {
				"north": {"uv": [6.625, 0.75, 6.625, 0.75], "texture": "#0"},
				"east": {"uv": [6.625, 0.75, 6.625, 0.75], "texture": "#0"},
				"south": {"uv": [6.625, 0.75, 6.625, 0.75], "texture": "#0"},
				"west": {"uv": [6.625, 0.75, 6.625, 0.75], "texture": "#0"},
				"down": {"uv": [6.625, 0.75, 6.625, 0.75], "texture": "#0"}
			}
		},
		{
			"name": "hexadecagon",
			"from": [7.582, 11.625, 9.857],
			"to": [8.418, 11.875, 10.693],
			"rotation": {"angle": 0, "axis": "y", "origin": [7.66515, 12.175, 10.275]},
			"faces": {
				"north": {"uv": [6.625, 0.625, 6.625, 0.625], "texture": "#0"},
				"east": {"uv": [6.625, 0.625, 6.625, 0.625], "texture": "#0"},
				"south": {"uv": [6.625, 0.625, 6.625, 0.625], "texture": "#0"},
				"west": {"uv": [6.625, 0.625, 6.625, 0.625], "texture": "#0"},
				"up": {"uv": [6.625, 0.625, 6.625, 0.625], "texture": "#0"},
				"down": {"uv": [6.625, 0.625, 6.625, 0.625], "texture": "#0"}
			}
		},
		{
			"name": "hexadecagon",
			"from": [7.2, 10.49236, 9.94711],
			"to": [7.45, 11.15764, 10.61241],
			"rotation": {"angle": 0, "axis": "x", "origin": [7.75, 10.825, 10.01328]},
			"faces": {
				"north": {"uv": [6.625, 0.625, 6.625, 0.625], "texture": "#0"},
				"south": {"uv": [6.625, 0.625, 6.625, 0.625], "texture": "#0"},
				"west": {"uv": [6.625, 0.625, 6.625, 0.625], "texture": "#0"},
				"up": {"uv": [6.625, 0.625, 6.625, 0.625], "texture": "#0"},
				"down": {"uv": [6.625, 0.625, 6.625, 0.625], "texture": "#0"}
			}
		},
		{
			"name": "hexadecagon",
			"from": [7.6, 9.56372, 8.21217],
			"to": [8.4, 9.93628, 8.58477],
			"rotation": {"angle": 0, "axis": "x", "origin": [8.15, 9.75, 8.24922]},
			"faces": {
				"north": {"uv": [6.625, 0.625, 6.625, 0.625], "texture": "#0"},
				"east": {"uv": [6.625, 0.625, 6.625, 0.625], "texture": "#0"},
				"south": {"uv": [6.625, 0.625, 6.625, 0.625], "texture": "#0"},
				"west": {"uv": [6.625, 0.625, 6.625, 0.625], "texture": "#0"},
				"up": {"uv": [6.625, 0.625, 6.625, 0.625], "texture": "#0"},
				"down": {"uv": [6.625, 0.625, 6.625, 0.625], "texture": "#0"}
			}
		},
		{
			"name": "hexadecagon",
			"from": [7.6, 9.56372, 11.23951],
			"to": [8.4, 9.93628, 11.61211],
			"rotation": {"angle": 0, "axis": "x", "origin": [8.15, 9.75, 11.27656]},
			"faces": {
				"north": {"uv": [6.625, 0.625, 6.625, 0.625], "texture": "#0"},
				"east": {"uv": [6.625, 0.625, 6.625, 0.625], "texture": "#0"},
				"south": {"uv": [6.625, 0.625, 6.625, 0.625], "texture": "#0"},
				"west": {"uv": [6.625, 0.625, 6.625, 0.625], "texture": "#0"},
				"up": {"uv": [6.625, 0.625, 6.625, 0.625], "texture": "#0"},
				"down": {"uv": [6.625, 0.625, 6.625, 0.625], "texture": "#0"}
			}
		},
		{
			"name": "hexadecagon",
			"from": [7.45, 6.95, 7.34374],
			"to": [8.55, 7.5, 7.89374],
			"rotation": {"angle": 0, "axis": "x", "origin": [8, 7.225, 7.39844]},
			"faces": {
				"north": {"uv": [6.625, 0.46875, 6.625, 0.46875], "texture": "#0"},
				"east": {"uv": [6.625, 0.46875, 6.625, 0.46875], "texture": "#0"},
				"south": {"uv": [6.625, 0.46875, 6.625, 0.46875], "texture": "#0"},
				"west": {"uv": [6.625, 0.46875, 6.625, 0.46875], "texture": "#0"},
				"up": {"uv": [6.625, 0.46875, 6.625, 0.46875], "texture": "#0"},
				"down": {"uv": [6.625, 0.46875, 6.625, 0.46875], "texture": "#0"}
			}
		},
		{
			"name": "hexadecagon",
			"from": [7.2, 6.7, 13.51952],
			"to": [8.8, 7.25, 14.06952],
			"rotation": {"angle": 0, "axis": "x", "origin": [7.75, 6.975, 13.57422]},
			"faces": {
				"north": {"uv": [6.625, 0.5625, 6.625, 0.5625], "texture": "#0"},
				"east": {"uv": [6.625, 0.5625, 6.625, 0.5625], "texture": "#0"},
				"south": {"uv": [6.625, 0.5625, 6.625, 0.5625], "texture": "#0"},
				"west": {"uv": [6.625, 0.5625, 6.625, 0.5625], "texture": "#0"},
				"up": {"uv": [6.625, 0.5625, 6.625, 0.5625], "texture": "#0"},
				"down": {"uv": [6.625, 0.5625, 6.625, 0.5625], "texture": "#0"}
			}
		},
		{
			"name": "M4A1 MK_8",
			"from": [7.9, 6.01164, 11.96172],
			"to": [8, 6.45106, 12.20432],
			"rotation": {"angle": 0, "axis": "y", "origin": [-3.68, -2.11, 5.9375]},
			"faces": {
				"north": {"uv": [6.625, 0.6875, 6.625, 0.6875], "texture": "#0"},
				"east": {"uv": [6.625, 0.6875, 6.625, 0.6875], "texture": "#0"},
				"south": {"uv": [6.625, 0.6875, 6.625, 0.6875], "texture": "#0"},
				"west": {"uv": [6.625, 0.6875, 6.625, 0.6875], "texture": "#0"}
			}
		},
		{
			"name": "M4A1 MK_9",
			"from": [7.9, 5.63664, 11.8875],
			"to": [8, 6.07606, 12.1301],
			"rotation": {"angle": 22.5, "axis": "x", "origin": [7.95, 5.85635, 12.0088]},
			"faces": {
				"north": {"uv": [6.625, 0.6875, 6.625, 0.6875], "texture": "#0"},
				"east": {"uv": [6.625, 0.6875, 6.625, 0.6875], "texture": "#0"},
				"south": {"uv": [6.625, 0.6875, 6.625, 0.6875], "texture": "#0"},
				"west": {"uv": [6.625, 0.6875, 6.625, 0.6875], "texture": "#0"},
				"up": {"uv": [6.625, 0.6875, 6.625, 0.6875], "texture": "#0"},
				"down": {"uv": [6.625, 0.6875, 6.625, 0.6875], "texture": "#0"}
			}
		}
	],
	"display": {
		"firstperson_righthand": {
			"rotation": [-3, 0, 0],
			"translation": [-4.25, 4.5, 3.5],
			"scale": [1.1, 1, 0.5]
		}
	},
	"groups": [
		{
			"name": "hexadecagon",
			"origin": [8, 8, 8],
			"color": 0,
			"children": [0]
		},
		{
			"name": "hexadecagon",
			"origin": [8, 8, 8],
			"color": 0,
			"children": [1]
		},
		{
			"name": "hexadecagon",
			"origin": [8, 8, 8],
			"color": 0,
			"children": [2]
		},
		{
			"name": "hexadecagon",
			"origin": [8, 8, 8],
			"color": 0,
			"children": [3, 4, 5, 6, 7, 8, 9, 10, 11, 12, 13, 14, 15, 16, 17, 18]
		},
		{
			"name": "rails",
			"origin": [15, 18, 9],
			"color": 0,
			"children": [19, 20, 21, 22, 23, 24, 25, 26, 27, 28, 29, 30, 31, 32]
		},
		{
			"name": "hexadecagon",
			"origin": [8, 8, 8],
			"color": 0,
			"children": [33, 34, 35, 36, 37]
		},
		{
			"name": "hexadecagon",
			"origin": [8, 8, 8],
			"color": 0,
			"children": [38, 39, 40]
		},
		{
			"name": "sr25 grip",
			"origin": [8, 8, 8],
			"color": 0,
			"children": [41, 42]
		},
		{
			"name": "stock",
			"origin": [15, 16, 26],
			"color": 0,
			"children": [43, 44, 45, 46, 47, 48]
		},
		{
			"name": "hexadecagon",
			"origin": [8, 8, 8],
			"color": 0,
			"children": [49, 50, 51, 52, 53]
		},
		{
			"name": "scope",
			"origin": [8, 6.125, 9.775],
			"color": 0,
			"children": [54, 55, 56, 57]
		},
		{
			"name": "hexadecagon",
			"origin": [8, 8, 8],
			"color": 0,
			"children": [58, 59, 60, 61, 62, 63, 64, 65, 66, 67, 68, 69, 70, 71, 72, 73, 74, 75]
		},
		{
			"name": "hexadecagon",
			"origin": [8, 8, 8],
			"color": 0,
			"children": [76, 77]
		},
		{
			"name": "hexadecagon",
			"origin": [8, 8, 8],
			"color": 0,
			"children": [78, 79, 80, 81, 82, 83, 84, 85, 86, 87, 88, 89, 90, 91, 92, 93]
		},
		{
			"name": "hexadecagon",
			"origin": [8, 8, 8],
			"color": 0,
			"children": [94, 95, 96, 97, 98, 99, 100, 101, 102, 103, 104, 105, 106, 107, 108, 109]
		},
		{
			"name": "hexadecagon",
			"origin": [8, 8, 8],
			"color": 0,
			"children": [110, 111, 112, 113, 114, 115, 116, 117, 118, 119, 120, 121, 122, 123, 124, 125]
		},
		{
			"name": "hexadecagon",
			"origin": [8, 8, 8],
			"color": 0,
			"children": [126, 127, 128, 129, 130, 131, 132, 133, 134, 135, 136, 137, 138, 139, 140, 141]
		},
		{
			"name": "hexadecagon",
			"origin": [8, 8, 8],
			"color": 0,
			"children": [142, 143, 144, 145, 146, 147, 148, 149, 150, 151, 152, 153, 154, 155, 156, 157]
		},
		{
			"name": "hexadecagon",
			"origin": [8, 8, 8],
			"color": 0,
			"children": [158, 159, 160, 161, 162, 163, 164, 165, 166, 167, 168, 169, 170, 171, 172, 173]
		},
		{
			"name": "hexadecagon",
			"origin": [8, 8, 8],
			"color": 0,
			"children": [174]
		},
		{
			"name": "hexadecagon",
			"origin": [8, 8, 8],
			"color": 0,
			"children": [175]
		},
		{
			"name": "hexadecagon",
			"origin": [8, 8, 8],
			"color": 0,
			"children": [176, 177, 178]
		},
		{
			"name": "hexadecagon",
			"origin": [8, 8, 8],
			"color": 0,
			"children": [179]
		},
		{
			"name": "hexadecagon",
			"origin": [8, 8, 8],
			"color": 0,
			"children": [180]
		},
		{
			"name": "trigger",
			"origin": [8, 8, 8],
			"color": 0,
			"children": [181, 182]
		}
	]
}