{
	"credit": "Made with Blockbench",
	"textures": {
		"2": "ava:item/gun_textures/palette_gold",
		"particle": "ava:item/gun_textures/palette_gold"
	},
	"elements": [
		{
			"name": "hexadecagon",
			"from": [9.45, 8.03962, 9.6964],
			"to": [10.15, 8.16038, 10.3036],
			"rotation": {"angle": -45, "axis": "x", "origin": [9.45, 8.1, 10]},
			"faces": {
				"north": {"uv": [2.53125, 0.5, 2.53125, 0.5], "texture": "#2"},
				"east": {"uv": [2.53125, 0.5, 2.53125, 0.5], "texture": "#2"},
				"south": {"uv": [2.53125, 0.5, 2.53125, 0.5], "texture": "#2"},
				"west": {"uv": [2.53125, 0.5, 2.53125, 0.5], "texture": "#2"},
				"up": {"uv": [2.53125, 0.5, 2.53125, 0.5], "texture": "#2"},
				"down": {"uv": [2.53125, 0.5, 2.53125, 0.5], "texture": "#2"}
			}
		},
		{
			"name": "hexadecagon",
			"from": [9.45, 8.03962, 9.6964],
			"to": [10.15, 8.16038, 10.3036],
			"rotation": {"angle": -22.5, "axis": "x", "origin": [9.45, 8.1, 10]},
			"faces": {
				"north": {"uv": [2.53125, 0.5, 2.53125, 0.5], "texture": "#2"},
				"east": {"uv": [2.53125, 0.5, 2.53125, 0.5], "texture": "#2"},
				"south": {"uv": [2.53125, 0.5, 2.53125, 0.5], "texture": "#2"},
				"west": {"uv": [2.53125, 0.5, 2.53125, 0.5], "texture": "#2"},
				"up": {"uv": [2.53125, 0.5, 2.53125, 0.5], "texture": "#2"},
				"down": {"uv": [2.53125, 0.5, 2.53125, 0.5], "texture": "#2"}
			}
		},
		{
			"name": "hexadecagon",
			"from": [9.45, 8.03962, 9.6964],
			"to": [10.15, 8.16038, 10.3036],
			"rotation": {"angle": 0, "axis": "y", "origin": [9.45, 8.1, 10]},
			"faces": {
				"north": {"uv": [2.53125, 0.5, 2.53125, 0.5], "texture": "#2"},
				"east": {"uv": [2.53125, 0.5, 2.53125, 0.5], "texture": "#2"},
				"south": {"uv": [2.53125, 0.5, 2.53125, 0.5], "texture": "#2"},
				"west": {"uv": [2.53125, 0.5, 2.53125, 0.5], "texture": "#2"},
				"up": {"uv": [2.53125, 0.5, 2.53125, 0.5], "texture": "#2"},
				"down": {"uv": [2.53125, 0.5, 2.53125, 0.5], "texture": "#2"}
			}
		},
		{
			"name": "hexadecagon",
			"from": [9.45, 8.03962, 9.6964],
			"to": [10.15, 8.16038, 10.3036],
			"rotation": {"angle": 22.5, "axis": "x", "origin": [9.45, 8.1, 10]},
			"faces": {
				"north": {"uv": [2.53125, 0.5, 2.53125, 0.5], "texture": "#2"},
				"east": {"uv": [2.53125, 0.5, 2.53125, 0.5], "texture": "#2"},
				"south": {"uv": [2.53125, 0.5, 2.53125, 0.5], "texture": "#2"},
				"west": {"uv": [2.53125, 0.5, 2.53125, 0.5], "texture": "#2"},
				"up": {"uv": [2.53125, 0.5, 2.53125, 0.5], "texture": "#2"},
				"down": {"uv": [2.53125, 0.5, 2.53125, 0.5], "texture": "#2"}
			}
		},
		{
			"name": "hexadecagon",
			"from": [9.45, 8.03962, 9.6964],
			"to": [10.15, 8.16038, 10.3036],
			"rotation": {"angle": 45, "axis": "x", "origin": [9.45, 8.1, 10]},
			"faces": {
				"north": {"uv": [2.53125, 0.5, 2.53125, 0.5], "texture": "#2"},
				"east": {"uv": [2.53125, 0.5, 2.53125, 0.5], "texture": "#2"},
				"south": {"uv": [2.53125, 0.5, 2.53125, 0.5], "texture": "#2"},
				"west": {"uv": [2.53125, 0.5, 2.53125, 0.5], "texture": "#2"},
				"up": {"uv": [2.53125, 0.5, 2.53125, 0.5], "texture": "#2"},
				"down": {"uv": [2.53125, 0.5, 2.53125, 0.5], "texture": "#2"}
			}
		},
		{
			"name": "hexadecagon",
			"from": [9.45, 7.7964, 9.93962],
			"to": [10.15, 8.4036, 10.06038],
			"rotation": {"angle": -22.5, "axis": "x", "origin": [9.45, 8.1, 10]},
			"faces": {
				"north": {"uv": [2.53125, 0.5, 2.53125, 0.5], "texture": "#2"},
				"east": {"uv": [2.53125, 0.5, 2.53125, 0.5], "texture": "#2"},
				"south": {"uv": [2.53125, 0.5, 2.53125, 0.5], "texture": "#2"},
				"west": {"uv": [2.53125, 0.5, 2.53125, 0.5], "texture": "#2"},
				"up": {"uv": [2.53125, 0.5, 2.53125, 0.5], "texture": "#2"},
				"down": {"uv": [2.53125, 0.5, 2.53125, 0.5], "texture": "#2"}
			}
		},
		{
			"name": "hexadecagon",
			"from": [9.45, 7.7964, 9.93962],
			"to": [10.15, 8.4036, 10.06038],
			"rotation": {"angle": 0, "axis": "y", "origin": [9.45, 8.1, 10]},
			"faces": {
				"north": {"uv": [2.53125, 0.5, 2.53125, 0.5], "texture": "#2"},
				"east": {"uv": [2.53125, 0.5, 2.53125, 0.5], "texture": "#2"},
				"south": {"uv": [2.53125, 0.5, 2.53125, 0.5], "texture": "#2"},
				"west": {"uv": [2.53125, 0.5, 2.53125, 0.5], "texture": "#2"},
				"up": {"uv": [2.53125, 0.5, 2.53125, 0.5], "texture": "#2"},
				"down": {"uv": [2.53125, 0.5, 2.53125, 0.5], "texture": "#2"}
			}
		},
		{
			"name": "hexadecagon",
			"from": [9.45, 7.7964, 9.93962],
			"to": [10.15, 8.4036, 10.06038],
			"rotation": {"angle": 22.5, "axis": "x", "origin": [9.45, 8.1, 10]},
			"faces": {
				"north": {"uv": [2.53125, 0.5, 2.53125, 0.5], "texture": "#2"},
				"east": {"uv": [2.53125, 0.5, 2.53125, 0.5], "texture": "#2"},
				"south": {"uv": [2.53125, 0.5, 2.53125, 0.5], "texture": "#2"},
				"west": {"uv": [2.53125, 0.5, 2.53125, 0.5], "texture": "#2"},
				"up": {"uv": [2.53125, 0.5, 2.53125, 0.5], "texture": "#2"},
				"down": {"uv": [2.53125, 0.5, 2.53125, 0.5], "texture": "#2"}
			}
		},
		{
			"name": "hexadecagon",
			"from": [8.75, 8.05274, 9.7624],
			"to": [9.45, 8.14726, 10.2376],
			"rotation": {"angle": -45, "axis": "x", "origin": [9.45, 8.1, 10]},
			"faces": {
				"north": {"uv": [2.53125, 0.5, 2.53125, 0.5], "texture": "#2"},
				"south": {"uv": [2.53125, 0.5, 2.53125, 0.5], "texture": "#2"},
				"west": {"uv": [2.53125, 0.5, 2.53125, 0.5], "texture": "#2"}
			}
		},
		{
			"name": "hexadecagon",
			"from": [8.75, 8.05274, 9.7624],
			"to": [9.45, 8.14726, 10.2376],
			"rotation": {"angle": -22.5, "axis": "x", "origin": [9.45, 8.1, 10]},
			"faces": {
				"north": {"uv": [2.53125, 0.5, 2.53125, 0.5], "texture": "#2"},
				"south": {"uv": [2.53125, 0.5, 2.53125, 0.5], "texture": "#2"},
				"west": {"uv": [2.53125, 0.5, 2.53125, 0.5], "texture": "#2"}
			}
		},
		{
			"name": "hexadecagon",
			"from": [8.75, 8.05274, 9.7624],
			"to": [9.45, 8.14726, 10.2376],
			"rotation": {"angle": 0, "axis": "y", "origin": [9.45, 8.1, 10]},
			"faces": {
				"north": {"uv": [2.53125, 0.5, 2.53125, 0.5], "texture": "#2"},
				"south": {"uv": [2.53125, 0.5, 2.53125, 0.5], "texture": "#2"},
				"west": {"uv": [2.53125, 0.5, 2.53125, 0.5], "texture": "#2"}
			}
		},
		{
			"name": "hexadecagon",
			"from": [8.75, 8.05274, 9.7624],
			"to": [9.45, 8.14726, 10.2376],
			"rotation": {"angle": 22.5, "axis": "x", "origin": [9.45, 8.1, 10]},
			"faces": {
				"north": {"uv": [2.53125, 0.5, 2.53125, 0.5], "texture": "#2"},
				"south": {"uv": [2.53125, 0.5, 2.53125, 0.5], "texture": "#2"},
				"west": {"uv": [2.53125, 0.5, 2.53125, 0.5], "texture": "#2"}
			}
		},
		{
			"name": "hexadecagon",
			"from": [8.75, 8.05274, 9.7624],
			"to": [9.45, 8.14726, 10.2376],
			"rotation": {"angle": 45, "axis": "x", "origin": [9.45, 8.1, 10]},
			"faces": {
				"north": {"uv": [2.53125, 0.5, 2.53125, 0.5], "texture": "#2"},
				"south": {"uv": [2.53125, 0.5, 2.53125, 0.5], "texture": "#2"},
				"west": {"uv": [2.53125, 0.5, 2.53125, 0.5], "texture": "#2"}
			}
		},
		{
			"name": "hexadecagon",
			"from": [8.75, 7.8624, 9.95274],
			"to": [9.45, 8.3376, 10.04726],
			"rotation": {"angle": -22.5, "axis": "x", "origin": [9.45, 8.1, 10]},
			"faces": {
				"west": {"uv": [2.53125, 0.5, 2.53125, 0.5], "texture": "#2"},
				"up": {"uv": [2.53125, 0.5, 2.53125, 0.5], "texture": "#2"},
				"down": {"uv": [2.53125, 0.5, 2.53125, 0.5], "texture": "#2"}
			}
		},
		{
			"name": "hexadecagon",
			"from": [8.75, 7.8624, 9.95274],
			"to": [9.45, 8.3376, 10.04726],
			"rotation": {"angle": 0, "axis": "y", "origin": [9.45, 8.1, 10]},
			"faces": {
				"west": {"uv": [2.53125, 0.5, 2.53125, 0.5], "texture": "#2"},
				"up": {"uv": [2.53125, 0.5, 2.53125, 0.5], "texture": "#2"},
				"down": {"uv": [2.53125, 0.5, 2.53125, 0.5], "texture": "#2"}
			}
		},
		{
			"name": "hexadecagon",
			"from": [8.75, 7.8624, 9.95274],
			"to": [9.45, 8.3376, 10.04726],
			"rotation": {"angle": 22.5, "axis": "x", "origin": [9.45, 8.1, 10]},
			"faces": {
				"west": {"uv": [2.53125, 0.5, 2.53125, 0.5], "texture": "#2"},
				"up": {"uv": [2.53125, 0.5, 2.53125, 0.5], "texture": "#2"},
				"down": {"uv": [2.53125, 0.5, 2.53125, 0.5], "texture": "#2"}
			}
		}
	],
	"display": {
		"firstperson_righthand": {
			"rotation": [-1, 3, 0],
			"translation": [-4.5, 4.25, 2.5],
			"scale": [1, 1, 0.45]
		}
	},
	"groups": [
		{
			"name": "slide",
			"origin": [8, 8, 8],
			"color": 0,
			"children": [
				{
					"name": "group",
					"origin": [9.2, 8, 10],
					"color": 0,
					"children": [0, 1, 2, 3, 4, 5, 6, 7]
				},
				{
					"name": "hexadecagon",
					"origin": [8, 8, 8],
					"color": 0,
					"children": [8, 9, 10, 11, 12, 13, 14, 15]
				}
			]
		}
	]
}