{
	"credit": "Made with Blockbench",
	"textures": {
		"1": "ava:item/gun_effects/fire",
		"2": "ava:item/gun_effects/fire2",
		"particle": "ava:item/gun_effects/fire2"
	},
	"elements": [
		{
			"from": [6.5, 9.225, -9.025],
			"to": [9.5, 12.225, -9.024],
			"rotation": {"angle": 0, "axis": "y", "origin": [7.625, 0, 0]},
			"faces": {
				"north": {"uv": [0, 0, 16, 16], "texture": "#1"},
				"east": {"uv": [0, 0, 16, 16], "texture": "#1"},
				"south": {"uv": [0, 0, 16, 16], "texture": "#1"},
				"west": {"uv": [0, 0, 16, 16], "texture": "#1"},
				"up": {"uv": [0, 0, 16, 16], "texture": "#1"},
				"down": {"uv": [0, 0, 16, 16], "texture": "#1"}
			}
		},
		{
			"from": [7.25, 9.9, -12.51],
			"to": [8.75, 11.4, -9.035],
			"rotation": {"angle": 0, "axis": "y", "origin": [8.375, 0, 0]},
			"faces": {
				"north": {"uv": [0, 0, 16, 16], "texture": "#2"},
				"east": {"uv": [0, 0, 16, 16], "texture": "#2"},
				"south": {"uv": [0, 0, 16, 16], "texture": "#2"},
				"west": {"uv": [0, 0, 16, 16], "texture": "#2"},
				"up": {"uv": [0, 0, 16, 16], "texture": "#2"},
				"down": {"uv": [0, 0, 16, 16], "texture": "#2"}
			}
		}
	]
}