{
	"credit": "Made with Blockbench",
	"textures": {
		"0": "ava:item/gun_textures/palette_black",
		"1": "ava:item/gun_textures/palette_brown",
		"particle": "ava:item/gun_textures/palette_black"
	},
	"elements": [
		{
			"name": "hexadecagon",
			"from": [7.95059, 8.5516, 4.5],
			"to": [8.04941, 8.66752, 9.5],
			"rotation": {"angle": -45, "axis": "z", "origin": [8, 8.8, 4.3]},
			"faces": {
				"north": {"uv": [6.875, 0.71875, 6.875, 0.71875], "rotation": 180, "texture": "#0"},
				"south": {"uv": [6.875, 0.71875, 6.875, 0.71875], "rotation": 180, "texture": "#0"},
				"up": {"uv": [6.875, 0.71875, 6.875, 0.71875], "rotation": 180, "texture": "#0"},
				"down": {"uv": [6.875, 0.71875, 6.875, 0.71875], "rotation": 180, "texture": "#0"}
			}
		},
		{
			"name": "hexadecagon",
			"from": [7.95059, 8.5516, 4.5],
			"to": [8.04941, 8.66752, 9.5],
			"rotation": {"angle": -22.5, "axis": "z", "origin": [8, 8.8, 4.3]},
			"faces": {
				"north": {"uv": [6.875, 0.71875, 6.875, 0.71875], "rotation": 180, "texture": "#0"},
				"south": {"uv": [6.875, 0.71875, 6.875, 0.71875], "rotation": 180, "texture": "#0"},
				"up": {"uv": [6.875, 0.71875, 6.875, 0.71875], "rotation": 180, "texture": "#0"},
				"down": {"uv": [6.875, 0.71875, 6.875, 0.71875], "rotation": 180, "texture": "#0"}
			}
		},
		{
			"name": "hexadecagon",
			"from": [7.95059, 8.5516, 4.5],
			"to": [8.04941, 8.66752, 9.5],
			"rotation": {"angle": 0, "axis": "y", "origin": [8, 8.8, 4.3]},
			"faces": {
				"north": {"uv": [6.875, 0.71875, 6.875, 0.71875], "rotation": 180, "texture": "#0"},
				"south": {"uv": [6.875, 0.71875, 6.875, 0.71875], "rotation": 180, "texture": "#0"},
				"up": {"uv": [6.875, 0.71875, 6.875, 0.71875], "rotation": 180, "texture": "#0"},
				"down": {"uv": [6.875, 0.71875, 6.875, 0.71875], "rotation": 180, "texture": "#0"}
			}
		},
		{
			"name": "hexadecagon",
			"from": [7.95059, 8.5516, 4.5],
			"to": [8.04941, 8.66752, 9.5],
			"rotation": {"angle": 22.5, "axis": "z", "origin": [8, 8.8, 4.3]},
			"faces": {
				"north": {"uv": [6.875, 0.71875, 6.875, 0.71875], "rotation": 180, "texture": "#0"},
				"south": {"uv": [6.875, 0.71875, 6.875, 0.71875], "rotation": 180, "texture": "#0"},
				"up": {"uv": [6.875, 0.71875, 6.875, 0.71875], "rotation": 180, "texture": "#0"},
				"down": {"uv": [6.875, 0.71875, 6.875, 0.71875], "rotation": 180, "texture": "#0"}
			}
		},
		{
			"name": "hexadecagon",
			"from": [7.95059, 8.5516, 4.5],
			"to": [8.04941, 8.66752, 9.5],
			"rotation": {"angle": 45, "axis": "z", "origin": [8, 8.8, 4.3]},
			"faces": {
				"north": {"uv": [6.875, 0.71875, 6.875, 0.71875], "rotation": 180, "texture": "#0"},
				"south": {"uv": [6.875, 0.71875, 6.875, 0.71875], "rotation": 180, "texture": "#0"},
				"up": {"uv": [6.875, 0.71875, 6.875, 0.71875], "rotation": 180, "texture": "#0"},
				"down": {"uv": [6.875, 0.71875, 6.875, 0.71875], "rotation": 180, "texture": "#0"}
			}
		},
		{
			"name": "hexadecagon",
			"from": [7.95059, 8.93248, 4.5],
			"to": [8.04941, 9.0484, 9.5],
			"rotation": {"angle": -45, "axis": "z", "origin": [8, 8.8, 4.3]},
			"faces": {
				"north": {"uv": [6.875, 0.71875, 6.875, 0.71875], "rotation": 180, "texture": "#0"},
				"south": {"uv": [6.875, 0.71875, 6.875, 0.71875], "rotation": 180, "texture": "#0"},
				"up": {"uv": [6.875, 0.71875, 6.875, 0.71875], "rotation": 180, "texture": "#0"},
				"down": {"uv": [6.875, 0.71875, 6.875, 0.71875], "rotation": 180, "texture": "#0"}
			}
		},
		{
			"name": "hexadecagon",
			"from": [7.95059, 8.93248, 4.5],
			"to": [8.04941, 9.0484, 9.5],
			"rotation": {"angle": -22.5, "axis": "z", "origin": [8, 8.8, 4.3]},
			"faces": {
				"north": {"uv": [6.875, 0.71875, 6.875, 0.71875], "rotation": 180, "texture": "#0"},
				"south": {"uv": [6.875, 0.71875, 6.875, 0.71875], "rotation": 180, "texture": "#0"},
				"up": {"uv": [6.875, 0.71875, 6.875, 0.71875], "rotation": 180, "texture": "#0"},
				"down": {"uv": [6.875, 0.71875, 6.875, 0.71875], "rotation": 180, "texture": "#0"}
			}
		},
		{
			"name": "hexadecagon",
			"from": [7.95059, 8.93248, 4.5],
			"to": [8.04941, 9.0484, 9.5],
			"rotation": {"angle": 0, "axis": "y", "origin": [8, 8.8, 4.3]},
			"faces": {
				"north": {"uv": [6.875, 0.71875, 6.875, 0.71875], "rotation": 180, "texture": "#0"},
				"south": {"uv": [6.875, 0.71875, 6.875, 0.71875], "rotation": 180, "texture": "#0"},
				"up": {"uv": [6.875, 0.71875, 6.875, 0.71875], "rotation": 180, "texture": "#0"},
				"down": {"uv": [6.875, 0.71875, 6.875, 0.71875], "rotation": 180, "texture": "#0"}
			}
		},
		{
			"name": "hexadecagon",
			"from": [7.95059, 8.93248, 4.5],
			"to": [8.04941, 9.0484, 9.5],
			"rotation": {"angle": 22.5, "axis": "z", "origin": [8, 8.8, 4.3]},
			"faces": {
				"north": {"uv": [6.875, 0.71875, 6.875, 0.71875], "rotation": 180, "texture": "#0"},
				"south": {"uv": [6.875, 0.71875, 6.875, 0.71875], "rotation": 180, "texture": "#0"},
				"up": {"uv": [6.875, 0.71875, 6.875, 0.71875], "rotation": 180, "texture": "#0"},
				"down": {"uv": [6.875, 0.71875, 6.875, 0.71875], "rotation": 180, "texture": "#0"}
			}
		},
		{
			"name": "hexadecagon",
			"from": [7.95059, 8.93248, 4.5],
			"to": [8.04941, 9.0484, 9.5],
			"rotation": {"angle": 45, "axis": "z", "origin": [8, 8.8, 4.3]},
			"faces": {
				"north": {"uv": [6.875, 0.71875, 6.875, 0.71875], "rotation": 180, "texture": "#0"},
				"south": {"uv": [6.875, 0.71875, 6.875, 0.71875], "rotation": 180, "texture": "#0"},
				"up": {"uv": [6.875, 0.71875, 6.875, 0.71875], "rotation": 180, "texture": "#0"},
				"down": {"uv": [6.875, 0.71875, 6.875, 0.71875], "rotation": 180, "texture": "#0"}
			}
		},
		{
			"name": "hexadecagon",
			"from": [7.7516, 8.75059, 4.5],
			"to": [7.86752, 8.84941, 9.5],
			"rotation": {"angle": -22.5, "axis": "z", "origin": [8, 8.8, 4.3]},
			"faces": {
				"north": {"uv": [6.875, 0.71875, 6.875, 0.71875], "rotation": 180, "texture": "#0"},
				"east": {"uv": [6.875, 0.71875, 6.875, 0.71875], "rotation": 180, "texture": "#0"},
				"south": {"uv": [6.875, 0.71875, 6.875, 0.71875], "rotation": 180, "texture": "#0"},
				"west": {"uv": [6.875, 0.71875, 6.875, 0.71875], "rotation": 180, "texture": "#0"}
			}
		},
		{
			"name": "hexadecagon",
			"from": [7.7516, 8.75059, 4.5],
			"to": [7.86752, 8.84941, 9.5],
			"rotation": {"angle": 0, "axis": "y", "origin": [8, 8.8, 4.3]},
			"faces": {
				"north": {"uv": [6.875, 0.71875, 6.875, 0.71875], "rotation": 180, "texture": "#0"},
				"east": {"uv": [6.875, 0.71875, 6.875, 0.71875], "rotation": 180, "texture": "#0"},
				"south": {"uv": [6.875, 0.71875, 6.875, 0.71875], "rotation": 180, "texture": "#0"},
				"west": {"uv": [6.875, 0.71875, 6.875, 0.71875], "rotation": 180, "texture": "#0"}
			}
		},
		{
			"name": "hexadecagon",
			"from": [7.7516, 8.75059, 4.5],
			"to": [7.86752, 8.84941, 9.5],
			"rotation": {"angle": 22.5, "axis": "z", "origin": [8, 8.8, 4.3]},
			"faces": {
				"north": {"uv": [6.875, 0.71875, 6.875, 0.71875], "rotation": 180, "texture": "#0"},
				"east": {"uv": [6.875, 0.71875, 6.875, 0.71875], "rotation": 180, "texture": "#0"},
				"south": {"uv": [6.875, 0.71875, 6.875, 0.71875], "rotation": 180, "texture": "#0"},
				"west": {"uv": [6.875, 0.71875, 6.875, 0.71875], "rotation": 180, "texture": "#0"}
			}
		},
		{
			"name": "hexadecagon",
			"from": [8.13248, 8.75059, 4.5],
			"to": [8.2484, 8.84941, 9.5],
			"rotation": {"angle": -22.5, "axis": "z", "origin": [8, 8.8, 4.3]},
			"faces": {
				"north": {"uv": [6.875, 0.71875, 6.875, 0.71875], "rotation": 180, "texture": "#0"},
				"east": {"uv": [6.875, 0.71875, 6.875, 0.71875], "rotation": 180, "texture": "#0"},
				"south": {"uv": [6.875, 0.71875, 6.875, 0.71875], "rotation": 180, "texture": "#0"},
				"west": {"uv": [6.875, 0.71875, 6.875, 0.71875], "rotation": 180, "texture": "#0"}
			}
		},
		{
			"name": "hexadecagon",
			"from": [8.13248, 8.75059, 4.5],
			"to": [8.2484, 8.84941, 9.5],
			"rotation": {"angle": 0, "axis": "y", "origin": [8, 8.8, 4.3]},
			"faces": {
				"north": {"uv": [6.875, 0.71875, 6.875, 0.71875], "rotation": 180, "texture": "#0"},
				"east": {"uv": [6.875, 0.71875, 6.875, 0.71875], "rotation": 180, "texture": "#0"},
				"south": {"uv": [6.875, 0.71875, 6.875, 0.71875], "rotation": 180, "texture": "#0"},
				"west": {"uv": [6.875, 0.71875, 6.875, 0.71875], "rotation": 180, "texture": "#0"}
			}
		},
		{
			"name": "hexadecagon",
			"from": [8.13248, 8.75059, 4.5],
			"to": [8.2484, 8.84941, 9.5],
			"rotation": {"angle": 22.5, "axis": "z", "origin": [8, 8.8, 4.3]},
			"faces": {
				"north": {"uv": [6.875, 0.71875, 6.875, 0.71875], "rotation": 180, "texture": "#0"},
				"east": {"uv": [6.875, 0.71875, 6.875, 0.71875], "rotation": 180, "texture": "#0"},
				"south": {"uv": [6.875, 0.71875, 6.875, 0.71875], "rotation": 180, "texture": "#0"},
				"west": {"uv": [6.875, 0.71875, 6.875, 0.71875], "rotation": 180, "texture": "#0"}
			}
		},
		{
			"name": "hexadecagon",
			"from": [7.86903, 8.05095, 4.75],
			"to": [7.94088, 8.13358, 8],
			"rotation": {"angle": -45, "axis": "z", "origin": [8.00057, 8.13421, 5.87973]},
			"faces": {
				"north": {"uv": [4.40625, 0.40625, 4.4375, 0.40625], "texture": "#0"},
				"south": {"uv": [4.40625, 0.40625, 4.4375, 0.40625], "texture": "#0"},
				"down": {"uv": [4.40625, 0.40625, 4.4375, 0.40625], "texture": "#0"}
			}
		},
		{
			"name": "hexadecagon",
			"from": [7.91292, 8.07969, 4.75],
			"to": [7.98477, 8.16232, 8],
			"rotation": {"angle": -22.5, "axis": "z", "origin": [8.00057, 8.13421, 5.87973]},
			"faces": {
				"north": {"uv": [4.40625, 0.40625, 4.4375, 0.40625], "texture": "#0"},
				"south": {"uv": [4.40625, 0.40625, 4.4375, 0.40625], "texture": "#0"},
				"west": {"uv": [4.40625, 0.40625, 4.4375, 0.40625], "texture": "#0"},
				"down": {"uv": [4.40625, 0.40625, 4.4375, 0.40625], "texture": "#0"}
			}
		},
		{
			"name": "hexadecagon",
			"from": [7.96469, 8.08977, 4.75],
			"to": [8.03654, 8.17239, 8],
			"rotation": {"angle": 0, "axis": "y", "origin": [8.00057, 8.13421, 5.87973]},
			"faces": {
				"north": {"uv": [4.40625, 0.40625, 4.4375, 0.40625], "texture": "#0"},
				"east": {"uv": [4.40625, 0.40625, 4.4375, 0.40625], "texture": "#0"},
				"west": {"uv": [4.40625, 0.40625, 4.4375, 0.40625], "texture": "#0"},
				"down": {"uv": [4.40625, 0.40625, 4.4375, 0.40625], "texture": "#0"}
			}
		},
		{
			"name": "hexadecagon",
			"from": [8.01646, 8.07965, 4.75],
			"to": [8.0883, 8.16875, 8],
			"rotation": {"angle": 22.5, "axis": "z", "origin": [8.00057, 8.13421, 5.87973]},
			"faces": {
				"north": {"uv": [4.40625, 0.40625, 4.4375, 0.40625], "texture": "#0"},
				"east": {"uv": [4.40625, 0.40625, 4.4375, 0.40625], "texture": "#0"},
				"south": {"uv": [4.40625, 0.40625, 4.4375, 0.40625], "texture": "#0"},
				"down": {"uv": [4.40625, 0.40625, 4.4375, 0.40625], "texture": "#0"}
			}
		},
		{
			"name": "hexadecagon",
			"from": [8.06033, 8.05089, 4.75],
			"to": [8.13218, 8.13352, 8],
			"rotation": {"angle": 45, "axis": "z", "origin": [8.00057, 8.13421, 5.87973]},
			"faces": {
				"north": {"uv": [4.40625, 0.40625, 4.4375, 0.40625], "texture": "#0"},
				"south": {"uv": [4.40625, 0.40625, 4.4375, 0.40625], "texture": "#0"},
				"down": {"uv": [4.40625, 0.40625, 4.4375, 0.40625], "texture": "#0"}
			}
		},
		{
			"name": "hexadecagon",
			"from": [7.82002, 8.23161, 4.75],
			"to": [8.18127, 8.45436, 8],
			"rotation": {"angle": 0, "axis": "y", "origin": [8.00057, 8.13421, 5.87973]},
			"faces": {
				"north": {"uv": [4.40625, 0.40625, 4.4375, 0.40625], "texture": "#0"},
				"east": {"uv": [4.40625, 0.40625, 4.4375, 0.40625], "texture": "#0"},
				"south": {"uv": [4.40625, 0.40625, 4.4375, 0.40625], "texture": "#0"},
				"west": {"uv": [4.40625, 0.40625, 4.4375, 0.40625], "texture": "#0"},
				"up": {"uv": [4.40625, 0.40625, 4.4375, 0.40625], "texture": "#0"},
				"down": {"uv": [4.40625, 0.40625, 4.4375, 0.40625], "texture": "#0"}
			}
		},
		{
			"name": "hexadecagon",
			"from": [7.87178, 8.22149, 4.75],
			"to": [7.95606, 8.29193, 8],
			"rotation": {"angle": 22.5, "axis": "z", "origin": [8.00057, 8.13421, 5.87973]},
			"faces": {
				"north": {"uv": [4.40625, 0.40625, 4.4375, 0.40625], "texture": "#0"},
				"south": {"uv": [4.40625, 0.40625, 4.4375, 0.40625], "texture": "#0"},
				"west": {"uv": [4.40625, 0.40625, 4.4375, 0.40625], "texture": "#0"},
				"up": {"uv": [4.40625, 0.40625, 4.4375, 0.40625], "texture": "#0"},
				"down": {"uv": [4.40625, 0.40625, 4.4375, 0.40625], "texture": "#0"}
			}
		},
		{
			"name": "hexadecagon",
			"from": [8.04517, 8.22153, 4.75],
			"to": [8.12945, 8.29197, 8],
			"rotation": {"angle": -22.5, "axis": "z", "origin": [8.00057, 8.13421, 5.87973]},
			"faces": {
				"north": {"uv": [4.40625, 0.40625, 4.4375, 0.40625], "texture": "#0"},
				"east": {"uv": [4.40625, 0.40625, 4.4375, 0.40625], "texture": "#0"},
				"south": {"uv": [4.40625, 0.40625, 4.4375, 0.40625], "texture": "#0"},
				"up": {"uv": [4.40625, 0.40625, 4.4375, 0.40625], "texture": "#0"},
				"down": {"uv": [4.40625, 0.40625, 4.4375, 0.40625], "texture": "#0"}
			}
		},
		{
			"name": "hexadecagon",
			"from": [7.92678, 7.90942, 5],
			"to": [8.02737, 8.0251, 6.5],
			"rotation": {"angle": -45, "axis": "z", "origin": [8.00057, 8.13421, 5.87973]},
			"faces": {
				"north": {"uv": [0.40625, 0.5, 0.40625, 0.5], "rotation": 180, "texture": "#1"},
				"east": {"uv": [0.40625, 0.5, 0.40625, 0.5], "rotation": 180, "texture": "#1"},
				"south": {"uv": [0.40625, 0.5, 0.40625, 0.5], "rotation": 180, "texture": "#1"},
				"down": {"uv": [0.40625, 0.5, 0.40625, 0.5], "rotation": 180, "texture": "#1"}
			}
		},
		{
			"name": "hexadecagon",
			"from": [7.76736, 7.65019, 5.25],
			"to": [8.23264, 8.0854, 5.53516],
			"rotation": {"angle": 0, "axis": "y", "origin": [8.03603, 8.13421, 5.87973]},
			"faces": {
				"north": {"uv": [0.4375, 0.03125, 0.4375, 0.03125], "rotation": 180, "texture": "#1"},
				"east": {"uv": [0.4375, 0.03125, 0.4375, 0.03125], "rotation": 180, "texture": "#1"},
				"south": {"uv": [0.4375, 0.03125, 0.4375, 0.03125], "rotation": 180, "texture": "#1"},
				"west": {"uv": [0.4375, 0.03125, 0.4375, 0.03125], "rotation": 180, "texture": "#1"}
			}
		},
		{
			"name": "hexadecagon",
			"from": [7.76736, 7.64628, 6.25],
			"to": [8.23264, 8.0854, 6.64063],
			"rotation": {"angle": 0, "axis": "y", "origin": [8.03603, 8.13421, 5.87973]},
			"faces": {
				"north": {"uv": [0.4375, 0.03125, 0.4375, 0.03125], "rotation": 180, "texture": "#1"},
				"east": {"uv": [0.4375, 0.03125, 0.4375, 0.03125], "rotation": 180, "texture": "#1"},
				"south": {"uv": [0.4375, 0.03125, 0.4375, 0.03125], "rotation": 180, "texture": "#1"},
				"west": {"uv": [0.4375, 0.03125, 0.4375, 0.03125], "rotation": 180, "texture": "#1"}
			}
		},
		{
			"name": "hexadecagon",
			"from": [7.80816, 7.64813, 5.5],
			"to": [8.19184, 8.02, 6.30469],
			"rotation": {"angle": 0, "axis": "y", "origin": [8.03603, 8.13421, 5.87973]},
			"faces": {
				"east": {"uv": [6.875, 0.625, 6.875, 0.625], "rotation": 180, "texture": "#0"},
				"west": {"uv": [6.875, 0.625, 6.875, 0.625], "rotation": 180, "texture": "#0"},
				"up": {"uv": [6.875, 0.625, 6.875, 0.625], "rotation": 180, "texture": "#0"}
			}
		},
		{
			"name": "hexadecagon",
			"from": [7.75716, 7.53094, 5.25],
			"to": [8.24284, 7.65125, 6.64063],
			"rotation": {"angle": 0, "axis": "y", "origin": [8.03603, 8.13421, 5.87973]},
			"faces": {
				"north": {"uv": [0.4375, 0.03125, 0.4375, 0.03125], "rotation": 180, "texture": "#1"},
				"east": {"uv": [0.4375, 0.03125, 0.4375, 0.03125], "rotation": 180, "texture": "#1"},
				"south": {"uv": [0.4375, 0.03125, 0.4375, 0.03125], "rotation": 180, "texture": "#1"},
				"west": {"uv": [0.4375, 0.03125, 0.4375, 0.03125], "rotation": 180, "texture": "#1"},
				"up": {"uv": [0.4375, 0.03125, 0.4375, 0.03125], "rotation": 180, "texture": "#1"},
				"down": {"uv": [0.4375, 0.03125, 0.4375, 0.03125], "rotation": 180, "texture": "#1"}
			}
		},
		{
			"name": "hexadecagon",
			"from": [7.97384, 7.90936, 5],
			"to": [8.07442, 8.02503, 6.5],
			"rotation": {"angle": 45, "axis": "z", "origin": [8.00057, 8.13421, 5.87973]},
			"faces": {
				"north": {"uv": [0.40625, 0.5, 0.40625, 0.5], "rotation": 180, "texture": "#1"},
				"south": {"uv": [0.40625, 0.5, 0.40625, 0.5], "rotation": 180, "texture": "#1"},
				"west": {"uv": [0.40625, 0.5, 0.40625, 0.5], "rotation": 180, "texture": "#1"},
				"down": {"uv": [0.40625, 0.5, 0.40625, 0.5], "rotation": 180, "texture": "#1"}
			}
		},
		{
			"name": "hexadecagon",
			"from": [7.65, 8.11752, 5],
			"to": [8.35, 8.31752, 6.5],
			"rotation": {"angle": 0, "axis": "y", "origin": [7.95057, 8.13421, 5.87973]},
			"faces": {
				"north": {"uv": [0.40625, 0.5, 0.40625, 0.5], "rotation": 180, "texture": "#1"},
				"east": {"uv": [0.40625, 0.5, 0.40625, 0.5], "rotation": 180, "texture": "#1"},
				"west": {"uv": [0.40625, 0.5, 0.40625, 0.5], "rotation": 180, "texture": "#1"},
				"up": {"uv": [0.40625, 0.5, 0.40625, 0.5], "rotation": 180, "texture": "#1"},
				"down": {"uv": [0.40625, 0.5, 0.40625, 0.5], "rotation": 180, "texture": "#1"}
			}
		},
		{
			"name": "hexadecagon",
			"from": [7.65, 7.40214, 6.39895],
			"to": [8.35, 7.90214, 6.7108],
			"rotation": {"angle": -22.5, "axis": "x", "origin": [7.95057, 8.13421, 5.87973]},
			"faces": {
				"north": {"uv": [0.40625, 0.5, 0.40625, 0.5], "rotation": 180, "texture": "#1"},
				"east": {"uv": [0.40625, 0.5, 0.40625, 0.5], "rotation": 180, "texture": "#1"},
				"west": {"uv": [0.40625, 0.5, 0.40625, 0.5], "rotation": 180, "texture": "#1"},
				"down": {"uv": [0.40625, 0.5, 0.40625, 0.5], "rotation": 180, "texture": "#1"}
			}
		},
		{
			"name": "hexadecagon",
			"from": [7.65, 7.665, 6.64],
			"to": [8.35, 8.015, 8.01],
			"rotation": {"angle": 0, "axis": "y", "origin": [7.95057, 8.13421, 5.87973]},
			"faces": {
				"east": {"uv": [0.40625, 0.5, 0.40625, 0.5], "rotation": 180, "texture": "#1"},
				"west": {"uv": [0.40625, 0.5, 0.40625, 0.5], "rotation": 180, "texture": "#1"},
				"down": {"uv": [0.40625, 0.5, 0.40625, 0.5], "rotation": 180, "texture": "#1"}
			}
		},
		{
			"name": "hexadecagon",
			"from": [7.78008, 6.665, 6.64],
			"to": [8.21992, 7.665, 6.74],
			"rotation": {"angle": 0, "axis": "y", "origin": [7.92049, 7.13421, 5.87973]},
			"faces": {
				"north": {"uv": [0.4375, 0.03125, 0.4375, 0.03125], "rotation": 180, "texture": "#1"},
				"east": {"uv": [0.4375, 0.03125, 0.4375, 0.03125], "rotation": 180, "texture": "#1"},
				"south": {"uv": [0.4375, 0.03125, 0.4375, 0.03125], "rotation": 180, "texture": "#1"},
				"west": {"uv": [0.4375, 0.03125, 0.4375, 0.03125], "rotation": 180, "texture": "#1"}
			}
		},
		{
			"name": "hexadecagon",
			"from": [7.92852, 7.08297, 7.8275],
			"to": [8.07148, 7.665, 8.00172],
			"rotation": {"angle": 0, "axis": "y", "origin": [8.06893, 7.13421, 5.87973]},
			"faces": {
				"north": {"uv": [0.4375, 0.03125, 0.4375, 0.03125], "rotation": 180, "texture": "#1"},
				"east": {"uv": [0.4375, 0.03125, 0.4375, 0.03125], "rotation": 180, "texture": "#1"},
				"south": {"uv": [0.4375, 0.03125, 0.4375, 0.03125], "rotation": 180, "texture": "#1"},
				"west": {"uv": [0.4375, 0.03125, 0.4375, 0.03125], "rotation": 180, "texture": "#1"},
				"down": {"uv": [0.4375, 0.03125, 0.4375, 0.03125], "rotation": 180, "texture": "#1"}
			}
		},
		{
			"name": "hexadecagon",
			"from": [7.92852, 6.7275, 7.80797],
			"to": [8.07148, 7.11422, 7.96656],
			"rotation": {"angle": 22.5, "axis": "x", "origin": [8, 7.01852, 7.91461]},
			"faces": {
				"north": {"uv": [0.4375, 0.03125, 0.4375, 0.03125], "rotation": 180, "texture": "#1"},
				"east": {"uv": [0.4375, 0.03125, 0.4375, 0.03125], "rotation": 180, "texture": "#1"},
				"south": {"uv": [0.4375, 0.03125, 0.4375, 0.03125], "rotation": 180, "texture": "#1"},
				"west": {"uv": [0.4375, 0.03125, 0.4375, 0.03125], "rotation": 180, "texture": "#1"},
				"down": {"uv": [0.4375, 0.03125, 0.4375, 0.03125], "rotation": 180, "texture": "#1"}
			}
		},
		{
			"name": "hexadecagon",
			"from": [7.92852, 6.55172, 8.37047],
			"to": [8.07148, 6.98141, 8.5525],
			"rotation": {"angle": 22.5, "axis": "x", "origin": [8, 6.84273, 8.50055]},
			"faces": {
				"north": {"uv": [0.4375, 0.03125, 0.4375, 0.03125], "rotation": 180, "texture": "#1"},
				"east": {"uv": [0.4375, 0.03125, 0.4375, 0.03125], "rotation": 180, "texture": "#1"},
				"south": {"uv": [0.4375, 0.03125, 0.4375, 0.03125], "rotation": 180, "texture": "#1"},
				"west": {"uv": [0.4375, 0.03125, 0.4375, 0.03125], "rotation": 180, "texture": "#1"},
				"down": {"uv": [0.4375, 0.03125, 0.4375, 0.03125], "rotation": 180, "texture": "#1"}
			}
		},
		{
			"name": "hexadecagon",
			"from": [7.78008, 6.565, 6.64],
			"to": [8.21992, 6.665, 8.74],
			"rotation": {"angle": 0, "axis": "y", "origin": [7.92049, 7.03421, 5.87973]},
			"faces": {
				"north": {"uv": [0.4375, 0.03125, 0.4375, 0.03125], "rotation": 180, "texture": "#1"},
				"east": {"uv": [0.4375, 0.03125, 0.4375, 0.03125], "rotation": 180, "texture": "#1"},
				"west": {"uv": [0.4375, 0.03125, 0.4375, 0.03125], "rotation": 180, "texture": "#1"},
				"up": {"uv": [0.4375, 0.03125, 0.4375, 0.03125], "rotation": 180, "texture": "#1"},
				"down": {"uv": [0.4375, 0.03125, 0.4375, 0.03125], "rotation": 180, "texture": "#1"}
			}
		},
		{
			"name": "hexadecagon",
			"from": [7.59609, 7.665, 7.99],
			"to": [8.40391, 8.315, 10.44],
			"rotation": {"angle": 0, "axis": "y", "origin": [7.90448, 8.13421, 7.22973]},
			"faces": {
				"north": {"uv": [0.40625, 0.5, 0.40625, 0.5], "rotation": 180, "texture": "#1"},
				"east": {"uv": [0.40625, 0.5, 0.40625, 0.5], "rotation": 180, "texture": "#1"},
				"south": {"uv": [0.40625, 0.5, 0.40625, 0.5], "rotation": 180, "texture": "#1"},
				"west": {"uv": [0.40625, 0.5, 0.40625, 0.5], "rotation": 180, "texture": "#1"},
				"up": {"uv": [0.40625, 0.5, 0.40625, 0.5], "rotation": 180, "texture": "#1"},
				"down": {"uv": [0.40625, 0.5, 0.40625, 0.5], "rotation": 180, "texture": "#1"}
			}
		},
		{
			"name": "hexadecagon",
			"from": [7.74844, 8.31344, 7.99],
			"to": [8.25156, 8.38531, 10.44],
			"rotation": {"angle": 0, "axis": "y", "origin": [7.90057, 8.20452, 7.22973]},
			"faces": {
				"north": {"uv": [0.40625, 0.5, 0.40625, 0.5], "rotation": 180, "texture": "#1"},
				"east": {"uv": [0.40625, 0.5, 0.40625, 0.5], "rotation": 180, "texture": "#1"},
				"south": {"uv": [0.40625, 0.5, 0.40625, 0.5], "rotation": 180, "texture": "#1"},
				"west": {"uv": [0.40625, 0.5, 0.40625, 0.5], "rotation": 180, "texture": "#1"},
				"up": {"uv": [0.40625, 0.5, 0.40625, 0.5], "rotation": 180, "texture": "#1"}
			}
		},
		{
			"name": "hexadecagon",
			"from": [7.65, 7.99252, 6.5],
			"to": [8.35, 8.31752, 8],
			"rotation": {"angle": 0, "axis": "y", "origin": [7.95057, 8.13421, 5.87973]},
			"faces": {
				"north": {"uv": [0.40625, 0.5, 0.40625, 0.5], "rotation": 180, "texture": "#1"},
				"east": {"uv": [0.40625, 0.5, 0.40625, 0.5], "rotation": 180, "texture": "#1"},
				"south": {"uv": [0.40625, 0.5, 0.40625, 0.5], "rotation": 180, "texture": "#1"},
				"west": {"uv": [0.40625, 0.5, 0.40625, 0.5], "rotation": 180, "texture": "#1"},
				"up": {"uv": [0.40625, 0.5, 0.40625, 0.5], "rotation": 180, "texture": "#1"},
				"down": {"uv": [0.40625, 0.5, 0.40625, 0.5], "rotation": 180, "texture": "#1"}
			}
		},
		{
			"name": "hexadecagon",
			"from": [7.87501, 8.02396, 5],
			"to": [8.12948, 8.32396, 6.5],
			"rotation": {"angle": 0, "axis": "y", "origin": [8.00057, 8.13421, 5.87973]},
			"faces": {
				"north": {"uv": [0.40625, 0.5, 0.40625, 0.5], "rotation": 180, "texture": "#1"},
				"down": {"uv": [0.40625, 0.5, 0.40625, 0.5], "rotation": 180, "texture": "#1"}
			}
		},
		{
			"name": "hexadecagon",
			"from": [7.76051, 8.11502, 5],
			"to": [7.8785, 8.21363, 6.5],
			"rotation": {"angle": 22.5, "axis": "z", "origin": [8.00057, 8.13421, 5.87973]},
			"faces": {
				"north": {"uv": [0.40625, 0.5, 0.40625, 0.5], "rotation": 180, "texture": "#1"},
				"south": {"uv": [0.40625, 0.5, 0.40625, 0.5], "rotation": 180, "texture": "#1"},
				"west": {"uv": [0.40625, 0.5, 0.40625, 0.5], "rotation": 180, "texture": "#1"},
				"up": {"uv": [0.40625, 0.5, 0.40625, 0.5], "rotation": 180, "texture": "#1"},
				"down": {"uv": [0.40625, 0.5, 0.40625, 0.5], "rotation": 180, "texture": "#1"}
			}
		},
		{
			"name": "hexadecagon",
			"from": [8.12273, 8.11505, 5],
			"to": [8.24072, 8.21367, 6.5],
			"rotation": {"angle": -22.5, "axis": "z", "origin": [8.00057, 8.13421, 5.87973]},
			"faces": {
				"north": {"uv": [0.40625, 0.5, 0.40625, 0.5], "rotation": 180, "texture": "#1"},
				"east": {"uv": [0.40625, 0.5, 0.40625, 0.5], "rotation": 180, "texture": "#1"},
				"south": {"uv": [0.40625, 0.5, 0.40625, 0.5], "rotation": 180, "texture": "#1"},
				"up": {"uv": [0.40625, 0.5, 0.40625, 0.5], "rotation": 180, "texture": "#1"},
				"down": {"uv": [0.40625, 0.5, 0.40625, 0.5], "rotation": 180, "texture": "#1"}
			}
		},
		{
			"name": "grip_0",
			"from": [7.60002, 7.13791, 9.52944],
			"to": [8.39998, 7.71054, 9.58865],
			"rotation": {"angle": 22.5, "axis": "x", "origin": [8, 7.6, 9.51998]},
			"faces": {
				"north": {"uv": [6.875, 0.71875, 6.875, 0.71875], "texture": "#0"},
				"east": {"uv": [6.875, 0.71875, 6.875, 0.71875], "rotation": 90, "texture": "#0"},
				"south": {"uv": [6.875, 0.71875, 6.875, 0.71875], "rotation": 180, "texture": "#0"},
				"west": {"uv": [6.875, 0.71875, 6.875, 0.71875], "rotation": 270, "texture": "#0"},
				"down": {"uv": [6.875, 0.71875, 6.875, 0.71875], "rotation": 180, "texture": "#0"}
			}
		},
		{
			"name": "grip_1",
			"from": [7.60002, 7.02697, 9.35373],
			"to": [8.39998, 7.1699, 9.41294],
			"rotation": {"angle": 0, "axis": "x", "origin": [8, 7.31328, 9.38334]},
			"faces": {
				"north": {"uv": [6.875, 0.71875, 6.875, 0.71875], "texture": "#0"},
				"east": {"uv": [6.875, 0.71875, 6.875, 0.71875], "rotation": 90, "texture": "#0"},
				"south": {"uv": [6.875, 0.71875, 6.875, 0.71875], "rotation": 180, "texture": "#0"},
				"west": {"uv": [6.875, 0.71875, 6.875, 0.71875], "rotation": 270, "texture": "#0"},
				"down": {"uv": [6.875, 0.71875, 6.875, 0.71875], "rotation": 180, "texture": "#0"}
			}
		},
		{
			"name": "grip_2",
			"from": [7.60002, 6.75633, 8.44859],
			"to": [8.39998, 6.81554, 9.17355],
			"rotation": {"angle": 0, "axis": "x", "origin": [8, 6.78594, 9.10209]},
			"faces": {
				"north": {"uv": [6.875, 0.71875, 6.875, 0.71875], "texture": "#0"},
				"east": {"uv": [6.875, 0.71875, 6.875, 0.71875], "texture": "#0"},
				"south": {"uv": [6.875, 0.71875, 6.875, 0.71875], "texture": "#0"},
				"west": {"uv": [6.875, 0.71875, 6.875, 0.71875], "texture": "#0"},
				"up": {"uv": [6.875, 0.71875, 6.875, 0.71875], "rotation": 180, "texture": "#0"},
				"down": {"uv": [6.875, 0.71875, 6.875, 0.71875], "rotation": 180, "texture": "#0"}
			}
		},
		{
			"name": "grip_2",
			"from": [7.60002, 6.90587, 9.37717],
			"to": [8.39998, 7.04881, 9.43638],
			"rotation": {"angle": -22.5, "axis": "x", "origin": [8, 6.97734, 9.40677]},
			"faces": {
				"north": {"uv": [6.875, 0.71875, 6.875, 0.71875], "texture": "#0"},
				"east": {"uv": [6.875, 0.71875, 6.875, 0.71875], "rotation": 90, "texture": "#0"},
				"south": {"uv": [6.875, 0.71875, 6.875, 0.71875], "rotation": 180, "texture": "#0"},
				"west": {"uv": [6.875, 0.71875, 6.875, 0.71875], "rotation": 270, "texture": "#0"},
				"up": {"uv": [6.875, 0.71875, 6.875, 0.71875], "texture": "#0"},
				"down": {"uv": [6.875, 0.71875, 6.875, 0.71875], "rotation": 180, "texture": "#0"}
			}
		},
		{
			"name": "grip_3",
			"from": [7.60002, 6.84728, 9.44748],
			"to": [8.39998, 6.94334, 9.50669],
			"rotation": {"angle": -45, "axis": "x", "origin": [8, 6.87187, 9.47709]},
			"faces": {
				"north": {"uv": [6.875, 0.71875, 6.875, 0.71875], "texture": "#0"},
				"east": {"uv": [6.875, 0.71875, 6.875, 0.71875], "rotation": 90, "texture": "#0"},
				"south": {"uv": [6.875, 0.71875, 6.875, 0.71875], "rotation": 180, "texture": "#0"},
				"west": {"uv": [6.875, 0.71875, 6.875, 0.71875], "rotation": 270, "texture": "#0"},
				"up": {"uv": [6.875, 0.71875, 6.875, 0.71875], "texture": "#0"},
				"down": {"uv": [6.875, 0.71875, 6.875, 0.71875], "rotation": 180, "texture": "#0"}
			}
		},
		{
			"name": "grip_4",
			"from": [7.60002, 6.81587, 9.48279],
			"to": [8.39998, 6.87508, 9.67261],
			"rotation": {"angle": 22.5, "axis": "x", "origin": [8, 6.84548, 9.53083]},
			"faces": {
				"east": {"uv": [6.875, 0.71875, 6.875, 0.71875], "rotation": 180, "texture": "#0"},
				"south": {"uv": [6.875, 0.71875, 6.875, 0.71875], "rotation": 180, "texture": "#0"},
				"west": {"uv": [6.875, 0.71875, 6.875, 0.71875], "rotation": 180, "texture": "#0"},
				"up": {"uv": [6.875, 0.71875, 6.875, 0.71875], "rotation": 180, "texture": "#0"},
				"down": {"uv": [6.875, 0.71875, 6.875, 0.71875], "rotation": 180, "texture": "#0"}
			}
		},
		{
			"name": "grip_5",
			"from": [7.60002, 6.70028, 9.62376],
			"to": [8.39998, 6.75949, 9.7081],
			"rotation": {"angle": 45, "axis": "x", "origin": [8, 6.72988, 9.71866]},
			"faces": {
				"east": {"uv": [6.875, 0.71875, 6.875, 0.71875], "rotation": 180, "texture": "#0"},
				"south": {"uv": [6.875, 0.71875, 6.875, 0.71875], "rotation": 180, "texture": "#0"},
				"west": {"uv": [6.875, 0.71875, 6.875, 0.71875], "rotation": 180, "texture": "#0"},
				"up": {"uv": [6.875, 0.71875, 6.875, 0.71875], "rotation": 180, "texture": "#0"},
				"down": {"uv": [6.875, 0.71875, 6.875, 0.71875], "rotation": 180, "texture": "#0"}
			}
		},
		{
			"name": "grip_6",
			"from": [7.60002, 6.70028, 9.12766],
			"to": [8.39998, 6.75949, 9.21201],
			"rotation": {"angle": 45, "axis": "x", "origin": [8, 6.72988, 9.22257]},
			"faces": {
				"north": {"uv": [6.875, 0.71875, 6.875, 0.71875], "rotation": 180, "texture": "#0"},
				"east": {"uv": [6.875, 0.71875, 6.875, 0.71875], "rotation": 180, "texture": "#0"},
				"south": {"uv": [6.875, 0.71875, 6.875, 0.71875], "rotation": 180, "texture": "#0"},
				"west": {"uv": [6.875, 0.71875, 6.875, 0.71875], "rotation": 180, "texture": "#0"},
				"up": {"uv": [6.875, 0.71875, 6.875, 0.71875], "rotation": 180, "texture": "#0"},
				"down": {"uv": [6.875, 0.71875, 6.875, 0.71875], "rotation": 180, "texture": "#0"}
			}
		},
		{
			"name": "grip_6",
			"from": [7.60002, 6.02578, 9.69083],
			"to": [8.39998, 6.75075, 9.75004],
			"rotation": {"angle": -22.5, "axis": "x", "origin": [8, 6.70858, 9.72044]},
			"faces": {
				"north": {"uv": [6.875, 0.71875, 6.875, 0.71875], "texture": "#0"},
				"east": {"uv": [6.875, 0.71875, 6.875, 0.71875], "rotation": 90, "texture": "#0"},
				"south": {"uv": [6.875, 0.71875, 6.875, 0.71875], "rotation": 180, "texture": "#0"},
				"west": {"uv": [6.875, 0.71875, 6.875, 0.71875], "rotation": 270, "texture": "#0"},
				"up": {"uv": [6.875, 0.71875, 6.875, 0.71875], "texture": "#0"},
				"down": {"uv": [6.875, 0.71875, 6.875, 0.71875], "rotation": 180, "texture": "#0"}
			}
		},
		{
			"name": "grip_7",
			"from": [7.60002, 6.02578, 9.19474],
			"to": [8.39998, 6.75075, 9.25395],
			"rotation": {"angle": -22.5, "axis": "x", "origin": [8, 6.70858, 9.22434]},
			"faces": {
				"north": {"uv": [6.875, 0.71875, 6.875, 0.71875], "texture": "#0"},
				"east": {"uv": [6.875, 0.71875, 6.875, 0.71875], "rotation": 90, "texture": "#0"},
				"south": {"uv": [6.875, 0.71875, 6.875, 0.71875], "rotation": 180, "texture": "#0"},
				"west": {"uv": [6.875, 0.71875, 6.875, 0.71875], "rotation": 270, "texture": "#0"},
				"up": {"uv": [6.875, 0.71875, 6.875, 0.71875], "texture": "#0"},
				"down": {"uv": [6.875, 0.71875, 6.875, 0.71875], "rotation": 180, "texture": "#0"}
			}
		},
		{
			"name": "grip_7",
			"from": [7.60002, 4.86657, 9.94622],
			"to": [8.39998, 6.10326, 10.00543],
			"rotation": {"angle": 0, "axis": "x", "origin": [8, 5.74077, 9.97583]},
			"faces": {
				"north": {"uv": [6.875, 0.71875, 6.875, 0.71875], "texture": "#0"},
				"east": {"uv": [6.875, 0.71875, 6.875, 0.71875], "rotation": 90, "texture": "#0"},
				"south": {"uv": [6.875, 0.71875, 6.875, 0.71875], "rotation": 180, "texture": "#0"},
				"west": {"uv": [6.875, 0.71875, 6.875, 0.71875], "rotation": 270, "texture": "#0"},
				"up": {"uv": [6.875, 0.71875, 6.875, 0.71875], "texture": "#0"},
				"down": {"uv": [6.875, 0.71875, 6.875, 0.71875], "rotation": 180, "texture": "#0"}
			}
		},
		{
			"name": "grip_8",
			"from": [7.60002, 4.86657, 9.45013],
			"to": [8.39998, 6.10326, 9.50934],
			"rotation": {"angle": 0, "axis": "x", "origin": [8, 5.74077, 9.47973]},
			"faces": {
				"north": {"uv": [6.875, 0.71875, 6.875, 0.71875], "texture": "#0"},
				"east": {"uv": [6.875, 0.71875, 6.875, 0.71875], "rotation": 90, "texture": "#0"},
				"south": {"uv": [6.875, 0.71875, 6.875, 0.71875], "rotation": 180, "texture": "#0"},
				"west": {"uv": [6.875, 0.71875, 6.875, 0.71875], "rotation": 270, "texture": "#0"},
				"up": {"uv": [6.875, 0.71875, 6.875, 0.71875], "texture": "#0"},
				"down": {"uv": [6.875, 0.71875, 6.875, 0.71875], "rotation": 180, "texture": "#0"}
			}
		},
		{
			"name": "grip_9",
			"from": [7.53361, 4.86657, 8.87591],
			"to": [8.46639, 6.09154, 9.30622],
			"rotation": {"angle": 0, "axis": "x", "origin": [8.06641, 5.74077, 9.27661]},
			"faces": {
				"north": {"uv": [6.875, 0.71875, 6.875, 0.71875], "texture": "#0"},
				"east": {"uv": [6.875, 0.71875, 6.875, 0.71875], "rotation": 90, "texture": "#0"},
				"south": {"uv": [6.875, 0.71875, 6.875, 0.71875], "rotation": 180, "texture": "#0"},
				"west": {"uv": [6.875, 0.71875, 6.875, 0.71875], "rotation": 270, "texture": "#0"},
				"up": {"uv": [6.875, 0.71875, 6.875, 0.71875], "texture": "#0"},
				"down": {"uv": [6.875, 0.71875, 6.875, 0.71875], "rotation": 180, "texture": "#0"}
			}
		},
		{
			"name": "grip_10",
			"from": [7.53361, 5.51501, 8.87591],
			"to": [8.46639, 6.12279, 9.13434],
			"rotation": {"angle": -22.5, "axis": "x", "origin": [8.06641, 5.47905, 9.09106]},
			"faces": {
				"north": {"uv": [6.875, 0.71875, 6.875, 0.71875], "texture": "#0"},
				"east": {"uv": [6.875, 0.71875, 6.875, 0.71875], "rotation": 90, "texture": "#0"},
				"west": {"uv": [6.875, 0.71875, 6.875, 0.71875], "rotation": 270, "texture": "#0"},
				"up": {"uv": [6.875, 0.71875, 6.875, 0.71875], "texture": "#0"}
			}
		},
		{
			"name": "grip_1",
			"from": [7.60393, 7.53133, 8.21023],
			"to": [8.39607, 7.66867, 10.23598],
			"rotation": {"angle": 0, "axis": "y", "origin": [7.67969, 6.30387, 9.56646]},
			"faces": {
				"north": {"uv": [6.875, 0.71875, 6.875, 0.71875], "rotation": 180, "texture": "#0"},
				"east": {"uv": [6.875, 0.71875, 6.875, 0.71875], "rotation": 180, "texture": "#0"},
				"south": {"uv": [6.875, 0.71875, 6.875, 0.71875], "rotation": 180, "texture": "#0"},
				"west": {"uv": [6.875, 0.71875, 6.875, 0.71875], "rotation": 180, "texture": "#0"},
				"down": {"uv": [6.875, 0.71875, 6.875, 0.71875], "rotation": 180, "texture": "#0"}
			}
		},
		{
			"name": "grip_1",
			"from": [7.60393, 7.6, 10.23598],
			"to": [8.39607, 7.66867, 10.44199],
			"rotation": {"angle": 0, "axis": "y", "origin": [7.67969, 6.30387, 9.56646]},
			"faces": {
				"east": {"uv": [6.875, 0.71875, 6.875, 0.71875], "rotation": 180, "texture": "#0"},
				"south": {"uv": [6.875, 0.71875, 6.875, 0.71875], "rotation": 180, "texture": "#0"},
				"west": {"uv": [6.875, 0.71875, 6.875, 0.71875], "rotation": 180, "texture": "#0"},
				"up": {"uv": [6.875, 0.71875, 6.875, 0.71875], "rotation": 180, "texture": "#0"},
				"down": {"uv": [6.875, 0.71875, 6.875, 0.71875], "rotation": 180, "texture": "#0"}
			}
		},
		{
			"name": "grip_2",
			"from": [7.60393, 7.56567, 10.23598],
			"to": [8.39607, 7.6, 10.30465],
			"rotation": {"angle": 0, "axis": "y", "origin": [7.67969, 6.30387, 9.56646]},
			"faces": {
				"east": {"uv": [6.875, 0.71875, 6.875, 0.71875], "rotation": 180, "texture": "#0"},
				"south": {"uv": [6.875, 0.71875, 6.875, 0.71875], "rotation": 180, "texture": "#0"},
				"west": {"uv": [6.875, 0.71875, 6.875, 0.71875], "rotation": 180, "texture": "#0"},
				"down": {"uv": [6.875, 0.71875, 6.875, 0.71875], "rotation": 180, "texture": "#0"}
			}
		},
		{
			"name": "grip_3",
			"from": [7.60393, 7.497, 8.24457],
			"to": [8.39607, 7.53133, 10.20165],
			"rotation": {"angle": 0, "axis": "y", "origin": [7.67969, 6.30387, 9.56646]},
			"faces": {
				"north": {"uv": [0.40625, 0.5, 0.40625, 0.5], "rotation": 180, "texture": "#1"},
				"east": {"uv": [0.40625, 0.5, 0.40625, 0.5], "rotation": 180, "texture": "#1"},
				"south": {"uv": [0.40625, 0.5, 0.40625, 0.5], "rotation": 180, "texture": "#1"},
				"west": {"uv": [0.40625, 0.5, 0.40625, 0.5], "rotation": 180, "texture": "#1"},
				"down": {"uv": [0.40625, 0.5, 0.40625, 0.5], "rotation": 180, "texture": "#1"}
			}
		},
		{
			"name": "grip_4",
			"from": [7.60393, 7.42833, 8.2789],
			"to": [8.39607, 7.497, 10.06431],
			"rotation": {"angle": 0, "axis": "y", "origin": [7.67969, 6.30387, 9.56646]},
			"faces": {
				"north": {"uv": [0.40625, 0.5, 0.40625, 0.5], "rotation": 180, "texture": "#1"},
				"east": {"uv": [0.40625, 0.5, 0.40625, 0.5], "rotation": 180, "texture": "#1"},
				"south": {"uv": [0.40625, 0.5, 0.40625, 0.5], "rotation": 180, "texture": "#1"},
				"west": {"uv": [0.40625, 0.5, 0.40625, 0.5], "rotation": 180, "texture": "#1"},
				"down": {"uv": [0.40625, 0.5, 0.40625, 0.5], "rotation": 180, "texture": "#1"}
			}
		},
		{
			"name": "grip_5",
			"from": [7.60393, 7.46266, 10.06431],
			"to": [8.39607, 7.497, 10.09865],
			"rotation": {"angle": 0, "axis": "y", "origin": [7.67969, 6.30387, 9.56646]},
			"faces": {
				"east": {"uv": [0.40625, 0.5, 0.40625, 0.5], "rotation": 180, "texture": "#1"},
				"south": {"uv": [0.40625, 0.5, 0.40625, 0.5], "rotation": 180, "texture": "#1"},
				"west": {"uv": [0.40625, 0.5, 0.40625, 0.5], "rotation": 180, "texture": "#1"},
				"down": {"uv": [0.40625, 0.5, 0.40625, 0.5], "rotation": 180, "texture": "#1"}
			}
		},
		{
			"name": "grip_6",
			"from": [7.60393, 7.35966, 8.31324],
			"to": [8.39607, 7.42833, 9.99564],
			"rotation": {"angle": 0, "axis": "y", "origin": [7.67969, 6.30387, 9.56646]},
			"faces": {
				"north": {"uv": [0.40625, 0.5, 0.40625, 0.5], "rotation": 180, "texture": "#1"},
				"east": {"uv": [0.40625, 0.5, 0.40625, 0.5], "rotation": 180, "texture": "#1"},
				"south": {"uv": [0.40625, 0.5, 0.40625, 0.5], "rotation": 180, "texture": "#1"},
				"west": {"uv": [0.40625, 0.5, 0.40625, 0.5], "rotation": 180, "texture": "#1"},
				"down": {"uv": [0.40625, 0.5, 0.40625, 0.5], "rotation": 180, "texture": "#1"}
			}
		},
		{
			"name": "grip_7",
			"from": [7.60393, 7.29099, 8.34757],
			"to": [8.39607, 7.35966, 9.92697],
			"rotation": {"angle": 0, "axis": "y", "origin": [7.67969, 6.30387, 9.56646]},
			"faces": {
				"north": {"uv": [0.40625, 0.5, 0.40625, 0.5], "rotation": 180, "texture": "#1"},
				"east": {"uv": [0.40625, 0.5, 0.40625, 0.5], "rotation": 180, "texture": "#1"},
				"south": {"uv": [0.40625, 0.5, 0.40625, 0.5], "rotation": 180, "texture": "#1"},
				"west": {"uv": [0.40625, 0.5, 0.40625, 0.5], "rotation": 180, "texture": "#1"},
				"down": {"uv": [0.40625, 0.5, 0.40625, 0.5], "rotation": 180, "texture": "#1"}
			}
		},
		{
			"name": "grip_8",
			"from": [7.60393, 7.32533, 9.92697],
			"to": [8.39607, 7.35966, 9.96131],
			"rotation": {"angle": 0, "axis": "y", "origin": [7.67969, 6.30387, 9.56646]},
			"faces": {
				"east": {"uv": [0.40625, 0.5, 0.40625, 0.5], "rotation": 180, "texture": "#1"},
				"south": {"uv": [0.40625, 0.5, 0.40625, 0.5], "rotation": 180, "texture": "#1"},
				"west": {"uv": [0.40625, 0.5, 0.40625, 0.5], "rotation": 180, "texture": "#1"},
				"down": {"uv": [0.40625, 0.5, 0.40625, 0.5], "rotation": 180, "texture": "#1"}
			}
		},
		{
			"name": "grip_9",
			"from": [7.60393, 7.11932, 8.38191],
			"to": [8.39607, 7.29099, 9.92697],
			"rotation": {"angle": 0, "axis": "y", "origin": [7.67969, 6.30387, 9.56646]},
			"faces": {
				"north": {"uv": [0.40625, 0.5, 0.40625, 0.5], "rotation": 180, "texture": "#1"},
				"east": {"uv": [0.40625, 0.5, 0.40625, 0.5], "rotation": 180, "texture": "#1"},
				"south": {"uv": [0.40625, 0.5, 0.40625, 0.5], "rotation": 180, "texture": "#1"},
				"west": {"uv": [0.40625, 0.5, 0.40625, 0.5], "rotation": 180, "texture": "#1"},
				"down": {"uv": [0.40625, 0.5, 0.40625, 0.5], "rotation": 180, "texture": "#1"}
			}
		},
		{
			"name": "grip_10",
			"from": [7.60393, 6.94764, 8.41624],
			"to": [8.39607, 7.11932, 9.92697],
			"rotation": {"angle": 0, "axis": "y", "origin": [7.67969, 6.30387, 9.56646]},
			"faces": {
				"north": {"uv": [0.40625, 0.5, 0.40625, 0.5], "rotation": 180, "texture": "#1"},
				"east": {"uv": [0.40625, 0.5, 0.40625, 0.5], "rotation": 180, "texture": "#1"},
				"south": {"uv": [0.40625, 0.5, 0.40625, 0.5], "rotation": 180, "texture": "#1"},
				"west": {"uv": [0.40625, 0.5, 0.40625, 0.5], "rotation": 180, "texture": "#1"},
				"down": {"uv": [0.40625, 0.5, 0.40625, 0.5], "rotation": 180, "texture": "#1"}
			}
		},
		{
			"name": "grip_11",
			"from": [7.60393, 4.88756, 9.92697],
			"to": [8.39607, 7.08498, 9.96131],
			"rotation": {"angle": 0, "axis": "y", "origin": [7.67969, 6.30387, 9.56646]},
			"faces": {
				"east": {"uv": [0.40625, 0.5, 0.40625, 0.5], "rotation": 180, "texture": "#1"},
				"south": {"uv": [0.40625, 0.5, 0.40625, 0.5], "rotation": 180, "texture": "#1"},
				"west": {"uv": [0.40625, 0.5, 0.40625, 0.5], "rotation": 180, "texture": "#1"},
				"up": {"uv": [0.40625, 0.5, 0.40625, 0.5], "rotation": 180, "texture": "#1"},
				"down": {"uv": [0.40625, 0.5, 0.40625, 0.5], "rotation": 180, "texture": "#1"}
			}
		},
		{
			"name": "grip_12",
			"from": [7.60393, 4.88756, 9.96131],
			"to": [8.39607, 7.05065, 9.99564],
			"rotation": {"angle": 0, "axis": "y", "origin": [7.67969, 6.30387, 9.56646]},
			"faces": {
				"east": {"uv": [0.40625, 0.5, 0.40625, 0.5], "rotation": 180, "texture": "#1"},
				"south": {"uv": [0.40625, 0.5, 0.40625, 0.5], "rotation": 180, "texture": "#1"},
				"west": {"uv": [0.40625, 0.5, 0.40625, 0.5], "rotation": 180, "texture": "#1"},
				"up": {"uv": [0.40625, 0.5, 0.40625, 0.5], "rotation": 180, "texture": "#1"}
			}
		},
		{
			"name": "grip_13",
			"from": [7.60393, 6.77597, 8.45058],
			"to": [8.39607, 6.94764, 9.92697],
			"rotation": {"angle": 0, "axis": "y", "origin": [7.67969, 6.30387, 9.56646]},
			"faces": {
				"north": {"uv": [0.40625, 0.5, 0.40625, 0.5], "rotation": 180, "texture": "#1"},
				"east": {"uv": [0.40625, 0.5, 0.40625, 0.5], "rotation": 180, "texture": "#1"},
				"west": {"uv": [0.40625, 0.5, 0.40625, 0.5], "rotation": 180, "texture": "#1"}
			}
		},
		{
			"name": "grip_14",
			"from": [7.60393, 4.88756, 9.99564],
			"to": [8.39607, 6.91331, 10.02998],
			"rotation": {"angle": 0, "axis": "y", "origin": [7.67969, 6.30387, 9.56646]},
			"faces": {
				"east": {"uv": [0.40625, 0.5, 0.40625, 0.5], "rotation": 180, "texture": "#1"},
				"south": {"uv": [0.40625, 0.5, 0.40625, 0.5], "rotation": 180, "texture": "#1"},
				"west": {"uv": [0.40625, 0.5, 0.40625, 0.5], "rotation": 180, "texture": "#1"},
				"up": {"uv": [0.40625, 0.5, 0.40625, 0.5], "rotation": 180, "texture": "#1"},
				"down": {"uv": [0.40625, 0.5, 0.40625, 0.5], "rotation": 180, "texture": "#1"}
			}
		},
		{
			"name": "grip_15",
			"from": [7.60393, 4.88756, 10.02998],
			"to": [8.39607, 6.8103, 10.06431],
			"rotation": {"angle": 0, "axis": "y", "origin": [7.67969, 6.30387, 9.56646]},
			"faces": {
				"east": {"uv": [0.40625, 0.5, 0.40625, 0.5], "rotation": 180, "texture": "#1"},
				"south": {"uv": [0.40625, 0.5, 0.40625, 0.5], "rotation": 180, "texture": "#1"},
				"west": {"uv": [0.40625, 0.5, 0.40625, 0.5], "rotation": 180, "texture": "#1"},
				"up": {"uv": [0.40625, 0.5, 0.40625, 0.5], "rotation": 180, "texture": "#1"},
				"down": {"uv": [0.40625, 0.5, 0.40625, 0.5], "rotation": 180, "texture": "#1"}
			}
		},
		{
			"name": "grip_16",
			"from": [7.60393, 6.63863, 8.48491],
			"to": [8.39607, 6.77597, 9.92697],
			"rotation": {"angle": 0, "axis": "y", "origin": [7.67969, 6.30387, 9.56646]},
			"faces": {
				"north": {"uv": [0.40625, 0.5, 0.40625, 0.5], "rotation": 180, "texture": "#1"},
				"east": {"uv": [0.40625, 0.5, 0.40625, 0.5], "rotation": 180, "texture": "#1"},
				"west": {"uv": [0.40625, 0.5, 0.40625, 0.5], "rotation": 180, "texture": "#1"},
				"down": {"uv": [0.40625, 0.5, 0.40625, 0.5], "rotation": 180, "texture": "#1"}
			}
		},
		{
			"name": "grip_17",
			"from": [7.60393, 4.88756, 10.06431],
			"to": [8.39607, 6.7073, 10.09865],
			"rotation": {"angle": 0, "axis": "y", "origin": [7.67969, 6.30387, 9.56646]},
			"faces": {
				"east": {"uv": [0.40625, 0.5, 0.40625, 0.5], "rotation": 180, "texture": "#1"},
				"south": {"uv": [0.40625, 0.5, 0.40625, 0.5], "rotation": 180, "texture": "#1"},
				"west": {"uv": [0.40625, 0.5, 0.40625, 0.5], "rotation": 180, "texture": "#1"},
				"up": {"uv": [0.40625, 0.5, 0.40625, 0.5], "rotation": 180, "texture": "#1"},
				"down": {"uv": [0.40625, 0.5, 0.40625, 0.5], "rotation": 180, "texture": "#1"}
			}
		},
		{
			"name": "grip_18",
			"from": [7.60393, 4.88756, 10.09865],
			"to": [8.39607, 6.67296, 10.13298],
			"rotation": {"angle": 0, "axis": "y", "origin": [7.67969, 6.30387, 9.56646]},
			"faces": {
				"east": {"uv": [0.40625, 0.5, 0.40625, 0.5], "rotation": 180, "texture": "#1"},
				"south": {"uv": [0.40625, 0.5, 0.40625, 0.5], "rotation": 180, "texture": "#1"},
				"west": {"uv": [0.40625, 0.5, 0.40625, 0.5], "rotation": 180, "texture": "#1"},
				"up": {"uv": [0.40625, 0.5, 0.40625, 0.5], "rotation": 180, "texture": "#1"},
				"down": {"uv": [0.40625, 0.5, 0.40625, 0.5], "rotation": 180, "texture": "#1"}
			}
		},
		{
			"name": "grip_19",
			"from": [7.60393, 6.39829, 8.51925],
			"to": [8.39607, 6.63863, 9.92697],
			"rotation": {"angle": 0, "axis": "y", "origin": [7.67969, 6.30387, 9.56646]},
			"faces": {
				"north": {"uv": [0.40625, 0.5, 0.40625, 0.5], "rotation": 180, "texture": "#1"},
				"east": {"uv": [0.40625, 0.5, 0.40625, 0.5], "rotation": 180, "texture": "#1"},
				"west": {"uv": [0.40625, 0.5, 0.40625, 0.5], "rotation": 180, "texture": "#1"},
				"down": {"uv": [0.40625, 0.5, 0.40625, 0.5], "rotation": 180, "texture": "#1"}
			}
		},
		{
			"name": "grip_20",
			"from": [7.60393, 4.88756, 10.13298],
			"to": [8.39607, 6.53563, 10.16731],
			"rotation": {"angle": 0, "axis": "y", "origin": [7.67969, 6.30387, 9.56646]},
			"faces": {
				"east": {"uv": [0.40625, 0.5, 0.40625, 0.5], "rotation": 180, "texture": "#1"},
				"south": {"uv": [0.40625, 0.5, 0.40625, 0.5], "rotation": 180, "texture": "#1"},
				"west": {"uv": [0.40625, 0.5, 0.40625, 0.5], "rotation": 180, "texture": "#1"},
				"up": {"uv": [0.40625, 0.5, 0.40625, 0.5], "rotation": 180, "texture": "#1"},
				"down": {"uv": [0.40625, 0.5, 0.40625, 0.5], "rotation": 180, "texture": "#1"}
			}
		},
		{
			"name": "grip_21",
			"from": [7.60393, 4.88756, 10.16731],
			"to": [8.39607, 6.50129, 10.20165],
			"rotation": {"angle": 0, "axis": "y", "origin": [7.67969, 6.30387, 9.56646]},
			"faces": {
				"east": {"uv": [0.40625, 0.5, 0.40625, 0.5], "rotation": 180, "texture": "#1"},
				"south": {"uv": [0.40625, 0.5, 0.40625, 0.5], "rotation": 180, "texture": "#1"},
				"west": {"uv": [0.40625, 0.5, 0.40625, 0.5], "rotation": 180, "texture": "#1"},
				"up": {"uv": [0.40625, 0.5, 0.40625, 0.5], "rotation": 180, "texture": "#1"},
				"down": {"uv": [0.40625, 0.5, 0.40625, 0.5], "rotation": 180, "texture": "#1"}
			}
		},
		{
			"name": "grip_22",
			"from": [7.60393, 6.19228, 8.55358],
			"to": [8.39607, 6.39829, 9.92697],
			"rotation": {"angle": 0, "axis": "y", "origin": [7.67969, 6.30387, 9.56646]},
			"faces": {
				"north": {"uv": [0.40625, 0.5, 0.40625, 0.5], "rotation": 180, "texture": "#1"},
				"east": {"uv": [0.40625, 0.5, 0.40625, 0.5], "rotation": 180, "texture": "#1"},
				"west": {"uv": [0.40625, 0.5, 0.40625, 0.5], "rotation": 180, "texture": "#1"},
				"down": {"uv": [0.40625, 0.5, 0.40625, 0.5], "rotation": 180, "texture": "#1"}
			}
		},
		{
			"name": "grip_23",
			"from": [7.60393, 4.88756, 10.20165],
			"to": [8.39607, 6.36395, 10.23598],
			"rotation": {"angle": 0, "axis": "y", "origin": [7.67969, 6.30387, 9.56646]},
			"faces": {
				"east": {"uv": [0.40625, 0.5, 0.40625, 0.5], "rotation": 180, "texture": "#1"},
				"south": {"uv": [0.40625, 0.5, 0.40625, 0.5], "rotation": 180, "texture": "#1"},
				"west": {"uv": [0.40625, 0.5, 0.40625, 0.5], "rotation": 180, "texture": "#1"},
				"up": {"uv": [0.40625, 0.5, 0.40625, 0.5], "rotation": 180, "texture": "#1"},
				"down": {"uv": [0.40625, 0.5, 0.40625, 0.5], "rotation": 180, "texture": "#1"}
			}
		},
		{
			"name": "grip_24",
			"from": [7.60393, 4.88756, 10.23598],
			"to": [8.39607, 6.29528, 10.27032],
			"rotation": {"angle": 0, "axis": "y", "origin": [7.67969, 6.30387, 9.56646]},
			"faces": {
				"east": {"uv": [0.40625, 0.5, 0.40625, 0.5], "rotation": 180, "texture": "#1"},
				"south": {"uv": [0.40625, 0.5, 0.40625, 0.5], "rotation": 180, "texture": "#1"},
				"west": {"uv": [0.40625, 0.5, 0.40625, 0.5], "rotation": 180, "texture": "#1"},
				"up": {"uv": [0.40625, 0.5, 0.40625, 0.5], "rotation": 180, "texture": "#1"},
				"down": {"uv": [0.40625, 0.5, 0.40625, 0.5], "rotation": 180, "texture": "#1"}
			}
		},
		{
			"name": "grip_25",
			"from": [7.60393, 6.0206, 8.58792],
			"to": [8.39607, 6.19228, 9.92697],
			"rotation": {"angle": 0, "axis": "y", "origin": [7.67969, 6.30387, 9.56646]},
			"faces": {
				"north": {"uv": [0.40625, 0.5, 0.40625, 0.5], "rotation": 180, "texture": "#1"},
				"east": {"uv": [0.40625, 0.5, 0.40625, 0.5], "rotation": 180, "texture": "#1"},
				"west": {"uv": [0.40625, 0.5, 0.40625, 0.5], "rotation": 180, "texture": "#1"},
				"down": {"uv": [0.40625, 0.5, 0.40625, 0.5], "rotation": 180, "texture": "#1"}
			}
		},
		{
			"name": "grip_26",
			"from": [7.60393, 4.88756, 10.27032],
			"to": [8.39607, 6.15794, 10.30465],
			"rotation": {"angle": 0, "axis": "y", "origin": [7.67969, 6.30387, 9.56646]},
			"faces": {
				"east": {"uv": [0.40625, 0.5, 0.40625, 0.5], "rotation": 180, "texture": "#1"},
				"south": {"uv": [0.40625, 0.5, 0.40625, 0.5], "rotation": 180, "texture": "#1"},
				"west": {"uv": [0.40625, 0.5, 0.40625, 0.5], "rotation": 180, "texture": "#1"},
				"up": {"uv": [0.40625, 0.5, 0.40625, 0.5], "rotation": 180, "texture": "#1"},
				"down": {"uv": [0.40625, 0.5, 0.40625, 0.5], "rotation": 180, "texture": "#1"}
			}
		},
		{
			"name": "grip_27",
			"from": [7.60393, 5.9176, 8.62225],
			"to": [8.39607, 6.0206, 9.92697],
			"rotation": {"angle": 0, "axis": "y", "origin": [7.67969, 6.30387, 9.56646]},
			"faces": {
				"north": {"uv": [0.40625, 0.5, 0.40625, 0.5], "rotation": 180, "texture": "#1"},
				"east": {"uv": [0.40625, 0.5, 0.40625, 0.5], "rotation": 180, "texture": "#1"},
				"west": {"uv": [0.40625, 0.5, 0.40625, 0.5], "rotation": 180, "texture": "#1"},
				"down": {"uv": [0.40625, 0.5, 0.40625, 0.5], "rotation": 180, "texture": "#1"}
			}
		},
		{
			"name": "grip_28",
			"from": [7.60393, 4.88756, 10.30465],
			"to": [8.39607, 5.98627, 10.33899],
			"rotation": {"angle": 0, "axis": "y", "origin": [7.67969, 6.30387, 9.56646]},
			"faces": {
				"east": {"uv": [0.40625, 0.5, 0.40625, 0.5], "rotation": 180, "texture": "#1"},
				"south": {"uv": [0.40625, 0.5, 0.40625, 0.5], "rotation": 180, "texture": "#1"},
				"west": {"uv": [0.40625, 0.5, 0.40625, 0.5], "rotation": 180, "texture": "#1"},
				"up": {"uv": [0.40625, 0.5, 0.40625, 0.5], "rotation": 180, "texture": "#1"},
				"down": {"uv": [0.40625, 0.5, 0.40625, 0.5], "rotation": 180, "texture": "#1"}
			}
		},
		{
			"name": "grip_29",
			"from": [7.60393, 5.74593, 8.65659],
			"to": [8.39607, 5.9176, 9.92697],
			"rotation": {"angle": 0, "axis": "y", "origin": [7.67969, 6.30387, 9.56646]},
			"faces": {
				"north": {"uv": [0.40625, 0.5, 0.40625, 0.5], "rotation": 180, "texture": "#1"},
				"east": {"uv": [0.40625, 0.5, 0.40625, 0.5], "rotation": 180, "texture": "#1"},
				"west": {"uv": [0.40625, 0.5, 0.40625, 0.5], "rotation": 180, "texture": "#1"},
				"down": {"uv": [0.40625, 0.5, 0.40625, 0.5], "rotation": 180, "texture": "#1"}
			}
		},
		{
			"name": "grip_30",
			"from": [7.60393, 4.88756, 10.33899],
			"to": [8.39607, 5.8146, 10.37332],
			"rotation": {"angle": 0, "axis": "y", "origin": [7.67969, 6.30387, 9.56646]},
			"faces": {
				"east": {"uv": [0.40625, 0.5, 0.40625, 0.5], "rotation": 180, "texture": "#1"},
				"south": {"uv": [0.40625, 0.5, 0.40625, 0.5], "rotation": 180, "texture": "#1"},
				"west": {"uv": [0.40625, 0.5, 0.40625, 0.5], "rotation": 180, "texture": "#1"},
				"up": {"uv": [0.40625, 0.5, 0.40625, 0.5], "rotation": 180, "texture": "#1"},
				"down": {"uv": [0.40625, 0.5, 0.40625, 0.5], "rotation": 180, "texture": "#1"}
			}
		},
		{
			"name": "grip_31",
			"from": [7.60393, 5.60859, 8.69092],
			"to": [8.39607, 5.74593, 9.92697],
			"rotation": {"angle": 0, "axis": "y", "origin": [7.67969, 6.30387, 9.56646]},
			"faces": {
				"north": {"uv": [0.40625, 0.5, 0.40625, 0.5], "rotation": 180, "texture": "#1"},
				"east": {"uv": [0.40625, 0.5, 0.40625, 0.5], "rotation": 180, "texture": "#1"},
				"west": {"uv": [0.40625, 0.5, 0.40625, 0.5], "rotation": 180, "texture": "#1"},
				"down": {"uv": [0.40625, 0.5, 0.40625, 0.5], "rotation": 180, "texture": "#1"}
			}
		},
		{
			"name": "grip_32",
			"from": [7.60393, 4.95623, 10.37332],
			"to": [8.39607, 5.64292, 10.40766],
			"rotation": {"angle": 0, "axis": "y", "origin": [7.67969, 6.30387, 9.56646]},
			"faces": {
				"east": {"uv": [0.40625, 0.5, 0.40625, 0.5], "rotation": 180, "texture": "#1"},
				"south": {"uv": [0.40625, 0.5, 0.40625, 0.5], "rotation": 180, "texture": "#1"},
				"west": {"uv": [0.40625, 0.5, 0.40625, 0.5], "rotation": 180, "texture": "#1"},
				"up": {"uv": [0.40625, 0.5, 0.40625, 0.5], "rotation": 180, "texture": "#1"},
				"down": {"uv": [0.40625, 0.5, 0.40625, 0.5], "rotation": 180, "texture": "#1"}
			}
		},
		{
			"name": "grip_33",
			"from": [7.60393, 5.53992, 8.72525],
			"to": [8.39607, 5.60859, 9.92697],
			"rotation": {"angle": 0, "axis": "y", "origin": [7.67969, 6.30387, 9.56646]},
			"faces": {
				"north": {"uv": [0.40625, 0.5, 0.40625, 0.5], "rotation": 180, "texture": "#1"},
				"east": {"uv": [0.40625, 0.5, 0.40625, 0.5], "rotation": 180, "texture": "#1"},
				"west": {"uv": [0.40625, 0.5, 0.40625, 0.5], "rotation": 180, "texture": "#1"},
				"down": {"uv": [0.40625, 0.5, 0.40625, 0.5], "rotation": 180, "texture": "#1"}
			}
		},
		{
			"name": "grip_34",
			"from": [7.60393, 5.43691, 8.75959],
			"to": [8.39607, 5.53992, 9.92697],
			"rotation": {"angle": 0, "axis": "y", "origin": [7.67969, 6.30387, 9.56646]},
			"faces": {
				"north": {"uv": [0.40625, 0.5, 0.40625, 0.5], "rotation": 180, "texture": "#1"},
				"east": {"uv": [0.40625, 0.5, 0.40625, 0.5], "rotation": 180, "texture": "#1"},
				"west": {"uv": [0.40625, 0.5, 0.40625, 0.5], "rotation": 180, "texture": "#1"},
				"down": {"uv": [0.40625, 0.5, 0.40625, 0.5], "rotation": 180, "texture": "#1"}
			}
		},
		{
			"name": "grip_35",
			"from": [7.60393, 4.88756, 8.79392],
			"to": [8.39607, 5.43691, 9.92697],
			"rotation": {"angle": 0, "axis": "y", "origin": [7.67969, 6.30387, 9.56646]},
			"faces": {
				"north": {"uv": [0.40625, 0.5, 0.40625, 0.5], "rotation": 180, "texture": "#1"},
				"east": {"uv": [0.40625, 0.5, 0.40625, 0.5], "rotation": 180, "texture": "#1"},
				"west": {"uv": [0.40625, 0.5, 0.40625, 0.5], "rotation": 180, "texture": "#1"},
				"down": {"uv": [0.40625, 0.5, 0.40625, 0.5], "rotation": 180, "texture": "#1"}
			}
		},
		{
			"name": "grip_36",
			"from": [7.60393, 4.99056, 10.40766],
			"to": [8.39607, 5.40258, 10.44199],
			"rotation": {"angle": 0, "axis": "y", "origin": [7.67969, 6.30387, 9.56646]},
			"faces": {
				"east": {"uv": [0.40625, 0.5, 0.40625, 0.5], "rotation": 180, "texture": "#1"},
				"south": {"uv": [0.40625, 0.5, 0.40625, 0.5], "rotation": 180, "texture": "#1"},
				"west": {"uv": [0.40625, 0.5, 0.40625, 0.5], "rotation": 180, "texture": "#1"},
				"up": {"uv": [0.40625, 0.5, 0.40625, 0.5], "rotation": 180, "texture": "#1"},
				"down": {"uv": [0.40625, 0.5, 0.40625, 0.5], "rotation": 180, "texture": "#1"}
			}
		},
		{
			"name": "grip_37",
			"from": [7.60393, 4.88756, 8.75959],
			"to": [8.39607, 5.2309, 8.79392],
			"rotation": {"angle": 0, "axis": "y", "origin": [7.67969, 6.30387, 9.56646]},
			"faces": {
				"north": {"uv": [0.40625, 0.5, 0.40625, 0.5], "rotation": 180, "texture": "#1"},
				"east": {"uv": [0.40625, 0.5, 0.40625, 0.5], "rotation": 180, "texture": "#1"},
				"west": {"uv": [0.40625, 0.5, 0.40625, 0.5], "rotation": 180, "texture": "#1"},
				"up": {"uv": [0.40625, 0.5, 0.40625, 0.5], "rotation": 180, "texture": "#1"},
				"down": {"uv": [0.40625, 0.5, 0.40625, 0.5], "rotation": 180, "texture": "#1"}
			}
		},
		{
			"name": "grip_38",
			"from": [7.60393, 4.88756, 8.72525],
			"to": [8.39607, 5.1279, 8.75959],
			"rotation": {"angle": 0, "axis": "y", "origin": [7.67969, 6.30387, 9.56646]},
			"faces": {
				"north": {"uv": [0.40625, 0.5, 0.40625, 0.5], "rotation": 180, "texture": "#1"},
				"east": {"uv": [0.40625, 0.5, 0.40625, 0.5], "rotation": 180, "texture": "#1"},
				"west": {"uv": [0.40625, 0.5, 0.40625, 0.5], "rotation": 180, "texture": "#1"},
				"up": {"uv": [0.40625, 0.5, 0.40625, 0.5], "rotation": 180, "texture": "#1"},
				"down": {"uv": [0.40625, 0.5, 0.40625, 0.5], "rotation": 180, "texture": "#1"}
			}
		},
		{
			"name": "grip_39",
			"from": [7.60393, 4.88756, 8.69092],
			"to": [8.39607, 5.05923, 8.72525],
			"rotation": {"angle": 0, "axis": "y", "origin": [7.67969, 6.30387, 9.56646]},
			"faces": {
				"north": {"uv": [0.40625, 0.5, 0.40625, 0.5], "rotation": 180, "texture": "#1"},
				"east": {"uv": [0.40625, 0.5, 0.40625, 0.5], "rotation": 180, "texture": "#1"},
				"west": {"uv": [0.40625, 0.5, 0.40625, 0.5], "rotation": 180, "texture": "#1"},
				"up": {"uv": [0.40625, 0.5, 0.40625, 0.5], "rotation": 180, "texture": "#1"},
				"down": {"uv": [0.40625, 0.5, 0.40625, 0.5], "rotation": 180, "texture": "#1"}
			}
		},
		{
			"name": "octagon",
			"from": [7.5625, 8.15069, 10.22688],
			"to": [8.4375, 8.20868, 10.36688],
			"rotation": {"angle": 45, "axis": "x", "origin": [-4.9375, 8.17969, 10.29688]},
			"faces": {
				"north": {"uv": [6.875, 0.71875, 6.875, 0.71875], "rotation": 180, "texture": "#0"},
				"east": {"uv": [6.875, 0.71875, 6.875, 0.71875], "rotation": 180, "texture": "#0"},
				"south": {"uv": [6.875, 0.71875, 6.875, 0.71875], "rotation": 180, "texture": "#0"},
				"west": {"uv": [6.875, 0.71875, 6.875, 0.71875], "rotation": 180, "texture": "#0"}
			}
		},
		{
			"name": "octagon",
			"from": [7.5625, 8.15069, 10.22688],
			"to": [8.4375, 8.20868, 10.36688],
			"rotation": {"angle": 0, "axis": "x", "origin": [-4.9375, 8.17969, 10.29688]},
			"faces": {
				"north": {"uv": [6.875, 0.71875, 6.875, 0.71875], "rotation": 180, "texture": "#0"},
				"east": {"uv": [6.875, 0.71875, 6.875, 0.71875], "rotation": 180, "texture": "#0"},
				"south": {"uv": [6.875, 0.71875, 6.875, 0.71875], "rotation": 180, "texture": "#0"},
				"west": {"uv": [6.875, 0.71875, 6.875, 0.71875], "rotation": 180, "texture": "#0"}
			}
		},
		{
			"name": "octagon",
			"from": [7.5625, 8.10969, 10.26788],
			"to": [8.4375, 8.24969, 10.32587],
			"rotation": {"angle": 45, "axis": "x", "origin": [-4.9375, 8.17969, 10.29688]},
			"faces": {
				"east": {"uv": [6.875, 0.71875, 6.875, 0.71875], "rotation": 180, "texture": "#0"},
				"west": {"uv": [6.875, 0.71875, 6.875, 0.71875], "rotation": 180, "texture": "#0"},
				"up": {"uv": [6.875, 0.71875, 6.875, 0.71875], "rotation": 180, "texture": "#0"},
				"down": {"uv": [6.875, 0.71875, 6.875, 0.71875], "rotation": 180, "texture": "#0"}
			}
		},
		{
			"name": "octagon",
			"from": [7.5625, 8.10969, 10.26788],
			"to": [8.4375, 8.24969, 10.32587],
			"rotation": {"angle": 0, "axis": "x", "origin": [-4.9375, 8.17969, 10.29688]},
			"faces": {
				"east": {"uv": [6.875, 0.71875, 6.875, 0.71875], "rotation": 180, "texture": "#0"},
				"west": {"uv": [6.875, 0.71875, 6.875, 0.71875], "rotation": 180, "texture": "#0"},
				"up": {"uv": [6.875, 0.71875, 6.875, 0.71875], "rotation": 180, "texture": "#0"},
				"down": {"uv": [6.875, 0.71875, 6.875, 0.71875], "rotation": 180, "texture": "#0"}
			}
		},
		{
			"name": "octagon",
			"from": [7.5625, 8.15069, 9.79328],
			"to": [8.4375, 8.20868, 9.93328],
			"rotation": {"angle": 45, "axis": "x", "origin": [-4.9375, 8.17969, 9.86328]},
			"faces": {
				"north": {"uv": [6.875, 0.71875, 6.875, 0.71875], "rotation": 180, "texture": "#0"},
				"east": {"uv": [6.875, 0.71875, 6.875, 0.71875], "rotation": 180, "texture": "#0"},
				"south": {"uv": [6.875, 0.71875, 6.875, 0.71875], "rotation": 180, "texture": "#0"},
				"west": {"uv": [6.875, 0.71875, 6.875, 0.71875], "rotation": 180, "texture": "#0"}
			}
		},
		{
			"name": "octagon",
			"from": [7.5625, 8.15069, 9.79328],
			"to": [8.4375, 8.20868, 9.93328],
			"rotation": {"angle": 0, "axis": "x", "origin": [-4.9375, 8.17969, 9.86328]},
			"faces": {
				"north": {"uv": [6.875, 0.71875, 6.875, 0.71875], "rotation": 180, "texture": "#0"},
				"east": {"uv": [6.875, 0.71875, 6.875, 0.71875], "rotation": 180, "texture": "#0"},
				"south": {"uv": [6.875, 0.71875, 6.875, 0.71875], "rotation": 180, "texture": "#0"},
				"west": {"uv": [6.875, 0.71875, 6.875, 0.71875], "rotation": 180, "texture": "#0"}
			}
		},
		{
			"name": "octagon",
			"from": [7.5625, 8.10969, 9.83429],
			"to": [8.4375, 8.24969, 9.89228],
			"rotation": {"angle": 45, "axis": "x", "origin": [-4.9375, 8.17969, 9.86328]},
			"faces": {
				"east": {"uv": [6.875, 0.71875, 6.875, 0.71875], "rotation": 180, "texture": "#0"},
				"west": {"uv": [6.875, 0.71875, 6.875, 0.71875], "rotation": 180, "texture": "#0"},
				"up": {"uv": [6.875, 0.71875, 6.875, 0.71875], "rotation": 180, "texture": "#0"},
				"down": {"uv": [6.875, 0.71875, 6.875, 0.71875], "rotation": 180, "texture": "#0"}
			}
		},
		{
			"name": "octagon",
			"from": [7.5625, 8.10969, 9.83429],
			"to": [8.4375, 8.24969, 9.89228],
			"rotation": {"angle": 0, "axis": "x", "origin": [-4.9375, 8.17969, 9.86328]},
			"faces": {
				"east": {"uv": [6.875, 0.71875, 6.875, 0.71875], "rotation": 180, "texture": "#0"},
				"west": {"uv": [6.875, 0.71875, 6.875, 0.71875], "rotation": 180, "texture": "#0"},
				"up": {"uv": [6.875, 0.71875, 6.875, 0.71875], "rotation": 180, "texture": "#0"},
				"down": {"uv": [6.875, 0.71875, 6.875, 0.71875], "rotation": 180, "texture": "#0"}
			}
		},
		{
			"name": "octagon",
			"from": [7.59375, 7.78073, 7.83641],
			"to": [8.40625, 7.86771, 8.04641],
			"rotation": {"angle": 45, "axis": "x", "origin": [-4.96875, 7.82422, 7.94141]},
			"faces": {
				"north": {"uv": [6.875, 0.71875, 6.875, 0.71875], "rotation": 180, "texture": "#0"},
				"east": {"uv": [6.875, 0.71875, 6.875, 0.71875], "rotation": 180, "texture": "#0"},
				"south": {"uv": [6.875, 0.71875, 6.875, 0.71875], "rotation": 180, "texture": "#0"},
				"west": {"uv": [6.875, 0.71875, 6.875, 0.71875], "rotation": 180, "texture": "#0"}
			}
		},
		{
			"name": "octagon",
			"from": [7.59375, 7.78073, 7.83641],
			"to": [8.40625, 7.86771, 8.04641],
			"rotation": {"angle": 0, "axis": "x", "origin": [-4.96875, 7.82422, 7.94141]},
			"faces": {
				"north": {"uv": [6.875, 0.71875, 6.875, 0.71875], "rotation": 180, "texture": "#0"},
				"east": {"uv": [6.875, 0.71875, 6.875, 0.71875], "rotation": 180, "texture": "#0"},
				"south": {"uv": [6.875, 0.71875, 6.875, 0.71875], "rotation": 180, "texture": "#0"},
				"west": {"uv": [6.875, 0.71875, 6.875, 0.71875], "rotation": 180, "texture": "#0"}
			}
		},
		{
			"name": "octagon",
			"from": [7.59375, 7.71922, 7.89791],
			"to": [8.40625, 7.92922, 7.9849],
			"rotation": {"angle": 45, "axis": "x", "origin": [-4.96875, 7.82422, 7.94141]},
			"faces": {
				"east": {"uv": [6.875, 0.71875, 6.875, 0.71875], "rotation": 180, "texture": "#0"},
				"west": {"uv": [6.875, 0.71875, 6.875, 0.71875], "rotation": 180, "texture": "#0"},
				"up": {"uv": [6.875, 0.71875, 6.875, 0.71875], "rotation": 180, "texture": "#0"},
				"down": {"uv": [6.875, 0.71875, 6.875, 0.71875], "rotation": 180, "texture": "#0"}
			}
		},
		{
			"name": "octagon",
			"from": [7.59375, 7.71922, 7.89791],
			"to": [8.40625, 7.92922, 7.9849],
			"rotation": {"angle": 0, "axis": "x", "origin": [-4.96875, 7.82422, 7.94141]},
			"faces": {
				"east": {"uv": [6.875, 0.71875, 6.875, 0.71875], "rotation": 180, "texture": "#0"},
				"west": {"uv": [6.875, 0.71875, 6.875, 0.71875], "rotation": 180, "texture": "#0"},
				"up": {"uv": [6.875, 0.71875, 6.875, 0.71875], "rotation": 180, "texture": "#0"},
				"down": {"uv": [6.875, 0.71875, 6.875, 0.71875], "rotation": 180, "texture": "#0"}
			}
		},
		{
			"name": "octagon",
			"from": [7.61523, 7.89791, 6.50438],
			"to": [8.38477, 7.9849, 6.71438],
			"rotation": {"angle": 45, "axis": "x", "origin": [-4.99023, 7.94141, 6.60938]},
			"faces": {
				"north": {"uv": [6.875, 0.71875, 6.875, 0.71875], "rotation": 180, "texture": "#0"},
				"east": {"uv": [6.875, 0.71875, 6.875, 0.71875], "rotation": 180, "texture": "#0"},
				"south": {"uv": [6.875, 0.71875, 6.875, 0.71875], "rotation": 180, "texture": "#0"},
				"west": {"uv": [6.875, 0.71875, 6.875, 0.71875], "rotation": 180, "texture": "#0"}
			}
		},
		{
			"name": "octagon",
			"from": [7.61523, 7.89791, 6.50438],
			"to": [8.38477, 7.9849, 6.71438],
			"rotation": {"angle": 0, "axis": "x", "origin": [-4.99023, 7.94141, 6.60938]},
			"faces": {
				"north": {"uv": [6.875, 0.71875, 6.875, 0.71875], "rotation": 180, "texture": "#0"},
				"east": {"uv": [6.875, 0.71875, 6.875, 0.71875], "rotation": 180, "texture": "#0"},
				"south": {"uv": [6.875, 0.71875, 6.875, 0.71875], "rotation": 180, "texture": "#0"},
				"west": {"uv": [6.875, 0.71875, 6.875, 0.71875], "rotation": 180, "texture": "#0"}
			}
		},
		{
			"name": "octagon",
			"from": [7.61523, 7.83641, 6.56588],
			"to": [8.38477, 8.04641, 6.65287],
			"rotation": {"angle": 45, "axis": "x", "origin": [-4.99023, 7.94141, 6.60938]},
			"faces": {
				"east": {"uv": [6.875, 0.71875, 6.875, 0.71875], "rotation": 180, "texture": "#0"},
				"west": {"uv": [6.875, 0.71875, 6.875, 0.71875], "rotation": 180, "texture": "#0"},
				"up": {"uv": [6.875, 0.71875, 6.875, 0.71875], "rotation": 180, "texture": "#0"},
				"down": {"uv": [6.875, 0.71875, 6.875, 0.71875], "rotation": 180, "texture": "#0"}
			}
		},
		{
			"name": "octagon",
			"from": [7.61523, 7.83641, 6.56588],
			"to": [8.38477, 8.04641, 6.65287],
			"rotation": {"angle": 0, "axis": "x", "origin": [-4.99023, 7.94141, 6.60938]},
			"faces": {
				"east": {"uv": [6.875, 0.71875, 6.875, 0.71875], "rotation": 180, "texture": "#0"},
				"west": {"uv": [6.875, 0.71875, 6.875, 0.71875], "rotation": 180, "texture": "#0"},
				"up": {"uv": [6.875, 0.71875, 6.875, 0.71875], "rotation": 180, "texture": "#0"},
				"down": {"uv": [6.875, 0.71875, 6.875, 0.71875], "rotation": 180, "texture": "#0"}
			}
		}
	],
	"display": {
		"thirdperson_righthand": {
			"rotation": [70, 0, 0],
			"translation": [-0.75, 1.25, 3.25]
		},
		"thirdperson_lefthand": {
			"rotation": [70, 0, 0],
			"translation": [-0.75, 1.25, 3.25]
		},
		"firstperson_righthand": {
			"rotation": [-3, -2, 0],
			"translation": [-5.25, 4.75, 4.25],
			"scale": [1.5, 1.4, 0.9]
		},
		"firstperson_lefthand": {
			"rotation": [-3, -2, 0],
			"translation": [-5.25, 4.75, 4.25],
			"scale": [1.5, 1.4, 0.9]
		},
		"ground": {
			"rotation": [0, 0, -90]
		},
		"gui": {
			"rotation": [0, -90, 0],
			"translation": [-0.5, 1.25, 0],
			"scale": [1.5, 1.5, 1.5]
		},
		"fixed": {
			"rotation": [0, -90, 0],
			"translation": [-0.25, 1.25, -0.5],
			"scale": [1.5, 1.5, 1.5]
		}
	},
	"groups": [
		{
			"name": "hexadecagon",
			"origin": [8, 8, 8],
			"color": 0,
			"children": [0, 1, 2, 3, 4, 5, 6, 7, 8, 9, 10, 11, 12, 13, 14, 15]
		},
		{
			"name": "hexadecagon",
			"origin": [8, 8, 8],
			"color": 0,
			"children": [16, 17, 18, 19, 20, 21, 22, 23]
		},
		{
			"name": "hexadecagon",
			"origin": [8, 8, 8],
			"color": 0,
			"children": [24, 25, 26, 27, 28, 29, 30, 31, 32, 33, 34, 35, 36, 37, 38, 39, 40, 41, 42, 43]
		},
		{
			"name": "grip",
			"origin": [8, 8, 8],
			"color": 0,
			"children": [44, 45, 46, 47, 48, 49, 50, 51, 52, 53, 54, 55, 56, 57, 58, 59, 60, 61, 62, 63, 64, 65, 66, 67, 68, 69, 70, 71, 72, 73, 74, 75, 76, 77, 78, 79, 80, 81, 82, 83, 84, 85, 86, 87, 88, 89, 90, 91, 92, 93, 94, 95, 96, 97]
		},
		{
			"name": "octagon",
			"origin": [3.0625, 8, 8],
			"color": 0,
			"children": [98, 99, 100, 101]
		},
		{
			"name": "octagon",
			"origin": [3.0625, 8, 8],
			"color": 0,
			"children": [102, 103, 104, 105]
		},
		{
			"name": "octagon",
			"origin": [3.03125, 8, 8],
			"color": 0,
			"children": [106, 107, 108, 109]
		},
		{
			"name": "octagon",
			"origin": [3.00977, 8, 8],
			"color": 0,
			"children": [110, 111, 112, 113]
		}
	]
}