{
	"credit": "Made with Blockbench",
	"textures": {
		"0": "ava:item/gun_textures/palette_silver",
		"1": "ava:item/gun_textures/palette_black",
		"particle": "ava:item/gun_textures/palette_silver"
	},
	"elements": [
		{
			"name": "hexadecagon",
			"from": [7.95059, 8.5516, 4],
			"to": [8.04941, 8.66752, 9.5],
			"rotation": {"angle": -45, "axis": "z", "origin": [8, 8.8, 4.3]},
			"faces": {
				"north": {"uv": [0.625, 0.4375, 0.625, 0.4375], "texture": "#0"},
				"south": {"uv": [0.625, 0.4375, 0.625, 0.4375], "texture": "#0"},
				"up": {"uv": [0.625, 0.4375, 0.625, 0.4375], "texture": "#0"},
				"down": {"uv": [0.625, 0.4375, 0.625, 0.4375], "texture": "#0"}
			}
		},
		{
			"name": "hexadecagon",
			"from": [7.95059, 8.5516, 4],
			"to": [8.04941, 8.66752, 9.5],
			"rotation": {"angle": -22.5, "axis": "z", "origin": [8, 8.8, 4.3]},
			"faces": {
				"north": {"uv": [0.625, 0.4375, 0.625, 0.4375], "texture": "#0"},
				"south": {"uv": [0.625, 0.4375, 0.625, 0.4375], "texture": "#0"},
				"up": {"uv": [0.625, 0.4375, 0.625, 0.4375], "texture": "#0"},
				"down": {"uv": [0.625, 0.4375, 0.625, 0.4375], "texture": "#0"}
			}
		},
		{
			"name": "hexadecagon",
			"from": [7.95059, 8.5516, 4],
			"to": [8.04941, 8.66752, 9.5],
			"rotation": {"angle": 0, "axis": "y", "origin": [8, 8.8, 4.3]},
			"faces": {
				"north": {"uv": [0.625, 0.4375, 0.625, 0.4375], "texture": "#0"},
				"south": {"uv": [0.625, 0.4375, 0.625, 0.4375], "texture": "#0"},
				"up": {"uv": [0.625, 0.4375, 0.625, 0.4375], "texture": "#0"},
				"down": {"uv": [0.625, 0.4375, 0.625, 0.4375], "texture": "#0"}
			}
		},
		{
			"name": "hexadecagon",
			"from": [7.95059, 8.5516, 4],
			"to": [8.04941, 8.66752, 9.5],
			"rotation": {"angle": 22.5, "axis": "z", "origin": [8, 8.8, 4.3]},
			"faces": {
				"north": {"uv": [0.625, 0.4375, 0.625, 0.4375], "texture": "#0"},
				"south": {"uv": [0.625, 0.4375, 0.625, 0.4375], "texture": "#0"},
				"up": {"uv": [0.625, 0.4375, 0.625, 0.4375], "texture": "#0"},
				"down": {"uv": [0.625, 0.4375, 0.625, 0.4375], "texture": "#0"}
			}
		},
		{
			"name": "hexadecagon",
			"from": [7.95059, 8.5516, 4],
			"to": [8.04941, 8.66752, 9.5],
			"rotation": {"angle": 45, "axis": "z", "origin": [8, 8.8, 4.3]},
			"faces": {
				"north": {"uv": [0.625, 0.4375, 0.625, 0.4375], "texture": "#0"},
				"south": {"uv": [0.625, 0.4375, 0.625, 0.4375], "texture": "#0"},
				"up": {"uv": [0.625, 0.4375, 0.625, 0.4375], "texture": "#0"},
				"down": {"uv": [0.625, 0.4375, 0.625, 0.4375], "texture": "#0"}
			}
		},
		{
			"name": "hexadecagon",
			"from": [7.95059, 8.93248, 4],
			"to": [8.04941, 9.0484, 9.5],
			"rotation": {"angle": -45, "axis": "z", "origin": [8, 8.8, 4.3]},
			"faces": {
				"north": {"uv": [0.625, 0.4375, 0.625, 0.4375], "texture": "#0"},
				"south": {"uv": [0.625, 0.4375, 0.625, 0.4375], "texture": "#0"},
				"up": {"uv": [0.625, 0.4375, 0.625, 0.4375], "texture": "#0"},
				"down": {"uv": [0.625, 0.4375, 0.625, 0.4375], "texture": "#0"}
			}
		},
		{
			"name": "hexadecagon",
			"from": [7.95059, 8.93248, 4],
			"to": [8.04941, 9.0484, 9.5],
			"rotation": {"angle": -22.5, "axis": "z", "origin": [8, 8.8, 4.3]},
			"faces": {
				"north": {"uv": [0.625, 0.4375, 0.625, 0.4375], "texture": "#0"},
				"south": {"uv": [0.625, 0.4375, 0.625, 0.4375], "texture": "#0"},
				"up": {"uv": [0.625, 0.4375, 0.625, 0.4375], "texture": "#0"},
				"down": {"uv": [0.625, 0.4375, 0.625, 0.4375], "texture": "#0"}
			}
		},
		{
			"name": "hexadecagon",
			"from": [7.95059, 8.93248, 4],
			"to": [8.04941, 9.0484, 9.5],
			"rotation": {"angle": 0, "axis": "y", "origin": [8, 8.8, 4.3]},
			"faces": {
				"north": {"uv": [0.625, 0.4375, 0.625, 0.4375], "texture": "#0"},
				"south": {"uv": [0.625, 0.4375, 0.625, 0.4375], "texture": "#0"},
				"up": {"uv": [0.625, 0.4375, 0.625, 0.4375], "texture": "#0"},
				"down": {"uv": [0.625, 0.4375, 0.625, 0.4375], "texture": "#0"}
			}
		},
		{
			"name": "hexadecagon",
			"from": [7.95059, 8.93248, 4],
			"to": [8.04941, 9.0484, 9.5],
			"rotation": {"angle": 22.5, "axis": "z", "origin": [8, 8.8, 4.3]},
			"faces": {
				"north": {"uv": [0.625, 0.4375, 0.625, 0.4375], "texture": "#0"},
				"south": {"uv": [0.625, 0.4375, 0.625, 0.4375], "texture": "#0"},
				"up": {"uv": [0.625, 0.4375, 0.625, 0.4375], "texture": "#0"},
				"down": {"uv": [0.625, 0.4375, 0.625, 0.4375], "texture": "#0"}
			}
		},
		{
			"name": "hexadecagon",
			"from": [7.95059, 8.93248, 4],
			"to": [8.04941, 9.0484, 9.5],
			"rotation": {"angle": 45, "axis": "z", "origin": [8, 8.8, 4.3]},
			"faces": {
				"north": {"uv": [0.625, 0.4375, 0.625, 0.4375], "texture": "#0"},
				"south": {"uv": [0.625, 0.4375, 0.625, 0.4375], "texture": "#0"},
				"up": {"uv": [0.625, 0.4375, 0.625, 0.4375], "texture": "#0"},
				"down": {"uv": [0.625, 0.4375, 0.625, 0.4375], "texture": "#0"}
			}
		},
		{
			"name": "hexadecagon",
			"from": [7.7516, 8.75059, 4],
			"to": [7.86752, 8.84941, 9.5],
			"rotation": {"angle": -22.5, "axis": "z", "origin": [8, 8.8, 4.3]},
			"faces": {
				"north": {"uv": [0.625, 0.4375, 0.625, 0.4375], "texture": "#0"},
				"east": {"uv": [0.625, 0.4375, 0.625, 0.4375], "texture": "#0"},
				"south": {"uv": [0.625, 0.4375, 0.625, 0.4375], "texture": "#0"},
				"west": {"uv": [0.625, 0.4375, 0.625, 0.4375], "texture": "#0"}
			}
		},
		{
			"name": "hexadecagon",
			"from": [7.7516, 8.75059, 4],
			"to": [7.86752, 8.84941, 9.5],
			"rotation": {"angle": 0, "axis": "y", "origin": [8, 8.8, 4.3]},
			"faces": {
				"north": {"uv": [0.625, 0.4375, 0.625, 0.4375], "texture": "#0"},
				"east": {"uv": [0.625, 0.4375, 0.625, 0.4375], "texture": "#0"},
				"south": {"uv": [0.625, 0.4375, 0.625, 0.4375], "texture": "#0"},
				"west": {"uv": [0.625, 0.4375, 0.625, 0.4375], "texture": "#0"}
			}
		},
		{
			"name": "hexadecagon",
			"from": [7.7516, 8.75059, 4],
			"to": [7.86752, 8.84941, 9.5],
			"rotation": {"angle": 22.5, "axis": "z", "origin": [8, 8.8, 4.3]},
			"faces": {
				"north": {"uv": [0.625, 0.4375, 0.625, 0.4375], "texture": "#0"},
				"east": {"uv": [0.625, 0.4375, 0.625, 0.4375], "texture": "#0"},
				"south": {"uv": [0.625, 0.4375, 0.625, 0.4375], "texture": "#0"},
				"west": {"uv": [0.625, 0.4375, 0.625, 0.4375], "texture": "#0"}
			}
		},
		{
			"name": "hexadecagon",
			"from": [8.13248, 8.75059, 4],
			"to": [8.2484, 8.84941, 9.5],
			"rotation": {"angle": -22.5, "axis": "z", "origin": [8, 8.8, 4.3]},
			"faces": {
				"north": {"uv": [0.625, 0.4375, 0.625, 0.4375], "texture": "#0"},
				"east": {"uv": [0.625, 0.4375, 0.625, 0.4375], "texture": "#0"},
				"south": {"uv": [0.625, 0.4375, 0.625, 0.4375], "texture": "#0"},
				"west": {"uv": [0.625, 0.4375, 0.625, 0.4375], "texture": "#0"}
			}
		},
		{
			"name": "hexadecagon",
			"from": [8.13248, 8.75059, 4],
			"to": [8.2484, 8.84941, 9.5],
			"rotation": {"angle": 0, "axis": "y", "origin": [8, 8.8, 4.3]},
			"faces": {
				"north": {"uv": [0.625, 0.4375, 0.625, 0.4375], "texture": "#0"},
				"east": {"uv": [0.625, 0.4375, 0.625, 0.4375], "texture": "#0"},
				"south": {"uv": [0.625, 0.4375, 0.625, 0.4375], "texture": "#0"},
				"west": {"uv": [0.625, 0.4375, 0.625, 0.4375], "texture": "#0"}
			}
		},
		{
			"name": "hexadecagon",
			"from": [8.13248, 8.75059, 4],
			"to": [8.2484, 8.84941, 9.5],
			"rotation": {"angle": 22.5, "axis": "z", "origin": [8, 8.8, 4.3]},
			"faces": {
				"north": {"uv": [0.625, 0.4375, 0.625, 0.4375], "texture": "#0"},
				"east": {"uv": [0.625, 0.4375, 0.625, 0.4375], "texture": "#0"},
				"south": {"uv": [0.625, 0.4375, 0.625, 0.4375], "texture": "#0"},
				"west": {"uv": [0.625, 0.4375, 0.625, 0.4375], "texture": "#0"}
			}
		},
		{
			"name": "hexadecagon",
			"from": [7.97292, 8.03886, 4],
			"to": [8.02708, 8.1734, 10.2],
			"rotation": {"angle": -45, "axis": "z", "origin": [8, 8.175, 4.425]},
			"faces": {
				"north": {"uv": [0, 0, 2, 2], "texture": "#0"},
				"south": {"uv": [0, 0, 2, 2], "texture": "#0"},
				"up": {"uv": [0, 0, 2, 2], "texture": "#0"},
				"down": {"uv": [0, 0, 2, 2], "texture": "#0"}
			}
		},
		{
			"name": "hexadecagon",
			"from": [7.97292, 8.03886, 4],
			"to": [8.02708, 8.1734, 10.2],
			"rotation": {"angle": -22.5, "axis": "z", "origin": [8, 8.175, 4.425]},
			"faces": {
				"north": {"uv": [0, 0, 2, 2], "texture": "#0"},
				"south": {"uv": [0, 0, 2, 2], "texture": "#0"},
				"up": {"uv": [0, 0, 2, 2], "texture": "#0"},
				"down": {"uv": [0, 0, 2, 2], "texture": "#0"}
			}
		},
		{
			"name": "hexadecagon",
			"from": [7.97292, 8.03886, 4],
			"to": [8.02708, 8.1734, 10.2],
			"rotation": {"angle": 0, "axis": "z", "origin": [8, 8.175, 4.425]},
			"faces": {
				"north": {"uv": [0, 0, 2, 2], "texture": "#0"},
				"up": {"uv": [0, 0, 2, 2], "texture": "#0"},
				"down": {"uv": [0, 0, 2, 2], "texture": "#0"}
			}
		},
		{
			"name": "hexadecagon",
			"from": [7.97292, 8.03886, 4],
			"to": [8.02708, 8.1734, 10.2],
			"rotation": {"angle": 22.5, "axis": "z", "origin": [8, 8.175, 4.425]},
			"faces": {
				"north": {"uv": [0, 0, 2, 2], "texture": "#0"},
				"south": {"uv": [0, 0, 2, 2], "texture": "#0"},
				"up": {"uv": [0, 0, 2, 2], "texture": "#0"},
				"down": {"uv": [0, 0, 2, 2], "texture": "#0"}
			}
		},
		{
			"name": "hexadecagon",
			"from": [7.97292, 8.03886, 4],
			"to": [8.02708, 8.1734, 10.2],
			"rotation": {"angle": 45, "axis": "z", "origin": [8, 8.175, 4.425]},
			"faces": {
				"north": {"uv": [0, 0, 2, 2], "texture": "#0"},
				"south": {"uv": [0, 0, 2, 2], "texture": "#0"},
				"up": {"uv": [0, 0, 2, 2], "texture": "#0"},
				"down": {"uv": [0, 0, 2, 2], "texture": "#0"}
			}
		},
		{
			"name": "hexadecagon",
			"from": [7.97292, 8.1766, 4],
			"to": [8.02708, 8.31114, 10.2],
			"rotation": {"angle": -45, "axis": "z", "origin": [8, 8.175, 4.425]},
			"faces": {
				"north": {"uv": [0, 0, 2, 2], "texture": "#0"},
				"south": {"uv": [0, 0, 2, 2], "texture": "#0"},
				"up": {"uv": [0, 0, 2, 2], "texture": "#0"},
				"down": {"uv": [0, 0, 2, 2], "texture": "#0"}
			}
		},
		{
			"name": "hexadecagon",
			"from": [7.97292, 8.1766, 4],
			"to": [8.02708, 8.31114, 10.2],
			"rotation": {"angle": -22.5, "axis": "z", "origin": [8, 8.175, 4.425]},
			"faces": {
				"north": {"uv": [0, 0, 2, 2], "texture": "#0"},
				"south": {"uv": [0, 0, 2, 2], "texture": "#0"},
				"up": {"uv": [0, 0, 2, 2], "texture": "#0"},
				"down": {"uv": [0, 0, 2, 2], "texture": "#0"}
			}
		},
		{
			"name": "hexadecagon",
			"from": [7.97292, 8.1766, 4],
			"to": [8.02708, 8.31114, 10.2],
			"rotation": {"angle": 0, "axis": "z", "origin": [8, 8.175, 4.425]},
			"faces": {
				"north": {"uv": [0, 0, 2, 2], "texture": "#0"},
				"up": {"uv": [0, 0, 2, 2], "texture": "#0"},
				"down": {"uv": [0, 0, 2, 2], "texture": "#0"}
			}
		},
		{
			"name": "hexadecagon",
			"from": [7.97292, 8.1766, 4],
			"to": [8.02708, 8.31114, 10.2],
			"rotation": {"angle": 22.5, "axis": "z", "origin": [8, 8.175, 4.425]},
			"faces": {
				"north": {"uv": [0, 0, 2, 2], "texture": "#0"},
				"south": {"uv": [0, 0, 2, 2], "texture": "#0"},
				"up": {"uv": [0, 0, 2, 2], "texture": "#0"},
				"down": {"uv": [0, 0, 2, 2], "texture": "#0"}
			}
		},
		{
			"name": "hexadecagon",
			"from": [7.97292, 8.1766, 4],
			"to": [8.02708, 8.31114, 10.2],
			"rotation": {"angle": 45, "axis": "z", "origin": [8, 8.175, 4.425]},
			"faces": {
				"north": {"uv": [0, 0, 2, 2], "texture": "#0"},
				"south": {"uv": [0, 0, 2, 2], "texture": "#0"},
				"up": {"uv": [0, 0, 2, 2], "texture": "#0"},
				"down": {"uv": [0, 0, 2, 2], "texture": "#0"}
			}
		},
		{
			"name": "hexadecagon",
			"from": [7.86386, 8.14792, 4],
			"to": [7.9984, 8.20208, 10.2],
			"rotation": {"angle": -22.5, "axis": "z", "origin": [8, 8.175, 4.425]},
			"faces": {
				"north": {"uv": [0, 0, 2, 2], "texture": "#0"},
				"east": {"uv": [0, 0, 2, 2], "texture": "#0"},
				"south": {"uv": [0, 0, 2, 2], "texture": "#0"},
				"west": {"uv": [0, 0, 2, 2], "texture": "#0"}
			}
		},
		{
			"name": "hexadecagon",
			"from": [7.86386, 8.14792, 4],
			"to": [7.9984, 8.20208, 10.2],
			"rotation": {"angle": 0, "axis": "z", "origin": [8, 8.175, 4.425]},
			"faces": {
				"north": {"uv": [0, 0, 2, 2], "texture": "#0"},
				"east": {"uv": [0, 0, 2, 2], "texture": "#0"},
				"west": {"uv": [0, 0, 2, 2], "texture": "#0"}
			}
		},
		{
			"name": "hexadecagon",
			"from": [7.86386, 8.14792, 4],
			"to": [7.9984, 8.20208, 10.2],
			"rotation": {"angle": 22.5, "axis": "z", "origin": [8, 8.175, 4.425]},
			"faces": {
				"north": {"uv": [0, 0, 2, 2], "texture": "#0"},
				"east": {"uv": [0, 0, 2, 2], "texture": "#0"},
				"south": {"uv": [0, 0, 2, 2], "texture": "#0"},
				"west": {"uv": [0, 0, 2, 2], "texture": "#0"}
			}
		},
		{
			"name": "hexadecagon",
			"from": [8.0016, 8.14792, 4],
			"to": [8.13614, 8.20208, 10.2],
			"rotation": {"angle": -22.5, "axis": "z", "origin": [8, 8.175, 4.425]},
			"faces": {
				"north": {"uv": [0, 0, 2, 2], "texture": "#0"},
				"east": {"uv": [0, 0, 2, 2], "texture": "#0"},
				"south": {"uv": [0, 0, 2, 2], "texture": "#0"},
				"west": {"uv": [0, 0, 2, 2], "texture": "#0"}
			}
		},
		{
			"name": "hexadecagon",
			"from": [8.0016, 8.14792, 4],
			"to": [8.13614, 8.20208, 10.2],
			"rotation": {"angle": 0, "axis": "z", "origin": [8, 8.175, 4.425]},
			"faces": {
				"north": {"uv": [0, 0, 2, 2], "texture": "#0"},
				"east": {"uv": [0, 0, 2, 2], "texture": "#0"},
				"west": {"uv": [0, 0, 2, 2], "texture": "#0"}
			}
		},
		{
			"name": "hexadecagon",
			"from": [8.0016, 8.14792, 4],
			"to": [8.13614, 8.20208, 10.2],
			"rotation": {"angle": 22.5, "axis": "z", "origin": [8, 8.175, 4.425]},
			"faces": {
				"north": {"uv": [0, 0, 2, 2], "texture": "#0"},
				"east": {"uv": [0, 0, 2, 2], "texture": "#0"},
				"south": {"uv": [0, 0, 2, 2], "texture": "#0"},
				"west": {"uv": [0, 0, 2, 2], "texture": "#0"}
			}
		},
		{
			"name": "hexadecagon",
			"from": [7.95667, 7.88218, 4.05],
			"to": [8.04333, 8.09744, 10.2],
			"rotation": {"angle": -45, "axis": "z", "origin": [8, 8.1, 4.425]},
			"faces": {
				"north": {"uv": [2.71875, 0.75, 2.71875, 0.75], "texture": "#0"},
				"south": {"uv": [2.71875, 0.75, 2.71875, 0.75], "texture": "#0"},
				"down": {"uv": [2.71875, 0.75, 2.71875, 0.75], "texture": "#0"}
			}
		},
		{
			"name": "hexadecagon",
			"from": [7.95667, 7.88218, 4.05],
			"to": [8.04333, 8.09744, 10.2],
			"rotation": {"angle": -22.5, "axis": "z", "origin": [8, 8.1, 4.425]},
			"faces": {
				"north": {"uv": [2.71875, 0.75, 2.71875, 0.75], "texture": "#0"},
				"south": {"uv": [2.71875, 0.75, 2.71875, 0.75], "texture": "#0"},
				"down": {"uv": [2.71875, 0.75, 2.71875, 0.75], "texture": "#0"}
			}
		},
		{
			"name": "hexadecagon",
			"from": [7.95667, 7.88218, 4.05],
			"to": [8.04333, 8.09744, 10.2],
			"rotation": {"angle": 0, "axis": "z", "origin": [8, 8.1, 4.425]},
			"faces": {
				"north": {"uv": [2.71875, 0.75, 2.71875, 0.75], "texture": "#0"},
				"down": {"uv": [2.71875, 0.75, 2.71875, 0.75], "texture": "#0"}
			}
		},
		{
			"name": "hexadecagon",
			"from": [7.95667, 7.88218, 4.05],
			"to": [8.04333, 8.09744, 10.2],
			"rotation": {"angle": 22.5, "axis": "z", "origin": [8, 8.1, 4.425]},
			"faces": {
				"north": {"uv": [2.71875, 0.75, 2.71875, 0.75], "texture": "#0"},
				"south": {"uv": [2.71875, 0.75, 2.71875, 0.75], "texture": "#0"},
				"down": {"uv": [2.71875, 0.75, 2.71875, 0.75], "texture": "#0"}
			}
		},
		{
			"name": "hexadecagon",
			"from": [7.95667, 7.88218, 4.05],
			"to": [8.04333, 8.09744, 10.2],
			"rotation": {"angle": 45, "axis": "z", "origin": [8, 8.1, 4.425]},
			"faces": {
				"north": {"uv": [2.71875, 0.75, 2.71875, 0.75], "texture": "#0"},
				"south": {"uv": [2.71875, 0.75, 2.71875, 0.75], "texture": "#0"},
				"down": {"uv": [2.71875, 0.75, 2.71875, 0.75], "texture": "#0"}
			}
		},
		{
			"name": "hexadecagon",
			"from": [7.80667, 8.10256, 4.05],
			"to": [8.19333, 8.39282, 10.2],
			"rotation": {"angle": 0, "axis": "z", "origin": [8, 8.1, 4.425]},
			"faces": {
				"north": {"uv": [2.71875, 0.75, 2.71875, 0.75], "texture": "#0"},
				"east": {"uv": [2.71875, 0.75, 2.71875, 0.75], "texture": "#0"},
				"south": {"uv": [2.71875, 0.75, 2.71875, 0.75], "texture": "#0"},
				"west": {"uv": [2.71875, 0.75, 2.71875, 0.75], "texture": "#0"},
				"up": {"uv": [2.71875, 0.75, 2.71875, 0.75], "texture": "#0"}
			}
		},
		{
			"name": "hexadecagon",
			"from": [7.78218, 8.05667, 4.05],
			"to": [7.99744, 8.14333, 10.2],
			"rotation": {"angle": -22.5, "axis": "z", "origin": [8, 8.1, 4.425]},
			"faces": {
				"north": {"uv": [2.71875, 0.75, 2.71875, 0.75], "texture": "#0"},
				"south": {"uv": [2.71875, 0.75, 2.71875, 0.75], "texture": "#0"},
				"west": {"uv": [2.71875, 0.75, 2.71875, 0.75], "texture": "#0"}
			}
		},
		{
			"name": "hexadecagon",
			"from": [7.78218, 8.05667, 4.05],
			"to": [7.99744, 8.14333, 10.2],
			"rotation": {"angle": 0, "axis": "z", "origin": [8, 8.1, 4.425]},
			"faces": {
				"north": {"uv": [2.71875, 0.75, 2.71875, 0.75], "texture": "#0"},
				"west": {"uv": [2.71875, 0.75, 2.71875, 0.75], "texture": "#0"}
			}
		},
		{
			"name": "hexadecagon",
			"from": [7.78218, 8.05667, 4.05],
			"to": [7.99744, 8.14333, 10.2],
			"rotation": {"angle": 22.5, "axis": "z", "origin": [8, 8.1, 4.425]},
			"faces": {
				"north": {"uv": [2.71875, 0.75, 2.71875, 0.75], "texture": "#0"},
				"south": {"uv": [2.71875, 0.75, 2.71875, 0.75], "texture": "#0"},
				"west": {"uv": [2.71875, 0.75, 2.71875, 0.75], "texture": "#0"}
			}
		},
		{
			"name": "hexadecagon",
			"from": [8.00256, 8.05667, 4.05],
			"to": [8.21782, 8.14333, 10.2],
			"rotation": {"angle": -22.5, "axis": "z", "origin": [8, 8.1, 4.425]},
			"faces": {
				"north": {"uv": [2.71875, 0.75, 2.71875, 0.75], "texture": "#0"},
				"east": {"uv": [2.71875, 0.75, 2.71875, 0.75], "texture": "#0"},
				"south": {"uv": [2.71875, 0.75, 2.71875, 0.75], "texture": "#0"}
			}
		},
		{
			"name": "hexadecagon",
			"from": [8.00256, 8.05667, 4.05],
			"to": [8.21782, 8.14333, 10.2],
			"rotation": {"angle": 0, "axis": "z", "origin": [8, 8.1, 4.425]},
			"faces": {
				"north": {"uv": [2.71875, 0.75, 2.71875, 0.75], "texture": "#0"},
				"east": {"uv": [2.71875, 0.75, 2.71875, 0.75], "texture": "#0"}
			}
		},
		{
			"name": "hexadecagon",
			"from": [8.00256, 8.05667, 4.05],
			"to": [8.21782, 8.14333, 10.2],
			"rotation": {"angle": 22.5, "axis": "z", "origin": [8, 8.1, 4.425]},
			"faces": {
				"north": {"uv": [2.71875, 0.75, 2.71875, 0.75], "texture": "#0"},
				"east": {"uv": [2.71875, 0.75, 2.71875, 0.75], "texture": "#0"},
				"south": {"uv": [2.71875, 0.75, 2.71875, 0.75], "texture": "#0"}
			}
		},
		{
			"name": "hexadecagon",
			"from": [7.73218, 8.10667, 5.55],
			"to": [8.27244, 8.21833, 7.65],
			"rotation": {"angle": 0, "axis": "z", "origin": [8, 8.175, 4.425]},
			"faces": {
				"north": {"uv": [0.46875, 0.84375, 0.46875, 0.84375], "texture": "#0"},
				"east": {"uv": [0.46875, 0.84375, 0.46875, 0.84375], "texture": "#0"},
				"west": {"uv": [0.46875, 0.84375, 0.46875, 0.84375], "texture": "#0"},
				"up": {"uv": [0.46875, 0.84375, 0.46875, 0.84375], "texture": "#0"}
			}
		},
		{
			"name": "hexadecagon",
			"from": [7.73218, 7.75667, 7.55],
			"to": [8.27244, 8.21833, 7.825],
			"rotation": {"angle": 0, "axis": "z", "origin": [8, 8.175, 6.425]},
			"faces": {
				"north": {"uv": [0.46875, 0.84375, 0.46875, 0.84375], "texture": "#0"},
				"east": {"uv": [0.46875, 0.84375, 0.46875, 0.84375], "texture": "#0"},
				"south": {"uv": [0.46875, 0.84375, 0.46875, 0.84375], "texture": "#0"},
				"west": {"uv": [0.46875, 0.84375, 0.46875, 0.84375], "texture": "#0"},
				"up": {"uv": [0.46875, 0.84375, 0.46875, 0.84375], "texture": "#0"},
				"down": {"uv": [0.46875, 0.84375, 0.46875, 0.84375], "texture": "#0"}
			}
		},
		{
			"name": "hexadecagon",
			"from": [7.83218, 7.10667, 7.075],
			"to": [8.19744, 7.79333, 7.2],
			"rotation": {"angle": 0, "axis": "z", "origin": [8, 7.725, 6.05]},
			"faces": {
				"north": {"uv": [0.46875, 0.84375, 0.46875, 0.84375], "texture": "#0"},
				"east": {"uv": [0.46875, 0.84375, 0.46875, 0.84375], "texture": "#0"},
				"south": {"uv": [0.46875, 0.84375, 0.46875, 0.84375], "texture": "#0"},
				"west": {"uv": [0.46875, 0.84375, 0.46875, 0.84375], "texture": "#0"},
				"down": {"uv": [0.46875, 0.84375, 0.46875, 0.84375], "texture": "#0"}
			}
		},
		{
			"name": "hexadecagon",
			"from": [7.83218, 6.93167, 7.3],
			"to": [8.19744, 7.26833, 7.425],
			"rotation": {"angle": -45, "axis": "x", "origin": [8.01481, 6.925, 7.3625]},
			"faces": {
				"north": {"uv": [0.46875, 0.84375, 0.46875, 0.84375], "texture": "#0"},
				"east": {"uv": [0.46875, 0.84375, 0.46875, 0.84375], "texture": "#0"},
				"south": {"uv": [0.46875, 0.84375, 0.46875, 0.84375], "texture": "#0"},
				"west": {"uv": [0.46875, 0.84375, 0.46875, 0.84375], "texture": "#0"},
				"down": {"uv": [0.46875, 0.84375, 0.46875, 0.84375], "texture": "#0"}
			}
		},
		{
			"name": "hexadecagon",
			"from": [7.83218, 6.88624, 7.32043],
			"to": [8.19744, 7.01124, 8.73208],
			"rotation": {"angle": 0, "axis": "x", "origin": [8.01481, 6.94874, 7.48876]},
			"faces": {
				"north": {"uv": [0.46875, 0.84375, 0.46875, 0.84375], "texture": "#0"},
				"east": {"uv": [0.46875, 0.84375, 0.46875, 0.84375], "texture": "#0"},
				"west": {"uv": [0.46875, 0.84375, 0.46875, 0.84375], "texture": "#0"},
				"up": {"uv": [0.46875, 0.84375, 0.46875, 0.84375], "texture": "#0"},
				"down": {"uv": [0.46875, 0.84375, 0.46875, 0.84375], "texture": "#0"}
			}
		},
		{
			"name": "hexadecagon",
			"from": [7.73218, 7.85667, 7.825],
			"to": [8.27244, 8.21833, 10.325],
			"rotation": {"angle": 0, "axis": "z", "origin": [8, 8.175, 6.7]},
			"faces": {
				"east": {"uv": [0.46875, 0.84375, 0.46875, 0.84375], "texture": "#0"},
				"south": {"uv": [0.46875, 0.84375, 0.46875, 0.84375], "texture": "#0"},
				"west": {"uv": [0.46875, 0.84375, 0.46875, 0.84375], "texture": "#0"},
				"up": {"uv": [0.46875, 0.84375, 0.46875, 0.84375], "texture": "#0"},
				"down": {"uv": [0.46875, 0.84375, 0.46875, 0.84375], "texture": "#0"}
			}
		},
		{
			"name": "hexadecagon",
			"from": [7.68218, 8.05667, 5.5],
			"to": [8.32244, 8.11833, 7.45],
			"rotation": {"angle": 0, "axis": "z", "origin": [8, 8.075, 4.425]},
			"faces": {
				"north": {"uv": [0.46875, 0.84375, 0.46875, 0.84375], "texture": "#0"},
				"east": {"uv": [0.46875, 0.84375, 0.46875, 0.84375], "texture": "#0"},
				"west": {"uv": [0.46875, 0.84375, 0.46875, 0.84375], "texture": "#0"},
				"up": {"uv": [0.46875, 0.84375, 0.46875, 0.84375], "texture": "#0"},
				"down": {"uv": [0.46875, 0.84375, 0.46875, 0.84375], "texture": "#0"}
			}
		},
		{
			"name": "hexadecagon",
			"from": [7.68218, 7.85667, 5.475],
			"to": [8.32244, 7.96833, 7.425],
			"rotation": {"angle": 0, "axis": "z", "origin": [8, 7.925, 4.4]},
			"faces": {
				"north": {"uv": [0.46875, 0.84375, 0.46875, 0.84375], "texture": "#0"},
				"east": {"uv": [0.46875, 0.84375, 0.46875, 0.84375], "texture": "#0"},
				"west": {"uv": [0.46875, 0.84375, 0.46875, 0.84375], "texture": "#0"},
				"up": {"uv": [0.46875, 0.84375, 0.46875, 0.84375], "texture": "#0"},
				"down": {"uv": [0.46875, 0.84375, 0.46875, 0.84375], "texture": "#0"}
			}
		},
		{
			"name": "hexadecagon",
			"from": [7.73218, 7.78167, 5.475],
			"to": [8.27244, 7.86833, 7.825],
			"rotation": {"angle": 0, "axis": "z", "origin": [8, 7.825, 4.4]},
			"faces": {
				"north": {"uv": [0.46875, 0.84375, 0.46875, 0.84375], "texture": "#0"},
				"east": {"uv": [0.46875, 0.84375, 0.46875, 0.84375], "texture": "#0"},
				"west": {"uv": [0.46875, 0.84375, 0.46875, 0.84375], "texture": "#0"},
				"down": {"uv": [0.46875, 0.84375, 0.46875, 0.84375], "texture": "#0"}
			}
		},
		{
			"name": "hexadecagon",
			"from": [7.68218, 7.85667, 7.425],
			"to": [8.32244, 8.11833, 7.55],
			"rotation": {"angle": 0, "axis": "z", "origin": [8, 7.925, 6.35]},
			"faces": {
				"north": {"uv": [0.46875, 0.84375, 0.46875, 0.84375], "texture": "#0"},
				"east": {"uv": [0.46875, 0.84375, 0.46875, 0.84375], "texture": "#0"},
				"south": {"uv": [0.46875, 0.84375, 0.46875, 0.84375], "texture": "#0"},
				"west": {"uv": [0.46875, 0.84375, 0.46875, 0.84375], "texture": "#0"},
				"up": {"uv": [0.46875, 0.84375, 0.46875, 0.84375], "texture": "#0"},
				"down": {"uv": [0.46875, 0.84375, 0.46875, 0.84375], "texture": "#0"}
			}
		},
		{
			"name": "hexadecagon",
			"from": [7.73218, 5.40667, 9.95],
			"to": [8.27244, 8.61833, 11.4],
			"rotation": {"angle": -22.5, "axis": "x", "origin": [8.00231, 4.4875, 10.975]},
			"faces": {
				"north": {"uv": [0, 0, 2, 2], "texture": "#0"},
				"east": {"uv": [0, 0, 2, 2], "texture": "#0"},
				"south": {"uv": [0, 0, 2, 2], "texture": "#0"},
				"west": {"uv": [0, 0, 2, 2], "texture": "#0"},
				"up": {"uv": [0, 0, 2, 2], "texture": "#0"},
				"down": {"uv": [0, 0, 2, 2], "texture": "#0"}
			}
		},
		{
			"name": "hexadecagon",
			"from": [7.75718, 6.9651, 10.00846],
			"to": [8.24744, 7.70175, 10.58346],
			"rotation": {"angle": 45, "axis": "x", "origin": [8.00231, 7.54592, 10.73346]},
			"faces": {
				"north": {"uv": [4, 0, 6, 2], "texture": "#1"},
				"east": {"uv": [4, 0, 6, 2], "texture": "#1"},
				"south": {"uv": [4, 0, 6, 2], "texture": "#1"},
				"west": {"uv": [4, 0, 6, 2], "texture": "#1"},
				"up": {"uv": [4, 0, 6, 2], "texture": "#1"}
			}
		},
		{
			"name": "hexadecagon",
			"from": [7.78218, 5.40667, 9.8],
			"to": [8.22244, 8.61833, 9.975],
			"rotation": {"angle": -22.5, "axis": "x", "origin": [8.00231, 4.4875, 10.975]},
			"faces": {
				"north": {"uv": [0, 0, 2, 2], "texture": "#0"},
				"east": {"uv": [0, 0, 2, 2], "texture": "#0"},
				"west": {"uv": [0, 0, 2, 2], "texture": "#0"},
				"up": {"uv": [0, 0, 2, 2], "texture": "#0"},
				"down": {"uv": [0, 0, 2, 2], "texture": "#0"}
			}
		},
		{
			"name": "hexadecagon",
			"from": [7.60718, 5.40667, 10.05],
			"to": [8.39744, 8.31833, 11.25],
			"rotation": {"angle": -22.5, "axis": "x", "origin": [8.00231, 4.4875, 10.975]},
			"faces": {
				"north": {"uv": [4, 0, 6, 2], "texture": "#1"},
				"east": {"uv": [4, 0, 6, 2], "texture": "#1"},
				"south": {"uv": [4, 0, 6, 2], "texture": "#1"},
				"west": {"uv": [4, 0, 6, 2], "texture": "#1"},
				"up": {"uv": [4, 0, 6, 2], "texture": "#1"},
				"down": {"uv": [4, 0, 6, 2], "texture": "#1"}
			}
		},
		{
			"name": "hexadecagon",
			"from": [7.60718, 7.67652, 8.64087],
			"to": [8.39744, 8.13817, 9.86587],
			"rotation": {"angle": 0, "axis": "x", "origin": [8.00231, 9.13234, 9.26587]},
			"faces": {
				"north": {"uv": [4, 0, 6, 2], "texture": "#1"},
				"east": {"uv": [4, 0, 6, 2], "texture": "#1"},
				"south": {"uv": [4, 0, 6, 2], "texture": "#1"},
				"west": {"uv": [4, 0, 6, 2], "texture": "#1"},
				"up": {"uv": [4, 0, 6, 2], "texture": "#1"},
				"down": {"uv": [4, 0, 6, 2], "texture": "#1"}
			}
		},
		{
			"name": "hexadecagon",
			"from": [7.60718, 7.92652, 7.89087],
			"to": [8.39744, 8.13817, 8.64087],
			"rotation": {"angle": 0, "axis": "x", "origin": [8.00231, 9.13234, 8.51587]},
			"faces": {
				"north": {"uv": [4, 0, 6, 2], "texture": "#1"},
				"east": {"uv": [4, 0, 6, 2], "texture": "#1"},
				"west": {"uv": [4, 0, 6, 2], "texture": "#1"},
				"up": {"uv": [4, 0, 6, 2], "texture": "#1"},
				"down": {"uv": [4, 0, 6, 2], "texture": "#1"}
			}
		},
		{
			"name": "P226 trigger_0",
			"from": [7.91, 7.8028, 7.68947],
			"to": [8.11, 7.92454, 8.8699],
			"rotation": {"angle": 22.5, "axis": "x", "origin": [8.01, 7.43856, 8.30273]},
			"faces": {
				"east": {"uv": [2.78125, 0.8125, 2.78125, 0.8125], "texture": "#0"},
				"west": {"uv": [2.78125, 0.8125, 2.78125, 0.8125], "texture": "#0"}
			}
		},
		{
			"name": "P226 trigger_1",
			"from": [7.91, 7.48628, 8.05469],
			"to": [8.11, 7.8028, 8.84556],
			"rotation": {"angle": 22.5, "axis": "x", "origin": [8.01, 7.43856, 8.30273]},
			"faces": {
				"north": {"uv": [2.78125, 0.8125, 2.78125, 0.8125], "texture": "#0"},
				"east": {"uv": [2.78125, 0.8125, 2.78125, 0.8125], "texture": "#0"},
				"west": {"uv": [2.78125, 0.8125, 2.78125, 0.8125], "texture": "#0"},
				"down": {"uv": [2.78125, 0.8125, 2.78125, 0.8125], "texture": "#0"}
			}
		},
		{
			"name": "P226 trigger_2",
			"from": [7.91, 7.63237, 7.83556],
			"to": [8.11, 7.8028, 8.50469],
			"rotation": {"angle": 22.5, "axis": "x", "origin": [8.01, 7.43856, 8.30273]},
			"faces": {
				"north": {"uv": [2.78125, 0.8125, 2.78125, 0.8125], "texture": "#0"},
				"east": {"uv": [2.78125, 0.8125, 2.78125, 0.8125], "texture": "#0"},
				"west": {"uv": [2.78125, 0.8125, 2.78125, 0.8125], "texture": "#0"},
				"down": {"uv": [2.78125, 0.8125, 2.78125, 0.8125], "texture": "#0"}
			}
		},
		{
			"name": "P226 trigger_3",
			"from": [7.91, 7.68106, 7.71382],
			"to": [8.11, 7.8028, 8.28556],
			"rotation": {"angle": 22.5, "axis": "x", "origin": [8.01, 7.43856, 8.30273]},
			"faces": {
				"east": {"uv": [2.78125, 0.8125, 2.78125, 0.8125], "texture": "#0"},
				"west": {"uv": [2.78125, 0.8125, 2.78125, 0.8125], "texture": "#0"}
			}
		},
		{
			"name": "P226 trigger_4",
			"from": [7.91, 7.70541, 7.68947],
			"to": [8.11, 7.8028, 8.16382],
			"rotation": {"angle": 22.5, "axis": "x", "origin": [8.01, 7.43856, 8.30273]},
			"faces": {
				"east": {"uv": [2.78125, 0.8125, 2.78125, 0.8125], "texture": "#0"},
				"west": {"uv": [2.78125, 0.8125, 2.78125, 0.8125], "texture": "#0"}
			}
		},
		{
			"name": "P226 trigger_5",
			"from": [7.91, 7.65671, 7.78686],
			"to": [8.11, 7.68106, 8.28556],
			"rotation": {"angle": 22.5, "axis": "x", "origin": [8.01, 7.43856, 8.30273]},
			"faces": {
				"north": {"uv": [2.78125, 0.8125, 2.78125, 0.8125], "texture": "#0"},
				"east": {"uv": [2.78125, 0.8125, 2.78125, 0.8125], "texture": "#0"},
				"west": {"uv": [2.78125, 0.8125, 2.78125, 0.8125], "texture": "#0"},
				"down": {"uv": [2.78125, 0.8125, 2.78125, 0.8125], "texture": "#0"}
			}
		},
		{
			"name": "P226 trigger_6",
			"from": [7.91, 7.55932, 7.98165],
			"to": [8.11, 7.63237, 8.50469],
			"rotation": {"angle": 22.5, "axis": "x", "origin": [8.01, 7.43856, 8.30273]},
			"faces": {
				"north": {"uv": [2.78125, 0.8125, 2.78125, 0.8125], "texture": "#0"},
				"east": {"uv": [2.78125, 0.8125, 2.78125, 0.8125], "texture": "#0"},
				"west": {"uv": [2.78125, 0.8125, 2.78125, 0.8125], "texture": "#0"},
				"down": {"uv": [2.78125, 0.8125, 2.78125, 0.8125], "texture": "#0"}
			}
		},
		{
			"name": "P226 trigger_7",
			"from": [7.91, 7.58367, 7.93295],
			"to": [8.11, 7.63237, 8.43165],
			"rotation": {"angle": 22.5, "axis": "x", "origin": [8.01, 7.43856, 8.30273]},
			"faces": {
				"north": {"uv": [2.78125, 0.8125, 2.78125, 0.8125], "texture": "#0"},
				"east": {"uv": [2.78125, 0.8125, 2.78125, 0.8125], "texture": "#0"},
				"west": {"uv": [2.78125, 0.8125, 2.78125, 0.8125], "texture": "#0"},
				"down": {"uv": [2.78125, 0.8125, 2.78125, 0.8125], "texture": "#0"}
			}
		},
		{
			"name": "P226 trigger_8",
			"from": [7.91, 7.60802, 7.88425],
			"to": [8.11, 7.63237, 8.38295],
			"rotation": {"angle": 22.5, "axis": "x", "origin": [8.01, 7.43856, 8.30273]},
			"faces": {
				"north": {"uv": [2.78125, 0.8125, 2.78125, 0.8125], "texture": "#0"},
				"east": {"uv": [2.78125, 0.8125, 2.78125, 0.8125], "texture": "#0"},
				"west": {"uv": [2.78125, 0.8125, 2.78125, 0.8125], "texture": "#0"},
				"down": {"uv": [2.78125, 0.8125, 2.78125, 0.8125], "texture": "#0"}
			}
		},
		{
			"name": "P226 trigger_9",
			"from": [7.91, 7.53498, 8.00599],
			"to": [8.11, 7.55932, 8.50469],
			"rotation": {"angle": 22.5, "axis": "x", "origin": [8.01, 7.43856, 8.30273]},
			"faces": {
				"north": {"uv": [2.78125, 0.8125, 2.78125, 0.8125], "texture": "#0"},
				"east": {"uv": [2.78125, 0.8125, 2.78125, 0.8125], "texture": "#0"},
				"west": {"uv": [2.78125, 0.8125, 2.78125, 0.8125], "texture": "#0"},
				"down": {"uv": [2.78125, 0.8125, 2.78125, 0.8125], "texture": "#0"}
			}
		},
		{
			"name": "P226 trigger_10",
			"from": [7.91, 7.51063, 8.03034],
			"to": [8.11, 7.53498, 8.50469],
			"rotation": {"angle": 22.5, "axis": "x", "origin": [8.01, 7.43856, 8.30273]},
			"faces": {
				"north": {"uv": [2.78125, 0.8125, 2.78125, 0.8125], "texture": "#0"},
				"east": {"uv": [2.78125, 0.8125, 2.78125, 0.8125], "texture": "#0"},
				"west": {"uv": [2.78125, 0.8125, 2.78125, 0.8125], "texture": "#0"},
				"down": {"uv": [2.78125, 0.8125, 2.78125, 0.8125], "texture": "#0"}
			}
		},
		{
			"name": "P226 trigger_11",
			"from": [7.91, 7.2915, 8.20077],
			"to": [8.11, 7.48628, 8.84556],
			"rotation": {"angle": 22.5, "axis": "x", "origin": [8.01, 7.43856, 8.30273]},
			"faces": {
				"north": {"uv": [2.78125, 0.8125, 2.78125, 0.8125], "texture": "#0"},
				"east": {"uv": [2.78125, 0.8125, 2.78125, 0.8125], "texture": "#0"},
				"west": {"uv": [2.78125, 0.8125, 2.78125, 0.8125], "texture": "#0"},
				"down": {"uv": [2.78125, 0.8125, 2.78125, 0.8125], "texture": "#0"}
			}
		},
		{
			"name": "P226 trigger_12",
			"from": [7.91, 7.41324, 8.12773],
			"to": [8.11, 7.48628, 8.65077],
			"rotation": {"angle": 22.5, "axis": "x", "origin": [8.01, 7.43856, 8.30273]},
			"faces": {
				"north": {"uv": [2.78125, 0.8125, 2.78125, 0.8125], "texture": "#0"},
				"east": {"uv": [2.78125, 0.8125, 2.78125, 0.8125], "texture": "#0"},
				"west": {"uv": [2.78125, 0.8125, 2.78125, 0.8125], "texture": "#0"},
				"down": {"uv": [2.78125, 0.8125, 2.78125, 0.8125], "texture": "#0"}
			}
		},
		{
			"name": "P226 trigger_13",
			"from": [7.91, 7.46193, 8.07904],
			"to": [8.11, 7.48628, 8.57773],
			"rotation": {"angle": 22.5, "axis": "x", "origin": [8.01, 7.43856, 8.30273]},
			"faces": {
				"north": {"uv": [2.78125, 0.8125, 2.78125, 0.8125], "texture": "#0"},
				"east": {"uv": [2.78125, 0.8125, 2.78125, 0.8125], "texture": "#0"},
				"west": {"uv": [2.78125, 0.8125, 2.78125, 0.8125], "texture": "#0"},
				"down": {"uv": [2.78125, 0.8125, 2.78125, 0.8125], "texture": "#0"}
			}
		},
		{
			"name": "P226 trigger_14",
			"from": [7.91, 7.43759, 8.10338],
			"to": [8.11, 7.46193, 8.57773],
			"rotation": {"angle": 22.5, "axis": "x", "origin": [8.01, 7.43856, 8.30273]},
			"faces": {
				"north": {"uv": [2.78125, 0.8125, 2.78125, 0.8125], "texture": "#0"},
				"east": {"uv": [2.78125, 0.8125, 2.78125, 0.8125], "texture": "#0"},
				"west": {"uv": [2.78125, 0.8125, 2.78125, 0.8125], "texture": "#0"},
				"down": {"uv": [2.78125, 0.8125, 2.78125, 0.8125], "texture": "#0"}
			}
		},
		{
			"name": "P226 trigger_15",
			"from": [7.91, 7.38889, 8.15208],
			"to": [8.11, 7.41324, 8.65077],
			"rotation": {"angle": 22.5, "axis": "x", "origin": [8.01, 7.43856, 8.30273]},
			"faces": {
				"north": {"uv": [2.78125, 0.8125, 2.78125, 0.8125], "texture": "#0"},
				"east": {"uv": [2.78125, 0.8125, 2.78125, 0.8125], "texture": "#0"},
				"west": {"uv": [2.78125, 0.8125, 2.78125, 0.8125], "texture": "#0"},
				"down": {"uv": [2.78125, 0.8125, 2.78125, 0.8125], "texture": "#0"}
			}
		},
		{
			"name": "P226 trigger_16",
			"from": [7.91, 7.34019, 8.17643],
			"to": [8.11, 7.38889, 8.65077],
			"rotation": {"angle": 22.5, "axis": "x", "origin": [8.01, 7.43856, 8.30273]},
			"faces": {
				"north": {"uv": [2.78125, 0.8125, 2.78125, 0.8125], "texture": "#0"},
				"east": {"uv": [2.78125, 0.8125, 2.78125, 0.8125], "texture": "#0"},
				"west": {"uv": [2.78125, 0.8125, 2.78125, 0.8125], "texture": "#0"},
				"down": {"uv": [2.78125, 0.8125, 2.78125, 0.8125], "texture": "#0"}
			}
		},
		{
			"name": "P226 trigger_17",
			"from": [7.91, 7.14541, 8.27382],
			"to": [8.11, 7.2915, 8.84556],
			"rotation": {"angle": 22.5, "axis": "x", "origin": [8.01, 7.43856, 8.30273]},
			"faces": {
				"north": {"uv": [2.78125, 0.8125, 2.78125, 0.8125], "texture": "#0"},
				"east": {"uv": [2.78125, 0.8125, 2.78125, 0.8125], "texture": "#0"},
				"west": {"uv": [2.78125, 0.8125, 2.78125, 0.8125], "texture": "#0"},
				"down": {"uv": [2.78125, 0.8125, 2.78125, 0.8125], "texture": "#0"}
			}
		},
		{
			"name": "P226 trigger_18",
			"from": [7.91, 7.2428, 8.22512],
			"to": [8.11, 7.2915, 8.72382],
			"rotation": {"angle": 22.5, "axis": "x", "origin": [8.01, 7.43856, 8.30273]},
			"faces": {
				"north": {"uv": [2.78125, 0.8125, 2.78125, 0.8125], "texture": "#0"},
				"east": {"uv": [2.78125, 0.8125, 2.78125, 0.8125], "texture": "#0"},
				"west": {"uv": [2.78125, 0.8125, 2.78125, 0.8125], "texture": "#0"},
				"down": {"uv": [2.78125, 0.8125, 2.78125, 0.8125], "texture": "#0"}
			}
		},
		{
			"name": "P226 trigger_19",
			"from": [7.91, 7.19411, 8.24947],
			"to": [8.11, 7.2428, 8.72382],
			"rotation": {"angle": 22.5, "axis": "x", "origin": [8.01, 7.43856, 8.30273]},
			"faces": {
				"north": {"uv": [2.78125, 0.8125, 2.78125, 0.8125], "texture": "#0"},
				"east": {"uv": [2.78125, 0.8125, 2.78125, 0.8125], "texture": "#0"},
				"west": {"uv": [2.78125, 0.8125, 2.78125, 0.8125], "texture": "#0"},
				"down": {"uv": [2.78125, 0.8125, 2.78125, 0.8125], "texture": "#0"}
			}
		},
		{
			"name": "P226 trigger_20",
			"from": [7.91, 7.09672, 8.32251],
			"to": [8.11, 7.14541, 8.84556],
			"rotation": {"angle": 22.5, "axis": "x", "origin": [8.01, 7.43856, 8.30273]},
			"faces": {
				"north": {"uv": [2.78125, 0.8125, 2.78125, 0.8125], "texture": "#0"},
				"east": {"uv": [2.78125, 0.8125, 2.78125, 0.8125], "texture": "#0"},
				"west": {"uv": [2.78125, 0.8125, 2.78125, 0.8125], "texture": "#0"},
				"down": {"uv": [2.78125, 0.8125, 2.78125, 0.8125], "texture": "#0"}
			}
		},
		{
			"name": "P226 trigger_21",
			"from": [7.91, 7.12107, 8.29816],
			"to": [8.11, 7.14541, 8.77251],
			"rotation": {"angle": 22.5, "axis": "x", "origin": [8.01, 7.43856, 8.30273]},
			"faces": {
				"north": {"uv": [2.78125, 0.8125, 2.78125, 0.8125], "texture": "#0"},
				"east": {"uv": [2.78125, 0.8125, 2.78125, 0.8125], "texture": "#0"},
				"west": {"uv": [2.78125, 0.8125, 2.78125, 0.8125], "texture": "#0"},
				"down": {"uv": [2.78125, 0.8125, 2.78125, 0.8125], "texture": "#0"}
			}
		},
		{
			"name": "P226 trigger_23",
			"from": [7.91, 7.07237, 8.34686],
			"to": [8.11, 7.09672, 8.82121],
			"rotation": {"angle": 22.5, "axis": "x", "origin": [8.01, 7.43856, 8.30273]},
			"faces": {
				"north": {"uv": [2.78125, 0.8125, 2.78125, 0.8125], "texture": "#0"},
				"east": {"uv": [2.78125, 0.8125, 2.78125, 0.8125], "texture": "#0"},
				"west": {"uv": [2.78125, 0.8125, 2.78125, 0.8125], "texture": "#0"},
				"down": {"uv": [2.78125, 0.8125, 2.78125, 0.8125], "texture": "#0"}
			}
		},
		{
			"name": "octagon",
			"from": [7.65, 7.91515, 7.5305],
			"to": [8.35, 8.03485, 7.8195],
			"rotation": {"angle": 45, "axis": "x", "origin": [8, 7.975, 7.675]},
			"faces": {
				"north": {"uv": [0, 0, 2, 2], "texture": "#0"},
				"east": {"uv": [0, 0, 2, 2], "texture": "#0"},
				"south": {"uv": [0, 0, 2, 2], "texture": "#0"},
				"west": {"uv": [0, 0, 2, 2], "texture": "#0"}
			}
		},
		{
			"name": "octagon",
			"from": [7.65, 7.91515, 7.5305],
			"to": [8.35, 8.03485, 7.8195],
			"rotation": {"angle": 0, "axis": "x", "origin": [8, 7.975, 7.675]},
			"faces": {
				"north": {"uv": [0, 0, 2, 2], "texture": "#0"},
				"east": {"uv": [0, 0, 2, 2], "texture": "#0"},
				"south": {"uv": [0, 0, 2, 2], "texture": "#0"},
				"west": {"uv": [0, 0, 2, 2], "texture": "#0"}
			}
		},
		{
			"name": "octagon",
			"from": [7.65, 7.8305, 7.61515],
			"to": [8.35, 8.1195, 7.73485],
			"rotation": {"angle": 45, "axis": "x", "origin": [8, 7.975, 7.675]},
			"faces": {
				"east": {"uv": [0, 0, 2, 2], "texture": "#0"},
				"west": {"uv": [0, 0, 2, 2], "texture": "#0"},
				"up": {"uv": [0, 0, 2, 2], "texture": "#0"},
				"down": {"uv": [0, 0, 2, 2], "texture": "#0"}
			}
		},
		{
			"name": "octagon",
			"from": [7.65, 7.8305, 7.61515],
			"to": [8.35, 8.1195, 7.73485],
			"rotation": {"angle": 0, "axis": "x", "origin": [8, 7.975, 7.675]},
			"faces": {
				"east": {"uv": [0, 0, 2, 2], "texture": "#0"},
				"west": {"uv": [0, 0, 2, 2], "texture": "#0"},
				"up": {"uv": [0, 0, 2, 2], "texture": "#0"},
				"down": {"uv": [0, 0, 2, 2], "texture": "#0"}
			}
		},
		{
			"name": "octagon",
			"from": [7.55, 7.65212, 9.1844],
			"to": [8.45, 7.74788, 9.4156],
			"rotation": {"angle": 45, "axis": "x", "origin": [8.225, 7.7, 9.3]},
			"faces": {
				"north": {"uv": [0, 0, 2, 2], "texture": "#0"},
				"east": {"uv": [0, 0, 2, 2], "texture": "#0"},
				"south": {"uv": [0, 0, 2, 2], "texture": "#0"},
				"west": {"uv": [0, 0, 2, 2], "texture": "#0"}
			}
		},
		{
			"name": "octagon",
			"from": [7.55, 7.65212, 9.1844],
			"to": [8.45, 7.74788, 9.4156],
			"rotation": {"angle": 0, "axis": "x", "origin": [8.225, 7.7, 9.3]},
			"faces": {
				"north": {"uv": [0, 0, 2, 2], "texture": "#0"},
				"east": {"uv": [0, 0, 2, 2], "texture": "#0"},
				"south": {"uv": [0, 0, 2, 2], "texture": "#0"},
				"west": {"uv": [0, 0, 2, 2], "texture": "#0"}
			}
		},
		{
			"name": "octagon",
			"from": [7.55, 7.5844, 9.25212],
			"to": [8.45, 7.8156, 9.34788],
			"rotation": {"angle": 45, "axis": "x", "origin": [8.225, 7.7, 9.3]},
			"faces": {
				"east": {"uv": [0, 0, 2, 2], "texture": "#0"},
				"west": {"uv": [0, 0, 2, 2], "texture": "#0"},
				"up": {"uv": [0, 0, 2, 2], "texture": "#0"},
				"down": {"uv": [0, 0, 2, 2], "texture": "#0"}
			}
		},
		{
			"name": "octagon",
			"from": [7.55, 7.5844, 9.25212],
			"to": [8.45, 7.8156, 9.34788],
			"rotation": {"angle": 0, "axis": "x", "origin": [8.225, 7.7, 9.3]},
			"faces": {
				"east": {"uv": [0, 0, 2, 2], "texture": "#0"},
				"west": {"uv": [0, 0, 2, 2], "texture": "#0"},
				"up": {"uv": [0, 0, 2, 2], "texture": "#0"},
				"down": {"uv": [0, 0, 2, 2], "texture": "#0"}
			}
		},
		{
			"name": "octagon",
			"from": [7.55, 5.60212, 10.0344],
			"to": [8.45, 5.69788, 10.2656],
			"rotation": {"angle": 45, "axis": "x", "origin": [8.225, 5.65, 10.15]},
			"faces": {
				"north": {"uv": [0, 0, 2, 2], "texture": "#0"},
				"east": {"uv": [0, 0, 2, 2], "texture": "#0"},
				"south": {"uv": [0, 0, 2, 2], "texture": "#0"},
				"west": {"uv": [0, 0, 2, 2], "texture": "#0"}
			}
		},
		{
			"name": "octagon",
			"from": [7.55, 5.60212, 10.0344],
			"to": [8.45, 5.69788, 10.2656],
			"rotation": {"angle": 0, "axis": "x", "origin": [8.225, 5.65, 10.15]},
			"faces": {
				"north": {"uv": [0, 0, 2, 2], "texture": "#0"},
				"east": {"uv": [0, 0, 2, 2], "texture": "#0"},
				"south": {"uv": [0, 0, 2, 2], "texture": "#0"},
				"west": {"uv": [0, 0, 2, 2], "texture": "#0"}
			}
		},
		{
			"name": "octagon",
			"from": [7.55, 5.5344, 10.10212],
			"to": [8.45, 5.7656, 10.19788],
			"rotation": {"angle": 45, "axis": "x", "origin": [8.225, 5.65, 10.15]},
			"faces": {
				"east": {"uv": [0, 0, 2, 2], "texture": "#0"},
				"west": {"uv": [0, 0, 2, 2], "texture": "#0"},
				"up": {"uv": [0, 0, 2, 2], "texture": "#0"},
				"down": {"uv": [0, 0, 2, 2], "texture": "#0"}
			}
		},
		{
			"name": "octagon",
			"from": [7.55, 5.5344, 10.10212],
			"to": [8.45, 5.7656, 10.19788],
			"rotation": {"angle": 0, "axis": "x", "origin": [8.225, 5.65, 10.15]},
			"faces": {
				"east": {"uv": [0, 0, 2, 2], "texture": "#0"},
				"west": {"uv": [0, 0, 2, 2], "texture": "#0"},
				"up": {"uv": [0, 0, 2, 2], "texture": "#0"},
				"down": {"uv": [0, 0, 2, 2], "texture": "#0"}
			}
		},
		{
			"from": [7.925, 8.35906, 9.45],
			"to": [8.075, 8.575, 10.575],
			"rotation": {"angle": -22.5, "axis": "x", "origin": [7.95, 8.5475, 9.7125]},
			"faces": {
				"north": {"uv": [0.84375, 0.5625, 0.84375, 0.5625], "texture": "#0"},
				"east": {"uv": [0.84375, 0.5625, 0.84375, 0.5625], "texture": "#0"},
				"south": {"uv": [0.84375, 0.5625, 0.84375, 0.5625], "texture": "#0"},
				"west": {"uv": [0.84375, 0.5625, 0.84375, 0.5625], "texture": "#0"},
				"up": {"uv": [0.84375, 0.5625, 0.84375, 0.5625], "texture": "#0"},
				"down": {"uv": [0.84375, 0.5625, 0.84375, 0.5625], "texture": "#0"}
			}
		}
	],
	"groups": [
		{
			"name": "hexadecagon",
			"origin": [8, 8, 8],
			"color": 0,
			"children": [0, 1, 2, 3, 4, 5, 6, 7, 8, 9, 10, 11, 12, 13, 14, 15]
		},
		{
			"name": "hexadecagon",
			"origin": [8, 8, 8],
			"color": 0,
			"children": [16, 17, 18, 19, 20, 21, 22, 23, 24, 25, 26, 27, 28, 29, 30, 31]
		},
		{
			"name": "hexadecagon",
			"origin": [8, 8, 8],
			"color": 0,
			"children": [32, 33, 34, 35, 36, 37, 38, 39, 40, 41, 42, 43]
		},
		{
			"name": "rail",
			"origin": [8, 7.175, 4.425],
			"color": 0,
			"children": [44, 45, 46, 47, 48, 49, 50, 51, 52, 53]
		},
		{
			"name": "grip",
			"origin": [8, 8, 8],
			"color": 0,
			"children": [54, 55, 56, 57, 58, 59]
		},
		{
			"name": "P226 trigger",
			"origin": [8, 8, 8],
			"color": 0,
			"children": [60, 61, 62, 63, 64, 65, 66, 67, 68, 69, 70, 71, 72, 73, 74, 75, 76, 77, 78, 79, 80, 81, 82]
		},
		{
			"name": "octagon",
			"origin": [8, 8, 8],
			"color": 0,
			"children": [83, 84, 85, 86]
		},
		{
			"name": "octagon",
			"origin": [8, 8, 8],
			"color": 0,
			"children": [87, 88, 89, 90]
		},
		{
			"name": "octagon",
			"origin": [8, 8, 8],
			"color": 0,
			"children": [91, 92, 93, 94]
		},
		95
	]
}