{
	"credit": "Made with Blockbench",
	"textures": {
		"0": "ava:item/gun_textures/palette_black",
		"particle": "ava:item/gun_textures/palette_black"
	},
	"elements": [
		{
			"name": "hexadecagon",
			"from": [7.34724, -1.1758, 15.88125],
			"to": [8.65276, 8.068, 20.15625],
			"rotation": {"angle": 0, "axis": "y", "origin": [7, 8, -4.59375]},
			"faces": {
				"north": {"uv": [0.71875, 3.65625, 0.71875, 3.65625], "texture": "#0"},
				"east": {"uv": [0.71875, 3.65625, 0.71875, 3.65625], "texture": "#0"},
				"south": {"uv": [0.71875, 3.65625, 0.71875, 3.65625], "texture": "#0"},
				"west": {"uv": [0.71875, 3.65625, 0.71875, 3.65625], "texture": "#0"},
				"up": {"uv": [0.71875, 3.65625, 0.71875, 3.65625], "texture": "#0"},
				"down": {"uv": [0.71875, 3.65625, 0.71875, 3.65625], "texture": "#0"}
			}
		},
		{
			"name": "hexadecagon",
			"from": [7.34724, -1.9258, 18.17875],
			"to": [8.65276, -1.157, 20.15625],
			"rotation": {"angle": 0, "axis": "y", "origin": [7, 7.375, -4.59375]},
			"faces": {
				"north": {"uv": [0.71875, 3.65625, 0.71875, 3.65625], "texture": "#0"},
				"east": {"uv": [0.71875, 3.65625, 0.71875, 3.65625], "texture": "#0"},
				"south": {"uv": [0.71875, 3.65625, 0.71875, 3.65625], "texture": "#0"},
				"west": {"uv": [0.71875, 3.65625, 0.71875, 3.65625], "texture": "#0"},
				"down": {"uv": [0.71875, 3.65625, 0.71875, 3.65625], "texture": "#0"}
			}
		},
		{
			"name": "hexadecagon",
			"from": [7.34724, -2.0008, 18.22125],
			"to": [8.65276, -1.132, 20.02125],
			"rotation": {"angle": 22.5, "axis": "x", "origin": [8, 2.6586, 19.34625]},
			"faces": {
				"north": {"uv": [0.71875, 3.65625, 0.71875, 3.65625], "texture": "#0"},
				"east": {"uv": [0.71875, 3.65625, 0.71875, 3.65625], "texture": "#0"},
				"west": {"uv": [0.71875, 3.65625, 0.71875, 3.65625], "texture": "#0"},
				"down": {"uv": [0.71875, 3.65625, 0.71875, 3.65625], "texture": "#0"}
			}
		}
	],
	"display": {
		"firstperson_righthand": {
			"rotation": [-2, -2, 0],
			"translation": [-3.95, 4.05, 0],
			"scale": [1, 1, 0.65]
		}
	},
	"groups": [
		{
			"name": "mag",
			"origin": [7.25, 8, -2],
			"color": 0,
			"children": [0, 1, 2]
		}
	]
}