{
	"credit": "Made with Blockbench",
	"textures": {
		"0": "ava:item/gun_textures/palette_black",
		"particle": "ava:item/gun_textures/palette_black"
	},
	"elements": [
		{
			"name": "hexadecagon",
			"from": [7.94629, 10.277, 5.622],
			"to": [8.05371, 10.601, 7.402],
			"rotation": {"angle": -45, "axis": "z", "origin": [8, 10.331, 11.382]},
			"faces": {
				"north": {"uv": [6.5, 0.68755, 6.5, 0.68755], "texture": "#0"},
				"south": {"uv": [6.5, 0.68755, 6.5, 0.68755], "texture": "#0"},
				"up": {"uv": [6.5, 0.68755, 6.5, 0.68755], "texture": "#0"}
			}
		},
		{
			"name": "hexadecagon",
			"from": [7.94629, 10.277, 5.622],
			"to": [8.05371, 10.601, 7.402],
			"rotation": {"angle": -22.5, "axis": "z", "origin": [8, 10.331, 11.382]},
			"faces": {
				"north": {"uv": [6.5, 0.68755, 6.5, 0.68755], "texture": "#0"},
				"south": {"uv": [6.5, 0.68755, 6.5, 0.68755], "texture": "#0"},
				"up": {"uv": [6.5, 0.68755, 6.5, 0.68755], "texture": "#0"}
			}
		},
		{
			"name": "hexadecagon",
			"from": [7.94629, 10.277, 5.622],
			"to": [8.05371, 10.601, 7.402],
			"rotation": {"angle": 0, "axis": "y", "origin": [8, 10.331, 11.382]},
			"faces": {
				"north": {"uv": [6.5, 0.68755, 6.5, 0.68755], "texture": "#0"},
				"south": {"uv": [6.5, 0.68755, 6.5, 0.68755], "texture": "#0"},
				"up": {"uv": [6.5, 0.68755, 6.5, 0.68755], "texture": "#0"}
			}
		},
		{
			"name": "hexadecagon",
			"from": [7.94629, 10.277, 5.622],
			"to": [8.05371, 10.601, 7.402],
			"rotation": {"angle": 22.5, "axis": "z", "origin": [8, 10.331, 11.382]},
			"faces": {
				"north": {"uv": [6.5, 0.68755, 6.5, 0.68755], "texture": "#0"},
				"south": {"uv": [6.5, 0.68755, 6.5, 0.68755], "texture": "#0"},
				"up": {"uv": [6.5, 0.68755, 6.5, 0.68755], "texture": "#0"}
			}
		},
		{
			"name": "hexadecagon",
			"from": [7.94629, 10.277, 5.622],
			"to": [8.05371, 10.601, 7.402],
			"rotation": {"angle": 45, "axis": "z", "origin": [8, 10.331, 11.382]},
			"faces": {
				"north": {"uv": [6.5, 0.68755, 6.5, 0.68755], "texture": "#0"},
				"south": {"uv": [6.5, 0.68755, 6.5, 0.68755], "texture": "#0"},
				"up": {"uv": [6.5, 0.68755, 6.5, 0.68755], "texture": "#0"}
			}
		},
		{
			"name": "hexadecagon",
			"from": [7.73, 10.27729, 5.622],
			"to": [8.054, 10.38471, 7.402],
			"rotation": {"angle": -22.5, "axis": "z", "origin": [8, 10.331, 11.382]},
			"faces": {
				"north": {"uv": [6.5, 0.68755, 6.5, 0.68755], "texture": "#0"},
				"south": {"uv": [6.5, 0.68755, 6.5, 0.68755], "texture": "#0"},
				"west": {"uv": [6.5, 0.68755, 6.5, 0.68755], "texture": "#0"}
			}
		},
		{
			"name": "hexadecagon",
			"from": [7.73, 9.84529, 5.622],
			"to": [8.27, 10.38471, 7.402],
			"rotation": {"angle": 0, "axis": "y", "origin": [8, 10.331, 11.382]},
			"faces": {
				"north": {"uv": [6.5, 0.68755, 6.5, 0.68755], "texture": "#0"},
				"east": {"uv": [6.5, 0.68755, 6.5, 0.68755], "texture": "#0"},
				"south": {"uv": [6.5, 0.68755, 6.5, 0.68755], "texture": "#0"},
				"west": {"uv": [6.5, 0.68755, 6.5, 0.68755], "texture": "#0"},
				"down": {"uv": [6.5, 0.68755, 6.5, 0.68755], "texture": "#0"}
			}
		},
		{
			"name": "hexadecagon",
			"from": [7.946, 10.27729, 5.622],
			"to": [8.27, 10.38471, 7.402],
			"rotation": {"angle": 22.5, "axis": "z", "origin": [8, 10.331, 11.382]},
			"faces": {
				"north": {"uv": [6.5, 0.68755, 6.5, 0.68755], "texture": "#0"},
				"east": {"uv": [6.5, 0.68755, 6.5, 0.68755], "texture": "#0"},
				"south": {"uv": [6.5, 0.68755, 6.5, 0.68755], "texture": "#0"}
			}
		},
		{
			"name": "hexadecagon",
			"from": [8.39061, 9.91246, 5.80122],
			"to": [8.45235, 10.13122, 5.94869],
			"rotation": {"angle": -22.5, "axis": "y", "origin": [8.73398, 10.09392, 5.85155]},
			"faces": {
				"north": {"uv": [6.5, 0.68755, 6.5, 0.68755], "texture": "#0"},
				"east": {"uv": [6.5, 0.68755, 6.5, 0.68755], "texture": "#0"},
				"south": {"uv": [6.5, 0.68755, 6.5, 0.68755], "texture": "#0"},
				"west": {"uv": [6.5, 0.68755, 6.5, 0.68755], "texture": "#0"},
				"up": {"uv": [6.5, 0.68755, 6.5, 0.68755], "texture": "#0"},
				"down": {"uv": [6.5, 0.68755, 6.5, 0.68755], "texture": "#0"}
			}
		},
		{
			"name": "hexadecagon",
			"from": [8.4362, 9.91246, 5.66828],
			"to": [8.81731, 10.13122, 5.71127],
			"rotation": {"angle": 0, "axis": "y", "origin": [8.65208, 10.09392, 5.88665]},
			"faces": {
				"north": {"uv": [6.5, 0.68755, 6.5, 0.68755], "texture": "#0"},
				"east": {"uv": [6.5, 0.68755, 6.5, 0.68755], "texture": "#0"},
				"south": {"uv": [6.5, 0.68755, 6.5, 0.68755], "texture": "#0"},
				"west": {"uv": [6.5, 0.68755, 6.5, 0.68755], "texture": "#0"},
				"up": {"uv": [6.5, 0.68755, 6.5, 0.68755], "texture": "#0"},
				"down": {"uv": [6.5, 0.68755, 6.5, 0.68755], "texture": "#0"}
			}
		},
		{
			"name": "hexadecagon",
			"from": [8.5737, 9.96246, 5.61203],
			"to": [8.80481, 10.08122, 5.67377],
			"rotation": {"angle": 0, "axis": "y", "origin": [8.65208, 10.09392, 5.88665]},
			"faces": {
				"north": {"uv": [6.5, 0.68755, 6.5, 0.68755], "texture": "#0"},
				"east": {"uv": [6.5, 0.68755, 6.5, 0.68755], "texture": "#0"},
				"west": {"uv": [6.5, 0.68755, 6.5, 0.68755], "texture": "#0"},
				"up": {"uv": [6.5, 0.68755, 6.5, 0.68755], "texture": "#0"},
				"down": {"uv": [6.5, 0.68755, 6.5, 0.68755], "texture": "#0"}
			}
		},
		{
			"name": "hexadecagon",
			"from": [8.5737, 9.92496, 5.58703],
			"to": [8.80481, 9.99997, 5.62377],
			"rotation": {"angle": -45, "axis": "x", "origin": [8.68925, 10.02184, 5.6429]},
			"faces": {
				"north": {"uv": [6.5, 0.68755, 6.5, 0.68755], "texture": "#0"},
				"east": {"uv": [6.5, 0.68755, 6.5, 0.68755], "texture": "#0"},
				"west": {"uv": [6.5, 0.68755, 6.5, 0.68755], "texture": "#0"}
			}
		},
		{
			"name": "hexadecagon",
			"from": [8.5737, 10.04371, 5.58703],
			"to": [8.80481, 10.11872, 5.61752],
			"rotation": {"angle": 45, "axis": "x", "origin": [8.68925, 10.02184, 5.6429]},
			"faces": {
				"north": {"uv": [6.5, 0.68755, 6.5, 0.68755], "texture": "#0"},
				"east": {"uv": [6.5, 0.68755, 6.5, 0.68755], "texture": "#0"},
				"south": {"uv": [6.5, 0.68755, 6.5, 0.68755], "texture": "#0"},
				"west": {"uv": [6.5, 0.68755, 6.5, 0.68755], "texture": "#0"}
			}
		},
		{
			"name": "hexadecagon",
			"from": [8.44245, 9.96246, 5.57453],
			"to": [8.59231, 10.08122, 5.63002],
			"rotation": {"angle": 22.5, "axis": "y", "origin": [8.67988, 10.06872, 5.63978]},
			"faces": {
				"north": {"uv": [6.5, 0.68755, 6.5, 0.68755], "texture": "#0"},
				"west": {"uv": [6.5, 0.68755, 6.5, 0.68755], "texture": "#0"},
				"up": {"uv": [6.5, 0.68755, 6.5, 0.68755], "texture": "#0"},
				"down": {"uv": [6.5, 0.68755, 6.5, 0.68755], "texture": "#0"}
			}
		},
		{
			"name": "hexadecagon",
			"from": [8.25075, 9.91261, 5.68253],
			"to": [8.43701, 10.13122, 5.83627],
			"rotation": {"angle": 0, "axis": "y", "origin": [7.96725, 9.54095, 4.24883]},
			"faces": {
				"north": {"uv": [6.5, 0.68755, 6.5, 0.68755], "texture": "#0"},
				"east": {"uv": [6.5, 0.68755, 6.5, 0.68755], "texture": "#0"},
				"south": {"uv": [6.5, 0.68755, 6.5, 0.68755], "texture": "#0"},
				"up": {"uv": [6.5, 0.68755, 6.5, 0.68755], "texture": "#0"},
				"down": {"uv": [6.5, 0.68755, 6.5, 0.68755], "texture": "#0"}
			}
		}
	],
	"groups": [
		{
			"name": "separate: bolt",
			"origin": [8, 8, 8],
			"color": 0,
			"children": [0, 1, 2, 3, 4, 5, 6, 7, 8, 9, 10, 11, 12, 13, 14]
		}
	]
}